{
	"id": 4,
	"type": 1,
	"width": 18,
	"height": 18,
	"flags": 8,
	"tiles": [
		[
			[192,195,65535],
			[192,195,65535],
			[192,196,65535],
			[197,65535,65535],
			[197,65535,65535],
			[197,65535,65535],
			[192,198,65535],
			[192,195,65535],
			[192,196,65535],
			[197,65535,65535],
			[197,65535,65535],
			[197,65535,65535],
			[197,65535,65535],
			[197,65535,65535],
			[197,65535,65535],
			[197,65535,65535],
			[197,65535,65535],
			[192,198,65535]
		],
		[
			[192,195,65535],
			[192,196,65535],
			[203,65535,65535],
			[192,65535,65535],
			[192,210,65535],
			[192,65535,65535],
			[192,201,65535],
			[192,195,65535],
			[192,202,65535],
			[192,65535,65535],
			[192,205,65535],
			[192,218,65535],
			[192,218,65535],
			[192,218,65535],
			[192,218,65535],
			[192,206,65535],
			[192,65535,65535],
			[192,201,65535]
		],
		[
			[192,195,65535],
			[192,202,65535],
			[192,65535,65535],
			[192,205,65535],
			[192,202,65535],
			[192,65535,65535],
			[192,201,65535],
			[192,195,65535],
			[192,202,65535],
			[192,65535,65535],
			[204,200,65535],
			[197,241,1849],
			[189,566,65535],
			[197,563,65535],
			[0,242,1847],
			[192,199,65535],
			[192,65535,65535],
			[192,201,65535]
		],
		[
			[192,196,65535],
			[203,65535,65535],
			[192,65535,65535],
			[192,201,65535],
			[192,202,65535],
			[192,65535,65535],
			[192,201,65535],
			[192,195,65535],
			[192,202,65535],
			[192,65535,65535],
			[2041,208,269],
			[2041,65535,65535],
			[2041,65535,65535],
			[2041,65535,65535],
			[2041,65535,65535],
			[2041,208,270],
			[192,65535,65535],
			[192,201,65535]
		],
		[
			[192,202,65535],
			[192,65535,65535],
			[192,65535,65535],
			[192,201,65535],
			[192,202,65535],
			[192,65535,65535],
			[192,201,65535],
			[192,195,65535],
			[192,202,65535],
			[192,65535,65535],
			[192,201,65535],
			[2041,355,225],
			[2041,355,225],
			[2041,355,225],
			[2043,65535,225],
			[192,202,65535],
			[192,65535,65535],
			[192,201,65535]
		],
		[
			[192,202,65535],
			[192,65535,65535],
			[192,65535,65535],
			[192,201,65535],
			[192,202,65535],
			[192,65535,65535],
			[204,200,65535],
			[197,65535,65535],
			[203,65535,65535],
			[192,65535,65535],
			[204,200,65535],
			[197,65535,65535],
			[197,65535,65535],
			[197,207,65535],
			[219,220,65535],
			[192,199,65535],
			[192,65535,65535],
			[192,201,65535]
		],
		[
			[192,202,65535],
			[192,65535,65535],
			[192,65535,65535],
			[204,65535,65535],
			[192,198,65535],
			[192,218,65535],
			[192,195,65535],
			[192,218,65535],
			[192,218,65535],
			[192,218,65535],
			[192,202,65535],
			[192,65535,65535],
			[192,65535,65535],
			[209,65535,65535],
			[192,65535,65535],
			[192,208,65535],
			[192,65535,65535],
			[192,201,65535]
		],
		[
			[192,202,65535],
			[192,65535,65535],
			[192,210,65535],
			[192,65535,65535],
			[192,200,65535],
			[189,65535,65535],
			[197,65535,65535],
			[197,65535,65535],
			[197,65535,65535],
			[189,65535,65535],
			[203,65535,65535],
			[192,65535,65535],
			[192,65535,65535],
			[192,65535,65535],
			[192,205,65535],
			[192,202,65535],
			[192,65535,65535],
			[192,201,65535]
		],
		[
			[192,202,65535],
			[192,65535,65535],
			[192,208,65535],
			[192,65535,65535],
			[192,208,65535],
			[192,65535,65535],
			[192,65535,65535],
			[192,65535,65535],
			[192,65535,65535],
			[192,65535,65535],
			[192,205,65535],
			[192,218,65535],
			[192,206,65535],
			[192,65535,65535],
			[192,201,65535],
			[192,202,65535],
			[192,65535,65535],
			[192,201,65535]
		],
		[
			[192,202,65535],
			[192,65535,65535],
			[192,208,65535],
			[192,65535,65535],
			[192,208,65535],
			[192,65535,65535],
			[192,205,65535],
			[192,206,65535],
			[192,65535,65535],
			[192,65535,65535],
			[192,200,65535],
			[189,65535,65535],
			[203,65535,65535],
			[192,65535,65535],
			[204,65535,65535],
			[192,199,65535],
			[192,65535,65535],
			[192,201,65535]
		],
		[
			[192,202,65535],
			[192,65535,65535],
			[192,201,65535],
			[192,218,65535],
			[192,195,65535],
			[192,218,65535],
			[192,195,65535],
			[192,202,65535],
			[192,65535,65535],
			[192,65535,65535],
			[192,208,65535],
			[192,65535,65535],
			[192,205,65535],
			[192,218,65535],
			[192,218,65535],
			[192,202,65535],
			[192,65535,65535],
			[192,201,65535]
		],
		[
			[192,202,65535],
			[192,65535,65535],
			[192,200,65535],
			[197,65535,65535],
			[197,65535,65535],
			[197,65535,65535],
			[197,65535,65535],
			[203,65535,65535],
			[192,65535,65535],
			[192,65535,65535],
			[192,208,65535],
			[192,65535,65535],
			[192,201,65535],
			[192,196,65535],
			[197,65535,65535],
			[192,199,65535],
			[192,65535,65535],
			[192,201,65535]
		],
		[
			[192,202,65535],
			[192,65535,65535],
			[192,208,65535],
			[192,65535,65535],
			[192,65535,65535],
			[192,65535,65535],
			[192,205,65535],
			[192,218,65535],
			[192,218,65535],
			[192,218,65535],
			[192,202,65535],
			[192,65535,65535],
			[204,65535,65535],
			[203,65535,65535],
			[192,65535,65535],
			[192,208,65535],
			[192,65535,65535],
			[192,201,65535]
		],
		[
			[192,202,65535],
			[192,65535,65535],
			[192,201,65535],
			[192,206,65535],
			[192,65535,65535],
			[192,65535,65535],
			[204,65535,65535],
			[197,65535,65535],
			[197,65535,65535],
			[197,65535,65535],
			[192,198,65535],
			[192,218,65535],
			[192,218,65535],
			[192,218,65535],
			[192,218,65535],
			[192,202,65535],
			[192,65535,65535],
			[192,201,65535]
		],
		[
			[192,202,65535],
			[192,65535,65535],
			[204,65535,65535],
			[192,198,65535],
			[192,218,65535],
			[192,218,65535],
			[192,218,65535],
			[192,206,65535],
			[192,65535,65535],
			[192,65535,65535],
			[204,65535,65535],
			[197,65535,65535],
			[197,65535,65535],
			[189,65535,65535],
			[197,65535,65535],
			[192,199,65535],
			[192,65535,65535],
			[192,201,65535]
		],
		[
			[192,202,65535],
			[192,65535,65535],
			[192,65535,65535],
			[204,65535,65535],
			[188,65535,65535],
			[188,65535,65535],
			[197,65535,65535],
			[192,198,65535],
			[192,218,65535],
			[192,218,65535],
			[192,218,65535],
			[192,218,65535],
			[192,206,65535],
			[192,65535,65535],
			[192,205,65535],
			[192,202,65535],
			[192,65535,65535],
			[192,201,65535]
		],
		[
			[192,195,65535],
			[192,218,65535],
			[192,206,65535],
			[192,65535,65535],
			[192,65535,65535],
			[192,1059,65535],
			[192,65535,65535],
			[204,65535,65535],
			[197,65535,65535],
			[197,65535,65535],
			[197,65535,65535],
			[197,65535,65535],
			[203,65535,65535],
			[192,65535,65535],
			[204,65535,65535],
			[203,65535,65535],
			[192,65535,65535],
			[192,201,65535]
		],
		[
			[192,195,65535],
			[192,195,65535],
			[192,195,65535],
			[192,218,65535],
			[192,218,65535],
			[192,218,65535],
			[192,218,65535],
			[192,218,65535],
			[192,218,65535],
			[192,218,65535],
			[192,218,65535],
			[192,218,65535],
			[192,206,65535],
			[194,65535,65535],
			[192,205,65535],
			[192,218,65535],
			[192,218,65535],
			[192,195,65535]
		]
	]
}
