{
	"id": 6,
	"type": 1,
	"width": 18,
	"height": 18,
	"flags": 8,
	"tiles": [
		[
			[65535,235,65535],
			[65535,236,267],
			[226,236,65535],
			[226,236,256],
			[226,245,65535],
			[226,236,65535],
			[226,236,65535],
			[226,296,65535],
			[226,272,65535],
			[226,297,65535],
			[0,236,255],
			[0,236,65535],
			[306,237,65535],
			[306,236,65535],
			[306,236,65535],
			[306,236,65535],
			[306,236,65535],
			[306,238,65535]
		],
		[
			[226,239,811],
			[226,268,65535],
			[226,273,65535],
			[226,426,1837],
			[226,240,65535],
			[226,273,65535],
			[226,65535,65535],
			[226,298,65535],
			[226,299,65535],
			[226,300,65535],
			[226,65535,65535],
			[226,273,1070],
			[226,239,65535],
			[226,273,65535],
			[306,65535,65535],
			[306,65535,65535],
			[226,1069,65535],
			[226,240,65535]
		],
		[
			[226,239,65535],
			[226,65535,65535],
			[226,426,1312],
			[226,305,65535],
			[226,240,65535],
			[226,305,65535],
			[226,65535,65535],
			[226,298,65535],
			[226,299,65535],
			[226,300,65535],
			[226,426,1834],
			[226,305,65535],
			[226,239,65535],
			[226,305,65535],
			[306,65535,65535],
			[306,65535,65535],
			[306,292,65535],
			[306,293,65535]
		],
		[
			[226,248,65535],
			[226,249,65535],
			[226,65535,65535],
			[226,426,1311],
			[226,240,65535],
			[226,426,1070],
			[226,65535,65535],
			[226,298,65535],
			[226,299,65535],
			[226,300,65535],
			[226,65535,65535],
			[226,426,1836],
			[226,235,65535],
			[226,236,65535],
			[307,233,230],
			[226,236,65535],
			[226,236,65535],
			[226,238,65535]
		],
		[
			[226,279,65535],
			[226,280,65535],
			[226,65535,65535],
			[226,290,65535],
			[292,291,65535],
			[226,305,65535],
			[226,65535,65535],
			[226,298,65535],
			[226,299,65535],
			[226,300,65535],
			[226,65535,65535],
			[226,305,65535],
			[226,239,65535],
			[226,65535,65535],
			[226,65535,65535],
			[226,65535,65535],
			[292,292,65535],
			[226,293,65535]
		],
		[
			[226,276,65535],
			[226,277,65535],
			[226,65535,65535],
			[292,292,65535],
			[226,293,65535],
			[226,65535,65535],
			[226,65535,65535],
			[226,298,65535],
			[301,1056,65535],
			[226,300,65535],
			[226,65535,65535],
			[226,65535,65535],
			[226,239,65535],
			[226,65535,65535],
			[226,65535,65535],
			[226,65535,65535],
			[290,290,65535],
			[226,291,65535]
		],
		[
			[226,279,65535],
			[226,280,65535],
			[226,65535,65535],
			[290,290,65535],
			[226,291,65535],
			[226,65535,65535],
			[226,65535,65535],
			[226,302,65535],
			[226,303,65535],
			[226,304,65535],
			[226,784,65535],
			[226,65535,65535],
			[226,239,65535],
			[226,65535,65535],
			[226,65535,65535],
			[226,1775,65535],
			[292,292,65535],
			[226,293,65535]
		],
		[
			[226,276,65535],
			[226,277,65535],
			[226,65535,65535],
			[226,65535,65535],
			[226,240,65535],
			[226,65535,65535],
			[226,65535,65535],
			[226,65535,65535],
			[226,65535,65535],
			[226,65535,65535],
			[226,65535,65535],
			[226,65535,65535],
			[226,239,65535],
			[226,65535,65535],
			[226,65535,65535],
			[226,65535,65535],
			[290,290,65535],
			[226,291,65535]
		],
		[
			[226,279,65535],
			[226,280,65535],
			[226,65535,65535],
			[226,65535,65535],
			[415,65535,417],
			[226,65535,65535],
			[226,252,65535],
			[226,65535,65535],
			[226,65535,65535],
			[226,65535,65535],
			[226,252,65535],
			[226,65535,65535],
			[226,239,65535],
			[226,65535,65535],
			[226,65535,65535],
			[226,65535,65535],
			[292,292,65535],
			[226,293,65535]
		],
		[
			[226,276,65535],
			[277,277,65535],
			[226,65535,65535],
			[226,426,1837],
			[226,240,65535],
			[226,273,65535],
			[226,65535,65535],
			[226,65535,65535],
			[226,65535,65535],
			[226,65535,65535],
			[226,65535,65535],
			[226,273,65535],
			[226,239,65535],
			[226,784,65535],
			[226,65535,65535],
			[226,65535,65535],
			[290,290,65535],
			[226,291,65535]
		],
		[
			[226,279,65535],
			[280,280,65535],
			[226,65535,65535],
			[226,305,65535],
			[226,240,65535],
			[226,305,65535],
			[226,1375,65535],
			[226,1375,65535],
			[226,65535,65535],
			[226,1375,65535],
			[226,1375,65535],
			[226,305,65535],
			[226,239,65535],
			[226,65535,65535],
			[226,65535,65535],
			[226,784,65535],
			[226,65535,65535],
			[226,240,65535]
		],
		[
			[226,235,65535],
			[226,236,254],
			[228,233,230],
			[226,236,363],
			[226,245,65535],
			[226,236,617],
			[226,236,617],
			[226,236,617],
			[226,236,617],
			[226,236,617],
			[226,236,617],
			[226,237,65535],
			[226,236,65535],
			[228,233,230],
			[226,236,363],
			[226,236,65535],
			[226,236,65535],
			[226,238,65535]
		],
		[
			[306,239,269],
			[306,65535,65535],
			[306,65535,65535],
			[306,65535,65535],
			[306,240,65535],
			[226,1768,65535],
			[226,65535,65535],
			[226,65535,65535],
			[226,65535,65535],
			[226,65535,65535],
			[226,65535,65535],
			[306,239,632],
			[306,261,65535],
			[306,65535,65535],
			[306,65535,65535],
			[306,65535,65535],
			[306,65535,65535],
			[306,240,65535]
		],
		[
			[306,239,65535],
			[306,65535,65535],
			[306,65535,65535],
			[306,260,65535],
			[306,240,65535],
			[226,65535,65535],
			[226,65535,65535],
			[226,65535,65535],
			[226,65535,65535],
			[226,65535,65535],
			[226,65535,65535],
			[309,239,65535],
			[306,65535,65535],
			[306,65535,65535],
			[306,65535,65535],
			[306,65535,65535],
			[306,65535,65535],
			[306,240,270]
		],
		[
			[226,235,65535],
			[226,236,65535],
			[307,65535,230],
			[226,236,65535],
			[226,245,65535],
			[226,236,65535],
			[226,249,65535],
			[278,65535,65535],
			[278,65535,65535],
			[226,249,65535],
			[226,236,65535],
			[306,237,65535],
			[306,236,65535],
			[306,236,65535],
			[306,236,65535],
			[307,65535,230],
			[306,236,812],
			[306,238,65535]
		],
		[
			[306,239,65535],
			[306,257,264],
			[306,65535,65535],
			[306,65535,65535],
			[306,240,270],
			[306,65535,65535],
			[306,65535,65535],
			[306,65535,65535],
			[306,65535,65535],
			[306,65535,65535],
			[306,784,65535],
			[306,239,811],
			[306,65535,65535],
			[306,65535,65535],
			[306,65535,65535],
			[306,65535,65535],
			[306,813,65535],
			[306,240,270]
		],
		[
			[306,239,811],
			[306,65535,65535],
			[306,65535,65535],
			[306,65535,65535],
			[310,65535,417],
			[306,65535,65535],
			[306,65535,65535],
			[306,65535,65535],
			[306,65535,65535],
			[306,65535,65535],
			[306,65535,65535],
			[309,65535,416],
			[306,65535,65535],
			[306,65535,65535],
			[306,65535,65535],
			[306,65535,65535],
			[306,65535,65535],
			[306,240,65535]
		],
		[
			[306,241,65535],
			[306,236,65535],
			[306,236,65535],
			[306,236,65535],
			[306,236,65535],
			[226,236,65535],
			[308,65535,230],
			[226,236,65535],
			[226,236,65535],
			[226,236,65535],
			[226,236,65535],
			[306,236,65535],
			[306,236,65535],
			[306,236,65535],
			[306,236,65535],
			[306,236,65535],
			[306,236,65535],
			[306,242,65535]
		]
	]
}
