{
	"id": 9,
	"type": 1,
	"width": 9,
	"height": 9,
	"flags": 8,
	"tiles": [
		[
			[306,235,65535],
			[306,253,65535],
			[306,236,254],
			[306,236,255],
			[306,236,256],
			[306,236,255],
			[306,236,254],
			[306,253,65535],
			[306,238,65535]
		],
		[
			[306,239,65535],
			[306,420,65535],
			[306,65535,65535],
			[306,65535,65535],
			[306,65535,65535],
			[306,65535,65535],
			[306,65535,65535],
			[306,265,65535],
			[306,240,65535]
		],
		[
			[306,239,65535],
			[306,257,263],
			[306,167,65535],
			[306,65535,65535],
			[306,65535,65535],
			[306,65535,65535],
			[306,167,65535],
			[306,65535,65535],
			[306,240,65535]
		],
		[
			[306,239,65535],
			[306,65535,65535],
			[306,65535,65535],
			[306,65535,65535],
			[306,65535,65535],
			[306,65535,65535],
			[306,65535,65535],
			[306,65535,65535],
			[306,240,65535]
		],
		[
			[306,239,65535],
			[306,65535,65535],
			[306,65535,65535],
			[306,65535,65535],
			[306,65535,65535],
			[306,65535,65535],
			[306,65535,65535],
			[306,65535,65535],
			[306,240,65535]
		],
		[
			[306,235,65535],
			[307,65535,2046],
			[306,215,65535],
			[306,238,65535],
			[306,65535,65535],
			[306,235,65535],
			[306,236,65535],
			[307,65535,2046],
			[306,238,65535]
		],
		[
			[306,239,65535],
			[306,65535,65535],
			[213,65535,65535],
			[306,240,65535],
			[306,65535,65535],
			[306,239,65535],
			[306,65535,65535],
			[306,266,65535],
			[306,240,270]
		],
		[
			[306,239,65535],
			[306,265,65535],
			[306,65535,65535],
			[306,240,270],
			[306,65535,65535],
			[306,239,65535],
			[306,65535,65535],
			[306,265,65535],
			[306,240,270]
		],
		[
			[306,241,65535],
			[306,236,65535],
			[306,236,65535],
			[306,236,65535],
			[308,65535,2046],
			[306,236,65535],
			[306,236,65535],
			[306,236,65535],
			[306,242,65535]
		]
	]
}
