{
	"id": 12,
	"type": 1,
	"width": 9,
	"height": 9,
	"flags": 8,
	"tiles": [
		[
			[226,235,65535],
			[226,253,65535],
			[226,236,267],
			[226,236,65535],
			[226,236,65535],
			[226,236,65535],
			[226,237,65535],
			[226,236,254],
			[226,238,65535]
		],
		[
			[226,239,65535],
			[226,65535,65535],
			[226,268,65535],
			[226,622,65535],
			[226,622,65535],
			[226,622,65535],
			[226,239,65535],
			[226,266,65535],
			[226,240,65535]
		],
		[
			[226,239,65535],
			[226,65535,65535],
			[226,65535,65535],
			[226,65535,65535],
			[226,622,65535],
			[226,622,65535],
			[226,239,65535],
			[226,265,65535],
			[226,240,65535]
		],
		[
			[226,239,65535],
			[226,65535,65535],
			[226,65535,65535],
			[226,65535,65535],
			[226,167,65535],
			[226,65535,65535],
			[226,243,65535],
			[227,65535,65535],
			[226,240,65535]
		],
		[
			[226,239,65535],
			[226,65535,65535],
			[226,65535,65535],
			[226,65535,65535],
			[226,65535,65535],
			[226,65535,65535],
			[226,65535,65535],
			[227,65535,65535],
			[226,240,65535]
		],
		[
			[226,235,65535],
			[226,236,65535],
			[228,65535,230],
			[226,238,65535],
			[226,65535,65535],
			[226,65535,65535],
			[226,65535,65535],
			[226,65535,65535],
			[226,240,65535]
		],
		[
			[226,239,65535],
			[226,622,65535],
			[226,65535,65535],
			[226,240,65535],
			[226,65535,65535],
			[226,65535,65535],
			[226,65535,65535],
			[226,65535,65535],
			[226,240,65535]
		],
		[
			[226,239,65535],
			[226,622,65535],
			[226,622,65535],
			[226,240,65535],
			[226,65535,65535],
			[226,65535,65535],
			[226,257,65535],
			[226,65535,65535],
			[226,240,65535]
		],
		[
			[226,241,65535],
			[226,236,65535],
			[226,236,65535],
			[226,236,65535],
			[229,65535,234],
			[226,236,65535],
			[226,236,65535],
			[226,236,65535],
			[226,242,65535]
		]
	]
}
