{
	"id": 19,
	"type": 1,
	"width": 9,
	"height": 9,
	"flags": 8,
	"tiles": [
		[
			[306,235,65535],
			[306,236,254],
			[306,245,65535],
			[2041,559,65535],
			[2041,554,65535],
			[2041,559,65535],
			[306,237,65535],
			[306,236,178],
			[306,238,65535]
		],
		[
			[306,239,65535],
			[306,65535,65535],
			[306,240,270],
			[2041,65535,65535],
			[2041,65535,65535],
			[2041,65535,65535],
			[306,239,811],
			[306,179,65535],
			[306,240,270]
		],
		[
			[306,239,65535],
			[306,65535,65535],
			[306,240,270],
			[2041,65535,65535],
			[2041,65535,65535],
			[2041,65535,65535],
			[306,239,65535],
			[306,65535,65535],
			[306,240,65535]
		],
		[
			[306,239,65535],
			[306,65535,65535],
			[306,240,65535],
			[2041,65535,65535],
			[2041,65535,65535],
			[2041,65535,65535],
			[306,239,65535],
			[306,65535,65535],
			[306,240,65535]
		],
		[
			[306,239,269],
			[306,65535,65535],
			[306,247,65535],
			[2043,65535,230],
			[2041,236,65535],
			[2041,236,65535],
			[306,246,65535],
			[306,65535,65535],
			[306,240,65535]
		],
		[
			[306,239,269],
			[306,65535,65535],
			[306,65535,65535],
			[306,65535,65535],
			[306,273,65535],
			[306,257,264],
			[306,273,65535],
			[306,65535,65535],
			[306,240,65535]
		],
		[
			[306,239,65535],
			[306,65535,65535],
			[306,65535,65535],
			[306,65535,65535],
			[306,65535,65535],
			[306,65535,65535],
			[306,65535,65535],
			[306,65535,65535],
			[306,240,65535]
		],
		[
			[306,239,811],
			[306,1375,65535],
			[306,1375,65535],
			[306,65535,65535],
			[306,65535,65535],
			[306,65535,65535],
			[306,65535,65535],
			[306,260,262],
			[306,240,65535]
		],
		[
			[306,241,65535],
			[306,236,65535],
			[306,236,65535],
			[306,236,65535],
			[308,65535,230],
			[306,236,65535],
			[306,236,65535],
			[306,236,65535],
			[306,242,65535]
		]
	]
}
