{
	"id": 31,
	"type": 1,
	"width": 18,
	"height": 18,
	"flags": 15,
	"tiles": [
		[
			[0,65535,65535],
			[0,65535,65535],
			[0,65535,65535],
			[0,65535,65535],
			[0,65535,65535],
			[0,65535,65535],
			[0,65535,65535],
			[0,65535,65535],
			[0,65535,65535],
			[0,65535,65535],
			[0,65535,65535],
			[0,65535,65535],
			[0,65535,65535],
			[0,65535,65535],
			[0,65535,65535],
			[0,65535,65535],
			[0,65535,65535],
			[0,65535,65535]
		],
		[
			[0,65535,65535],
			[0,57,65535],
			[0,54,65535],
			[0,59,65535],
			[0,65535,65535],
			[0,65535,65535],
			[2,65535,65535],
			[0,65535,65535],
			[0,65535,65535],
			[0,65535,65535],
			[0,65535,65535],
			[0,65535,65535],
			[0,65535,65535],
			[0,65535,65535],
			[2,65535,65535],
			[3,65535,65535],
			[0,65535,65535],
			[0,65535,65535]
		],
		[
			[0,65535,65535],
			[0,55,65535],
			[2,65535,65535],
			[0,56,65535],
			[0,65535,65535],
			[3,65535,65535],
			[4,65535,65535],
			[0,65535,65535],
			[0,287,275],
			[0,288,170],
			[0,288,65535],
			[0,288,65535],
			[0,288,65535],
			[0,288,65535],
			[0,288,65535],
			[0,288,65535],
			[0,289,275],
			[0,65535,65535]
		],
		[
			[0,65535,65535],
			[0,55,65535],
			[0,65535,65535],
			[0,63,65535],
			[0,54,65535],
			[0,54,65535],
			[0,54,65535],
			[0,59,65535],
			[0,355,275],
			[0,171,65535],
			[0,65535,65535],
			[4,65535,65535],
			[0,65535,65535],
			[0,65535,65535],
			[0,65535,166],
			[0,65535,65535],
			[0,355,275],
			[0,65535,65535]
		],
		[
			[0,65535,65535],
			[0,55,65535],
			[0,65535,65535],
			[3,65535,65535],
			[0,65535,65535],
			[0,65535,65535],
			[0,65535,65535],
			[0,56,65535],
			[0,287,65535],
			[0,289,65535],
			[0,23,65535],
			[0,21,65535],
			[0,30,65535],
			[0,65535,65535],
			[0,165,65535],
			[0,65535,65535],
			[0,355,275],
			[0,65535,65535]
		],
		[
			[0,65535,65535],
			[0,55,65535],
			[0,57,65535],
			[47,65535,65535],
			[0,59,65535],
			[365,65535,65535],
			[0,65535,65535],
			[0,56,65535],
			[0,65535,65535],
			[0,65535,65535],
			[0,22,65535],
			[0,65535,65535],
			[0,65535,65535],
			[0,360,65535],
			[0,184,65535],
			[0,65535,168],
			[0,355,275],
			[2,65535,65535]
		],
		[
			[0,65535,65535],
			[0,55,65535],
			[0,55,65535],
			[364,65535,65535],
			[0,56,65535],
			[364,65535,65535],
			[366,65535,65535],
			[0,63,65535],
			[0,54,65535],
			[0,59,65535],
			[0,22,65535],
			[0,65535,65535],
			[0,26,65535],
			[0,65535,65535],
			[0,65535,65535],
			[0,169,65535],
			[0,355,275],
			[0,65535,65535]
		],
		[
			[4,65535,65535],
			[0,55,65535],
			[0,55,65535],
			[365,65535,65535],
			[0,56,65535],
			[4,65535,65535],
			[367,65535,65535],
			[364,65535,65535],
			[369,65535,65535],
			[0,56,65535],
			[0,22,65535],
			[0,65535,65535],
			[0,22,65535],
			[0,287,65535],
			[0,288,65535],
			[0,288,65535],
			[0,289,65535],
			[0,65535,65535]
		],
		[
			[0,65535,65535],
			[0,55,65535],
			[0,55,65535],
			[371,7,65535],
			[0,56,65535],
			[0,65535,65535],
			[0,65535,65535],
			[370,65535,65535],
			[372,65535,65535],
			[0,32,65535],
			[0,29,65535],
			[0,65535,65535],
			[0,22,65535],
			[346,65535,65535],
			[99,65535,65535],
			[346,65535,65535],
			[4,65535,65535],
			[0,65535,65535]
		],
		[
			[0,65535,65535],
			[0,55,65535],
			[0,60,65535],
			[0,53,65535],
			[0,69,65535],
			[0,65535,65535],
			[0,65535,65535],
			[0,65535,65535],
			[0,65535,65535],
			[0,56,65535],
			[3,65535,65535],
			[0,65535,65535],
			[0,22,65535],
			[0,65535,65535],
			[345,65535,65535],
			[100,65535,65535],
			[2,65535,65535],
			[0,65535,65535]
		],
		[
			[0,65535,65535],
			[0,55,65535],
			[0,65535,65535],
			[0,7,65535],
			[0,65535,65535],
			[0,65535,65535],
			[0,65535,65535],
			[0,65535,65535],
			[99,65535,65535],
			[0,56,65535],
			[0,65535,65535],
			[0,65535,65535],
			[0,22,65535],
			[0,65535,65535],
			[0,65535,65535],
			[0,65535,65535],
			[347,65535,65535],
			[0,65535,65535]
		],
		[
			[0,65535,65535],
			[0,66,65535],
			[0,49,65535],
			[0,49,65535],
			[0,49,65535],
			[0,49,65535],
			[0,52,65535],
			[4,65535,65535],
			[0,48,65535],
			[0,68,65535],
			[0,65535,65535],
			[2,65535,65535],
			[0,22,65535],
			[0,65535,65535],
			[0,65535,65535],
			[0,65535,65535],
			[0,65535,65535],
			[0,65535,65535]
		],
		[
			[0,65535,65535],
			[0,67,65535],
			[0,50,65535],
			[0,50,65535],
			[0,50,65535],
			[82,74,65535],
			[0,50,65535],
			[38,65535,65535],
			[0,50,65535],
			[0,69,65535],
			[0,65535,65535],
			[0,65535,65535],
			[0,22,65535],
			[0,65535,65535],
			[0,65535,65535],
			[0,65535,65535],
			[0,65535,65535],
			[0,65535,65535]
		],
		[
			[0,65535,65535],
			[3,65535,65535],
			[0,65535,65535],
			[0,65535,65535],
			[367,65535,65535],
			[369,65535,65535],
			[345,65535,65535],
			[98,65535,65535],
			[346,65535,65535],
			[4,65535,65535],
			[0,23,65535],
			[0,21,65535],
			[0,29,65535],
			[98,65535,65535],
			[0,65535,65535],
			[0,65535,65535],
			[0,65535,65535],
			[0,65535,65535]
		],
		[
			[0,65535,65535],
			[0,9,65535],
			[0,21,65535],
			[0,21,65535],
			[0,21,65535],
			[0,21,65535],
			[0,21,65535],
			[0,21,65535],
			[0,21,65535],
			[0,21,65535],
			[0,29,65535],
			[99,65535,65535],
			[0,65535,65535],
			[0,65535,65535],
			[0,65535,65535],
			[0,65535,65535],
			[0,65535,65535],
			[0,65535,65535]
		],
		[
			[0,65535,65535],
			[0,65535,65535],
			[0,65535,65535],
			[0,65535,65535],
			[0,65535,65535],
			[4,65535,65535],
			[0,65535,65535],
			[0,65535,65535],
			[0,65535,65535],
			[0,65535,65535],
			[0,65535,65535],
			[0,65535,65535],
			[0,65535,65535],
			[0,65535,65535],
			[0,65535,65535],
			[2,65535,65535],
			[0,65535,65535],
			[0,65535,65535]
		],
		[
			[0,65535,65535],
			[0,65535,65535],
			[0,65535,65535],
			[2,65535,65535],
			[0,65535,65535],
			[0,65535,65535],
			[0,65535,65535],
			[3,65535,65535],
			[0,65535,65535],
			[0,65535,65535],
			[0,65535,65535],
			[0,65535,65535],
			[0,65535,65535],
			[0,65535,65535],
			[0,65535,65535],
			[0,65535,65535],
			[0,65535,65535],
			[0,65535,65535]
		],
		[
			[0,65535,65535],
			[0,65535,65535],
			[0,65535,65535],
			[0,65535,65535],
			[0,65535,65535],
			[0,65535,65535],
			[0,65535,65535],
			[0,65535,65535],
			[0,65535,65535],
			[0,65535,65535],
			[0,65535,65535],
			[0,65535,65535],
			[0,65535,65535],
			[0,65535,65535],
			[0,65535,65535],
			[0,65535,65535],
			[0,65535,65535],
			[0,65535,65535]
		]
	]
}
