{
	"id": 49,
	"type": 1,
	"width": 18,
	"height": 18,
	"flags": 1,
	"tiles": [
		[
			[0,65535,65535],
			[0,65535,65535],
			[0,65535,65535],
			[0,65535,65535],
			[0,65535,65535],
			[0,65535,65535],
			[0,65535,65535],
			[0,65535,65535],
			[345,65535,644],
			[0,65535,65535],
			[0,65535,65535],
			[0,65535,65535],
			[0,65535,65535],
			[0,65535,65535],
			[0,65535,65535],
			[0,65535,65535],
			[0,65535,65535],
			[0,65535,65535]
		],
		[
			[0,65535,65535],
			[402,65535,65535],
			[401,65535,65535],
			[0,65535,65535],
			[0,65535,65535],
			[345,65535,65535],
			[346,65535,65535],
			[100,65535,65535],
			[0,643,65535],
			[0,65535,645],
			[347,65535,65535],
			[0,65535,65535],
			[402,65535,65535],
			[395,65535,65535],
			[401,65535,65535],
			[0,65535,65535],
			[0,65535,65535],
			[0,65535,65535]
		],
		[
			[0,65535,65535],
			[398,65535,65535],
			[397,65535,65535],
			[345,65535,65535],
			[0,647,65535],
			[0,65535,65535],
			[353,65535,65535],
			[0,265,65535],
			[98,1171,1173],
			[0,642,65535],
			[402,186,65535],
			[395,65535,65535],
			[396,65535,65535],
			[403,65535,65535],
			[394,65535,65535],
			[401,65535,65535],
			[0,65535,65535],
			[0,65535,65535]
		],
		[
			[0,65535,65535],
			[398,65535,65535],
			[394,65535,65535],
			[401,65535,65535],
			[0,65535,65535],
			[99,65535,65535],
			[2,65535,65535],
			[406,186,65535],
			[0,65535,65535],
			[346,65535,65535],
			[400,65535,65535],
			[392,65535,65535],
			[392,65535,65535],
			[393,65535,65535],
			[403,65535,65535],
			[397,65535,65535],
			[358,65535,65535],
			[0,65535,65535]
		],
		[
			[0,65535,65535],
			[398,65535,65535],
			[0,390,65535],
			[394,65535,65535],
			[395,65535,65535],
			[395,65535,65535],
			[401,65535,65535],
			[0,65535,65535],
			[402,65535,65535],
			[395,65535,65535],
			[401,65535,65535],
			[357,65535,65535],
			[356,65535,65535],
			[400,65535,65535],
			[392,65535,65535],
			[399,65535,65535],
			[0,65535,65535],
			[0,65535,65535]
		],
		[
			[0,65535,65535],
			[400,65535,65535],
			[392,65535,644],
			[393,65535,65535],
			[403,65535,65535],
			[403,65535,408],
			[394,65535,65535],
			[395,65535,65535],
			[396,65535,65535],
			[403,65535,65535],
			[394,65535,65535],
			[401,65535,65535],
			[0,65535,65535],
			[402,65535,65535],
			[395,65535,65535],
			[401,65535,65535],
			[0,65535,65535],
			[0,65535,65535]
		],
		[
			[100,65535,65535],
			[406,65535,65535],
			[0,642,65535],
			[398,65535,65535],
			[403,65535,65535],
			[403,355,409],
			[403,65535,65535],
			[403,65535,65535],
			[403,65535,65535],
			[403,65535,65535],
			[403,1174,65535],
			[397,1175,65535],
			[406,65535,65535],
			[400,65535,65535],
			[392,65535,65535],
			[399,65535,65535],
			[0,65535,65535],
			[0,65535,65535]
		],
		[
			[357,65535,65535],
			[0,65535,645],
			[353,65535,65535],
			[400,65535,65535],
			[393,65535,65535],
			[403,65535,65535],
			[403,65535,65535],
			[403,374,65535],
			[403,375,65535],
			[403,375,65535],
			[403,376,65535],
			[394,65535,65535],
			[395,65535,65535],
			[395,65535,65535],
			[401,65535,65535],
			[0,65535,65535],
			[0,65535,65535],
			[0,65535,65535]
		],
		[
			[0,65535,65535],
			[0,643,65535],
			[98,65535,65535],
			[356,65535,65535],
			[398,65535,65535],
			[403,65535,65535],
			[403,65535,65535],
			[377,65535,65535],
			[403,384,65535],
			[403,387,65535],
			[403,383,65535],
			[403,376,65535],
			[403,65535,65535],
			[403,65535,65535],
			[397,65535,65535],
			[0,65535,65535],
			[4,65535,65535],
			[0,65535,65535]
		],
		[
			[0,65535,65535],
			[357,65535,65535],
			[358,65535,65535],
			[407,646,65535],
			[400,65535,65535],
			[393,65535,65535],
			[403,1174,65535],
			[403,1175,65535],
			[377,380,65535],
			[403,386,412],
			[403,386,65535],
			[403,383,65535],
			[403,375,65535],
			[403,376,65535],
			[394,65535,410],
			[395,65535,65535],
			[401,65535,65535],
			[0,65535,65535]
		],
		[
			[0,65535,65535],
			[0,65535,65535],
			[402,65535,65535],
			[401,65535,65535],
			[404,65535,65535],
			[400,65535,65535],
			[393,65535,65535],
			[403,186,65535],
			[377,186,65535],
			[378,355,413],
			[403,384,65535],
			[403,387,65535],
			[403,385,65535],
			[379,65535,410],
			[403,355,411],
			[403,65535,65535],
			[397,65535,65535],
			[0,65535,65535]
		],
		[
			[0,65535,65535],
			[402,65535,65535],
			[396,65535,65535],
			[394,65535,65535],
			[401,65535,65535],
			[0,65535,65535],
			[400,65535,65535],
			[392,65535,65535],
			[392,622,65535],
			[393,65535,65535],
			[377,65535,65535],
			[378,65535,65535],
			[379,65535,65535],
			[403,355,411],
			[391,65535,65535],
			[392,65535,65535],
			[399,65535,65535],
			[0,65535,65535]
		],
		[
			[0,65535,65535],
			[398,65535,65535],
			[403,65535,65535],
			[391,65535,65535],
			[399,65535,65535],
			[402,65535,65535],
			[395,65535,65535],
			[401,65535,65535],
			[0,65535,65535],
			[398,65535,65535],
			[403,65535,65535],
			[403,65535,412],
			[403,65535,65535],
			[403,65535,412],
			[397,65535,65535],
			[404,65535,65535],
			[0,65535,65535],
			[0,65535,65535]
		],
		[
			[0,65535,65535],
			[400,65535,65535],
			[393,65535,65535],
			[397,65535,65535],
			[2,65535,65535],
			[400,65535,65535],
			[393,65535,65535],
			[394,65535,65535],
			[401,65535,65535],
			[398,65535,65535],
			[403,65535,65535],
			[403,355,413],
			[403,65535,412],
			[403,355,413],
			[394,65535,65535],
			[395,65535,65535],
			[401,65535,65535],
			[0,65535,65535]
		],
		[
			[3,65535,65535],
			[4,65535,65535],
			[398,65535,65535],
			[394,65535,65535],
			[395,65535,65535],
			[401,65535,65535],
			[400,65535,65535],
			[392,65535,65535],
			[399,65535,65535],
			[400,65535,65535],
			[392,65535,65535],
			[393,65535,65535],
			[403,355,413],
			[403,65535,65535],
			[403,65535,65535],
			[391,65535,65535],
			[399,65535,65535],
			[0,65535,65535]
		],
		[
			[0,65535,65535],
			[0,65535,65535],
			[400,65535,65535],
			[392,65535,65535],
			[392,65535,65535],
			[399,65535,65535],
			[0,65535,65535],
			[0,65535,65535],
			[0,65535,65535],
			[0,65535,352],
			[0,65535,65535],
			[400,65535,65535],
			[392,65535,65535],
			[392,65535,65535],
			[392,65535,65535],
			[399,65535,65535],
			[2,65535,65535],
			[0,65535,65535]
		],
		[
			[0,65535,65535],
			[0,65535,65535],
			[0,65535,65535],
			[0,65535,65535],
			[0,65535,65535],
			[407,65535,65535],
			[0,65535,65535],
			[0,65535,65535],
			[0,65535,65535],
			[0,351,65535],
			[0,65535,65535],
			[3,65535,65535],
			[0,65535,65535],
			[0,65535,65535],
			[0,65535,65535],
			[0,65535,65535],
			[0,65535,65535],
			[0,65535,65535]
		],
		[
			[0,65535,65535],
			[0,65535,65535],
			[2,65535,65535],
			[0,65535,65535],
			[0,65535,65535],
			[0,65535,65535],
			[0,65535,65535],
			[0,65535,65535],
			[0,65535,65535],
			[0,65535,65535],
			[0,65535,65535],
			[0,65535,65535],
			[0,65535,65535],
			[2,65535,65535],
			[4,65535,65535],
			[0,65535,65535],
			[0,65535,65535],
			[0,65535,65535]
		]
	]
}
