{
	"id": 58,
	"type": 1,
	"width": 18,
	"height": 18,
	"flags": 1,
	"tiles": [
		[
			[0,65535,65535],
			[0,65535,65535],
			[0,65535,65535],
			[0,65535,65535],
			[0,65535,65535],
			[0,65535,65535],
			[0,65535,65535],
			[0,65535,65535],
			[365,65535,65535],
			[366,65535,65535],
			[0,65535,65535],
			[0,65535,65535],
			[0,65535,65535],
			[0,65535,65535],
			[0,65535,65535],
			[0,65535,65535],
			[0,65535,65535],
			[0,65535,65535]
		],
		[
			[0,65535,65535],
			[0,65535,65535],
			[0,65535,65535],
			[0,65535,65535],
			[0,65,65535],
			[0,53,65535],
			[0,64,65535],
			[0,65535,65535],
			[367,65535,65535],
			[372,65535,65535],
			[369,65535,65535],
			[0,65,65535],
			[0,40,65535],
			[1,65535,65535],
			[0,65535,65535],
			[0,65535,65535],
			[0,65535,65535],
			[0,65535,65535]
		],
		[
			[0,65535,65535],
			[0,65535,65535],
			[0,65535,65535],
			[0,65,65535],
			[0,61,65535],
			[356,65535,65535],
			[0,55,65535],
			[0,65,65535],
			[0,53,65535],
			[0,64,65535],
			[0,65535,65535],
			[0,56,65535],
			[1,65535,65535],
			[0,39,65535],
			[0,64,65535],
			[0,65535,65535],
			[0,65535,65535],
			[0,65535,65535]
		],
		[
			[0,65535,65535],
			[0,65535,65535],
			[0,65,65535],
			[356,61,65535],
			[402,65535,65535],
			[401,65535,65535],
			[0,60,65535],
			[0,61,65535],
			[0,65535,65535],
			[0,60,65535],
			[0,53,65535],
			[0,61,65535],
			[0,65535,65535],
			[356,65535,65535],
			[0,60,65535],
			[0,64,65535],
			[0,65535,65535],
			[0,65535,65535]
		],
		[
			[0,65535,65535],
			[0,65535,65535],
			[0,56,65535],
			[402,65535,65535],
			[396,65535,65535],
			[394,65535,65535],
			[401,65535,65535],
			[406,65535,65535],
			[402,65535,65535],
			[395,65535,65535],
			[395,65535,65535],
			[401,65535,65535],
			[402,65535,65535],
			[401,65535,65535],
			[0,65535,65535],
			[0,55,65535],
			[0,65535,65535],
			[0,65535,65535]
		],
		[
			[0,65535,65535],
			[0,65535,65535],
			[0,56,65535],
			[400,65535,65535],
			[392,65535,65535],
			[392,65535,65535],
			[399,65535,65535],
			[357,65535,65535],
			[400,65535,65535],
			[393,65535,65535],
			[403,390,65535],
			[394,65535,65535],
			[396,65535,65535],
			[397,65535,65535],
			[0,57,65535],
			[0,62,65535],
			[366,65535,65535],
			[0,65535,65535]
		],
		[
			[365,65535,65535],
			[366,65535,65535],
			[0,63,65535],
			[0,54,65535],
			[0,54,65535],
			[0,54,65535],
			[0,54,65535],
			[0,59,65535],
			[0,65535,65535],
			[400,65535,65535],
			[392,65535,65535],
			[392,65535,65535],
			[392,65535,65535],
			[399,65535,65535],
			[0,55,65535],
			[367,65535,65535],
			[368,65535,65535],
			[369,65535,65535]
		],
		[
			[367,65535,65535],
			[368,65535,65535],
			[369,65535,65535],
			[0,65535,65535],
			[0,65535,65535],
			[0,65535,65535],
			[0,65535,65535],
			[0,32,65535],
			[0,21,65535],
			[0,21,65535],
			[0,24,65535],
			[358,65535,65535],
			[0,65535,65535],
			[0,57,65535],
			[0,62,65535],
			[0,65535,65535],
			[370,65535,65535],
			[369,65535,65535]
		],
		[
			[0,65535,65535],
			[370,65535,65535],
			[0,65535,65535],
			[0,65535,65535],
			[0,65,65535],
			[0,53,65535],
			[0,53,65535],
			[0,61,65535],
			[0,65535,65535],
			[0,7,65535],
			[0,10,65535],
			[0,65535,65535],
			[0,65535,65535],
			[0,55,65535],
			[0,65535,65535],
			[0,65535,65535],
			[0,65535,65535],
			[0,65535,65535]
		],
		[
			[0,65,65535],
			[0,53,65535],
			[0,53,65535],
			[0,53,65535],
			[0,61,65535],
			[0,359,65535],
			[0,65535,65535],
			[0,65535,65535],
			[0,7,65535],
			[0,65535,65535],
			[0,7,65535],
			[0,65535,65535],
			[0,7,65535],
			[0,60,65535],
			[0,53,65535],
			[0,64,65535],
			[0,65535,65535],
			[0,65535,65535]
		],
		[
			[0,63,65535],
			[0,54,65535],
			[0,54,65535],
			[0,54,65535],
			[0,59,65535],
			[0,65535,65535],
			[0,65535,65535],
			[358,65535,65535],
			[0,7,65535],
			[0,65535,65535],
			[0,7,65535],
			[0,7,65535],
			[0,65535,65535],
			[0,65535,65535],
			[0,65535,65535],
			[0,60,65535],
			[0,53,65535],
			[0,64,65535]
		],
		[
			[0,65535,65535],
			[345,65535,65535],
			[0,65535,65535],
			[0,65535,65535],
			[0,56,65535],
			[0,65535,65535],
			[356,65535,65535],
			[0,7,65535],
			[0,65535,65535],
			[0,7,65535],
			[0,26,65535],
			[0,7,65535],
			[357,65535,65535],
			[0,57,65535],
			[0,54,65535],
			[0,54,65535],
			[0,54,65535],
			[0,62,65535]
		],
		[
			[346,65535,65535],
			[0,89,65535],
			[100,65535,65535],
			[0,65,65535],
			[0,61,65535],
			[402,65535,65535],
			[395,65535,65535],
			[401,65535,65535],
			[0,65535,65535],
			[0,65535,65535],
			[0,25,65535],
			[0,21,65535],
			[0,21,65535],
			[0,31,65535],
			[0,86,65535],
			[98,65535,65535],
			[92,65535,65535],
			[0,91,65535]
		],
		[
			[0,90,65535],
			[0,87,65535],
			[93,65535,65535],
			[0,56,65535],
			[407,65535,65535],
			[400,65535,65535],
			[393,65535,408],
			[394,65535,65535],
			[395,65535,65535],
			[401,65535,65535],
			[356,65535,65535],
			[0,65535,65535],
			[0,57,65535],
			[0,62,65535],
			[346,65535,65535],
			[0,89,65535],
			[0,90,65535],
			[95,65535,65535]
		],
		[
			[94,65535,65535],
			[95,65535,65535],
			[99,65535,65535],
			[0,56,65535],
			[0,65535,65535],
			[402,65535,65535],
			[396,355,409],
			[403,65535,65535],
			[391,65535,65535],
			[399,65535,65535],
			[0,57,65535],
			[0,54,65535],
			[0,62,65535],
			[0,65535,65535],
			[99,65535,65535],
			[94,65535,65535],
			[95,65535,65535],
			[347,65535,65535]
		],
		[
			[0,65535,65535],
			[0,65535,65535],
			[0,65535,65535],
			[0,63,65535],
			[0,59,65535],
			[400,65535,65535],
			[392,65535,65535],
			[392,65535,65535],
			[399,65535,65535],
			[3,65535,65535],
			[0,55,65535],
			[367,65535,65535],
			[366,65535,65535],
			[347,65535,65535],
			[0,65,65535],
			[0,53,65535],
			[0,64,65535],
			[0,65535,65535]
		],
		[
			[0,65535,65535],
			[0,65535,65535],
			[347,65535,65535],
			[2,65535,65535],
			[0,63,65535],
			[0,54,65535],
			[0,54,65535],
			[0,46,65535],
			[1,65535,65535],
			[0,45,65535],
			[0,62,65535],
			[367,65535,65535],
			[368,65535,65535],
			[369,65535,65535],
			[0,63,65535],
			[0,59,65535],
			[0,55,65535],
			[0,65535,65535]
		],
		[
			[0,65535,65535],
			[0,65535,65535],
			[0,65535,65535],
			[0,65535,65535],
			[0,65535,65535],
			[0,65535,65535],
			[0,65535,65535],
			[0,65535,65535],
			[0,65535,65535],
			[0,65535,65535],
			[0,65535,65535],
			[0,65535,65535],
			[370,65535,65535],
			[0,65535,65535],
			[0,65535,65535],
			[0,63,65535],
			[0,62,65535],
			[0,65535,65535]
		]
	]
}
