{
	"id": 66,
	"type": 1,
	"width": 18,
	"height": 18,
	"flags": 2,
	"tiles": [
		[
			[0,65535,65535],
			[0,65535,65535],
			[0,65535,65535],
			[0,65535,65535],
			[0,65535,65535],
			[0,65535,65535],
			[0,65535,65535],
			[0,65535,65535],
			[3,65535,65535],
			[0,65535,65535],
			[0,65535,65535],
			[0,65535,65535],
			[0,65535,65535],
			[0,65535,65535],
			[0,65535,65535],
			[0,65535,65535],
			[0,65535,65535],
			[0,65535,65535]
		],
		[
			[2,65535,65535],
			[0,65535,65535],
			[0,57,65535],
			[0,54,65535],
			[0,54,65535],
			[0,59,65535],
			[0,65535,65535],
			[0,57,65535],
			[0,54,65535],
			[0,54,65535],
			[0,59,65535],
			[0,57,65535],
			[0,54,65535],
			[0,59,65535],
			[0,65535,65535],
			[0,65535,65535],
			[0,65535,65535],
			[0,65535,65535]
		],
		[
			[0,54,65535],
			[0,54,65535],
			[0,62,65535],
			[0,57,65535],
			[0,59,65535],
			[0,56,65535],
			[1,65535,65535],
			[0,60,65535],
			[79,73,65535],
			[0,64,65535],
			[0,63,65535],
			[0,62,65535],
			[0,65535,65535],
			[0,63,65535],
			[0,59,65535],
			[2,65535,65535],
			[0,65535,65535],
			[0,65535,65535]
		],
		[
			[0,57,65535],
			[0,54,65535],
			[0,54,65535],
			[0,62,65535],
			[0,56,65535],
			[0,63,65535],
			[0,59,65535],
			[0,65535,65535],
			[0,57,65535],
			[0,62,65535],
			[0,57,65535],
			[0,54,65535],
			[0,54,65535],
			[0,59,65535],
			[0,63,65535],
			[0,54,65535],
			[0,54,65535],
			[0,54,65535]
		],
		[
			[0,60,65535],
			[0,64,65535],
			[0,57,65535],
			[0,59,65535],
			[0,63,294],
			[0,59,65535],
			[0,63,65535],
			[0,54,65535],
			[0,62,65535],
			[0,57,65535],
			[0,62,65535],
			[3,65535,65535],
			[0,65535,65535],
			[0,63,65535],
			[0,54,65535],
			[0,54,65535],
			[0,54,65535],
			[0,54,65535]
		],
		[
			[0,54,65535],
			[0,62,65535],
			[0,55,65535],
			[0,56,65535],
			[0,65535,65535],
			[0,63,185],
			[0,54,65535],
			[0,54,65535],
			[0,54,65535],
			[0,62,185],
			[0,65,65535],
			[0,64,65535],
			[0,65535,65535],
			[0,65,65535],
			[0,64,65535],
			[0,65,65535],
			[0,53,65535],
			[0,53,65535]
		],
		[
			[0,65535,65535],
			[0,65535,65535],
			[0,60,65535],
			[0,61,65535],
			[0,65,65535],
			[0,53,65535],
			[0,53,65535],
			[0,53,65535],
			[0,53,65535],
			[0,53,65535],
			[0,61,65535],
			[0,60,65535],
			[0,53,65535],
			[0,61,65535],
			[0,60,65535],
			[0,61,65535],
			[0,65535,65535],
			[0,65535,65535]
		],
		[
			[0,53,65535],
			[0,53,65535],
			[0,53,65535],
			[0,53,65535],
			[0,61,65535],
			[0,65,65535],
			[0,53,65535],
			[79,73,65535],
			[0,53,155],
			[0,64,65535],
			[0,1344,65535],
			[0,65,65535],
			[368,53,65535],
			[368,53,65535],
			[368,64,65535],
			[0,65535,65535],
			[0,39,65535],
			[0,53,65535]
		],
		[
			[0,65,65535],
			[0,64,65535],
			[0,65535,65535],
			[0,65535,65535],
			[368,65,65535],
			[365,61,65535],
			[0,167,65535],
			[0,65535,65535],
			[0,65535,65535],
			[0,60,65535],
			[0,64,65535],
			[0,56,65535],
			[370,65535,65535],
			[368,65535,65535],
			[368,60,65535],
			[0,64,65535],
			[0,65,65535],
			[0,64,65535]
		],
		[
			[0,56,65535],
			[0,55,65535],
			[368,65,65535],
			[368,53,65535],
			[368,61,65535],
			[368,1171,1173],
			[0,65535,65535],
			[0,65535,65535],
			[365,65535,65535],
			[0,65535,65535],
			[0,60,65535],
			[0,61,65535],
			[0,65535,65535],
			[371,65535,65535],
			[0,65535,65535],
			[0,60,65535],
			[368,61,65535],
			[0,55,65535]
		],
		[
			[0,56,65535],
			[0,60,65535],
			[0,61,65535],
			[370,65535,65535],
			[368,65535,65535],
			[372,65535,65535],
			[369,65535,65535],
			[0,65535,65535],
			[370,65535,65535],
			[369,65535,65535],
			[0,65535,65535],
			[0,65535,65535],
			[0,57,65535],
			[0,54,65535],
			[0,59,65535],
			[0,65535,65535],
			[364,65535,65535],
			[368,55,65535]
		],
		[
			[0,56,65535],
			[0,65535,65535],
			[0,65535,65535],
			[0,65535,65535],
			[371,65535,65535],
			[0,57,65535],
			[368,54,180],
			[0,59,65535],
			[1,65535,65535],
			[1,65535,65535],
			[0,57,65535],
			[0,59,65535],
			[0,55,65535],
			[3,65535,65535],
			[368,56,65535],
			[365,65535,65535],
			[364,65535,65535],
			[372,55,65535]
		],
		[
			[0,63,65535],
			[0,54,65535],
			[0,59,65535],
			[0,65535,65535],
			[0,57,65535],
			[0,62,65535],
			[0,181,65535],
			[0,56,65535],
			[367,65535,65535],
			[369,57,65535],
			[0,62,65535],
			[0,56,65535],
			[0,55,65535],
			[0,65535,65535],
			[0,63,65535],
			[0,54,65535],
			[370,59,65535],
			[368,55,65535]
		],
		[
			[0,59,65535],
			[0,65535,65535],
			[0,63,65535],
			[0,54,65535],
			[0,62,65535],
			[0,65,65535],
			[0,53,65535],
			[0,61,65535],
			[0,65535,65535],
			[0,60,65535],
			[0,64,65535],
			[0,63,65535],
			[0,62,65535],
			[0,57,65535],
			[0,54,65535],
			[0,59,65535],
			[368,63,65535],
			[368,62,65535]
		],
		[
			[0,61,65535],
			[0,65535,65535],
			[0,65,65535],
			[0,53,65535],
			[0,53,65535],
			[0,61,65535],
			[0,65535,65535],
			[1,65535,65535],
			[1,65535,65535],
			[1,65535,65535],
			[0,60,65535],
			[0,64,65535],
			[0,65535,65535],
			[0,60,65535],
			[0,53,65535],
			[0,61,65535],
			[0,65,65535],
			[0,53,65535]
		],
		[
			[0,65,65535],
			[0,53,65535],
			[0,61,65535],
			[364,65535,65535],
			[366,65535,65535],
			[0,65535,65535],
			[364,65535,65535],
			[366,65535,65535],
			[366,65535,65535],
			[0,65535,65535],
			[0,65535,65535],
			[0,60,65535],
			[0,53,65535],
			[0,53,65535],
			[0,64,65535],
			[0,65,65535],
			[0,61,65535],
			[0,65535,65535]
		],
		[
			[0,61,65535],
			[0,65535,65535],
			[0,65535,65535],
			[364,65535,65535],
			[372,65535,65535],
			[0,65535,65535],
			[370,65535,65535],
			[368,65535,65535],
			[369,65535,65535],
			[0,65535,65535],
			[0,65535,65535],
			[0,65535,65535],
			[2,65535,65535],
			[0,65535,65535],
			[0,60,65535],
			[0,61,65535],
			[0,65535,65535],
			[0,65535,65535]
		],
		[
			[0,65535,65535],
			[0,65535,65535],
			[0,65535,65535],
			[0,65535,65535],
			[0,65535,65535],
			[4,65535,65535],
			[0,65535,65535],
			[370,65535,65535],
			[372,65535,65535],
			[0,65535,65535],
			[0,65535,65535],
			[0,65535,65535],
			[0,65535,65535],
			[0,65535,65535],
			[0,65535,65535],
			[0,65535,65535],
			[0,65535,65535],
			[0,65535,65535]
		]
	]
}
