{
	"id": 72,
	"type": 1,
	"width": 18,
	"height": 18,
	"flags": 8,
	"tiles": [
		[
			[226,235,65535],
			[226,236,65535],
			[226,236,65535],
			[226,236,256],
			[226,296,65535],
			[226,272,65535],
			[226,297,65535],
			[226,236,255],
			[226,236,65535],
			[226,236,65535],
			[226,245,65535],
			[226,236,65535],
			[226,236,65535],
			[226,236,65535],
			[226,296,65535],
			[226,236,65535],
			[226,272,65535],
			[226,238,65535]
		],
		[
			[226,239,269],
			[226,273,1062],
			[226,305,262],
			[226,65535,65535],
			[226,298,65535],
			[226,299,65535],
			[226,300,65535],
			[226,65535,65535],
			[226,257,65535],
			[226,65535,65535],
			[226,240,270],
			[226,273,65535],
			[226,305,65535],
			[226,1070,65535],
			[226,298,65535],
			[192,195,65535],
			[226,299,65535],
			[300,240,65535]
		],
		[
			[226,279,65535],
			[280,280,65535],
			[226,65535,65535],
			[226,65535,65535],
			[226,298,65535],
			[301,1281,65535],
			[226,300,65535],
			[226,1060,65535],
			[226,65535,65535],
			[292,292,65535],
			[226,293,65535],
			[226,305,65535],
			[226,1841,65535],
			[226,65535,65535],
			[226,298,65535],
			[192,195,65535],
			[226,299,65535],
			[300,240,65535]
		],
		[
			[226,276,65535],
			[277,277,65535],
			[226,65535,65535],
			[226,1070,65535],
			[226,302,65535],
			[226,303,65535],
			[226,304,65535],
			[226,65535,65535],
			[226,65535,65535],
			[290,290,65535],
			[226,291,65535],
			[226,65535,65535],
			[226,65535,65535],
			[226,65535,65535],
			[226,298,65535],
			[192,195,65535],
			[301,65535,65535],
			[300,240,65535]
		],
		[
			[226,279,65535],
			[280,280,65535],
			[226,65535,65535],
			[226,784,65535],
			[226,65535,65535],
			[226,65535,65535],
			[226,65535,65535],
			[226,65535,65535],
			[226,65535,65535],
			[226,65535,65535],
			[415,65535,417],
			[226,65535,65535],
			[226,65535,65535],
			[226,65535,65535],
			[226,302,65535],
			[226,303,65535],
			[226,303,65535],
			[226,303,240]
		],
		[
			[226,276,65535],
			[277,277,65535],
			[226,65535,65535],
			[226,65535,65535],
			[226,65535,65535],
			[226,65535,65535],
			[226,65535,65535],
			[226,65535,65535],
			[226,65535,65535],
			[290,290,65535],
			[290,291,65535],
			[226,65535,65535],
			[226,65535,65535],
			[226,65535,65535],
			[226,65535,65535],
			[226,65535,65535],
			[226,1841,65535],
			[226,240,65535]
		],
		[
			[226,239,65535],
			[226,305,263],
			[226,65535,65535],
			[226,1841,65535],
			[226,257,262],
			[226,65535,65535],
			[226,65535,65535],
			[226,305,65535],
			[226,65535,65535],
			[226,305,65535],
			[226,240,65535],
			[226,1060,65535],
			[226,801,65535],
			[226,65535,65535],
			[226,784,65535],
			[226,65535,65535],
			[226,65535,65535],
			[226,240,65535]
		],
		[
			[226,235,65535],
			[226,236,65535],
			[226,253,65535],
			[226,236,65535],
			[226,245,65535],
			[226,236,65535],
			[226,236,65535],
			[226,236,65535],
			[226,236,254],
			[226,236,65535],
			[226,236,65535],
			[226,236,65535],
			[226,236,254],
			[226,236,65535],
			[226,236,65535],
			[228,233,230],
			[226,236,65535],
			[226,238,65535]
		],
		[
			[306,239,632],
			[306,265,65535],
			[306,622,65535],
			[306,266,65535],
			[306,240,270],
			[306,65535,65535],
			[306,784,65535],
			[306,65535,65535],
			[306,65535,65535],
			[306,65535,65535],
			[306,65535,65535],
			[306,65535,65535],
			[306,65535,65535],
			[306,65535,65535],
			[306,65535,65535],
			[306,801,65535],
			[306,65535,65535],
			[306,240,65535]
		],
		[
			[306,239,65535],
			[306,266,65535],
			[306,265,65535],
			[306,65535,65535],
			[310,65535,417],
			[306,801,65535],
			[306,65535,65535],
			[306,65535,65535],
			[306,65535,65535],
			[306,65535,65535],
			[306,65535,65535],
			[306,65535,65535],
			[306,65535,65535],
			[306,65535,65535],
			[306,65535,65535],
			[306,65535,65535],
			[306,65535,65535],
			[306,240,65535]
		],
		[
			[306,239,632],
			[306,622,65535],
			[306,65535,65535],
			[306,65535,65535],
			[306,240,270],
			[306,65535,65535],
			[306,65535,65535],
			[306,65535,65535],
			[306,65535,65535],
			[306,1841,65535],
			[306,65535,65535],
			[306,65535,65535],
			[306,65535,65535],
			[306,801,65535],
			[306,65535,65535],
			[306,65535,65535],
			[306,65535,65535],
			[306,240,65535]
		],
		[
			[226,235,65535],
			[226,236,65535],
			[307,232,230],
			[226,237,65535],
			[226,253,65535],
			[226,236,65535],
			[226,236,65535],
			[226,238,65535],
			[306,65535,65535],
			[600,540,616],
			[600,629,617],
			[600,629,617],
			[600,541,618],
			[307,582,583],
			[600,540,616],
			[600,629,617],
			[600,629,617],
			[600,541,618]
		],
		[
			[226,239,811],
			[226,65535,65535],
			[226,65535,65535],
			[226,239,65535],
			[226,65535,65535],
			[226,186,65535],
			[226,186,65535],
			[226,240,65535],
			[306,65535,65535],
			[600,545,613],
			[600,1057,65535],
			[600,65535,65535],
			[600,544,614],
			[598,65535,65535],
			[600,545,613],
			[600,65535,65535],
			[600,784,65535],
			[600,544,614]
		],
		[
			[226,239,811],
			[226,65535,65535],
			[226,801,65535],
			[226,239,65535],
			[226,65535,65535],
			[226,801,65535],
			[226,65535,65535],
			[226,240,65535],
			[306,65535,65535],
			[600,545,613],
			[600,65535,65535],
			[600,65535,65535],
			[600,544,614],
			[598,65535,65535],
			[600,545,613],
			[600,65535,65535],
			[600,65535,65535],
			[600,544,614]
		],
		[
			[226,235,65535],
			[226,236,65535],
			[228,65535,230],
			[226,246,65535],
			[226,65535,65535],
			[226,65535,65535],
			[226,186,65535],
			[226,240,65535],
			[306,65535,65535],
			[600,540,65535],
			[601,1439,583],
			[600,629,623],
			[600,541,65535],
			[598,65535,65535],
			[600,540,65535],
			[600,629,623],
			[601,1439,583],
			[600,541,65535]
		],
		[
			[226,239,65535],
			[226,65535,65535],
			[226,65535,65535],
			[226,65535,65535],
			[226,65535,65535],
			[226,65535,65535],
			[226,1841,65535],
			[226,240,65535],
			[306,65535,65535],
			[600,545,65535],
			[600,801,65535],
			[600,65535,65535],
			[600,65535,591],
			[598,1841,65535],
			[600,65535,593],
			[600,65535,65535],
			[600,801,65535],
			[600,544,65535]
		],
		[
			[226,239,65535],
			[226,65535,65535],
			[226,65535,65535],
			[226,65535,65535],
			[226,186,65535],
			[226,65535,65535],
			[226,186,65535],
			[226,240,65535],
			[306,65535,65535],
			[600,545,65535],
			[600,65535,65535],
			[600,65535,65535],
			[600,544,65535],
			[598,65535,65535],
			[600,545,65535],
			[600,65535,65535],
			[600,65535,65535],
			[600,544,65535]
		],
		[
			[226,241,65535],
			[226,236,65535],
			[226,236,65535],
			[226,236,65535],
			[226,236,65535],
			[226,236,65535],
			[226,236,65535],
			[226,236,65535],
			[308,65535,230],
			[600,236,65535],
			[600,236,65535],
			[600,236,65535],
			[600,236,65535],
			[600,236,65535],
			[600,236,65535],
			[600,236,65535],
			[600,236,65535],
			[600,242,65535]
		]
	]
}
