{
	"id": 74,
	"type": 1,
	"width": 18,
	"height": 18,
	"flags": 4,
	"tiles": [
		[
			[0,65535,65535],
			[0,65535,65535],
			[0,65535,65535],
			[0,65535,65535],
			[0,65535,65535],
			[402,65535,65535],
			[395,65535,640],
			[401,65535,641],
			[356,65535,65535],
			[398,65535,65535],
			[0,380,65535],
			[0,387,65535],
			[0,387,65535],
			[0,381,65535],
			[397,65535,65535],
			[357,65535,65535],
			[0,65535,65535],
			[0,65535,65535]
		],
		[
			[0,65535,65535],
			[0,65535,65535],
			[0,65535,65535],
			[0,65535,65535],
			[0,65535,65535],
			[400,65535,65535],
			[393,1945,65535],
			[394,1946,1421],
			[395,355,1422],
			[396,355,1422],
			[0,380,1422],
			[386,1423,1626],
			[0,387,65535],
			[0,381,65535],
			[394,65535,65535],
			[395,65535,65535],
			[401,65535,65535],
			[0,65535,65535]
		],
		[
			[0,65535,65535],
			[2,65535,65535],
			[0,65535,65535],
			[0,65535,65535],
			[0,65535,65535],
			[406,65535,65535],
			[400,65535,65535],
			[393,65535,65535],
			[403,65535,65535],
			[0,374,65535],
			[0,382,65535],
			[0,387,65535],
			[0,387,65535],
			[0,383,65535],
			[392,375,65535],
			[399,376,65535],
			[397,65535,65535],
			[0,65535,65535]
		],
		[
			[0,65535,65535],
			[0,65535,65535],
			[0,646,65535],
			[0,65535,65535],
			[0,65535,65535],
			[0,65535,65535],
			[0,65535,65535],
			[400,65535,65535],
			[393,65535,65535],
			[377,65535,408],
			[0,384,65535],
			[0,386,65535],
			[0,387,65535],
			[0,386,65535],
			[0,385,65535],
			[379,65535,65535],
			[397,65535,65535],
			[0,65535,65535]
		],
		[
			[0,65535,65535],
			[0,65535,65535],
			[0,65535,65535],
			[0,65535,65535],
			[0,65535,65535],
			[0,65535,65535],
			[0,65535,65535],
			[407,65535,65535],
			[398,65535,65535],
			[403,355,409],
			[0,380,65535],
			[0,387,65535],
			[0,386,65535],
			[0,389,65535],
			[0,381,65535],
			[391,65535,65535],
			[399,65535,65535],
			[2,65535,65535]
		],
		[
			[0,65535,65535],
			[0,65535,65535],
			[0,65535,65535],
			[0,65535,65535],
			[0,647,65535],
			[3,65535,65535],
			[0,65535,65535],
			[0,65535,65535],
			[400,65535,65535],
			[393,65535,65535],
			[0,380,65535],
			[0,387,65535],
			[0,385,65535],
			[378,65535,65535],
			[379,65535,65535],
			[394,65535,65535],
			[401,65535,65535],
			[0,65535,65535]
		],
		[
			[0,65535,65535],
			[0,65535,65535],
			[0,65535,65535],
			[0,65535,65535],
			[0,65535,65535],
			[0,65535,65535],
			[0,65535,65535],
			[357,65535,65535],
			[406,65535,65535],
			[398,65535,65535],
			[377,65535,65535],
			[378,1065,65535],
			[379,65535,65535],
			[403,65535,65535],
			[403,388,65535],
			[391,65535,65535],
			[399,65535,65535],
			[0,65535,65535]
		],
		[
			[0,65535,65535],
			[0,65535,65535],
			[0,65535,65535],
			[0,65535,65535],
			[0,65535,65535],
			[0,65535,65535],
			[356,65535,65535],
			[402,65535,65535],
			[401,65535,65535],
			[398,65535,65535],
			[392,374,65535],
			[392,376,65535],
			[403,65535,65535],
			[403,65535,65535],
			[391,65535,65535],
			[399,65535,65535],
			[0,65535,65535],
			[0,65535,65535]
		],
		[
			[0,65535,65535],
			[0,65535,65535],
			[0,65535,65535],
			[0,65535,65535],
			[0,65535,65535],
			[358,65535,65535],
			[0,65535,65535],
			[398,65535,65535],
			[397,65535,65535],
			[398,65535,65535],
			[0,380,180],
			[0,383,65535],
			[357,375,65535],
			[0,376,65535],
			[394,65535,65535],
			[401,65535,65535],
			[0,65535,65535],
			[358,65535,65535]
		],
		[
			[0,65535,65535],
			[0,65535,65535],
			[0,65535,65535],
			[0,65535,645],
			[0,65535,65535],
			[0,65535,65535],
			[406,65535,65535],
			[400,65535,65535],
			[399,65535,65535],
			[398,65535,65535],
			[377,181,65535],
			[384,65535,65535],
			[395,387,65535],
			[395,383,65535],
			[401,376,65535],
			[397,65535,65535],
			[0,65535,65535],
			[0,65535,65535]
		],
		[
			[0,65535,65535],
			[0,65535,644],
			[346,65535,65535],
			[0,643,65535],
			[0,65535,65535],
			[402,65535,65535],
			[395,65535,1943],
			[401,65535,1944],
			[402,65535,65535],
			[396,65535,408],
			[0,374,65535],
			[0,382,65535],
			[0,386,65535],
			[0,385,65535],
			[379,65535,65535],
			[397,65535,65535],
			[4,65535,65535],
			[0,65535,65535]
		],
		[
			[0,65535,65535],
			[0,642,65535],
			[0,65535,644],
			[345,65535,65535],
			[0,65535,65535],
			[398,65535,65535],
			[403,1949,65535],
			[394,1946,1421],
			[396,1422,410],
			[403,1422,409],
			[0,380,1422],
			[386,1423,1626],
			[0,387,65535],
			[0,383,65535],
			[0,376,65535],
			[394,65535,65535],
			[401,65535,65535],
			[0,65535,65535]
		],
		[
			[0,65535,65535],
			[347,65535,65535],
			[0,643,65535],
			[0,65535,65535],
			[0,65535,65535],
			[400,65535,65535],
			[392,65535,65535],
			[393,65535,65535],
			[403,355,411],
			[0,374,65535],
			[0,382,65535],
			[0,386,65535],
			[0,387,65535],
			[0,386,65535],
			[0,383,65535],
			[0,376,65535],
			[397,65535,65535],
			[0,65535,65535]
		],
		[
			[0,65535,65535],
			[0,65535,65535],
			[0,647,65535],
			[0,65535,65535],
			[0,65535,65535],
			[0,65535,65535],
			[404,65535,65535],
			[398,65535,65535],
			[0,374,65535],
			[0,382,65535],
			[0,386,65535],
			[0,387,65535],
			[0,387,65535],
			[0,386,65535],
			[0,387,65535],
			[0,381,65535],
			[397,65535,65535],
			[0,65535,65535]
		],
		[
			[0,65535,65535],
			[0,646,65535],
			[0,65535,65535],
			[0,65535,65535],
			[0,65535,65535],
			[0,65535,65535],
			[402,65535,65535],
			[396,65535,65535],
			[0,380,65535],
			[0,386,65535],
			[0,386,65535],
			[0,387,65535],
			[0,386,65535],
			[0,387,65535],
			[0,386,65535],
			[0,381,65535],
			[394,65535,65535],
			[401,65535,65535]
		],
		[
			[0,65535,65535],
			[0,65535,65535],
			[0,65535,65535],
			[0,65535,65535],
			[0,65535,65535],
			[0,65535,645],
			[398,65535,65535],
			[0,390,65535],
			[377,65535,65535],
			[0,384,65535],
			[0,387,65535],
			[0,386,65535],
			[0,387,65535],
			[0,386,65535],
			[0,385,65535],
			[379,65535,65535],
			[391,65535,65535],
			[399,65535,65535]
		],
		[
			[0,65535,65535],
			[0,65535,65535],
			[0,65535,65535],
			[0,65535,65535],
			[3,65535,65535],
			[0,642,65535],
			[400,65535,65535],
			[392,65535,65535],
			[393,65535,65535],
			[377,65535,65535],
			[0,384,65535],
			[0,387,65535],
			[0,386,65535],
			[0,385,65535],
			[379,65535,410],
			[391,65535,65535],
			[399,65535,65535],
			[0,65535,65535]
		],
		[
			[0,65535,65535],
			[0,65535,65535],
			[0,65535,65535],
			[0,65535,65535],
			[0,65535,65535],
			[0,65535,65535],
			[0,65535,65535],
			[356,65535,65535],
			[400,65535,65535],
			[393,65535,65535],
			[377,380,65535],
			[378,387,65535],
			[378,387,65535],
			[379,381,65535],
			[403,355,411],
			[397,65535,65535],
			[0,65535,65535],
			[0,65535,65535]
		]
	]
}
