{
	"id": 81,
	"type": 1,
	"width": 18,
	"height": 18,
	"flags": 16,
	"tiles": [
		[
			[0,65535,65535],
			[0,65535,65535],
			[0,65535,65535],
			[0,65535,65535],
			[0,65535,65535],
			[0,65535,65535],
			[0,65535,65535],
			[0,65535,65535],
			[0,65535,65535],
			[0,65535,65535],
			[0,65535,65535],
			[0,65535,65535],
			[0,65535,65535],
			[0,65535,65535],
			[0,65535,65535],
			[0,65535,65535],
			[0,65535,65535],
			[0,65535,65535]
		],
		[
			[0,65535,65535],
			[0,65535,65535],
			[0,65535,65535],
			[0,65535,65535],
			[0,65535,65535],
			[0,65535,65535],
			[0,65535,65535],
			[0,65535,65535],
			[0,65535,65535],
			[0,65535,65535],
			[0,65535,65535],
			[0,65535,65535],
			[0,65535,65535],
			[0,65535,65535],
			[99,65535,65535],
			[0,65535,65535],
			[0,65535,65535],
			[0,65535,65535]
		],
		[
			[0,65535,65535],
			[4,65535,65535],
			[0,65535,65535],
			[0,65535,124],
			[0,65535,125],
			[0,65535,125],
			[0,65535,125],
			[0,65535,126],
			[0,65535,125],
			[0,65535,127],
			[0,65535,65535],
			[0,65535,168],
			[0,65535,65535],
			[0,65535,65535],
			[0,65535,65535],
			[0,65535,65535],
			[0,65535,65535],
			[0,65535,65535]
		],
		[
			[0,65535,65535],
			[0,65535,65535],
			[0,65535,65535],
			[0,128,65535],
			[0,129,65535],
			[0,129,65535],
			[0,129,185],
			[0,130,65535],
			[0,129,65535],
			[0,131,65535],
			[0,65535,65535],
			[0,169,65535],
			[0,65535,118],
			[0,65535,119],
			[0,65535,120],
			[0,65535,65535],
			[0,65535,65535],
			[0,65535,65535]
		],
		[
			[0,65535,65535],
			[0,65535,65535],
			[0,65535,65535],
			[0,128,158],
			[0,129,163],
			[0,129,65535],
			[0,129,65535],
			[0,130,65535],
			[0,129,65535],
			[0,131,65535],
			[0,65535,65535],
			[0,65535,65535],
			[0,121,65535],
			[0,122,65535],
			[0,123,65535],
			[0,65535,65535],
			[0,65535,65535],
			[0,65535,65535]
		],
		[
			[0,65535,65535],
			[0,65535,65535],
			[0,65535,65535],
			[0,156,158],
			[0,133,65535],
			[0,133,65535],
			[0,133,65535],
			[0,142,65535],
			[0,133,65535],
			[0,135,65535],
			[0,359,65535],
			[0,65535,65535],
			[0,136,65535],
			[0,115,65535],
			[0,139,65535],
			[353,65535,65535],
			[0,65535,65535],
			[0,65535,65535]
		],
		[
			[0,65535,65535],
			[0,65535,65535],
			[0,359,65535],
			[0,136,65535],
			[0,141,65535],
			[0,140,65535],
			[0,146,65535],
			[147,65535,65535],
			[0,148,65535],
			[0,139,65535],
			[281,65535,65535],
			[364,65535,65535],
			[366,65535,65535],
			[346,65535,65535],
			[282,65535,65535],
			[0,65535,65535],
			[0,65535,65535],
			[0,65535,65535]
		],
		[
			[0,65535,65535],
			[357,65535,65535],
			[0,65535,65535],
			[0,172,65535],
			[0,128,65535],
			[0,131,65535],
			[0,65535,65535],
			[282,65535,65535],
			[2,65535,65535],
			[0,354,65535],
			[358,65535,65535],
			[370,65535,65535],
			[371,65535,65535],
			[281,65535,65535],
			[3,65535,65535],
			[0,65535,65535],
			[0,65535,65535],
			[0,65535,65535]
		],
		[
			[0,65535,65535],
			[0,65535,65535],
			[0,65535,65535],
			[0,65535,65535],
			[0,128,65535],
			[0,131,65535],
			[281,65535,65535],
			[282,65535,65535],
			[345,65535,65535],
			[281,65535,65535],
			[0,65535,65535],
			[0,65535,352],
			[0,65535,65535],
			[0,65535,65535],
			[0,65535,65535],
			[356,65535,65535],
			[0,65535,65535],
			[0,65535,65535]
		],
		[
			[0,65535,65535],
			[0,65535,65535],
			[0,265,65535],
			[0,266,65535],
			[0,156,65535],
			[0,135,65535],
			[4,65535,65535],
			[0,65535,65535],
			[281,65535,65535],
			[0,65535,65535],
			[99,65535,65535],
			[0,351,65535],
			[0,65535,65535],
			[281,65535,65535],
			[347,65535,65535],
			[0,65535,65535],
			[0,65535,65535],
			[0,65535,65535]
		],
		[
			[0,65535,65535],
			[358,65535,65535],
			[0,65535,65535],
			[0,186,65535],
			[0,136,65535],
			[0,139,65535],
			[0,65535,65535],
			[282,65535,65535],
			[364,65535,65535],
			[366,65535,65535],
			[0,65535,65535],
			[0,65535,65535],
			[0,65535,65535],
			[281,65535,65535],
			[0,65535,65535],
			[0,65535,65535],
			[0,65535,65535],
			[0,65535,65535]
		],
		[
			[0,65535,65535],
			[0,65535,65535],
			[0,65535,65535],
			[0,65535,65535],
			[282,65535,65535],
			[281,65535,65535],
			[99,65535,65535],
			[0,65535,65535],
			[367,65535,65535],
			[369,65535,65535],
			[0,65535,65535],
			[357,65535,65535],
			[0,65535,65535],
			[365,65535,65535],
			[0,65535,65535],
			[0,65535,65535],
			[0,65535,65535],
			[0,65535,65535]
		],
		[
			[0,65535,65535],
			[0,65535,65535],
			[0,65535,65535],
			[0,65535,65535],
			[356,65535,65535],
			[0,65535,65535],
			[0,65535,65535],
			[0,65535,65535],
			[0,360,65535],
			[0,65535,65535],
			[282,65535,65535],
			[282,65535,65535],
			[364,65535,65535],
			[368,65535,65535],
			[366,65535,65535],
			[0,65535,65535],
			[0,65535,65535],
			[0,65535,65535]
		],
		[
			[0,65535,65535],
			[0,65535,65535],
			[0,65535,65535],
			[0,65535,65535],
			[0,65535,65535],
			[98,65535,65535],
			[0,65535,65535],
			[0,65535,65535],
			[0,65535,65535],
			[0,65535,65535],
			[100,65535,65535],
			[0,65535,65535],
			[372,65535,65535],
			[370,65535,65535],
			[371,65535,65535],
			[0,65535,65535],
			[0,65535,65535],
			[0,65535,65535]
		],
		[
			[0,65535,65535],
			[0,65535,65535],
			[2,65535,65535],
			[0,65535,65535],
			[0,65535,65535],
			[0,65535,65535],
			[0,65535,65535],
			[364,65535,65535],
			[366,65535,65535],
			[0,65535,65535],
			[0,65535,65535],
			[0,65535,65535],
			[0,65535,65535],
			[0,65535,65535],
			[0,108,65535],
			[0,109,65535],
			[0,65535,65535],
			[0,65535,65535]
		],
		[
			[0,65535,65535],
			[0,65535,65535],
			[0,65535,65535],
			[0,65535,65535],
			[0,65535,65535],
			[0,65535,65535],
			[367,65535,65535],
			[368,65535,65535],
			[368,65535,65535],
			[369,65535,65535],
			[0,65535,65535],
			[0,65535,65535],
			[0,65535,65535],
			[0,65535,65535],
			[0,110,65535],
			[0,111,65535],
			[0,65535,65535],
			[0,65535,65535]
		],
		[
			[0,65535,65535],
			[0,65535,65535],
			[0,65535,65535],
			[0,65535,65535],
			[0,65535,65535],
			[0,65535,65535],
			[370,65535,65535],
			[372,65535,65535],
			[371,65535,65535],
			[0,65535,65535],
			[0,65535,65535],
			[0,65535,65535],
			[0,65535,65535],
			[0,65535,65535],
			[0,65535,65535],
			[0,65535,65535],
			[0,65535,65535],
			[0,65535,65535]
		],
		[
			[0,65535,65535],
			[0,65535,65535],
			[0,65535,65535],
			[0,65535,65535],
			[0,65535,65535],
			[0,65535,65535],
			[0,65535,65535],
			[0,65535,65535],
			[0,65535,65535],
			[0,65535,65535],
			[0,65535,65535],
			[0,65535,65535],
			[0,65535,65535],
			[0,65535,65535],
			[0,65535,65535],
			[0,65535,65535],
			[0,65535,65535],
			[0,65535,65535]
		]
	]
}
