{
	"id": 87,
	"type": 1,
	"width": 18,
	"height": 18,
	"flags": 16,
	"tiles": [
		[
			[0,65535,65535],
			[0,65535,65535],
			[0,65535,65535],
			[0,65535,65535],
			[0,65535,65535],
			[0,65535,65535],
			[0,65535,65535],
			[0,65535,65535],
			[0,89,65535],
			[0,65535,65535],
			[0,65535,65535],
			[0,65535,65535],
			[0,65535,65535],
			[0,65535,65535],
			[0,65535,65535],
			[0,65535,65535],
			[0,65535,65535],
			[0,65535,65535]
		],
		[
			[0,65535,65535],
			[0,65535,65535],
			[0,65535,65535],
			[0,65535,65535],
			[0,65535,65535],
			[0,65535,65535],
			[0,65535,65535],
			[0,90,65535],
			[0,87,65535],
			[0,91,65535],
			[345,65535,65535],
			[0,65535,65535],
			[0,65535,65535],
			[0,65535,65535],
			[0,65535,65535],
			[358,65535,65535],
			[0,65535,65535],
			[0,65535,65535]
		],
		[
			[0,65535,65535],
			[0,65535,65535],
			[0,89,65535],
			[98,65535,65535],
			[0,89,65535],
			[0,65535,65535],
			[98,65535,65535],
			[94,65535,65535],
			[0,87,65535],
			[95,65535,65535],
			[0,65535,65535],
			[346,65535,65535],
			[0,65535,65535],
			[347,65535,65535],
			[0,65535,65535],
			[0,65535,65535],
			[0,65535,645],
			[0,65535,65535]
		],
		[
			[0,65535,65535],
			[0,65535,65535],
			[94,65535,65535],
			[93,90,65535],
			[95,65535,65535],
			[99,65535,65535],
			[0,65535,65535],
			[100,65535,65535],
			[88,65535,65535],
			[0,65535,65535],
			[0,86,65535],
			[0,65535,65535],
			[0,65535,65535],
			[0,65535,65535],
			[0,65535,65535],
			[0,646,65535],
			[0,643,65535],
			[0,65535,65535]
		],
		[
			[0,65535,65535],
			[0,65535,65535],
			[0,65535,65535],
			[88,65535,65535],
			[0,65535,65535],
			[0,65535,65535],
			[0,65535,65535],
			[0,65535,65535],
			[0,65535,65535],
			[0,65535,65535],
			[0,65535,65535],
			[0,65535,65535],
			[0,65535,65535],
			[192,65,65535],
			[0,52,65535],
			[4,65535,65535],
			[0,647,65535],
			[3,65535,65535]
		],
		[
			[0,65535,65535],
			[0,65535,65535],
			[0,65535,65535],
			[0,65535,65535],
			[0,65535,65535],
			[0,65535,65535],
			[0,65535,65535],
			[0,65535,65535],
			[3,7,65535],
			[0,65535,65535],
			[0,65535,65535],
			[0,65535,65535],
			[0,65535,65535],
			[0,58,65535],
			[2,50,114],
			[0,40,644],
			[345,65535,65535],
			[0,65535,65535]
		],
		[
			[0,65535,65535],
			[0,65535,65535],
			[0,65535,65535],
			[0,65535,65535],
			[0,7,65535],
			[4,65535,65535],
			[0,65535,65535],
			[0,7,65535],
			[11,7,65535],
			[0,7,65535],
			[0,65535,65535],
			[0,65535,65535],
			[2,7,65535],
			[0,56,65535],
			[0,65535,65535],
			[0,642,65535],
			[0,65535,65535],
			[346,65535,65535]
		],
		[
			[0,65535,65535],
			[0,65535,65535],
			[0,65535,65535],
			[192,65,65535],
			[0,49,65535],
			[0,49,113],
			[0,49,65535],
			[0,49,65535],
			[0,49,65535],
			[0,49,65535],
			[0,49,113],
			[0,49,65535],
			[0,49,65535],
			[0,68,65535],
			[347,65535,65535],
			[357,65535,65535],
			[0,65535,65535],
			[0,65535,65535]
		],
		[
			[0,65535,65535],
			[0,90,65535],
			[0,91,65535],
			[0,58,65535],
			[0,50,114],
			[0,50,65535],
			[0,50,114],
			[0,50,65535],
			[82,73,65535],
			[0,50,65535],
			[0,50,65535],
			[0,50,114],
			[0,50,65535],
			[0,69,65535],
			[0,1355,65535],
			[0,1356,65535],
			[0,65535,65535],
			[0,65535,65535]
		],
		[
			[0,65535,65535],
			[94,65535,65535],
			[95,65535,65535],
			[0,56,65535],
			[98,65535,65535],
			[100,65535,65535],
			[0,65535,65535],
			[356,65535,65535],
			[99,65535,65535],
			[0,65535,65535],
			[0,65535,65535],
			[0,65535,65535],
			[0,65535,65535],
			[100,65535,65535],
			[0,90,65535],
			[0,91,65535],
			[0,65535,65535],
			[0,65535,65535]
		],
		[
			[0,65535,65535],
			[0,65535,65535],
			[100,65535,65535],
			[0,42,65535],
			[99,65535,65535],
			[0,90,65535],
			[0,91,65535],
			[0,65535,65535],
			[0,90,65535],
			[0,91,65535],
			[0,65535,65535],
			[406,65535,65535],
			[0,1355,65535],
			[0,1356,65535],
			[94,65535,65535],
			[95,65535,65535],
			[0,65535,65535],
			[0,65535,65535]
		],
		[
			[0,65535,65535],
			[0,39,65535],
			[0,40,65535],
			[0,90,65535],
			[0,91,65535],
			[88,65535,65535],
			[0,96,65535],
			[92,65535,65535],
			[0,87,65535],
			[94,87,65535],
			[93,65535,65535],
			[0,65535,65535],
			[0,89,65535],
			[0,65535,65535],
			[98,65535,65535],
			[0,65535,65535],
			[99,65535,65535],
			[0,65535,65535]
		],
		[
			[0,65535,65535],
			[0,65535,65535],
			[407,65535,65535],
			[94,65535,65535],
			[95,87,65535],
			[93,65535,65535],
			[88,65535,65535],
			[0,86,65535],
			[88,65535,65535],
			[0,96,65535],
			[0,65535,65535],
			[0,90,65535],
			[0,87,65535],
			[0,91,65535],
			[0,65535,65535],
			[0,65535,65535],
			[0,65535,65535],
			[0,65535,65535]
		],
		[
			[0,65535,65535],
			[0,65535,65535],
			[0,65535,65535],
			[0,65535,65535],
			[88,65535,65535],
			[0,65535,65535],
			[0,65535,65535],
			[0,65535,65535],
			[92,65535,65535],
			[0,87,65535],
			[0,91,65535],
			[94,65535,65535],
			[0,87,65535],
			[95,65535,65535],
			[0,65535,65535],
			[0,65535,65535],
			[0,65535,65535],
			[0,65535,65535]
		],
		[
			[0,65535,65535],
			[0,65535,65535],
			[0,65535,65535],
			[0,65535,65535],
			[0,65535,65535],
			[0,65535,65535],
			[0,65535,65535],
			[0,65535,65535],
			[0,65535,65535],
			[94,65535,65535],
			[95,65535,65535],
			[0,65535,65535],
			[88,65535,65535],
			[0,65535,65535],
			[0,65535,65535],
			[0,65535,65535],
			[0,65535,65535],
			[0,65535,65535]
		],
		[
			[0,65535,65535],
			[0,65535,65535],
			[98,65535,65535],
			[0,65535,65535],
			[0,65535,65535],
			[0,65535,65535],
			[0,65535,65535],
			[0,65535,65535],
			[0,65535,65535],
			[0,65535,65535],
			[0,65535,65535],
			[0,65535,65535],
			[0,65535,65535],
			[0,65535,65535],
			[0,65535,65535],
			[0,65535,65535],
			[0,65535,65535],
			[0,65535,65535]
		],
		[
			[0,65535,65535],
			[0,65535,65535],
			[0,65535,65535],
			[0,65535,65535],
			[346,65535,65535],
			[0,65535,65535],
			[0,65535,65535],
			[0,65535,65535],
			[0,65535,65535],
			[345,65535,65535],
			[0,65535,65535],
			[0,65535,65535],
			[0,65535,65535],
			[0,65535,65535],
			[0,65535,65535],
			[0,65535,65535],
			[0,65535,65535],
			[0,65535,65535]
		],
		[
			[0,65535,65535],
			[0,65535,65535],
			[0,65535,65535],
			[0,65535,65535],
			[0,65535,65535],
			[0,65535,65535],
			[0,65535,65535],
			[0,65535,65535],
			[0,65535,65535],
			[0,65535,65535],
			[0,65535,65535],
			[0,65535,65535],
			[0,65535,65535],
			[0,65535,65535],
			[0,65535,65535],
			[0,65535,65535],
			[0,65535,65535],
			[0,65535,65535]
		]
	]
}
