{
	"id": 88,
	"type": 1,
	"width": 9,
	"height": 9,
	"flags": 8,
	"tiles": [
		[
			[197,195,65535],
			[197,235,65535],
			[197,236,65535],
			[189,236,65535],
			[197,236,65535],
			[197,236,65535],
			[197,236,65535],
			[197,238,65535],
			[197,195,65535]
		],
		[
			[192,195,65535],
			[2041,239,65535],
			[2041,257,1173],
			[2041,65535,65535],
			[2041,1059,65535],
			[2041,65535,65535],
			[2041,257,1172],
			[2041,240,65535],
			[2041,195,65535]
		],
		[
			[192,195,65535],
			[2041,239,65535],
			[2041,65535,65535],
			[2041,65535,65535],
			[2041,65535,65535],
			[2041,65535,65535],
			[2041,65535,65535],
			[2041,240,270],
			[2041,195,65535]
		],
		[
			[192,195,65535],
			[2041,239,65535],
			[2041,257,262],
			[192,235,65535],
			[2043,65535,230],
			[192,238,65535],
			[2041,65535,65535],
			[2041,240,65535],
			[65535,195,65535]
		],
		[
			[192,196,65535],
			[197,241,65535],
			[197,236,621],
			[203,246,65535],
			[2041,65535,65535],
			[192,247,65535],
			[192,236,621],
			[197,242,65535],
			[192,198,65535]
		],
		[
			[192,202,65535],
			[192,65535,65535],
			[192,65535,65535],
			[192,65535,65535],
			[2041,65535,65535],
			[192,65535,65535],
			[192,65535,65535],
			[192,65535,65535],
			[192,201,65535]
		],
		[
			[192,202,65535],
			[192,190,65535],
			[192,65535,65535],
			[192,65535,65535],
			[2041,65535,65535],
			[192,65535,65535],
			[192,65535,65535],
			[192,190,65535],
			[192,201,65535]
		],
		[
			[192,202,65535],
			[192,65535,65535],
			[192,65535,65535],
			[192,65535,65535],
			[2041,65535,65535],
			[192,65535,65535],
			[192,65535,65535],
			[192,65535,65535],
			[192,201,65535]
		],
		[
			[192,195,65535],
			[192,218,65535],
			[192,218,65535],
			[192,206,65535],
			[2041,65535,65535],
			[192,205,65535],
			[192,218,65535],
			[192,218,65535],
			[192,195,65535]
		]
	]
}
