{
	"id": 91,
	"type": 1,
	"width": 18,
	"height": 18,
	"flags": 16,
	"tiles": [
		[
			[0,65535,65535],
			[0,65535,65535],
			[0,65535,65535],
			[0,65535,65535],
			[0,65535,65535],
			[0,65535,65535],
			[0,65535,65535],
			[0,65535,65535],
			[0,65535,65535],
			[0,65535,65535],
			[0,65535,65535],
			[0,65535,65535],
			[0,65535,65535],
			[0,65535,65535],
			[0,65535,65535],
			[0,65535,65535],
			[0,65535,65535],
			[0,65535,65535]
		],
		[
			[0,65535,65535],
			[0,65535,65535],
			[0,65535,65535],
			[0,65535,65535],
			[0,65535,65535],
			[0,65535,65535],
			[0,65535,65535],
			[0,65535,65535],
			[0,65535,65535],
			[358,65535,65535],
			[0,65535,65535],
			[0,65535,65535],
			[0,65535,65535],
			[0,65535,65535],
			[0,65535,65535],
			[0,65535,65535],
			[0,65535,65535],
			[0,65535,65535]
		],
		[
			[0,65535,65535],
			[0,65535,65535],
			[0,65535,65535],
			[0,65535,118],
			[0,65535,119],
			[0,65535,120],
			[0,65535,65535],
			[402,65535,65535],
			[395,65535,65535],
			[395,65535,65535],
			[401,65535,65535],
			[0,65535,65535],
			[4,65535,65535],
			[402,65535,65535],
			[401,65535,65535],
			[0,65535,65535],
			[0,65535,65535],
			[0,65535,65535]
		],
		[
			[0,65535,65535],
			[0,65535,65535],
			[0,65535,65535],
			[0,121,65535],
			[0,122,65535],
			[0,123,65535],
			[357,65535,65535],
			[398,65535,65535],
			[403,65535,65535],
			[403,65535,65535],
			[394,65535,65535],
			[395,65535,65535],
			[401,65535,65535],
			[400,65535,65535],
			[399,65535,65535],
			[0,65535,65535],
			[0,65535,65535],
			[0,65535,65535]
		],
		[
			[0,65535,65535],
			[0,65535,65535],
			[2,65535,65535],
			[0,136,65535],
			[151,152,65535],
			[0,139,65535],
			[402,65535,65535],
			[396,355,410],
			[1579,65535,65535],
			[403,65535,408],
			[403,65535,65535],
			[403,65535,65535],
			[397,65535,65535],
			[0,65535,65535],
			[0,65535,65535],
			[407,65535,65535],
			[0,65535,65535],
			[0,65535,65535]
		],
		[
			[402,65535,65535],
			[395,65535,65535],
			[395,65535,65535],
			[401,65535,65535],
			[356,65535,65535],
			[402,65535,65535],
			[396,65535,65535],
			[403,355,411],
			[403,65535,65535],
			[403,355,409],
			[1577,65535,65535],
			[403,65535,65535],
			[394,65535,65535],
			[401,65535,65535],
			[356,65535,65535],
			[0,65535,65535],
			[0,65535,65535],
			[0,65535,65535]
		],
		[
			[398,65535,65535],
			[403,65535,65535],
			[403,65535,65535],
			[397,65535,65535],
			[402,65535,65535],
			[396,65535,65535],
			[403,65535,410],
			[0,374,65535],
			[0,375,65535],
			[0,375,65535],
			[0,375,65535],
			[0,376,65535],
			[1579,65535,65535],
			[394,65535,65535],
			[395,65535,65535],
			[401,65535,65535],
			[0,65535,65535],
			[0,65535,65535]
		],
		[
			[400,65535,65535],
			[392,65535,65535],
			[392,65535,65535],
			[399,65535,65535],
			[398,65535,65535],
			[403,65535,65535],
			[403,355,411],
			[0,380,65535],
			[0,387,65535],
			[0,386,65535],
			[0,386,65535],
			[0,383,65535],
			[0,376,65535],
			[403,65535,65535],
			[0,390,65535],
			[397,65535,65535],
			[0,65535,65535],
			[0,65535,65535]
		],
		[
			[0,65535,65535],
			[0,65535,65535],
			[357,65535,65535],
			[358,65535,65535],
			[398,65535,65535],
			[1578,65535,65535],
			[403,65535,65535],
			[0,380,65535],
			[0,386,65535],
			[0,387,65535],
			[0,386,65535],
			[0,386,65535],
			[0,381,65535],
			[391,65535,65535],
			[392,65535,65535],
			[399,65535,65535],
			[0,65535,65535],
			[0,65535,65535]
		],
		[
			[0,65535,65535],
			[0,65535,65535],
			[0,65535,65535],
			[402,65535,65535],
			[396,65535,65535],
			[403,388,65535],
			[1575,65535,65535],
			[0,380,65535],
			[0,386,65535],
			[0,386,65535],
			[0,387,65535],
			[0,386,65535],
			[0,381,65535],
			[394,65535,65535],
			[401,65535,65535],
			[357,65535,65535],
			[0,65535,65535],
			[0,65535,65535]
		],
		[
			[0,65535,65535],
			[0,65535,65535],
			[0,65535,65535],
			[398,65535,65535],
			[403,65535,65535],
			[1576,65535,65535],
			[403,65535,65535],
			[377,65535,65535],
			[378,65535,65535],
			[0,384,65535],
			[0,386,65535],
			[0,387,65535],
			[0,381,65535],
			[391,65535,65535],
			[399,65535,65535],
			[402,65535,65535],
			[401,65535,65535],
			[0,65535,65535]
		],
		[
			[0,65535,65535],
			[0,65535,65535],
			[406,65535,65535],
			[400,65535,65535],
			[392,65535,65535],
			[392,65535,65535],
			[393,65535,65535],
			[403,65535,65535],
			[403,65535,408],
			[377,65535,65535],
			[378,65535,65535],
			[378,65535,410],
			[379,65535,65535],
			[394,65535,65535],
			[401,65535,65535],
			[398,65535,65535],
			[394,65535,65535],
			[401,65535,65535]
		],
		[
			[0,65535,65535],
			[0,65535,65535],
			[0,65535,65535],
			[0,65535,65535],
			[356,65535,65535],
			[404,65535,65535],
			[398,65535,65535],
			[403,65535,65535],
			[403,355,409],
			[403,65535,65535],
			[403,65535,408],
			[403,355,411],
			[1578,65535,65535],
			[403,65535,65535],
			[397,65535,65535],
			[398,65535,65535],
			[391,65535,65535],
			[399,65535,65535]
		],
		[
			[0,65535,65535],
			[0,65535,65535],
			[0,65535,65535],
			[0,65535,65535],
			[2,65535,65535],
			[0,65535,65535],
			[400,65535,65535],
			[392,65535,65535],
			[393,65535,65535],
			[1579,65535,65535],
			[403,355,409],
			[403,65535,65535],
			[403,65535,65535],
			[391,65535,65535],
			[399,65535,65535],
			[400,65535,65535],
			[399,65535,65535],
			[358,65535,65535]
		],
		[
			[0,65535,65535],
			[0,65535,65535],
			[402,65535,65535],
			[395,65535,65535],
			[395,65535,65535],
			[401,65535,65535],
			[0,65535,65535],
			[402,65535,65535],
			[396,65535,65535],
			[403,65535,65535],
			[403,65535,65535],
			[403,65535,65535],
			[1577,65535,65535],
			[394,65535,65535],
			[395,65535,65535],
			[401,65535,65535],
			[0,65535,65535],
			[0,65535,65535]
		],
		[
			[0,65535,65535],
			[0,65535,65535],
			[400,65535,65535],
			[392,65535,65535],
			[392,65535,65535],
			[399,65535,65535],
			[0,65535,65535],
			[400,65535,65535],
			[393,65535,65535],
			[403,65535,65535],
			[391,65535,65535],
			[392,65535,65535],
			[393,65535,65535],
			[391,65535,65535],
			[392,65535,65535],
			[399,65535,65535],
			[357,65535,65535],
			[0,65535,65535]
		],
		[
			[0,65535,65535],
			[3,65535,65535],
			[0,65535,65535],
			[0,65535,65535],
			[0,65535,65535],
			[0,65535,65535],
			[356,65535,65535],
			[0,65535,65535],
			[400,65535,65535],
			[392,65535,65535],
			[399,65535,65535],
			[407,65535,65535],
			[398,65535,65535],
			[397,65535,65535],
			[358,65535,65535],
			[0,65535,65535],
			[0,65535,65535],
			[0,65535,65535]
		],
		[
			[0,65535,65535],
			[0,65535,65535],
			[0,65535,65535],
			[0,65535,65535],
			[0,65535,65535],
			[0,65535,65535],
			[0,65535,65535],
			[0,65535,65535],
			[0,65535,65535],
			[0,65535,65535],
			[0,65535,65535],
			[0,65535,65535],
			[400,65535,65535],
			[399,65535,65535],
			[0,65535,65535],
			[0,65535,65535],
			[0,65535,65535],
			[0,65535,65535]
		]
	]
}
