{
	"id": 95,
	"type": 5,
	"width": 18,
	"height": 18,
	"flags": 1,
	"tiles": [
		[
			[0,915,875],
			[858,915,875],
			[858,915,875],
			[858,913,876],
			[858,917,65535],
			[858,917,65535],
			[858,915,906],
			[858,915,907],
			[0,915,907],
			[858,915,907],
			[858,915,907],
			[858,913,908],
			[858,915,944],
			[858,915,945],
			[858,915,945],
			[858,915,875],
			[858,915,875],
			[858,915,875]
		],
		[
			[858,915,875],
			[858,915,875],
			[858,915,875],
			[903,65535,876],
			[905,65535,65535],
			[905,65535,65535],
			[903,914,65535],
			[858,915,65535],
			[0,915,65535],
			[858,915,871],
			[858,915,873],
			[858,915,944],
			[903,65535,945],
			[903,916,942],
			[903,355,906],
			[858,355,907],
			[858,355,910],
			[858,915,875]
		],
		[
			[858,915,907],
			[858,915,909],
			[858,915,907],
			[858,919,908],
			[858,923,65535],
			[858,920,65535],
			[902,65535,65535],
			[903,65535,871],
			[903,65535,872],
			[903,65535,877],
			[903,65535,878],
			[903,65535,873],
			[905,65535,942],
			[904,65535,940],
			[858,914,65535],
			[903,915,65535],
			[903,915,874],
			[858,915,875]
		],
		[
			[858,915,65535],
			[858,917,65535],
			[858,915,944],
			[924,916,945],
			[858,929,946],
			[858,928,65535],
			[858,920,65535],
			[858,914,906],
			[858,915,907],
			[858,914,910],
			[858,915,875],
			[858,65535,876],
			[858,65535,940],
			[905,1202,65535],
			[904,1203,65535],
			[858,1204,65535],
			[903,355,906],
			[858,355,910]
		],
		[
			[903,65535,65535],
			[905,65535,65535],
			[903,65535,941],
			[904,65535,942],
			[921,65535,943],
			[924,65535,65535],
			[922,65535,65535],
			[858,914,65535],
			[0,915,65535],
			[858,915,874],
			[858,915,875],
			[936,65535,876],
			[858,937,65535],
			[858,1205,65535],
			[857,1206,65535],
			[0,1207,65535],
			[858,914,65535],
			[858,915,874]
		],
		[
			[858,65535,65535],
			[858,65535,65535],
			[858,65535,65535],
			[858,65535,940],
			[858,65535,65535],
			[858,65535,65535],
			[856,65535,65535],
			[902,65535,65535],
			[903,65535,65535],
			[903,65535,906],
			[903,65535,910],
			[858,65535,878],
			[858,65535,872],
			[858,1208,873],
			[1209,65535,65535],
			[858,1210,65535],
			[902,65535,65535],
			[903,355,874]
		],
		[
			[858,65535,65535],
			[858,65535,944],
			[936,65535,945],
			[858,937,946],
			[938,65535,65535],
			[919,919,65535],
			[923,923,2035],
			[920,920,65535],
			[858,65535,65535],
			[858,914,65535],
			[858,915,906],
			[858,915,907],
			[858,915,907],
			[858,65535,908],
			[858,65535,65535],
			[858,919,65535],
			[858,923,65535],
			[858,923,874]
		],
		[
			[858,65535,65535],
			[858,65535,941],
			[858,65535,942],
			[858,919,943],
			[858,923,65535],
			[927,927,2035],
			[932,65535,2035],
			[928,928,2035],
			[920,920,65535],
			[902,65535,65535],
			[903,914,65535],
			[903,915,65535],
			[0,915,65535],
			[858,916,65535],
			[858,65535,65535],
			[858,925,65535],
			[858,855,65535],
			[858,918,874]
		],
		[
			[858,65535,65535],
			[858,65535,65535],
			[858,65535,940],
			[921,65535,65535],
			[858,929,65535],
			[855,65535,2035],
			[918,65535,2035],
			[918,65535,2035],
			[926,926,944],
			[858,65535,945],
			[902,65535,946],
			[903,65535,65535],
			[903,65535,65535],
			[904,65535,65535],
			[858,65535,65535],
			[921,65535,65535],
			[858,929,65535],
			[858,918,874]
		],
		[
			[857,65535,65535],
			[936,65535,65535],
			[858,937,65535],
			[938,938,65535],
			[921,925,944],
			[858,929,945],
			[918,65535,946],
			[918,65535,2035],
			[928,928,65535],
			[858,923,934],
			[858,923,65535],
			[858,920,65535],
			[858,65535,65535],
			[858,65535,65535],
			[858,65535,65535],
			[858,65535,65535],
			[921,65535,871],
			[924,355,877]
		],
		[
			[858,65535,933],
			[858,919,65535],
			[858,923,65535],
			[923,65535,2035],
			[927,65535,2035],
			[855,65535,934],
			[918,65535,2035],
			[855,65535,2035],
			[858,930,65535],
			[924,935,65535],
			[924,65535,65535],
			[922,65535,65535],
			[858,65535,65535],
			[858,65535,65535],
			[858,65535,65535],
			[858,65535,871],
			[858,355,877],
			[858,915,875]
		],
		[
			[858,65535,934],
			[921,65535,65535],
			[918,929,65535],
			[855,65535,2035],
			[858,930,65535],
			[924,935,65535],
			[858,929,65535],
			[918,65535,2035],
			[858,928,65535],
			[858,923,65535],
			[858,923,65535],
			[858,923,65535],
			[858,920,65535],
			[856,65535,65535],
			[858,65535,65535],
			[858,65535,906],
			[858,915,907],
			[858,915,910]
		],
		[
			[858,935,65535],
			[858,65535,65535],
			[858,925,65535],
			[918,65535,2035],
			[858,928,65535],
			[858,923,871],
			[858,927,872],
			[855,65535,873],
			[918,65535,2035],
			[855,930,65535],
			[918,929,65535],
			[855,855,65535],
			[858,928,65535],
			[858,920,944],
			[858,65535,945],
			[858,914,946],
			[903,915,65535],
			[858,916,874]
		],
		[
			[856,65535,65535],
			[858,65535,944],
			[858,925,945],
			[918,65535,946],
			[918,65535,2035],
			[918,65535,911],
			[918,355,907],
			[918,65535,908],
			[918,65535,2035],
			[858,926,65535],
			[858,925,65535],
			[858,930,65535],
			[924,65535,65535],
			[922,65535,941],
			[858,65535,942],
			[902,65535,871],
			[903,65535,872],
			[904,355,877]
		],
		[
			[858,65535,65535],
			[858,931,941],
			[921,921,942],
			[924,924,871],
			[924,924,877],
			[924,915,876],
			[924,915,65535],
			[924,916,65535],
			[924,929,65535],
			[858,928,65535],
			[858,927,65535],
			[858,928,65535],
			[858,920,65535],
			[858,65535,65535],
			[858,65535,940],
			[858,65535,906],
			[858,355,909],
			[858,355,907]
		],
		[
			[858,65535,873],
			[858,65535,65535],
			[858,65535,940],
			[858,65535,906],
			[902,65535,907],
			[903,65535,908],
			[903,65535,65535],
			[904,65535,65535],
			[921,65535,65535],
			[924,929,65535],
			[855,930,65535],
			[924,65535,933],
			[922,65535,65535],
			[858,65535,65535],
			[858,939,65535],
			[938,914,65535],
			[903,917,65535],
			[858,915,871]
		],
		[
			[858,355,878],
			[936,65535,873],
			[858,937,65535],
			[938,65535,914],
			[858,915,65535],
			[858,916,65535],
			[856,65535,65535],
			[858,65535,65535],
			[858,931,65535],
			[921,65535,65535],
			[922,65535,65535],
			[858,935,65535],
			[858,65535,65535],
			[858,65535,65535],
			[856,65535,65535],
			[902,65535,871],
			[905,65535,872],
			[903,355,877]
		],
		[
			[858,915,875],
			[858,65535,876],
			[858,65535,65535],
			[902,65535,65535],
			[903,65535,65535],
			[904,65535,944],
			[858,65535,945],
			[858,65535,946],
			[858,65535,65535],
			[858,65535,65535],
			[858,65535,65535],
			[857,65535,65535],
			[858,65535,65535],
			[858,919,65535],
			[858,920,871],
			[858,65535,877],
			[858,915,875],
			[0,915,875]
		]
	]
}
