{
	"id": 98,
	"type": 2,
	"width": 18,
	"height": 18,
	"flags": 1,
	"tiles": [
		[
			[648,65535,65535],
			[648,65535,65535],
			[648,65535,65535],
			[648,65535,65535],
			[648,65535,65535],
			[648,65535,65535],
			[648,65535,65535],
			[648,65535,65535],
			[648,65535,65535],
			[1000,65535,65535],
			[648,65535,65535],
			[648,65535,65535],
			[648,65535,65535],
			[648,65535,65535],
			[648,65535,65535],
			[648,65535,65535],
			[648,65535,65535],
			[1000,65535,65535]
		],
		[
			[648,65535,65535],
			[648,65535,65535],
			[648,65535,65535],
			[648,65535,65535],
			[648,65535,65535],
			[648,65535,65535],
			[648,65535,65535],
			[648,65535,65535],
			[648,65535,65535],
			[648,65535,65535],
			[648,65535,65535],
			[648,65535,65535],
			[648,65535,65535],
			[648,65535,65535],
			[648,65535,65535],
			[648,65535,65535],
			[997,65535,65535],
			[648,65535,65535]
		],
		[
			[648,65535,65535],
			[998,65535,65535],
			[648,1323,65535],
			[648,1269,65535],
			[648,1269,65535],
			[648,1275,65535],
			[648,1269,65535],
			[648,1269,65535],
			[648,1272,65535],
			[648,965,65535],
			[648,966,616],
			[648,965,618],
			[648,966,616],
			[648,965,618],
			[648,966,65535],
			[648,65535,65535],
			[648,65535,65535],
			[648,65535,65535]
		],
		[
			[648,65535,65535],
			[648,65535,65535],
			[648,65535,65535],
			[648,1174,65535],
			[648,1175,65535],
			[648,1270,65535],
			[648,266,65535],
			[648,186,65535],
			[648,1270,65535],
			[648,967,65535],
			[648,968,65535],
			[648,967,65535],
			[648,968,65535],
			[648,967,65535],
			[648,968,65535],
			[648,65535,65535],
			[648,65535,65535],
			[648,65535,65535]
		],
		[
			[1000,65535,65535],
			[648,65535,65535],
			[648,65535,65535],
			[648,65535,65535],
			[648,65535,65535],
			[648,1270,65535],
			[648,186,65535],
			[648,65535,65535],
			[648,1273,65535],
			[648,1269,65535],
			[648,1322,65535],
			[648,65535,991],
			[648,65535,992],
			[648,65535,993],
			[648,65535,65535],
			[648,65535,65535],
			[648,65535,65535],
			[648,65535,65535]
		],
		[
			[648,65535,65535],
			[648,65535,65535],
			[648,65535,65535],
			[648,1325,65535],
			[648,65535,65535],
			[648,1270,65535],
			[648,65535,65535],
			[648,65535,65535],
			[648,65535,65535],
			[648,65535,530],
			[648,996,65535],
			[648,985,65535],
			[648,989,992],
			[648,990,807],
			[648,1323,65535],
			[648,1269,65535],
			[648,1322,65535],
			[648,65535,65535]
		],
		[
			[648,65535,65535],
			[997,65535,65535],
			[648,65535,65535],
			[648,1324,65535],
			[648,65535,65535],
			[648,1324,65535],
			[648,265,65535],
			[648,65535,65535],
			[648,65535,65535],
			[648,531,65535],
			[537,1338,65535],
			[648,65535,991],
			[648,65535,989],
			[648,990,65535],
			[648,65535,65535],
			[648,65535,65535],
			[648,65535,65535],
			[1000,65535,65535]
		],
		[
			[648,65535,65535],
			[1000,65535,65535],
			[648,1325,65535],
			[648,265,65535],
			[648,265,65535],
			[648,265,65535],
			[648,65535,65535],
			[648,265,65535],
			[648,1325,65535],
			[648,65535,65535],
			[648,996,65535],
			[648,985,65535],
			[986,65535,65535],
			[648,987,65535],
			[648,65535,65535],
			[648,1325,65535],
			[648,65535,65535],
			[648,65535,65535]
		],
		[
			[648,65535,65535],
			[648,65535,65535],
			[648,1273,65535],
			[648,1272,65535],
			[648,265,65535],
			[648,1271,65535],
			[648,1269,65535],
			[648,1269,65535],
			[648,1276,65535],
			[648,1322,65535],
			[648,65535,65535],
			[648,1325,65535],
			[648,65535,65535],
			[648,1323,65535],
			[648,1269,65535],
			[648,1276,65535],
			[648,1272,65535],
			[648,65535,65535]
		],
		[
			[648,65535,65535],
			[648,65535,65535],
			[648,65535,65535],
			[648,1270,65535],
			[648,65535,65535],
			[648,1270,65535],
			[648,65535,65535],
			[648,65535,65535],
			[648,65535,65535],
			[648,65535,65535],
			[648,65535,65535],
			[648,1324,65535],
			[648,65535,65535],
			[648,65535,65535],
			[1000,65535,65535],
			[648,65535,65535],
			[648,1270,65535],
			[648,65535,65535]
		],
		[
			[648,65535,65535],
			[648,65535,65535],
			[648,65535,65535],
			[648,1324,991],
			[648,989,992],
			[648,1324,993],
			[648,186,65535],
			[648,1323,65535],
			[648,1269,65535],
			[648,1272,65535],
			[648,266,65535],
			[648,266,65535],
			[648,266,65535],
			[648,266,65535],
			[648,1325,65535],
			[648,65535,65535],
			[648,1270,65535],
			[648,65535,65535]
		],
		[
			[648,65535,65535],
			[648,65535,65535],
			[648,65535,65535],
			[648,988,65535],
			[648,989,992],
			[648,990,65535],
			[648,186,65535],
			[648,186,65535],
			[648,65535,65535],
			[648,1270,65535],
			[648,266,65535],
			[648,1323,65535],
			[648,1275,65535],
			[648,1269,65535],
			[648,1274,65535],
			[648,65535,65535],
			[648,1324,65535],
			[648,65535,65535]
		],
		[
			[648,65535,65535],
			[648,65535,65535],
			[648,65535,65535],
			[648,985,65535],
			[648,1049,65535],
			[648,987,65535],
			[648,65535,65535],
			[648,1325,65535],
			[648,65535,65535],
			[648,1270,65535],
			[648,266,65535],
			[648,65535,65535],
			[648,1270,65535],
			[648,1174,65535],
			[648,1175,65535],
			[648,65535,65535],
			[648,65535,65535],
			[648,65535,65535]
		],
		[
			[648,65535,65535],
			[648,65535,65535],
			[648,65535,65535],
			[648,65535,65535],
			[997,65535,65535],
			[648,65535,65535],
			[648,65535,65535],
			[648,1270,65535],
			[648,65535,65535],
			[648,1270,65535],
			[648,65535,65535],
			[648,65535,65535],
			[648,1324,65535],
			[648,65535,65535],
			[648,65535,65535],
			[997,65535,65535],
			[648,65535,65535],
			[648,65535,65535]
		],
		[
			[648,65535,65535],
			[648,65535,65535],
			[648,1323,65535],
			[648,1269,65535],
			[648,1269,65535],
			[648,1269,65535],
			[648,1269,65535],
			[648,1274,65535],
			[1000,65535,65535],
			[648,1273,65535],
			[648,1275,65535],
			[648,1322,65535],
			[648,65535,65535],
			[648,65535,65535],
			[648,65535,65535],
			[648,65535,65535],
			[648,65535,65535],
			[648,65535,65535]
		],
		[
			[648,65535,65535],
			[648,65535,65535],
			[648,65535,65535],
			[648,65535,65535],
			[648,65535,65535],
			[648,65535,65535],
			[648,65535,65535],
			[648,65535,65535],
			[648,65535,65535],
			[648,65535,65535],
			[648,1270,65535],
			[648,65535,65535],
			[648,65535,65535],
			[648,65535,65535],
			[648,65535,65535],
			[648,65535,65535],
			[648,65535,65535],
			[648,65535,65535]
		],
		[
			[648,65535,65535],
			[648,65535,65535],
			[648,65535,65535],
			[648,65535,65535],
			[648,65535,65535],
			[648,65535,65535],
			[648,65535,65535],
			[648,65535,65535],
			[648,65535,65535],
			[648,65535,65535],
			[648,1324,65535],
			[648,65535,65535],
			[1000,65535,65535],
			[648,65535,65535],
			[648,65535,65535],
			[648,65535,65535],
			[648,65535,65535],
			[648,65535,65535]
		],
		[
			[648,65535,65535],
			[648,65535,65535],
			[648,65535,65535],
			[648,65535,65535],
			[648,65535,65535],
			[997,65535,65535],
			[648,65535,65535],
			[648,65535,65535],
			[648,65535,65535],
			[648,65535,65535],
			[648,65535,65535],
			[648,65535,65535],
			[648,65535,65535],
			[648,65535,65535],
			[648,65535,65535],
			[648,65535,65535],
			[648,65535,65535],
			[648,65535,65535]
		]
	]
}
