{
	"id": 107,
	"type": 1,
	"width": 18,
	"height": 18,
	"flags": 6,
	"tiles": [
		[
			[0,65535,65535],
			[0,65535,65535],
			[2,65535,65535],
			[0,65535,65535],
			[0,65535,65535],
			[0,65535,65535],
			[0,65535,65535],
			[0,65535,65535],
			[0,65535,65535],
			[0,65535,65535],
			[0,65535,65535],
			[0,65535,65535],
			[0,65535,65535],
			[0,65535,65535],
			[0,65535,65535],
			[0,65535,65535],
			[0,65535,65535],
			[0,65535,65535]
		],
		[
			[0,65535,65535],
			[0,65535,645],
			[0,65535,65535],
			[0,65,65535],
			[0,53,65535],
			[0,40,65535],
			[0,65535,65535],
			[0,65535,65535],
			[0,65535,65535],
			[0,65,65535],
			[0,53,65535],
			[0,40,65535],
			[0,39,65535],
			[0,64,65535],
			[4,65535,65535],
			[0,65535,65535],
			[0,65535,65535],
			[0,65535,65535]
		],
		[
			[0,65535,65535],
			[0,643,65535],
			[0,65,65535],
			[0,61,65535],
			[0,65535,65535],
			[0,65535,65535],
			[0,39,65535],
			[0,53,65535],
			[0,53,65535],
			[0,61,65535],
			[0,65535,65535],
			[0,65535,65535],
			[0,65535,65535],
			[0,60,65535],
			[0,53,65535],
			[0,64,65535],
			[0,65535,65535],
			[0,65535,65535]
		],
		[
			[0,65535,65535],
			[0,65535,65535],
			[0,42,65535],
			[0,65535,65535],
			[0,39,65535],
			[0,64,65535],
			[0,65535,65535],
			[0,65535,65535],
			[0,65535,65535],
			[0,65535,65535],
			[0,65535,65535],
			[0,65,65535],
			[0,64,65535],
			[0,65535,65535],
			[0,65535,65535],
			[0,60,65535],
			[0,64,65535],
			[0,65535,65535]
		],
		[
			[0,65535,65535],
			[368,65,65535],
			[365,40,65535],
			[2,65535,65535],
			[0,65535,65535],
			[0,60,65535],
			[0,53,65535],
			[0,53,65535],
			[0,40,65535],
			[0,65535,65535],
			[0,39,65535],
			[0,61,65535],
			[0,60,65535],
			[0,40,65535],
			[0,65535,65535],
			[0,65535,65535],
			[0,55,65535],
			[0,65535,65535]
		],
		[
			[3,65535,65535],
			[368,63,65535],
			[368,59,65535],
			[366,65535,65535],
			[0,65535,65535],
			[0,65535,65535],
			[0,65,65535],
			[77,72,65535],
			[0,64,65535],
			[0,65535,65535],
			[0,65,65535],
			[0,53,180],
			[0,53,65535],
			[0,64,65535],
			[0,65535,65535],
			[0,65535,65535],
			[0,55,65535],
			[0,65535,65535]
		],
		[
			[0,65535,65535],
			[0,65,65535],
			[368,61,65535],
			[368,65535,65535],
			[369,65535,65535],
			[0,65,65535],
			[0,61,65535],
			[98,65535,65535],
			[0,60,65535],
			[38,53,65535],
			[0,61,65535],
			[0,181,65535],
			[0,65535,65535],
			[0,60,65535],
			[0,64,65535],
			[0,65535,65535],
			[0,44,65535],
			[0,65535,65535]
		],
		[
			[0,65535,65535],
			[371,56,65535],
			[371,65535,65535],
			[372,65535,65535],
			[0,65,65535],
			[0,61,65535],
			[346,65535,65535],
			[345,65535,65535],
			[99,65535,644],
			[92,65535,65535],
			[0,91,65535],
			[100,65535,65535],
			[0,65535,65535],
			[0,57,65535],
			[0,62,65535],
			[0,65535,65535],
			[0,65535,65535],
			[0,65535,65535]
		],
		[
			[0,65535,65535],
			[0,63,65535],
			[0,46,65535],
			[0,65535,65535],
			[0,42,65535],
			[0,65535,65535],
			[357,65535,65535],
			[0,65535,65535],
			[347,642,65535],
			[0,796,65535],
			[88,65535,65535],
			[99,65535,65535],
			[0,57,65535],
			[0,62,65535],
			[4,65535,65535],
			[0,65535,65535],
			[0,43,65535],
			[0,65535,65535]
		],
		[
			[0,65535,65535],
			[0,65,65535],
			[0,40,65535],
			[0,65535,65535],
			[0,41,65535],
			[356,65535,65535],
			[404,65535,65535],
			[402,65535,65535],
			[395,65535,65535],
			[401,65535,65535],
			[406,65535,65535],
			[358,65535,65535],
			[0,55,65535],
			[0,65535,65535],
			[0,65535,65535],
			[0,57,65535],
			[0,62,65535],
			[0,65535,65535]
		],
		[
			[0,65535,65535],
			[0,56,65535],
			[0,65535,65535],
			[0,65535,65535],
			[0,63,65535],
			[358,59,65535],
			[402,65535,65535],
			[396,65535,65535],
			[1575,65535,65535],
			[394,65535,65535],
			[401,57,65535],
			[47,54,65535],
			[0,62,65535],
			[365,65535,65535],
			[0,57,65535],
			[0,62,65535],
			[0,65535,65535],
			[0,65535,65535]
		],
		[
			[0,65535,65535],
			[0,63,65535],
			[0,59,65535],
			[365,65535,65535],
			[0,65535,65535],
			[0,63,65535],
			[398,54,65535],
			[1576,54,65535],
			[1575,54,65535],
			[1576,54,65535],
			[403,62,65535],
			[0,65535,65535],
			[364,65535,65535],
			[372,65535,65535],
			[366,60,65535],
			[0,64,65535],
			[0,65535,644],
			[0,65535,65535]
		],
		[
			[0,65535,65535],
			[0,65535,65535],
			[364,56,65535],
			[368,65535,65535],
			[366,65535,65535],
			[0,65535,65535],
			[0,65535,65535],
			[0,65535,65535],
			[0,65535,65535],
			[0,65535,65535],
			[0,65535,65535],
			[0,65535,65535],
			[364,65535,65535],
			[364,65535,65535],
			[368,65535,65535],
			[369,55,65535],
			[0,643,65535],
			[0,65535,65535]
		],
		[
			[0,65535,65535],
			[0,65535,65535],
			[0,63,65535],
			[368,59,65535],
			[372,65535,65535],
			[368,57,65535],
			[0,59,65535],
			[0,65535,65535],
			[0,45,65535],
			[0,59,65535],
			[0,65535,65535],
			[364,65535,65535],
			[368,65535,65535],
			[372,57,65535],
			[371,54,65535],
			[0,62,65535],
			[0,65535,65535],
			[0,65535,65535]
		],
		[
			[0,65535,65535],
			[0,65535,65535],
			[0,65535,65535],
			[0,56,65535],
			[370,65535,65535],
			[369,55,65535],
			[0,63,65535],
			[0,59,65535],
			[0,65535,65535],
			[0,63,65535],
			[0,59,65535],
			[370,65535,65535],
			[371,57,65535],
			[0,62,65535],
			[0,65535,65535],
			[0,65535,65535],
			[0,43,65535],
			[0,65535,65535]
		],
		[
			[0,65535,65535],
			[0,65535,65535],
			[3,65535,65535],
			[366,63,65535],
			[366,54,65535],
			[0,62,65535],
			[0,65535,65535],
			[0,63,65535],
			[0,59,65535],
			[0,65535,65535],
			[0,63,65535],
			[0,54,65535],
			[0,62,65535],
			[0,65535,65535],
			[0,646,65535],
			[0,57,65535],
			[0,62,65535],
			[0,65535,65535]
		],
		[
			[0,65535,65535],
			[356,65535,65535],
			[0,359,65535],
			[0,65535,65535],
			[0,65535,65535],
			[0,65535,65535],
			[0,39,65535],
			[0,53,65535],
			[0,61,65535],
			[0,65535,65535],
			[0,65535,65535],
			[0,65535,65535],
			[0,65535,65535],
			[0,45,65535],
			[0,54,65535],
			[0,62,65535],
			[0,65535,65535],
			[0,65535,65535]
		],
		[
			[0,65535,65535],
			[0,65535,65535],
			[357,65535,65535],
			[0,65535,65535],
			[0,65535,65535],
			[0,65535,65535],
			[0,65535,65535],
			[0,65535,65535],
			[0,65535,65535],
			[0,65535,65535],
			[0,65535,65535],
			[0,65535,65535],
			[0,65535,65535],
			[0,65535,65535],
			[0,65535,65535],
			[0,65535,65535],
			[0,65535,65535],
			[0,65535,65535]
		]
	]
}
