{
	"id": 111,
	"type": 1,
	"width": 9,
	"height": 9,
	"flags": 8,
	"tiles": [
		[
			[598,540,65535],
			[598,629,267],
			[598,560,65535],
			[598,629,620],
			[598,629,616],
			[598,629,617],
			[598,629,617],
			[598,629,618],
			[598,541,65535]
		],
		[
			[598,545,269],
			[598,268,65535],
			[598,355,615],
			[598,65535,65535],
			[598,65535,65535],
			[598,65535,65535],
			[598,265,65535],
			[598,266,65535],
			[598,544,614]
		],
		[
			[598,545,65535],
			[598,65535,65535],
			[598,65535,65535],
			[598,65535,65535],
			[598,65535,65535],
			[598,65535,65535],
			[598,65535,65535],
			[598,266,65535],
			[598,544,65535]
		],
		[
			[598,545,65535],
			[598,65535,65535],
			[598,65535,65535],
			[598,65535,65535],
			[598,65535,65535],
			[598,65535,65535],
			[598,65535,65535],
			[598,65535,65535],
			[598,544,65535]
		],
		[
			[598,540,65535],
			[599,65535,585],
			[599,541,65535],
			[598,65535,65535],
			[598,540,65535],
			[598,629,65535],
			[599,65535,585],
			[598,629,65535],
			[598,541,65535]
		],
		[
			[598,545,65535],
			[598,65535,65535],
			[598,544,65535],
			[598,65535,65535],
			[598,545,613],
			[598,622,65535],
			[598,65535,65535],
			[598,622,65535],
			[598,544,65535]
		],
		[
			[598,545,65535],
			[598,65535,65535],
			[598,544,614],
			[598,65535,65535],
			[598,545,65535],
			[598,622,65535],
			[598,622,65535],
			[598,65535,65535],
			[598,544,65535]
		],
		[
			[598,545,65535],
			[598,344,65535],
			[598,544,65535],
			[598,65535,65535],
			[598,545,65535],
			[598,65535,65535],
			[598,622,65535],
			[598,622,65535],
			[598,544,614]
		],
		[
			[598,567,65535],
			[598,567,65535],
			[598,567,65535],
			[599,65535,1086],
			[598,567,65535],
			[598,567,65535],
			[598,567,65535],
			[598,567,65535],
			[598,567,65535]
		]
	]
}
