{
	"id": 115,
	"type": 1,
	"width": 18,
	"height": 18,
	"flags": 5,
	"tiles": [
		[
			[0,65535,65535],
			[0,65535,65535],
			[398,65535,65535],
			[377,65535,65535],
			[378,65535,65535],
			[0,384,65535],
			[0,381,65535],
			[394,65535,65535],
			[401,65535,412],
			[358,65535,65535],
			[0,65535,65535],
			[0,23,65535],
			[0,21,65535],
			[365,29,65535],
			[0,65535,65535],
			[0,65535,65535],
			[0,65535,65535],
			[0,65535,65535]
		],
		[
			[0,65535,65535],
			[358,65535,65535],
			[400,65535,65535],
			[393,65535,65535],
			[0,374,65535],
			[0,382,65535],
			[0,383,65535],
			[0,376,65535],
			[394,355,413],
			[401,65535,65535],
			[0,65535,118],
			[0,22,119],
			[365,65535,120],
			[364,65535,65535],
			[369,65535,65535],
			[0,65535,65535],
			[0,65535,65535],
			[0,65535,65535]
		],
		[
			[0,65535,65535],
			[0,65535,65535],
			[356,65535,65535],
			[398,65535,65535],
			[0,380,412],
			[0,385,1943],
			[378,384,1944],
			[379,381,65535],
			[391,65535,65535],
			[399,65535,65535],
			[0,121,65535],
			[0,122,65535],
			[371,123,65535],
			[371,65535,65535],
			[0,65535,65535],
			[0,65535,65535],
			[0,65535,65535],
			[0,65535,65535]
		],
		[
			[0,65535,65535],
			[0,359,65535],
			[402,65535,65535],
			[396,65535,65535],
			[377,355,413],
			[379,1945,65535],
			[384,1946,65535],
			[0,381,65535],
			[397,65535,65535],
			[406,65535,65535],
			[0,136,65535],
			[0,116,65535],
			[0,139,65535],
			[0,65535,65535],
			[364,65535,65535],
			[366,65535,65535],
			[0,65535,65535],
			[0,65535,65535]
		],
		[
			[0,65535,65535],
			[0,65535,65535],
			[398,65535,65535],
			[0,390,65535],
			[403,65535,65535],
			[0,374,65535],
			[0,382,65535],
			[0,381,65535],
			[394,65535,65535],
			[395,65535,65535],
			[401,65535,65535],
			[358,22,65535],
			[0,65535,65535],
			[367,65535,65535],
			[368,65535,65535],
			[372,65535,65535],
			[0,65535,65535],
			[0,65535,65535]
		],
		[
			[0,65535,65535],
			[407,65535,65535],
			[400,65535,65535],
			[393,65535,65535],
			[403,65535,65535],
			[0,380,65535],
			[0,385,65535],
			[379,65535,65535],
			[391,65535,65535],
			[393,65535,65535],
			[397,65535,65535],
			[0,25,65535],
			[365,21,65535],
			[364,24,65535],
			[372,65535,65535],
			[366,65535,65535],
			[365,65535,65535],
			[0,65535,65535]
		],
		[
			[0,65535,65535],
			[0,65535,65535],
			[402,65535,65535],
			[396,65535,65535],
			[403,65535,65535],
			[377,1067,65535],
			[379,65535,65535],
			[391,65535,65535],
			[399,65535,65535],
			[400,65535,352],
			[399,65535,65535],
			[367,65535,65535],
			[372,65535,65535],
			[371,10,65535],
			[370,65535,65535],
			[364,65535,65535],
			[368,65535,65535],
			[369,65535,65535]
		],
		[
			[0,65535,65535],
			[402,65535,65535],
			[396,65535,65535],
			[0,374,65535],
			[0,375,65535],
			[0,376,65535],
			[0,390,65535],
			[397,65535,65535],
			[358,65535,65535],
			[0,351,65535],
			[0,65535,65535],
			[0,65535,65535],
			[369,65535,65535],
			[0,65535,65535],
			[364,65535,65535],
			[368,65535,65535],
			[366,65535,65535],
			[0,65535,65535]
		],
		[
			[0,65535,65535],
			[398,65535,65535],
			[0,374,65535],
			[0,382,65535],
			[0,385,408],
			[379,65535,65535],
			[403,65535,65535],
			[397,65535,65535],
			[357,65535,65535],
			[407,65535,65535],
			[0,65535,65535],
			[0,65535,65535],
			[0,65535,65535],
			[367,26,65535],
			[368,65535,65535],
			[372,65535,65535],
			[372,65535,65535],
			[0,65535,65535]
		],
		[
			[357,65535,65535],
			[398,65535,65535],
			[0,380,65535],
			[0,385,65535],
			[379,355,409],
			[0,374,65535],
			[0,376,65535],
			[394,65535,640],
			[401,65535,641],
			[0,65535,65535],
			[0,65535,65535],
			[0,65535,65535],
			[0,65535,65535],
			[0,22,65535],
			[370,65535,65535],
			[368,65535,65535],
			[369,65535,65535],
			[0,65535,65535]
		],
		[
			[0,65535,65535],
			[398,65535,65535],
			[377,65535,65535],
			[379,65535,65535],
			[0,374,65535],
			[0,382,65535],
			[0,383,65535],
			[376,1949,65535],
			[394,1946,617],
			[401,355,617],
			[0,108,618],
			[0,109,65535],
			[0,354,65535],
			[0,22,65535],
			[364,65535,65535],
			[372,65535,65535],
			[0,65535,65535],
			[0,65535,65535]
		],
		[
			[0,65535,65535],
			[400,65535,65535],
			[392,65535,65535],
			[393,65535,65535],
			[377,65535,65535],
			[378,65535,65535],
			[0,384,65535],
			[0,381,65535],
			[403,65535,65535],
			[397,65535,65535],
			[0,110,65535],
			[0,111,65535],
			[0,65535,65535],
			[0,22,65535],
			[371,65535,65535],
			[0,65535,65535],
			[0,65535,65535],
			[0,65535,65535]
		],
		[
			[0,65535,65535],
			[0,65535,65535],
			[407,65535,65535],
			[400,65535,65535],
			[393,65535,65535],
			[0,374,65535],
			[0,382,412],
			[0,381,65535],
			[403,65535,65535],
			[394,65535,65535],
			[401,65535,65535],
			[0,65535,65535],
			[0,65535,65535],
			[0,22,65535],
			[0,65535,65535],
			[365,65535,65535],
			[0,65535,65535],
			[0,65535,65535]
		],
		[
			[0,65535,65535],
			[0,65535,65535],
			[357,65535,65535],
			[404,65535,65535],
			[398,65535,65535],
			[377,65535,412],
			[378,355,413],
			[379,65535,412],
			[403,65535,65535],
			[403,390,65535],
			[397,65535,65535],
			[0,359,65535],
			[0,65535,65535],
			[365,22,65535],
			[367,65535,65535],
			[368,65535,65535],
			[369,65535,65535],
			[0,65535,65535]
		],
		[
			[0,65535,65535],
			[406,65535,65535],
			[402,65535,65535],
			[401,65535,65535],
			[400,65535,65535],
			[393,355,413],
			[0,374,408],
			[0,376,413],
			[403,65535,65535],
			[403,65535,65535],
			[397,65535,65535],
			[0,65535,65535],
			[367,65535,65535],
			[368,22,65535],
			[366,65535,65535],
			[371,65535,65535],
			[0,65535,65535],
			[0,65535,65535]
		],
		[
			[0,65535,65535],
			[0,65535,65535],
			[398,65535,65535],
			[397,65535,65535],
			[402,65535,65535],
			[396,65535,65535],
			[377,409,65535],
			[379,65535,65535],
			[403,65535,65535],
			[391,65535,65535],
			[399,65535,65535],
			[358,65535,65535],
			[0,65535,65535],
			[370,22,65535],
			[368,65535,65535],
			[369,65535,65535],
			[0,65535,65535],
			[0,65535,65535]
		],
		[
			[0,65535,65535],
			[0,65535,65535],
			[398,65535,65535],
			[394,65535,65535],
			[396,65535,65535],
			[0,374,65535],
			[375,65535,65535],
			[376,65535,65535],
			[391,65535,65535],
			[399,65535,65535],
			[0,65535,65535],
			[0,65535,65535],
			[0,65535,65535],
			[367,22,65535],
			[372,65535,65535],
			[0,65535,65535],
			[0,65535,65535],
			[0,65535,65535]
		],
		[
			[358,65535,65535],
			[0,65535,65535],
			[398,65535,65535],
			[403,65535,65535],
			[0,374,65535],
			[0,382,65535],
			[0,386,65535],
			[0,381,65535],
			[397,65535,65535],
			[356,65535,65535],
			[0,65535,65535],
			[0,65535,65535],
			[0,65535,65535],
			[367,22,65535],
			[366,65535,65535],
			[0,65535,65535],
			[0,65535,65535],
			[0,65535,65535]
		]
	]
}
