{
	"id": 116,
	"type": 1,
	"width": 18,
	"height": 18,
	"flags": 4,
	"tiles": [
		[
			[0,65535,65535],
			[0,65535,65535],
			[0,23,65535],
			[0,21,124],
			[0,21,126],
			[0,21,125],
			[0,21,126],
			[0,21,127],
			[0,36,65535],
			[0,21,124],
			[0,21,125],
			[0,21,125],
			[0,21,127],
			[0,21,65535],
			[0,30,65535],
			[0,65535,65535],
			[0,65535,65535],
			[0,65535,65535]
		],
		[
			[0,65535,65535],
			[2,65535,65535],
			[0,22,65535],
			[0,128,158],
			[0,130,65535],
			[0,129,65535],
			[0,130,65535],
			[0,131,65535],
			[0,22,65535],
			[0,128,65535],
			[0,129,65535],
			[0,129,163],
			[0,131,65535],
			[0,65535,65535],
			[281,65535,65535],
			[281,65535,65535],
			[282,65535,65535],
			[281,65535,65535]
		],
		[
			[0,65535,65535],
			[281,65535,65535],
			[0,22,65535],
			[0,128,158],
			[0,130,65535],
			[0,129,65535],
			[0,130,65535],
			[0,131,65535],
			[0,22,65535],
			[0,156,65535],
			[0,133,65535],
			[0,133,65535],
			[0,135,65535],
			[282,65535,65535],
			[281,65535,124],
			[282,65535,126],
			[0,65535,127],
			[281,65535,65535]
		],
		[
			[0,65535,65535],
			[282,65535,65535],
			[0,22,65535],
			[0,156,65535],
			[0,134,160],
			[0,133,65535],
			[0,134,65535],
			[0,135,65535],
			[0,22,65535],
			[0,136,65535],
			[0,159,65535],
			[0,138,114],
			[0,139,65535],
			[281,65535,65535],
			[281,128,65535],
			[0,130,65535],
			[0,131,65535],
			[0,65535,65535]
		],
		[
			[281,65535,65535],
			[281,65535,65535],
			[281,10,65535],
			[281,136,65535],
			[0,138,161],
			[151,152,65535],
			[0,115,65535],
			[0,139,65535],
			[0,22,65535],
			[98,65535,65535],
			[345,65535,65535],
			[4,65535,65535],
			[0,65535,65535],
			[282,65535,65535],
			[282,128,65535],
			[0,130,65535],
			[0,131,65535],
			[0,65535,65535]
		],
		[
			[282,65535,65535],
			[282,65535,124],
			[281,65535,125],
			[281,65535,127],
			[281,65535,65535],
			[282,65535,65535],
			[0,65535,65535],
			[3,65535,65535],
			[0,22,65535],
			[99,65535,124],
			[0,65535,126],
			[0,65535,125],
			[0,65535,127],
			[281,65535,65535],
			[281,156,65535],
			[0,134,65535],
			[0,135,65535],
			[0,65535,65535]
		],
		[
			[0,65535,65535],
			[0,128,65535],
			[0,129,65535],
			[0,131,65535],
			[281,65535,65535],
			[282,65535,65535],
			[281,65535,65535],
			[281,65535,65535],
			[0,25,65535],
			[0,117,65535],
			[0,130,65535],
			[0,129,65535],
			[0,131,65535],
			[281,65535,65535],
			[0,136,65535],
			[144,138,65535],
			[0,139,65535],
			[0,65535,65535]
		],
		[
			[0,65535,65535],
			[0,156,65535],
			[0,133,65535],
			[0,135,65535],
			[0,65535,65535],
			[281,65535,65535],
			[0,65535,65535],
			[282,65535,65535],
			[0,65535,166],
			[0,156,65535],
			[0,134,65535],
			[0,133,65535],
			[0,135,65535],
			[282,65535,65535],
			[0,65535,65535],
			[281,65535,65535],
			[0,65535,65535],
			[0,65535,65535]
		],
		[
			[0,65535,65535],
			[0,136,65535],
			[0,138,124],
			[0,139,125],
			[0,65535,125],
			[0,65535,125],
			[0,65535,127],
			[281,65535,65535],
			[0,165,65535],
			[0,136,65535],
			[0,116,65535],
			[154,153,65535],
			[0,139,65535],
			[281,65535,65535],
			[281,65535,65535],
			[281,65535,65535],
			[281,65535,65535],
			[282,65535,65535]
		],
		[
			[0,65535,65535],
			[0,65535,65535],
			[0,128,158],
			[0,129,163],
			[0,129,65535],
			[0,129,65535],
			[0,131,65535],
			[281,65535,65535],
			[0,65535,65535],
			[2,65535,65535],
			[0,22,65535],
			[281,65535,65535],
			[282,65535,65535],
			[281,65535,65535],
			[282,65535,118],
			[0,65535,119],
			[0,65535,120],
			[0,65535,65535]
		],
		[
			[0,65535,65535],
			[353,65535,65535],
			[356,156,65535],
			[0,133,65535],
			[0,133,65535],
			[0,133,65535],
			[0,135,65535],
			[282,65535,65535],
			[281,65535,65535],
			[0,65535,124],
			[0,22,125],
			[0,65535,127],
			[0,65535,65535],
			[281,65535,65535],
			[0,121,65535],
			[0,122,65535],
			[0,123,65535],
			[0,65535,65535]
		],
		[
			[358,65535,65535],
			[357,65535,65535],
			[0,136,65535],
			[0,138,114],
			[0,116,65535],
			[154,153,65535],
			[281,139,65535],
			[281,65535,65535],
			[0,65535,65535],
			[0,128,65535],
			[0,129,65535],
			[0,131,65535],
			[0,65535,815],
			[282,65535,65535],
			[281,136,65535],
			[0,138,65535],
			[0,139,65535],
			[0,65535,65535]
		],
		[
			[0,65535,65535],
			[358,65535,65535],
			[0,65535,65535],
			[356,359,65535],
			[0,22,65535],
			[282,65535,65535],
			[281,65535,65535],
			[282,65535,65535],
			[0,65535,65535],
			[0,128,158],
			[0,129,65535],
			[0,131,125],
			[0,65535,814],
			[281,65535,127],
			[281,65535,65535],
			[282,65535,65535],
			[0,65535,65535],
			[2,65535,65535]
		],
		[
			[356,65535,65535],
			[0,65535,65535],
			[0,65535,124],
			[0,65535,125],
			[0,25,126],
			[281,21,125],
			[0,34,127],
			[0,65535,65535],
			[0,65535,65535],
			[0,128,65535],
			[0,129,65535],
			[0,129,65535],
			[0,129,65535],
			[0,131,65535],
			[353,65535,352],
			[281,65535,65535],
			[358,65535,65535],
			[0,65535,65535]
		],
		[
			[0,65535,65535],
			[0,33,65535],
			[0,117,65535],
			[0,129,65535],
			[0,130,65535],
			[0,129,65535],
			[0,131,65535],
			[0,65535,65535],
			[0,65535,65535],
			[0,156,65535],
			[0,133,65535],
			[0,133,65535],
			[0,133,65535],
			[0,135,65535],
			[0,351,65535],
			[356,65535,65535],
			[281,65535,65535],
			[282,65535,65535]
		],
		[
			[0,65535,65535],
			[0,65535,164],
			[0,156,65535],
			[0,283,65535],
			[0,134,65535],
			[0,133,65535],
			[0,135,65535],
			[0,65535,65535],
			[0,65535,65535],
			[0,136,65535],
			[0,116,65535],
			[0,159,65535],
			[151,152,65535],
			[0,139,65535],
			[357,65535,65535],
			[281,26,65535],
			[0,65535,65535],
			[0,65535,65535]
		],
		[
			[0,65535,65535],
			[0,165,65535],
			[0,136,65535],
			[0,284,65535],
			[0,138,114],
			[0,138,65535],
			[0,139,65535],
			[0,65535,65535],
			[3,65535,65535],
			[0,65535,65535],
			[0,22,65535],
			[356,354,65535],
			[4,65535,65535],
			[358,65535,65535],
			[0,65535,65535],
			[0,22,65535],
			[0,65535,65535],
			[0,65535,65535]
		],
		[
			[0,65535,65535],
			[0,9,65535],
			[0,21,65535],
			[0,21,65535],
			[0,21,65535],
			[0,21,65535],
			[0,21,65535],
			[0,21,65535],
			[0,21,65535],
			[0,21,65535],
			[0,37,65535],
			[0,21,65535],
			[0,21,65535],
			[0,21,65535],
			[0,21,65535],
			[0,29,65535],
			[0,65535,65535],
			[0,65535,65535]
		]
	]
}
