{
	"id": 123,
	"type": 1,
	"width": 18,
	"height": 18,
	"flags": 1,
	"tiles": [
		[
			[0,65535,65535],
			[0,65535,65535],
			[0,65535,65535],
			[0,65535,65535],
			[0,65535,65535],
			[0,65535,65535],
			[0,65535,65535],
			[4,65535,65535],
			[0,65535,65535],
			[0,65535,65535],
			[0,65535,65535],
			[0,65535,65535],
			[0,65535,65535],
			[365,65535,65535],
			[0,65535,65535],
			[0,65535,65535],
			[365,65535,65535],
			[365,65535,65535]
		],
		[
			[0,65535,65535],
			[0,65535,65535],
			[0,43,65535],
			[3,65535,65535],
			[0,65535,65535],
			[0,65535,65535],
			[0,65535,65535],
			[0,43,65535],
			[2,65535,65535],
			[0,45,65535],
			[0,54,65535],
			[0,54,65535],
			[367,54,65535],
			[368,54,65535],
			[369,46,65535],
			[367,65535,65535],
			[368,65535,65535],
			[369,65535,65535]
		],
		[
			[0,65535,65535],
			[0,65535,65535],
			[0,55,65535],
			[0,41,65535],
			[0,65535,65535],
			[0,57,65535],
			[0,54,65535],
			[0,62,65535],
			[0,65535,65535],
			[0,65535,65535],
			[0,1365,65535],
			[0,65535,65535],
			[0,65535,65535],
			[371,65535,65535],
			[0,65535,65535],
			[365,41,65535],
			[371,65535,65535],
			[0,65535,65535]
		],
		[
			[0,65535,65535],
			[0,65535,65535],
			[0,55,65535],
			[0,63,65535],
			[0,54,65535],
			[0,62,65535],
			[0,65535,65535],
			[0,65535,65535],
			[0,65535,65535],
			[0,65535,65535],
			[0,65,65535],
			[0,53,65535],
			[0,53,644],
			[0,64,65535],
			[367,65535,65535],
			[368,56,65535],
			[366,65535,65535],
			[0,65535,65535]
		],
		[
			[0,65535,65535],
			[0,65535,65535],
			[0,60,65535],
			[0,64,65535],
			[0,65535,65535],
			[0,65535,65535],
			[0,65,65535],
			[0,53,65535],
			[0,53,65535],
			[0,53,65535],
			[0,61,65535],
			[365,65535,65535],
			[0,642,65535],
			[0,55,65535],
			[0,65535,65535],
			[370,56,65535],
			[368,65535,65535],
			[369,65535,65535]
		],
		[
			[0,65535,65535],
			[0,65535,65535],
			[0,646,65535],
			[0,60,65535],
			[0,53,644],
			[0,53,65535],
			[0,61,65535],
			[0,7,65535],
			[0,647,65535],
			[0,65535,65535],
			[0,65535,65535],
			[371,646,65535],
			[372,45,65535],
			[0,62,65535],
			[365,1361,65535],
			[365,56,65535],
			[371,65535,65535],
			[0,65535,65535]
		],
		[
			[0,65535,65535],
			[0,65535,65535],
			[0,65535,65535],
			[0,65535,65535],
			[0,642,65535],
			[0,65535,65535],
			[0,65535,65535],
			[0,65535,65535],
			[0,65535,65535],
			[0,65535,645],
			[0,43,65535],
			[0,7,65535],
			[0,65535,65535],
			[367,65535,65535],
			[372,65535,65535],
			[368,56,65535],
			[366,65535,65535],
			[0,65535,65535]
		],
		[
			[2,65535,65535],
			[0,65535,65535],
			[0,65535,65535],
			[0,65535,645],
			[0,647,65535],
			[0,65535,65535],
			[0,1361,65535],
			[2,65535,65535],
			[0,65535,65535],
			[0,643,65535],
			[0,55,65535],
			[0,65535,65535],
			[367,65,65535],
			[368,53,65535],
			[372,53,65535],
			[370,61,65535],
			[368,65535,65535],
			[369,65535,65535]
		],
		[
			[0,65535,65535],
			[0,65535,65535],
			[0,65535,65535],
			[0,642,65535],
			[0,7,65535],
			[0,65535,65535],
			[3,65535,65535],
			[0,646,65535],
			[0,7,65535],
			[0,57,65535],
			[0,62,65535],
			[365,65535,65535],
			[0,56,65535],
			[371,65535,65535],
			[0,65535,65535],
			[4,65535,65535],
			[371,65535,65535],
			[0,65535,65535]
		],
		[
			[0,65535,65535],
			[0,45,65535],
			[0,54,65535],
			[47,65535,65535],
			[0,54,65535],
			[0,54,65535],
			[0,54,65535],
			[0,54,65535],
			[0,54,65535],
			[0,62,65535],
			[364,65535,65535],
			[372,65535,65535],
			[366,56,65535],
			[0,65535,65535],
			[365,65535,65535],
			[0,41,65535],
			[0,65535,65535],
			[369,65535,65535]
		],
		[
			[0,65535,65535],
			[0,65535,65535],
			[0,65535,65535],
			[0,1361,65535],
			[0,65535,65535],
			[0,65535,65535],
			[0,65535,65535],
			[0,65535,65535],
			[0,65535,65535],
			[0,65535,65535],
			[0,39,65535],
			[371,53,65535],
			[0,61,65535],
			[0,65535,65535],
			[371,65535,65535],
			[0,56,65535],
			[0,65535,65535],
			[0,65535,65535]
		],
		[
			[0,65535,65535],
			[0,65535,65535],
			[0,65535,65535],
			[0,65535,65535],
			[0,65535,65535],
			[0,65,65535],
			[0,53,65535],
			[0,53,352],
			[0,64,65535],
			[0,65535,65535],
			[0,65535,65535],
			[0,65535,65535],
			[0,65535,65535],
			[0,1365,65535],
			[0,65535,65535],
			[0,56,65535],
			[0,65535,65535],
			[369,65535,65535]
		],
		[
			[4,65535,65535],
			[0,65535,65535],
			[0,39,65535],
			[0,64,65535],
			[0,65,65535],
			[0,61,65535],
			[0,65535,644],
			[0,351,65535],
			[0,60,65535],
			[38,53,65535],
			[0,64,65535],
			[0,57,65535],
			[0,59,65535],
			[0,65,65535],
			[0,53,65535],
			[0,61,65535],
			[0,65535,65535],
			[0,65535,65535]
		],
		[
			[0,65535,65535],
			[0,65535,65535],
			[0,65535,65535],
			[0,60,65535],
			[0,61,65535],
			[0,1365,65535],
			[368,643,65535],
			[369,65535,65535],
			[0,45,65535],
			[0,54,65535],
			[0,62,65535],
			[0,60,65535],
			[0,61,65535],
			[0,42,65535],
			[0,65535,65535],
			[3,65535,65535],
			[0,65535,65535],
			[0,65535,65535]
		],
		[
			[0,65535,65535],
			[0,65535,65535],
			[0,65535,65535],
			[353,65535,65535],
			[0,65535,65535],
			[0,65535,65535],
			[371,65535,65535],
			[0,359,65535],
			[0,65535,65535],
			[0,39,65535],
			[0,53,65535],
			[0,53,65535],
			[0,40,65535],
			[0,65535,65535],
			[0,65535,65535],
			[0,65535,65535],
			[0,65535,65535],
			[0,65535,65535]
		],
		[
			[0,65535,65535],
			[0,65535,65535],
			[357,65535,65535],
			[0,65535,65535],
			[0,65535,65535],
			[407,65535,65535],
			[0,65535,65535],
			[0,65535,65535],
			[402,65535,65535],
			[401,65535,65535],
			[358,65535,65535],
			[0,65535,65535],
			[0,354,65535],
			[0,65535,65535],
			[0,65535,65535],
			[0,65535,65535],
			[0,65535,65535],
			[0,65535,65535]
		],
		[
			[0,65535,65535],
			[357,354,65535],
			[0,65535,65535],
			[0,65535,65535],
			[406,65535,65535],
			[358,65535,65535],
			[0,65535,65535],
			[404,65535,65535],
			[398,65535,65535],
			[394,65535,65535],
			[401,65535,65535],
			[0,65535,65535],
			[357,65535,65535],
			[0,65535,65535],
			[0,65535,65535],
			[0,65535,65535],
			[0,65535,65535],
			[0,65535,65535]
		],
		[
			[0,65535,65535],
			[0,65535,65535],
			[0,65535,65535],
			[0,65535,65535],
			[0,65535,65535],
			[0,65535,65535],
			[356,65535,65535],
			[0,65535,65535],
			[400,65535,65535],
			[392,65535,65535],
			[399,65535,65535],
			[0,65535,65535],
			[0,65535,65535],
			[0,65535,65535],
			[0,65535,65535],
			[0,65535,65535],
			[0,65535,65535],
			[0,65535,65535]
		]
	]
}
