{
	"id": 127,
	"type": 1,
	"width": 18,
	"height": 18,
	"flags": 17,
	"tiles": [
		[
			[0,26,65535],
			[0,65535,65535],
			[0,65535,65535],
			[0,65535,65535],
			[0,65535,65535],
			[0,65535,65535],
			[0,65535,65535],
			[0,65535,65535],
			[0,65535,65535],
			[0,65535,65535],
			[0,65535,65535],
			[0,65535,65535],
			[0,65535,65535],
			[0,65535,65535],
			[0,65535,65535],
			[0,65535,65535],
			[0,65535,65535],
			[0,26,65535]
		],
		[
			[4,25,65535],
			[0,21,65535],
			[0,21,65535],
			[0,21,352],
			[0,24,65535],
			[0,65535,65535],
			[0,65535,65535],
			[2,65535,65535],
			[4,65535,65535],
			[0,65535,65535],
			[0,65535,65535],
			[0,65535,65535],
			[0,65535,65535],
			[0,65535,65535],
			[3,65535,65535],
			[0,23,65535],
			[0,21,65535],
			[0,29,65535]
		],
		[
			[0,65535,65535],
			[0,65535,65535],
			[0,65535,65535],
			[0,351,65535],
			[0,22,65535],
			[0,65535,65535],
			[0,65535,65535],
			[0,65535,65535],
			[0,65535,65535],
			[0,65535,65535],
			[0,65535,65535],
			[0,65535,65535],
			[0,65535,65535],
			[358,65535,65535],
			[356,65535,65535],
			[0,22,65535],
			[357,65535,65535],
			[0,65535,65535]
		],
		[
			[0,65535,65535],
			[0,26,65535],
			[0,65535,65535],
			[0,65535,65535],
			[0,22,65535],
			[0,65535,65535],
			[0,65535,65535],
			[0,65535,65535],
			[0,65535,65535],
			[0,65535,65535],
			[0,172,65535],
			[0,33,65535],
			[0,21,65535],
			[0,34,65535],
			[0,112,65535],
			[0,10,65535],
			[0,65535,65535],
			[0,65535,65535]
		],
		[
			[0,65535,65535],
			[0,10,65535],
			[0,65535,65535],
			[0,65535,65535],
			[0,10,65535],
			[0,65535,65535],
			[0,65535,65535],
			[0,65535,65535],
			[0,65535,65535],
			[0,65535,65535],
			[0,65535,65535],
			[0,65535,65535],
			[0,65535,65535],
			[0,65535,65535],
			[0,65535,65535],
			[0,65535,65535],
			[0,65535,65535],
			[0,65535,65535]
		],
		[
			[0,65535,65535],
			[0,65535,65535],
			[0,65535,65535],
			[0,65535,65535],
			[0,65535,65535],
			[3,65535,65535],
			[0,1306,65535],
			[0,1307,65535],
			[0,65535,65535],
			[0,65535,65535],
			[0,65535,65535],
			[0,65535,124],
			[0,65535,125],
			[0,65535,127],
			[0,65535,65535],
			[0,26,65535],
			[0,65535,65535],
			[0,65535,65535]
		],
		[
			[367,65535,65535],
			[369,65535,65535],
			[367,65535,65535],
			[366,65535,65535],
			[0,65535,65535],
			[0,65535,65535],
			[1669,65535,65535],
			[1670,65535,65535],
			[0,65535,65535],
			[0,65535,65535],
			[0,65535,65535],
			[0,156,158],
			[0,133,65535],
			[0,135,65535],
			[0,65535,65535],
			[0,22,65535],
			[0,65535,65535],
			[0,65535,65535]
		],
		[
			[0,65535,65535],
			[0,65535,65535],
			[364,65535,65535],
			[368,65535,65535],
			[369,65535,65535],
			[0,65535,124],
			[0,65535,127],
			[0,65535,65535],
			[0,65535,65535],
			[0,65535,65535],
			[0,65535,65535],
			[0,136,65535],
			[0,116,65535],
			[0,139,65535],
			[0,65535,65535],
			[0,10,65535],
			[0,65535,65535],
			[0,65535,65535]
		],
		[
			[0,65535,65535],
			[367,65535,65535],
			[368,65535,65535],
			[372,65535,65535],
			[0,65535,65535],
			[0,128,65535],
			[0,132,65535],
			[0,21,65535],
			[0,34,65535],
			[0,112,65535],
			[0,65535,65535],
			[0,65535,65535],
			[0,22,65535],
			[353,65535,65535],
			[0,65535,65535],
			[364,65535,65535],
			[366,65535,65535],
			[0,65535,65535]
		],
		[
			[0,65535,65535],
			[2,9,65535],
			[371,24,65535],
			[0,65535,65535],
			[365,65535,65535],
			[365,156,65535],
			[366,135,65535],
			[356,65535,65535],
			[0,65535,65535],
			[0,65535,65535],
			[0,65535,65535],
			[0,65535,65535],
			[0,22,65535],
			[0,65535,65535],
			[364,65535,65535],
			[368,65535,65535],
			[368,65535,65535],
			[0,65535,65535]
		],
		[
			[0,65535,65535],
			[358,65535,65535],
			[0,22,65535],
			[0,65535,65535],
			[371,65535,65535],
			[371,136,157],
			[372,139,65535],
			[0,65535,65535],
			[0,33,65535],
			[0,21,65535],
			[0,34,65535],
			[0,65535,65535],
			[0,22,65535],
			[367,65535,65535],
			[368,65535,65535],
			[368,65535,65535],
			[372,65535,65535],
			[0,65535,65535]
		],
		[
			[0,65535,65535],
			[0,65535,65535],
			[0,22,65535],
			[0,65535,65535],
			[0,65535,65535],
			[0,65535,65535],
			[0,65535,65535],
			[0,65535,65535],
			[0,65535,65535],
			[0,65535,65535],
			[0,65535,65535],
			[357,65535,65535],
			[0,22,65535],
			[0,65535,65535],
			[370,65535,65535],
			[370,65535,65535],
			[0,65535,65535],
			[0,65535,65535]
		],
		[
			[0,65535,65535],
			[0,65535,65535],
			[0,22,65535],
			[0,65535,65535],
			[0,65535,65535],
			[0,65535,124],
			[0,65535,125],
			[0,65535,125],
			[0,65535,127],
			[0,65535,65535],
			[0,33,65535],
			[0,21,65535],
			[0,29,65535],
			[0,65535,65535],
			[0,65535,65535],
			[0,26,65535],
			[0,65535,65535],
			[0,65535,65535]
		],
		[
			[0,65535,65535],
			[0,65535,65535],
			[0,22,65535],
			[0,65535,65535],
			[0,65535,65535],
			[0,156,158],
			[0,133,65535],
			[0,133,65535],
			[0,135,65535],
			[0,65535,65535],
			[3,65535,65535],
			[0,65535,65535],
			[0,65535,164],
			[367,65535,65535],
			[369,65535,65535],
			[0,22,65535],
			[2,65535,65535],
			[0,65535,65535]
		],
		[
			[0,65535,65535],
			[0,65535,65535],
			[0,10,65535],
			[0,65535,65535],
			[0,65535,65535],
			[0,136,65535],
			[0,116,65535],
			[0,138,114],
			[0,139,65535],
			[0,65535,65535],
			[0,33,65535],
			[0,34,65535],
			[0,165,65535],
			[0,65535,65535],
			[0,65535,65535],
			[0,22,65535],
			[0,65535,65535],
			[0,65535,65535]
		],
		[
			[0,65535,65535],
			[0,65535,65535],
			[0,112,65535],
			[0,65535,65535],
			[0,65535,65535],
			[0,65535,65535],
			[0,22,65535],
			[358,186,65535],
			[0,65535,65535],
			[0,65535,65535],
			[0,65535,65535],
			[0,65535,65535],
			[0,65535,65535],
			[0,65535,65535],
			[0,65535,65535],
			[0,22,65535],
			[353,65535,65535],
			[0,65535,65535]
		],
		[
			[0,65535,65535],
			[0,65535,65535],
			[0,65535,65535],
			[0,65535,65535],
			[0,65535,65535],
			[0,112,65535],
			[0,25,65535],
			[0,30,65535],
			[0,112,65535],
			[0,65535,65535],
			[0,65535,65535],
			[0,65535,65535],
			[0,65535,65535],
			[0,65535,65535],
			[0,65535,65535],
			[0,25,65535],
			[0,21,65535],
			[0,24,65535]
		],
		[
			[0,65535,65535],
			[0,65535,65535],
			[0,65535,65535],
			[3,65535,65535],
			[0,65535,65535],
			[0,65535,65535],
			[0,65535,65535],
			[0,65535,65535],
			[0,65535,65535],
			[0,65535,65535],
			[0,65535,65535],
			[0,65535,65535],
			[0,65535,65535],
			[4,65535,65535],
			[0,65535,65535],
			[0,65535,65535],
			[0,65535,65535],
			[0,10,65535]
		]
	]
}
