{
	"id": 128,
	"type": 1,
	"width": 18,
	"height": 18,
	"flags": 17,
	"tiles": [
		[
			[0,65535,65535],
			[0,65535,65535],
			[0,65535,644],
			[0,65535,65535],
			[0,65535,65535],
			[0,65535,65535],
			[0,65535,65535],
			[0,65535,65535],
			[0,65535,65535],
			[0,65535,65535],
			[0,65535,65535],
			[0,65535,65535],
			[0,65535,65535],
			[0,65535,65535],
			[0,65535,65535],
			[0,65535,65535],
			[2,65535,65535],
			[0,65535,65535]
		],
		[
			[0,65535,65535],
			[0,65535,65535],
			[0,643,65535],
			[2,65535,65535],
			[0,65535,65535],
			[0,65535,65535],
			[0,65535,65535],
			[0,65535,124],
			[0,65535,125],
			[0,65535,125],
			[0,65535,127],
			[3,65535,65535],
			[4,65535,65535],
			[0,65535,65535],
			[0,65535,65535],
			[0,65535,65535],
			[0,65535,65535],
			[0,65535,65535]
		],
		[
			[0,65535,65535],
			[0,65535,65535],
			[0,65535,65535],
			[0,65535,65535],
			[0,646,65535],
			[0,65535,65535],
			[0,65535,65535],
			[0,128,65535],
			[0,129,65535],
			[0,129,65535],
			[0,132,65535],
			[356,21,65535],
			[402,21,65535],
			[395,21,640],
			[395,21,641],
			[401,21,65535],
			[0,24,65535],
			[0,65535,65535]
		],
		[
			[0,65535,65535],
			[0,65535,65535],
			[0,65535,65535],
			[0,65535,65535],
			[0,65535,124],
			[0,65535,125],
			[0,65535,126],
			[0,156,125],
			[0,133,127],
			[0,133,65535],
			[357,135,65535],
			[404,65535,65535],
			[398,65535,65535],
			[403,638,65535],
			[403,639,65535],
			[394,65535,65535],
			[401,22,65535],
			[0,65535,65535]
		],
		[
			[0,65535,65535],
			[0,65535,65535],
			[2,23,65535],
			[0,21,170],
			[0,117,65535],
			[0,129,65535],
			[0,130,65535],
			[0,129,65535],
			[0,140,65535],
			[0,138,65535],
			[0,139,65535],
			[356,65535,65535],
			[400,65535,65535],
			[393,65535,65535],
			[391,65535,65535],
			[392,65535,65535],
			[399,22,65535],
			[0,65535,65535]
		],
		[
			[0,65535,65535],
			[0,647,65535],
			[0,22,65535],
			[0,171,65535],
			[0,156,65535],
			[0,133,65535],
			[0,142,65535],
			[13,133,65535],
			[0,135,65535],
			[0,359,65535],
			[0,65535,65535],
			[0,65535,65535],
			[406,65535,65535],
			[400,65535,65535],
			[399,65535,65535],
			[358,65535,65535],
			[0,22,65535],
			[0,65535,65535]
		],
		[
			[0,65535,65535],
			[0,65535,65535],
			[0,10,65535],
			[0,65535,65535],
			[0,136,65535],
			[0,146,65535],
			[147,149,65535],
			[0,148,65535],
			[0,139,352],
			[0,65535,65535],
			[0,65535,65535],
			[0,65535,65535],
			[0,65535,124],
			[0,65535,125],
			[407,65535,127],
			[0,65535,65535],
			[0,10,65535],
			[0,65535,65535]
		],
		[
			[0,65535,65535],
			[0,65535,65535],
			[0,65535,65535],
			[0,65535,65535],
			[353,65535,65535],
			[357,65535,65535],
			[358,65535,65535],
			[0,65535,65535],
			[0,351,65535],
			[0,65535,65535],
			[0,65535,65535],
			[0,65535,65535],
			[0,128,65535],
			[0,129,65535],
			[0,131,65535],
			[0,65535,65535],
			[0,65535,65535],
			[0,65535,65535]
		],
		[
			[0,65535,65535],
			[0,65535,118],
			[0,65535,119],
			[0,65535,120],
			[0,65535,65535],
			[0,65535,65535],
			[0,65535,65535],
			[356,65535,65535],
			[0,65535,65535],
			[0,65535,65535],
			[0,65535,65535],
			[0,354,65535],
			[0,128,65535],
			[0,129,65535],
			[0,131,65535],
			[0,65535,65535],
			[0,65535,65535],
			[0,65535,65535]
		],
		[
			[0,65535,65535],
			[0,121,65535],
			[0,122,65535],
			[0,123,65535],
			[0,65535,65535],
			[0,65535,65535],
			[0,65535,65535],
			[0,65535,65535],
			[0,65535,65535],
			[0,65535,65535],
			[0,65535,65535],
			[0,65535,65535],
			[0,156,65535],
			[0,133,65535],
			[0,135,65535],
			[0,65535,65535],
			[0,65535,65535],
			[2,65535,65535]
		],
		[
			[0,65535,65535],
			[0,136,65535],
			[0,138,65535],
			[0,139,65535],
			[0,65535,65535],
			[0,65535,65535],
			[0,65535,65535],
			[0,65535,644],
			[0,65535,65535],
			[3,65535,65535],
			[0,65535,65535],
			[0,65535,65535],
			[0,136,65535],
			[0,138,65535],
			[0,139,65535],
			[0,65535,65535],
			[0,65535,645],
			[0,65535,65535]
		],
		[
			[0,65535,65535],
			[0,65535,65535],
			[0,65535,65535],
			[0,65535,65535],
			[0,65535,65535],
			[0,65535,65535],
			[0,65535,65535],
			[0,642,65535],
			[0,65535,65535],
			[0,65535,65535],
			[0,65535,65535],
			[0,65535,65535],
			[0,65535,65535],
			[0,65535,65535],
			[0,65535,65535],
			[0,65535,65535],
			[0,642,65535],
			[0,65535,65535]
		],
		[
			[0,65535,65535],
			[0,65535,65535],
			[0,65535,65535],
			[0,646,65535],
			[0,65535,645],
			[0,65535,65535],
			[0,65535,65535],
			[0,65535,65535],
			[0,65535,65535],
			[0,287,275],
			[0,288,65535],
			[0,289,65535],
			[0,65535,65535],
			[0,287,65535],
			[0,288,170],
			[0,289,275],
			[0,65535,65535],
			[0,65535,65535]
		],
		[
			[0,65535,65535],
			[0,65535,65535],
			[0,65535,65535],
			[0,65535,65535],
			[0,643,65535],
			[0,65535,65535],
			[0,65535,65535],
			[0,65535,65535],
			[0,65535,65535],
			[0,355,275],
			[0,65535,65535],
			[0,65535,65535],
			[0,65535,65535],
			[0,65535,65535],
			[0,171,65535],
			[0,355,275],
			[0,65535,65535],
			[0,65535,65535]
		],
		[
			[0,65535,65535],
			[0,65535,65535],
			[4,65535,65535],
			[0,65535,65535],
			[0,65535,65535],
			[0,65535,65535],
			[0,65535,65535],
			[0,65535,65535],
			[0,65535,65535],
			[0,355,275],
			[0,65535,164],
			[365,65535,65535],
			[0,65535,65535],
			[0,65535,65535],
			[0,65535,65535],
			[0,355,275],
			[0,65535,65535],
			[0,65535,65535]
		],
		[
			[0,65535,65535],
			[0,65535,65535],
			[0,65535,65535],
			[0,65535,65535],
			[0,65535,65535],
			[0,65535,65535],
			[0,65535,65535],
			[0,646,65535],
			[0,65535,65535],
			[0,355,275],
			[364,165,65535],
			[368,65535,65535],
			[369,65535,65535],
			[0,172,65535],
			[0,65535,65535],
			[0,355,275],
			[4,65535,65535],
			[0,65535,65535]
		],
		[
			[0,65535,65535],
			[0,65535,65535],
			[0,647,65535],
			[0,65535,65535],
			[0,65535,65535],
			[0,65535,65535],
			[0,65535,65535],
			[0,65535,65535],
			[0,65535,65535],
			[0,287,65535],
			[371,288,65535],
			[371,288,65535],
			[0,288,65535],
			[0,288,65535],
			[0,288,65535],
			[0,289,65535],
			[0,65535,65535],
			[0,65535,65535]
		],
		[
			[0,65535,65535],
			[0,65535,65535],
			[0,65535,65535],
			[0,65535,65535],
			[0,65535,65535],
			[0,65535,65535],
			[2,65535,65535],
			[0,65535,65535],
			[0,65535,65535],
			[0,65535,65535],
			[0,65535,65535],
			[0,65535,65535],
			[0,65535,65535],
			[0,65535,65535],
			[0,65535,65535],
			[0,65535,65535],
			[0,65535,65535],
			[0,65535,65535]
		]
	]
}
