{
	"id": 130,
	"type": 1,
	"width": 18,
	"height": 18,
	"flags": 17,
	"tiles": [
		[
			[0,65535,65535],
			[98,65535,65535],
			[0,65535,65535],
			[0,65535,65535],
			[0,65535,65535],
			[0,65535,65535],
			[0,65535,65535],
			[0,65535,65535],
			[0,65535,65535],
			[0,65535,65535],
			[0,65535,65535],
			[0,65535,65535],
			[0,65535,65535],
			[0,65535,65535],
			[0,65535,65535],
			[0,65535,65535],
			[0,65535,65535],
			[0,65535,65535]
		],
		[
			[0,65535,65535],
			[0,65535,65535],
			[99,65535,65535],
			[0,65535,65535],
			[0,65535,65535],
			[99,65,65535],
			[99,53,65535],
			[99,53,65535],
			[0,64,65535],
			[0,65535,65535],
			[0,65535,65535],
			[0,65535,65535],
			[347,65535,65535],
			[0,65535,65535],
			[0,7,65535],
			[0,65535,65535],
			[0,65535,65535],
			[0,65535,65535]
		],
		[
			[0,65535,65535],
			[0,65535,65535],
			[99,65,65535],
			[0,53,65535],
			[38,53,65535],
			[0,61,65535],
			[0,85,65535],
			[99,65535,65535],
			[99,55,65535],
			[0,65535,65535],
			[0,65535,65535],
			[0,41,65535],
			[0,65535,65535],
			[0,65535,65535],
			[0,65535,65535],
			[0,7,65535],
			[0,65535,65535],
			[0,65535,65535]
		],
		[
			[0,65535,65535],
			[0,65,65535],
			[0,61,65535],
			[0,7,65535],
			[1,65535,65535],
			[0,65535,65535],
			[0,65535,65535],
			[346,65535,65535],
			[0,60,65535],
			[38,53,65535],
			[13,53,65535],
			[99,61,65535],
			[99,43,65535],
			[0,65535,65535],
			[0,65535,65535],
			[0,65535,65535],
			[100,65535,65535],
			[0,65535,65535]
		],
		[
			[0,65535,65535],
			[0,56,65535],
			[0,85,65535],
			[0,65535,65535],
			[99,65,65535],
			[99,53,65535],
			[99,64,65535],
			[0,65535,65535],
			[0,65535,65535],
			[1,65535,65535],
			[0,65535,65535],
			[4,65535,65535],
			[99,60,65535],
			[0,64,65535],
			[0,65535,65535],
			[0,65535,65535],
			[0,65535,65535],
			[0,65535,65535]
		],
		[
			[0,65535,65535],
			[0,63,65535],
			[99,59,65535],
			[0,65535,65535],
			[99,56,65535],
			[0,16,65535],
			[398,60,65535],
			[395,1753,65535],
			[397,53,65535],
			[99,64,65535],
			[0,65535,65535],
			[0,65535,65535],
			[99,65535,65535],
			[0,60,65535],
			[38,53,65535],
			[0,64,65535],
			[0,65535,65535],
			[0,65535,65535]
		],
		[
			[0,65535,65535],
			[0,65535,65535],
			[99,42,65535],
			[3,65535,65535],
			[99,63,65535],
			[99,59,65535],
			[398,65535,65535],
			[403,847,65535],
			[397,65535,65535],
			[0,60,65535],
			[0,53,65535],
			[99,64,65535],
			[0,65535,65535],
			[0,65535,65535],
			[1,65535,65535],
			[0,60,65535],
			[0,64,65535],
			[0,65535,65535]
		],
		[
			[0,65535,65535],
			[0,65535,65535],
			[99,41,65535],
			[0,65535,65535],
			[0,85,65535],
			[0,56,65535],
			[398,65535,65535],
			[403,847,65535],
			[397,65535,65535],
			[0,1355,65535],
			[0,1356,65535],
			[99,60,65535],
			[0,64,65535],
			[0,65535,65535],
			[0,1059,65535],
			[0,85,65535],
			[0,55,65535],
			[0,65535,65535]
		],
		[
			[0,65535,65535],
			[0,65,65535],
			[99,61,65535],
			[0,65535,65535],
			[398,65,65535],
			[394,61,412],
			[396,1059,65535],
			[403,847,65535],
			[394,65535,65535],
			[395,65535,65535],
			[401,65535,65535],
			[0,65535,65535],
			[99,60,65535],
			[99,64,65535],
			[0,65535,65535],
			[0,57,65535],
			[0,62,65535],
			[0,65535,65535]
		],
		[
			[0,65535,65535],
			[0,56,65535],
			[2,65535,65535],
			[0,65535,65535],
			[398,56,65535],
			[403,355,413],
			[396,374,65535],
			[375,850,65535],
			[375,375,65535],
			[394,376,65535],
			[394,65535,65535],
			[401,65535,65535],
			[0,65535,65535],
			[0,55,65535],
			[0,65535,65535],
			[0,55,65535],
			[2,65535,65535],
			[0,65535,65535]
		],
		[
			[0,65535,65535],
			[0,63,65535],
			[0,59,65535],
			[0,1059,65535],
			[398,56,65535],
			[396,374,65535],
			[393,382,65535],
			[398,386,65535],
			[0,387,410],
			[379,381,65535],
			[391,65535,65535],
			[399,65535,65535],
			[0,65535,65535],
			[0,55,65535],
			[0,65535,65535],
			[0,60,65535],
			[0,64,65535],
			[0,65535,65535]
		],
		[
			[0,65535,65535],
			[0,65535,65535],
			[0,56,65535],
			[99,65535,65535],
			[398,63,65535],
			[380,59,65535],
			[398,386,65535],
			[377,385,65535],
			[378,411,65535],
			[379,65535,65535],
			[397,65535,65535],
			[0,65535,65535],
			[0,57,65535],
			[99,62,65535],
			[0,65535,65535],
			[0,65535,65535],
			[0,55,65535],
			[0,65535,65535]
		],
		[
			[0,65535,65535],
			[0,65535,65535],
			[99,63,65535],
			[0,59,65535],
			[0,65535,65535],
			[378,63,65535],
			[378,59,65535],
			[379,65535,65535],
			[391,65535,65535],
			[392,65535,65535],
			[399,1059,65535],
			[0,57,65535],
			[0,62,65535],
			[0,65535,65535],
			[0,65535,65535],
			[0,7,65535],
			[0,55,65535],
			[0,65535,65535]
		],
		[
			[0,65535,65535],
			[0,65535,65535],
			[0,65535,65535],
			[0,63,65535],
			[0,59,65535],
			[0,65535,65535],
			[392,63,65535],
			[391,54,65535],
			[399,59,65535],
			[0,65535,65535],
			[0,57,65535],
			[0,62,65535],
			[0,65535,65535],
			[0,7,65535],
			[0,7,65535],
			[0,57,65535],
			[0,62,65535],
			[0,65535,65535]
		],
		[
			[0,65535,65535],
			[0,7,65535],
			[0,65535,65535],
			[0,65535,65535],
			[0,56,65535],
			[345,65535,65535],
			[0,65535,65535],
			[0,65535,65535],
			[0,63,65535],
			[47,65535,65535],
			[0,62,65535],
			[0,65535,65535],
			[0,57,65535],
			[0,54,65535],
			[0,54,65535],
			[0,62,65535],
			[0,65535,65535],
			[0,65535,65535]
		],
		[
			[0,65535,65535],
			[0,65535,65535],
			[0,65535,65535],
			[0,65535,65535],
			[0,63,65535],
			[0,54,65535],
			[0,54,65535],
			[0,59,65535],
			[0,65535,65535],
			[4,65535,65535],
			[0,65535,65535],
			[0,57,65535],
			[0,62,65535],
			[0,65535,65535],
			[0,65535,65535],
			[0,65535,65535],
			[0,65535,65535],
			[0,65535,65535]
		],
		[
			[4,65535,65535],
			[0,65535,65535],
			[0,7,65535],
			[0,85,65535],
			[0,65535,65535],
			[0,65535,65535],
			[0,65535,65535],
			[0,63,65535],
			[0,46,65535],
			[0,45,65535],
			[0,54,65535],
			[0,62,65535],
			[0,65535,65535],
			[0,65535,65535],
			[0,65535,65535],
			[0,65535,65535],
			[0,65535,65535],
			[99,65535,65535]
		],
		[
			[0,65535,65535],
			[0,65535,65535],
			[0,65535,65535],
			[0,65535,65535],
			[0,65535,65535],
			[0,65535,65535],
			[0,65535,65535],
			[0,65535,65535],
			[0,65535,65535],
			[0,65535,65535],
			[0,65535,65535],
			[0,65535,65535],
			[3,65535,65535],
			[0,65535,65535],
			[0,65535,65535],
			[0,65535,65535],
			[0,65535,65535],
			[0,65535,65535]
		]
	]
}
