{
	"id": 160,
	"type": 2,
	"width": 18,
	"height": 18,
	"flags": 8,
	"tiles": [
		[
			[678,682,65535],
			[683,65535,65535],
			[683,65535,65535],
			[683,65535,65535],
			[683,65535,65535],
			[683,65535,65535],
			[683,65535,65535],
			[683,65535,65535],
			[683,693,65535],
			[683,65535,65535],
			[683,65535,65535],
			[683,65535,65535],
			[683,65535,65535],
			[683,65535,65535],
			[683,65535,65535],
			[683,65535,65535],
			[683,65535,65535],
			[678,684,65535]
		],
		[
			[678,688,65535],
			[678,65535,65535],
			[678,65535,65535],
			[678,65535,65535],
			[678,65535,65535],
			[678,65535,65535],
			[678,65535,65535],
			[678,65535,65535],
			[678,694,65535],
			[678,65535,65535],
			[678,65535,65535],
			[678,65535,65535],
			[678,65535,65535],
			[678,65535,65535],
			[678,65535,65535],
			[678,65535,65535],
			[680,65535,65535],
			[678,687,65535]
		],
		[
			[678,688,65535],
			[678,65535,65535],
			[678,65535,65535],
			[678,696,65535],
			[678,65535,65535],
			[678,696,65535],
			[678,65535,65535],
			[678,65535,65535],
			[678,694,65535],
			[678,65535,65535],
			[678,691,65535],
			[678,686,65535],
			[678,692,65535],
			[678,65535,65535],
			[678,65535,65535],
			[678,65535,65535],
			[678,691,65535],
			[678,681,65535]
		],
		[
			[678,681,65535],
			[678,686,65535],
			[678,686,65535],
			[678,688,65535],
			[678,65535,65535],
			[678,687,65535],
			[678,692,65535],
			[678,65535,65535],
			[695,65535,65535],
			[678,65535,65535],
			[690,65535,65535],
			[683,65535,65535],
			[678,684,65535],
			[678,686,65535],
			[678,692,65535],
			[678,65535,65535],
			[678,687,65535],
			[678,681,65535]
		],
		[
			[678,681,65535],
			[678,682,65535],
			[683,65535,65535],
			[689,65535,65535],
			[678,65535,65535],
			[690,65535,65535],
			[678,684,65535],
			[678,692,65535],
			[678,65535,65535],
			[678,65535,65535],
			[678,65535,65535],
			[678,65535,65535],
			[690,698,65535],
			[683,65535,65535],
			[689,65535,65535],
			[678,65535,65535],
			[690,65535,65535],
			[678,684,65535]
		],
		[
			[678,682,65535],
			[689,65535,65535],
			[678,65535,65535],
			[678,691,65535],
			[678,692,65535],
			[678,65535,65535],
			[690,698,65535],
			[689,65535,65535],
			[678,65535,65535],
			[678,65535,65535],
			[678,65535,65535],
			[678,691,65535],
			[678,688,65535],
			[678,65535,65535],
			[678,696,65535],
			[678,65535,65535],
			[678,691,65535],
			[678,681,65535]
		],
		[
			[678,688,65535],
			[678,65535,65535],
			[678,65535,65535],
			[690,65535,65535],
			[678,697,65535],
			[678,65535,65535],
			[678,687,65535],
			[680,65535,1249],
			[678,686,65535],
			[678,686,65535],
			[678,686,65535],
			[678,681,65535],
			[678,688,65535],
			[678,65535,65535],
			[678,687,65535],
			[678,686,65535],
			[678,681,65535],
			[678,681,65535]
		],
		[
			[678,688,65535],
			[678,65535,65535],
			[678,691,65535],
			[678,692,65535],
			[695,65535,65535],
			[678,65535,65535],
			[678,687,65535],
			[680,65535,1248],
			[683,682,65535],
			[683,65535,65535],
			[678,684,65535],
			[678,682,65535],
			[689,65535,65535],
			[678,65535,65535],
			[690,65535,65535],
			[683,65535,65535],
			[683,684,65535],
			[678,681,65535]
		],
		[
			[678,688,65535],
			[678,65535,65535],
			[678,687,65535],
			[678,681,65535],
			[678,692,65535],
			[678,65535,65535],
			[678,687,65535],
			[680,65535,1248],
			[678,688,65535],
			[678,65535,65535],
			[690,65535,65535],
			[678,697,65535],
			[678,65535,65535],
			[678,691,65535],
			[678,692,65535],
			[678,65535,65535],
			[690,65535,65535],
			[678,684,65535]
		],
		[
			[678,688,65535],
			[678,65535,65535],
			[678,687,65535],
			[678,682,65535],
			[689,65535,65535],
			[678,65535,65535],
			[678,698,65535],
			[982,984,65535],
			[683,684,65535],
			[678,692,65535],
			[678,65535,65535],
			[678,694,65535],
			[678,65535,65535],
			[678,698,65535],
			[689,65535,65535],
			[678,65535,65535],
			[678,65535,65535],
			[678,687,65535]
		],
		[
			[678,688,65535],
			[678,65535,65535],
			[678,698,65535],
			[689,65535,65535],
			[678,691,65535],
			[678,686,65535],
			[678,681,65535],
			[678,692,65535],
			[690,65535,65535],
			[678,697,65535],
			[678,65535,65535],
			[678,694,65535],
			[678,65535,65535],
			[678,687,65535],
			[678,686,65535],
			[678,692,65535],
			[678,65535,65535],
			[678,687,65535]
		],
		[
			[678,688,65535],
			[680,65535,65535],
			[678,694,65535],
			[678,65535,65535],
			[678,687,65535],
			[678,682,65535],
			[683,65535,65535],
			[689,65535,65535],
			[678,65535,65535],
			[678,694,65535],
			[678,65535,65535],
			[695,65535,65535],
			[678,65535,65535],
			[678,687,65535],
			[678,681,65535],
			[678,688,65535],
			[678,65535,65535],
			[678,687,65535]
		],
		[
			[678,681,65535],
			[678,686,65535],
			[678,688,65535],
			[678,65535,65535],
			[678,687,65535],
			[678,681,65535],
			[678,692,65535],
			[678,65535,65535],
			[678,691,65535],
			[678,681,65535],
			[678,686,65535],
			[678,686,65535],
			[678,692,65535],
			[690,65535,65535],
			[683,65535,65535],
			[689,65535,65535],
			[678,65535,65535],
			[678,687,65535]
		],
		[
			[678,682,65535],
			[683,65535,65535],
			[689,65535,65535],
			[678,691,65535],
			[678,682,65535],
			[683,65535,65535],
			[678,697,65535],
			[678,65535,65535],
			[690,65535,65535],
			[683,65535,65535],
			[678,693,65535],
			[683,65535,65535],
			[678,684,65535],
			[678,692,65535],
			[678,65535,65535],
			[678,696,65535],
			[678,65535,65535],
			[678,687,65535]
		],
		[
			[678,688,65535],
			[678,65535,65535],
			[678,65535,65535],
			[690,65535,65535],
			[678,697,65535],
			[678,65535,65535],
			[683,687,65535],
			[678,686,65535],
			[678,692,65535],
			[678,65535,65535],
			[678,694,65535],
			[678,65535,65535],
			[690,65535,65535],
			[678,697,65535],
			[678,65535,65535],
			[678,687,65535],
			[678,686,65535],
			[678,681,65535]
		],
		[
			[678,681,65535],
			[678,686,65535],
			[678,692,65535],
			[678,65535,65535],
			[678,687,65535],
			[678,692,65535],
			[690,65535,65535],
			[678,684,65535],
			[678,688,65535],
			[678,65535,65535],
			[695,65535,65535],
			[678,65535,65535],
			[678,691,65535],
			[678,688,65535],
			[678,65535,65535],
			[678,698,65535],
			[683,65535,65535],
			[678,684,65535]
		],
		[
			[678,682,65535],
			[683,65535,65535],
			[689,65535,65535],
			[678,696,65535],
			[690,65535,65535],
			[689,65535,65535],
			[678,65535,65535],
			[678,687,65535],
			[678,688,65535],
			[678,355,65535],
			[678,696,65535],
			[678,65535,65535],
			[690,65535,65535],
			[678,697,65535],
			[678,65535,65535],
			[695,65535,65535],
			[680,65535,65535],
			[678,687,65535]
		],
		[
			[678,681,65535],
			[678,686,65535],
			[678,681,65535],
			[678,681,65535],
			[678,686,65535],
			[678,686,65535],
			[678,686,65535],
			[678,681,65535],
			[678,688,65535],
			[679,65535,65535],
			[678,687,65535],
			[678,686,65535],
			[678,686,65535],
			[678,681,65535],
			[678,686,65535],
			[678,681,65535],
			[678,686,65535],
			[678,681,65535]
		]
	]
}
