{
	"id": 197,
	"type": 2,
	"width": 18,
	"height": 18,
	"flags": 17,
	"tiles": [
		[
			[648,65535,65535],
			[648,65535,65535],
			[648,65535,65535],
			[648,65535,65535],
			[648,65535,65535],
			[648,65535,65535],
			[648,65535,65535],
			[648,65535,65535],
			[648,65535,65535],
			[648,65535,65535],
			[648,65535,65535],
			[648,65535,65535],
			[648,65535,65535],
			[648,65535,65535],
			[648,65535,65535],
			[648,65535,65535],
			[648,65535,65535],
			[648,65535,65535]
		],
		[
			[648,65535,65535],
			[648,739,65535],
			[648,751,65535],
			[997,65535,65535],
			[648,748,65535],
			[648,65535,65535],
			[648,65535,65535],
			[648,65535,65535],
			[648,65535,65535],
			[1000,65535,65535],
			[648,65535,65535],
			[999,355,65535],
			[648,65535,65535],
			[648,65535,65535],
			[648,746,65535],
			[648,65535,65535],
			[998,65535,65535],
			[648,65535,65535]
		],
		[
			[648,65535,65535],
			[648,745,65535],
			[648,65535,65535],
			[648,65535,65535],
			[648,744,65535],
			[648,750,65535],
			[648,750,65535],
			[997,750,65535],
			[648,740,65535],
			[648,65535,65535],
			[648,65535,65535],
			[648,65535,65535],
			[648,65535,65535],
			[648,65535,65535],
			[648,745,65535],
			[648,65535,65535],
			[648,748,65535],
			[648,65535,65535]
		],
		[
			[648,65535,65535],
			[648,745,65535],
			[648,65535,65535],
			[648,65535,65535],
			[648,65535,65535],
			[648,65535,65535],
			[648,65535,65535],
			[648,65535,65535],
			[648,744,65535],
			[648,750,65535],
			[648,740,65535],
			[648,65535,65535],
			[648,739,65535],
			[648,740,65535],
			[648,745,65535],
			[648,65535,65535],
			[648,724,65535],
			[648,65535,65535]
		],
		[
			[998,65535,65535],
			[648,745,65535],
			[648,742,65535],
			[734,732,65535],
			[648,732,65535],
			[648,741,65535],
			[648,65535,65535],
			[997,65535,65535],
			[648,65535,65535],
			[648,65535,65535],
			[648,744,65535],
			[648,750,65535],
			[648,743,65535],
			[648,744,65535],
			[648,743,65535],
			[648,65535,65535],
			[648,724,65535],
			[997,65535,65535]
		],
		[
			[648,65535,65535],
			[648,737,65535],
			[648,738,65535],
			[648,65535,65535],
			[648,355,1173],
			[648,745,65535],
			[648,65535,65535],
			[648,65535,65535],
			[648,65535,65535],
			[648,65535,65535],
			[648,65535,65535],
			[648,65535,65535],
			[648,65535,65535],
			[648,65535,65535],
			[1000,65535,65535],
			[648,742,65535],
			[648,738,65535],
			[648,65535,65535]
		],
		[
			[648,65535,65535],
			[648,65535,65535],
			[648,65535,65535],
			[648,1174,65535],
			[1000,1175,65535],
			[648,745,65535],
			[648,65535,65535],
			[648,65535,65535],
			[648,742,65535],
			[648,732,65535],
			[648,732,65535],
			[648,732,65535],
			[648,741,65535],
			[648,65535,65535],
			[648,65535,65535],
			[648,724,65535],
			[648,65535,65535],
			[648,65535,65535]
		],
		[
			[648,65535,65535],
			[648,739,65535],
			[753,65535,65535],
			[648,750,65535],
			[648,750,65535],
			[648,743,65535],
			[648,65535,65535],
			[648,742,65535],
			[648,738,65535],
			[648,65535,65535],
			[998,65535,65535],
			[648,739,65535],
			[648,743,65535],
			[648,65535,65535],
			[648,65535,65535],
			[648,744,65535],
			[648,740,65535],
			[648,65535,65535]
		],
		[
			[648,65535,65535],
			[648,745,65535],
			[648,65535,65535],
			[648,65535,65535],
			[997,65535,65535],
			[648,65535,65535],
			[648,65535,65535],
			[648,724,65535],
			[648,65535,65535],
			[648,65535,65535],
			[648,752,65535],
			[648,743,65535],
			[1000,65535,65535],
			[648,742,65535],
			[648,732,65535],
			[648,732,65535],
			[648,738,65535],
			[648,65535,65535]
		],
		[
			[648,65535,65535],
			[648,745,65535],
			[1000,65535,65535],
			[648,65535,65535],
			[648,65535,65535],
			[648,65535,65535],
			[1000,65535,65535],
			[648,724,65535],
			[648,1165,65535],
			[648,65535,65535],
			[648,65535,65535],
			[648,65535,65535],
			[648,65535,65535],
			[648,744,65535],
			[648,740,65535],
			[648,65535,65535],
			[648,65535,65535],
			[648,65535,65535]
		],
		[
			[648,65535,65535],
			[648,737,65535],
			[734,732,65535],
			[648,732,995],
			[648,741,65535],
			[648,65535,65535],
			[648,65535,65535],
			[648,724,65535],
			[648,65535,65535],
			[648,739,65535],
			[648,751,65535],
			[648,65535,65535],
			[997,65535,65535],
			[648,65535,65535],
			[648,744,65535],
			[648,740,65535],
			[1000,65535,65535],
			[648,65535,65535]
		],
		[
			[648,65535,65535],
			[648,65535,65535],
			[997,65535,65535],
			[648,994,65535],
			[648,737,65535],
			[648,741,65535],
			[648,65535,65535],
			[648,744,65535],
			[648,750,65535],
			[648,743,65535],
			[648,65535,65535],
			[648,65535,65535],
			[648,65535,65535],
			[648,65535,65535],
			[648,65535,65535],
			[648,724,65535],
			[648,65535,65535],
			[648,65535,65535]
		],
		[
			[648,65535,65535],
			[648,65535,65535],
			[648,65535,65535],
			[648,65535,65535],
			[648,65535,65535],
			[648,737,65535],
			[648,741,65535],
			[648,65535,65535],
			[648,65535,65535],
			[648,65535,65535],
			[648,65535,65535],
			[648,65535,65535],
			[648,65535,65535],
			[648,65535,65535],
			[648,65535,65535],
			[648,744,65535],
			[648,740,65535],
			[648,65535,65535]
		],
		[
			[648,65535,65535],
			[648,65535,65535],
			[648,65535,65535],
			[648,65535,65535],
			[648,65535,65535],
			[1000,65535,65535],
			[648,745,65535],
			[648,65535,65535],
			[648,65535,65535],
			[648,65535,65535],
			[648,65535,65535],
			[1000,65535,65535],
			[648,742,65535],
			[648,731,65535],
			[648,741,65535],
			[648,65535,65535],
			[648,724,65535],
			[648,65535,65535]
		],
		[
			[648,65535,65535],
			[648,65535,65535],
			[1000,752,65535],
			[648,750,65535],
			[648,750,65535],
			[648,750,65535],
			[997,743,65535],
			[648,65535,65535],
			[648,65535,65535],
			[648,65535,65535],
			[648,65535,65535],
			[648,65535,65535],
			[648,724,65535],
			[648,65535,65535],
			[648,745,65535],
			[648,65535,65535],
			[648,724,65535],
			[648,65535,65535]
		],
		[
			[648,65535,65535],
			[648,65535,65535],
			[648,65535,65535],
			[648,65535,65535],
			[1000,65535,65535],
			[648,65535,65535],
			[648,65535,65535],
			[648,65535,65535],
			[648,65535,65535],
			[648,65535,65535],
			[648,65535,65535],
			[648,742,65535],
			[648,738,65535],
			[648,65535,65535],
			[648,745,65535],
			[648,65535,65535],
			[648,749,65535],
			[648,65535,65535]
		],
		[
			[648,65535,65535],
			[648,65535,65535],
			[998,65535,65535],
			[648,735,65535],
			[648,731,65535],
			[648,732,65535],
			[648,732,65535],
			[648,732,65535],
			[648,732,65535],
			[648,732,65535],
			[648,732,65535],
			[648,738,65535],
			[648,65535,65535],
			[1000,65535,65535],
			[648,747,65535],
			[648,65535,65535],
			[648,65535,65535],
			[648,65535,65535]
		],
		[
			[648,65535,65535],
			[648,65535,65535],
			[648,65535,65535],
			[648,65535,65535],
			[648,65535,65535],
			[648,65535,65535],
			[648,65535,65535],
			[648,65535,65535],
			[648,65535,65535],
			[648,65535,65535],
			[648,65535,65535],
			[648,65535,65535],
			[648,65535,65535],
			[648,65535,65535],
			[648,65535,65535],
			[648,65535,65535],
			[648,65535,65535],
			[648,65535,65535]
		]
	]
}
