{
	"id": 198,
	"type": 2,
	"width": 18,
	"height": 18,
	"flags": 15,
	"tiles": [
		[
			[648,65535,65535],
			[648,65535,65535],
			[648,65535,65535],
			[648,65535,65535],
			[648,65535,65535],
			[648,65535,65535],
			[648,65535,65535],
			[648,65535,65535],
			[648,65535,65535],
			[648,65535,65535],
			[648,65535,65535],
			[648,65535,65535],
			[648,65535,65535],
			[648,65535,65535],
			[648,65535,65535],
			[648,65535,65535],
			[648,65535,65535],
			[648,65535,65535]
		],
		[
			[648,65535,65535],
			[1013,65535,65535],
			[1009,65535,65535],
			[1009,65535,65535],
			[1014,65535,65535],
			[648,65535,65535],
			[648,65535,65535],
			[648,65535,65535],
			[648,65535,65535],
			[648,65535,65535],
			[648,65535,65535],
			[997,65535,65535],
			[648,65535,65535],
			[648,65535,65535],
			[648,65535,65535],
			[648,65535,65535],
			[648,65535,65535],
			[648,65535,65535]
		],
		[
			[648,65535,65535],
			[1015,65535,65535],
			[1012,65535,65535],
			[1019,65535,65535],
			[1018,65535,65535],
			[1009,65535,65535],
			[1014,65535,65535],
			[648,65535,65535],
			[648,65535,65535],
			[648,65535,65535],
			[648,65535,65535],
			[648,65535,65535],
			[648,65535,65535],
			[648,65535,991],
			[648,65535,992],
			[648,65535,993],
			[648,65535,65535],
			[648,65535,65535]
		],
		[
			[648,65535,65535],
			[1000,65535,65535],
			[648,65535,65535],
			[1010,65535,65535],
			[648,1021,65535],
			[1020,65535,65535],
			[1016,65535,65535],
			[648,65535,65535],
			[648,65535,65535],
			[648,65535,65535],
			[648,65535,65535],
			[648,65535,65535],
			[648,65535,65535],
			[648,988,65535],
			[648,989,65535],
			[648,990,65535],
			[648,65535,65535],
			[648,65535,65535]
		],
		[
			[648,65535,65535],
			[648,65535,65535],
			[648,65535,65535],
			[1015,65535,65535],
			[1012,65535,65535],
			[1016,65535,65535],
			[648,65535,65535],
			[648,65535,65535],
			[648,65535,65535],
			[648,65535,65535],
			[648,65535,65535],
			[648,65535,65535],
			[648,65535,65535],
			[648,985,65535],
			[986,1049,65535],
			[648,987,65535],
			[648,65535,65535],
			[648,65535,65535]
		],
		[
			[648,65535,65535],
			[648,65535,65535],
			[648,658,65535],
			[648,670,65535],
			[1000,659,65535],
			[648,65535,65535],
			[648,65535,65535],
			[648,65535,65535],
			[648,658,65535],
			[648,671,65535],
			[648,65535,65535],
			[648,65535,65535],
			[648,661,65535],
			[648,655,65535],
			[674,65535,65535],
			[648,65535,65535],
			[648,65535,65535],
			[648,65535,65535]
		],
		[
			[648,65535,65535],
			[648,658,65535],
			[648,662,65535],
			[648,661,65535],
			[997,657,65535],
			[674,65535,65535],
			[648,658,65535],
			[648,670,65535],
			[648,662,65535],
			[1000,65535,65535],
			[648,65535,65535],
			[648,661,65535],
			[648,657,65535],
			[1317,65535,65535],
			[648,65535,65535],
			[648,65535,65535],
			[648,65535,65535],
			[648,65535,65535]
		],
		[
			[648,65535,65535],
			[648,664,65535],
			[648,65535,65535],
			[648,667,65535],
			[1318,65535,65535],
			[648,658,65535],
			[648,662,65535],
			[648,965,65535],
			[648,966,65535],
			[648,65535,65535],
			[648,661,65535],
			[648,657,65535],
			[1318,65535,65535],
			[648,65535,65535],
			[648,65535,65535],
			[648,65535,65535],
			[648,65535,65535],
			[648,65535,65535]
		],
		[
			[648,65535,65535],
			[648,664,65535],
			[648,65535,65535],
			[648,667,65535],
			[648,65535,65535],
			[648,664,65535],
			[648,65535,65535],
			[648,967,65535],
			[648,968,65535],
			[648,661,65535],
			[648,657,65535],
			[648,65535,65535],
			[648,65535,65535],
			[648,65535,65535],
			[648,65535,65535],
			[648,65535,65535],
			[648,65535,65535],
			[648,65535,65535]
		],
		[
			[648,65535,65535],
			[648,656,65535],
			[648,660,65535],
			[648,667,65535],
			[648,65535,65535],
			[648,656,65535],
			[648,650,65535],
			[648,650,65535],
			[648,650,65535],
			[648,657,65535],
			[648,65535,65535],
			[1319,65535,65535],
			[648,658,65535],
			[648,670,65535],
			[648,659,65535],
			[648,65535,65535],
			[998,65535,65535],
			[648,65535,65535]
		],
		[
			[648,65535,65535],
			[648,658,65535],
			[648,662,65535],
			[648,663,65535],
			[648,659,65535],
			[648,65535,65535],
			[1318,65535,65535],
			[1317,65535,65535],
			[648,65535,65535],
			[648,65535,65535],
			[648,658,65535],
			[648,670,65535],
			[648,662,65535],
			[648,65535,65535],
			[648,663,65535],
			[648,659,65535],
			[648,65535,65535],
			[648,65535,65535]
		],
		[
			[648,65535,65535],
			[648,664,65535],
			[648,65535,1103],
			[648,1107,65535],
			[648,663,1105],
			[648,670,65535],
			[648,659,65535],
			[648,65535,65535],
			[648,658,65535],
			[648,670,65535],
			[648,662,65535],
			[648,65535,65535],
			[648,65535,65535],
			[648,65535,65535],
			[648,65535,65535],
			[648,667,65535],
			[648,65535,65535],
			[648,65535,65535]
		],
		[
			[648,65535,65535],
			[648,666,65535],
			[648,1106,1103],
			[648,1107,1104],
			[648,1108,1105],
			[648,65535,65535],
			[648,667,65535],
			[648,65535,65535],
			[648,656,65535],
			[648,655,65535],
			[674,65535,65535],
			[648,65535,65535],
			[648,654,65535],
			[648,650,65535],
			[648,650,65535],
			[648,657,65535],
			[648,65535,65535],
			[648,65535,65535]
		],
		[
			[648,65535,65535],
			[1318,65535,65535],
			[648,1106,65535],
			[648,1107,65535],
			[648,1108,65535],
			[648,65535,65535],
			[648,663,65535],
			[648,659,65535],
			[648,65535,65535],
			[648,65535,65535],
			[648,65535,65535],
			[1317,65535,65535],
			[1013,65535,65535],
			[1009,65535,65535],
			[1014,65535,65535],
			[648,65535,65535],
			[648,65535,65535],
			[648,65535,65535]
		],
		[
			[648,65535,65535],
			[648,65535,65535],
			[648,1109,65535],
			[1110,1112,65535],
			[648,1111,65535],
			[648,65535,65535],
			[648,65535,65535],
			[648,667,65535],
			[648,65535,65535],
			[1013,65535,65535],
			[1009,65535,65535],
			[1009,65535,65535],
			[1017,65535,65535],
			[1008,65535,65535],
			[1011,65535,65535],
			[648,65535,65535],
			[648,65535,65535],
			[648,65535,65535]
		],
		[
			[648,65535,65535],
			[648,65535,65535],
			[648,65535,65535],
			[648,65535,65535],
			[648,65535,65535],
			[648,661,65535],
			[648,652,65535],
			[648,657,65535],
			[648,65535,65535],
			[1015,65535,65535],
			[1019,65535,65535],
			[1020,65535,65535],
			[1012,65535,65535],
			[1012,65535,65535],
			[1016,65535,65535],
			[648,65535,65535],
			[648,65535,65535],
			[648,65535,65535]
		],
		[
			[648,65535,65535],
			[1000,65535,65535],
			[648,65535,65535],
			[648,65535,65535],
			[648,65535,65535],
			[648,669,65535],
			[648,65535,65535],
			[648,65535,65535],
			[648,65535,65535],
			[648,65535,65535],
			[1015,65535,65535],
			[1016,65535,65535],
			[648,65535,65535],
			[648,65535,65535],
			[648,65535,65535],
			[648,65535,65535],
			[997,65535,65535],
			[648,65535,65535]
		],
		[
			[648,65535,65535],
			[648,65535,65535],
			[648,65535,65535],
			[648,65535,65535],
			[648,65535,65535],
			[648,65535,65535],
			[648,65535,65535],
			[648,65535,65535],
			[648,65535,65535],
			[648,65535,65535],
			[648,65535,65535],
			[648,65535,65535],
			[648,65535,65535],
			[648,65535,65535],
			[648,65535,65535],
			[648,65535,65535],
			[648,65535,65535],
			[648,65535,65535]
		]
	]
}
