{
	"id": 200,
	"type": 2,
	"width": 18,
	"height": 18,
	"flags": 16,
	"tiles": [
		[
			[648,65535,65535],
			[648,65535,65535],
			[648,65535,65535],
			[648,65535,65535],
			[648,65535,65535],
			[648,65535,65535],
			[648,65535,65535],
			[648,65535,65535],
			[648,65535,65535],
			[648,65535,65535],
			[648,65535,65535],
			[648,65535,65535],
			[648,65535,65535],
			[648,65535,65535],
			[648,65535,65535],
			[648,65535,65535],
			[648,65535,65535],
			[648,65535,65535]
		],
		[
			[648,65535,65535],
			[648,65535,65535],
			[648,65535,65535],
			[648,65535,65535],
			[648,65535,65535],
			[674,65535,65535],
			[648,672,65535],
			[648,670,65535],
			[648,670,65535],
			[648,670,65535],
			[648,659,65535],
			[1317,65535,65535],
			[648,658,65535],
			[648,670,65535],
			[648,659,65535],
			[648,65535,65535],
			[648,65535,65535],
			[1319,65535,65535]
		],
		[
			[648,65535,65535],
			[648,65535,65535],
			[648,65535,65535],
			[648,658,65535],
			[648,670,65535],
			[648,659,65535],
			[648,65535,65535],
			[648,65535,65535],
			[997,65535,65535],
			[648,65535,65535],
			[648,663,65535],
			[648,670,65535],
			[648,662,65535],
			[648,65535,65535],
			[648,663,65535],
			[648,670,65535],
			[648,659,65535],
			[648,65535,65535]
		],
		[
			[648,65535,65535],
			[648,65535,65535],
			[648,65535,65535],
			[648,664,65535],
			[648,65535,65535],
			[648,663,65535],
			[648,670,65535],
			[648,670,65535],
			[648,659,65535],
			[648,65535,65535],
			[648,65535,65535],
			[648,739,65535],
			[648,750,65535],
			[648,750,65535],
			[648,750,65535],
			[648,740,65535],
			[648,667,65535],
			[648,65535,65535]
		],
		[
			[648,65535,65535],
			[997,65535,65535],
			[1317,65535,65535],
			[648,656,65535],
			[648,660,65535],
			[648,65535,65535],
			[648,65535,1113],
			[648,65535,1114],
			[648,663,65535],
			[648,659,65535],
			[648,65535,65535],
			[648,737,65535],
			[648,732,778],
			[648,731,65535],
			[648,732,778],
			[648,738,65535],
			[648,667,65535],
			[648,65535,65535]
		],
		[
			[648,65535,65535],
			[648,65535,65535],
			[648,665,65535],
			[648,65535,65535],
			[648,664,65535],
			[648,65535,65535],
			[648,1115,65535],
			[648,1117,65535],
			[648,65535,65535],
			[648,663,65535],
			[648,659,65535],
			[648,65535,65535],
			[648,65535,65535],
			[998,65535,65535],
			[648,65535,65535],
			[648,661,65535],
			[648,657,65535],
			[648,65535,65535]
		],
		[
			[648,65535,65535],
			[648,65535,65535],
			[648,664,65535],
			[648,65535,65535],
			[648,656,65535],
			[648,660,65535],
			[648,1118,65535],
			[1119,1120,65535],
			[648,65535,65535],
			[648,661,65535],
			[648,657,65535],
			[648,65535,65535],
			[648,65535,65535],
			[648,661,65535],
			[648,650,65535],
			[648,657,65535],
			[648,65535,65535],
			[648,65535,65535]
		],
		[
			[648,65535,65535],
			[648,65535,65535],
			[648,656,65535],
			[648,660,65535],
			[648,65535,65535],
			[648,656,65535],
			[648,660,65535],
			[648,65535,65535],
			[648,661,65535],
			[648,657,65535],
			[648,65535,65535],
			[1000,65535,65535],
			[648,661,65535],
			[648,657,65535],
			[1317,65535,65535],
			[648,65535,65535],
			[648,65535,65535],
			[648,65535,65535]
		],
		[
			[648,65535,65535],
			[1000,65535,65535],
			[648,65535,65535],
			[648,656,65535],
			[648,660,65535],
			[648,65535,65535],
			[648,664,65535],
			[648,65535,65535],
			[648,669,65535],
			[1318,65535,65535],
			[648,65535,65535],
			[648,661,65535],
			[648,657,65535],
			[648,65535,65535],
			[648,65535,65535],
			[648,65535,65535],
			[648,65535,65535],
			[648,65535,65535]
		],
		[
			[648,65535,65535],
			[648,65535,65535],
			[1319,65535,65535],
			[648,658,65535],
			[648,662,65535],
			[648,65535,65535],
			[648,664,65535],
			[1000,65535,65535],
			[674,65535,65535],
			[648,65535,65535],
			[648,661,65535],
			[648,657,65535],
			[648,65535,65535],
			[648,65535,65535],
			[648,65535,65535],
			[997,65535,65535],
			[648,65535,65535],
			[648,65535,65535]
		],
		[
			[648,65535,65535],
			[648,65535,65535],
			[648,658,65535],
			[648,662,65535],
			[648,65535,65535],
			[648,658,65535],
			[648,662,65535],
			[648,65535,65535],
			[648,668,65535],
			[648,65535,65535],
			[648,663,65535],
			[648,670,65535],
			[648,670,65535],
			[648,659,65535],
			[648,65535,65535],
			[648,65535,65535],
			[648,65535,65535],
			[648,65535,65535]
		],
		[
			[648,65535,65535],
			[648,65535,65535],
			[648,664,65535],
			[648,65535,65535],
			[648,658,65535],
			[648,662,65535],
			[648,675,65535],
			[648,65535,65535],
			[648,667,65535],
			[648,65535,65535],
			[648,658,65535],
			[648,659,65535],
			[648,65535,65535],
			[648,667,65535],
			[648,65535,65535],
			[648,65535,65535],
			[648,65535,65535],
			[648,65535,65535]
		],
		[
			[648,65535,65535],
			[648,65535,65535],
			[648,664,65535],
			[648,65535,65535],
			[648,656,65535],
			[648,650,65535],
			[648,660,65535],
			[648,661,65535],
			[648,657,65535],
			[648,65535,65535],
			[648,656,65535],
			[648,657,65535],
			[648,65535,65535],
			[648,667,65535],
			[1318,65535,65535],
			[648,65535,65535],
			[648,65535,65535],
			[648,65535,65535]
		],
		[
			[648,65535,65535],
			[648,65535,65535],
			[648,656,65535],
			[648,660,65535],
			[648,65535,65535],
			[1319,65535,65535],
			[648,656,65535],
			[648,657,65535],
			[648,65535,65535],
			[648,661,65535],
			[648,650,65535],
			[648,650,65535],
			[648,650,65535],
			[648,657,65535],
			[648,65535,65535],
			[648,65535,65535],
			[648,65535,65535],
			[648,65535,65535]
		],
		[
			[648,65535,65535],
			[648,65535,65535],
			[648,65535,65535],
			[648,664,65535],
			[648,65535,65535],
			[648,65535,65535],
			[648,65535,65535],
			[648,65535,65535],
			[648,661,65535],
			[648,657,65535],
			[648,65535,65535],
			[648,65535,65535],
			[648,65535,65535],
			[648,65535,65535],
			[648,65535,65535],
			[648,65535,65535],
			[648,65535,65535],
			[648,65535,65535]
		],
		[
			[648,65535,65535],
			[648,65535,65535],
			[648,65535,65535],
			[648,656,65535],
			[648,650,65535],
			[648,650,65535],
			[648,650,65535],
			[648,650,65535],
			[648,657,65535],
			[648,65535,65535],
			[648,65535,65535],
			[648,65535,65535],
			[648,65535,65535],
			[648,65535,65535],
			[648,658,65535],
			[648,670,65535],
			[648,659,65535],
			[648,65535,65535]
		],
		[
			[648,65535,65535],
			[648,65535,65535],
			[648,65535,65535],
			[648,65535,65535],
			[648,65535,65535],
			[1317,65535,65535],
			[1318,65535,65535],
			[648,65535,65535],
			[648,65535,65535],
			[648,65535,65535],
			[648,65535,65535],
			[997,65535,65535],
			[648,65535,65535],
			[648,65535,65535],
			[648,656,65535],
			[648,650,65535],
			[648,657,65535],
			[648,65535,65535]
		],
		[
			[648,65535,65535],
			[648,65535,65535],
			[648,65535,65535],
			[648,65535,65535],
			[648,65535,65535],
			[648,65535,65535],
			[648,65535,65535],
			[648,65535,65535],
			[648,65535,65535],
			[648,65535,65535],
			[648,65535,65535],
			[648,65535,65535],
			[648,65535,65535],
			[648,65535,65535],
			[648,65535,65535],
			[648,65535,65535],
			[648,65535,65535],
			[648,65535,65535]
		]
	]
}
