{
	"id": 205,
	"type": 2,
	"width": 9,
	"height": 9,
	"flags": 8,
	"tiles": [
		[
			[0,681,65535],
			[0,681,65535],
			[0,681,65535],
			[683,682,65535],
			[683,65535,65535],
			[683,65535,65535],
			[683,684,65535],
			[683,681,65535],
			[0,681,65535]
		],
		[
			[678,681,65535],
			[678,681,65535],
			[678,682,65535],
			[689,65535,65535],
			[678,65535,65535],
			[1201,355,65535],
			[678,687,65535],
			[678,681,65535],
			[678,681,65535]
		],
		[
			[678,682,65535],
			[683,65535,65535],
			[689,65535,65535],
			[678,65535,65535],
			[678,65535,65535],
			[678,691,65535],
			[678,681,65535],
			[678,681,65535],
			[678,681,65535]
		],
		[
			[678,688,65535],
			[1201,355,65535],
			[678,65535,65535],
			[678,65535,65535],
			[678,65535,65535],
			[690,65535,65535],
			[678,684,65535],
			[678,681,65535],
			[678,681,65535]
		],
		[
			[678,688,65535],
			[678,65535,65535],
			[678,65535,65535],
			[678,65535,65535],
			[678,65535,65535],
			[678,65535,65535],
			[678,687,65535],
			[678,681,65535],
			[678,681,65535]
		],
		[
			[678,688,65535],
			[678,65535,65535],
			[678,65535,65535],
			[678,65535,65535],
			[678,65535,65535],
			[678,65535,65535],
			[690,65535,65535],
			[683,65535,65535],
			[678,684,65535]
		],
		[
			[678,681,65535],
			[678,686,65535],
			[678,692,65535],
			[678,65535,65535],
			[678,65535,65535],
			[678,65535,65535],
			[678,65535,65535],
			[678,65535,65535],
			[683,687,65535]
		],
		[
			[678,681,65535],
			[678,681,65535],
			[678,681,65535],
			[678,686,65535],
			[678,692,65535],
			[678,65535,65535],
			[678,65535,65535],
			[678,65535,65535],
			[678,687,65535]
		],
		[
			[678,681,65535],
			[678,681,65535],
			[678,681,65535],
			[678,681,65535],
			[678,681,65535],
			[678,692,65535],
			[679,65535,65535],
			[678,691,65535],
			[678,681,65535]
		]
	]
}
