{
	"id": 213,
	"type": 2,
	"width": 18,
	"height": 18,
	"flags": 8,
	"tiles": [
		[
			[1134,1254,65535],
			[1134,1253,65535],
			[1134,1253,65535],
			[1134,1253,65535],
			[1134,1253,65535],
			[1134,1253,65535],
			[1134,1253,1137],
			[1126,1253,65535],
			[1126,1253,65535],
			[403,1253,65535],
			[403,1253,65535],
			[403,1253,65535],
			[403,1253,65535],
			[403,1253,178],
			[403,1253,65535],
			[403,1253,65535],
			[403,1253,65535],
			[403,1255,65535]
		],
		[
			[1134,1257,65535],
			[1141,1141,65535],
			[1141,65535,65535],
			[1141,65535,65535],
			[1141,65535,65535],
			[1141,65535,65535],
			[1134,1138,1137],
			[1126,265,65535],
			[598,265,65535],
			[403,265,65535],
			[403,265,65535],
			[403,374,65535],
			[65535,375,65535],
			[375,179,178],
			[65535,376,65535],
			[403,65535,65535],
			[403,65535,65535],
			[403,1256,65535]
		],
		[
			[1134,1257,65535],
			[1142,65535,65535],
			[1142,65535,65535],
			[1142,65535,65535],
			[1142,65535,65535],
			[1142,65535,65535],
			[1134,1138,1137],
			[1131,65535,65535],
			[598,65535,65535],
			[1128,65535,65535],
			[65535,374,65535],
			[65535,382,65535],
			[65535,387,65535],
			[65535,386,1518],
			[65535,383,65535],
			[65535,376,65535],
			[403,65535,65535],
			[403,1256,65535]
		],
		[
			[1134,1257,65535],
			[1142,65535,65535],
			[1142,65535,65535],
			[1142,65535,65535],
			[1142,65535,65535],
			[1142,65535,65535],
			[1134,1138,1137],
			[1134,65535,65535],
			[598,65535,65535],
			[1126,65535,65535],
			[377,65535,65535],
			[378,65535,65535],
			[386,384,65535],
			[65535,387,65535],
			[65535,386,65535],
			[65535,381,65535],
			[403,65535,65535],
			[403,1256,65535]
		],
		[
			[1134,1257,65535],
			[1143,65535,65535],
			[1143,65535,65535],
			[1143,65535,65535],
			[1143,65535,65535],
			[1143,65535,65535],
			[1134,1138,1137],
			[1134,65535,65535],
			[598,65535,65535],
			[1126,65535,65535],
			[403,65535,65535],
			[403,65535,65535],
			[378,380,65535],
			[386,386,65535],
			[387,387,65535],
			[65535,381,65535],
			[403,65535,65535],
			[403,1256,65535]
		],
		[
			[1134,1257,65535],
			[1146,65535,65535],
			[1146,65535,65535],
			[1146,65535,65535],
			[1146,65535,65535],
			[1146,65535,65535],
			[1134,1138,1137],
			[1134,65535,65535],
			[598,65535,65535],
			[1131,65535,65535],
			[1128,65535,65535],
			[403,374,65535],
			[65535,382,65535],
			[389,389,65535],
			[65535,386,65535],
			[377,383,65535],
			[386,375,65535],
			[376,1256,65535]
		],
		[
			[1134,1257,65535],
			[1146,65535,1139],
			[1146,65535,1137],
			[1146,65535,1139],
			[1146,65535,1137],
			[1146,65535,1139],
			[1134,1138,65535],
			[1134,65535,65535],
			[598,65535,65535],
			[1134,65535,65535],
			[1126,65535,65535],
			[377,65535,65535],
			[378,65535,65535],
			[378,65535,65535],
			[378,65535,65535],
			[403,384,65535],
			[386,387,65535],
			[386,1256,65535]
		],
		[
			[1134,1257,65535],
			[1134,1140,65535],
			[1134,1138,65535],
			[1134,1140,65535],
			[1134,1138,65535],
			[1134,1140,65535],
			[1134,65535,65535],
			[1134,65535,65535],
			[598,65535,65535],
			[1133,65535,65535],
			[1130,65535,65535],
			[403,65535,65535],
			[65535,374,65535],
			[65535,376,65535],
			[65535,374,412],
			[65535,382,65535],
			[65535,385,65535],
			[378,1256,65535]
		],
		[
			[1134,1257,65535],
			[598,265,65535],
			[598,65535,65535],
			[598,65535,65535],
			[598,65535,65535],
			[598,65535,65535],
			[598,65535,65535],
			[598,65535,65535],
			[598,65535,65535],
			[1126,65535,65535],
			[65535,374,65535],
			[65535,375,65535],
			[65535,382,65535],
			[65535,381,65535],
			[65535,380,413],
			[65535,385,65535],
			[379,65535,65535],
			[403,1256,65535]
		],
		[
			[1134,1257,65535],
			[65535,1144,65535],
			[65535,1144,65535],
			[65535,1144,65535],
			[65535,1144,65535],
			[65535,1144,65535],
			[65535,1144,65535],
			[1134,65535,65535],
			[598,65535,65535],
			[1126,65535,65535],
			[65535,380,65535],
			[65535,386,65535],
			[65535,387,65535],
			[65535,383,65535],
			[65535,382,65535],
			[65535,383,65535],
			[65535,376,65535],
			[403,1256,65535]
		],
		[
			[1134,1257,65535],
			[1145,65535,65535],
			[1145,65535,65535],
			[1145,65535,65535],
			[1145,65535,65535],
			[1145,65535,65535],
			[1145,65535,65535],
			[1134,65535,65535],
			[598,65535,65535],
			[1126,65535,65535],
			[377,65535,65535],
			[65535,384,65535],
			[65535,386,412],
			[65535,387,65535],
			[65535,386,65535],
			[65535,387,65535],
			[65535,381,65535],
			[403,1256,65535]
		],
		[
			[1134,1257,65535],
			[1146,65535,65535],
			[1146,65535,65535],
			[1146,65535,65535],
			[1146,65535,65535],
			[1146,65535,65535],
			[1146,65535,65535],
			[1134,65535,65535],
			[598,65535,65535],
			[1131,65535,65535],
			[1128,65535,65535],
			[377,65535,412],
			[378,355,413],
			[65535,384,412],
			[65535,387,65535],
			[65535,386,65535],
			[65535,381,65535],
			[403,1256,65535]
		],
		[
			[1134,1257,65535],
			[65535,1144,65535],
			[65535,1144,65535],
			[65535,1144,65535],
			[65535,1144,65535],
			[65535,1144,65535],
			[65535,1144,65535],
			[1134,65535,65535],
			[598,65535,65535],
			[1133,65535,65535],
			[1130,65535,65535],
			[403,355,413],
			[403,390,65535],
			[65535,380,413],
			[65535,386,65535],
			[65535,385,65535],
			[379,65535,65535],
			[1127,1256,65535]
		],
		[
			[1134,1257,65535],
			[1146,1146,65535],
			[1146,65535,65535],
			[1146,65535,65535],
			[1146,65535,65535],
			[1146,65535,65535],
			[1146,65535,65535],
			[1134,65535,65535],
			[598,65535,65535],
			[1126,65535,65535],
			[403,65535,65535],
			[65535,374,65535],
			[65535,375,65535],
			[65535,382,65535],
			[65535,387,65535],
			[65535,381,412],
			[403,65535,65535],
			[1125,1256,65535]
		],
		[
			[1134,1257,65535],
			[1145,1145,65535],
			[1145,65535,65535],
			[1145,65535,65535],
			[1145,65535,65535],
			[1145,65535,65535],
			[1145,65535,65535],
			[1134,65535,65535],
			[598,65535,65535],
			[1126,65535,65535],
			[403,374,65535],
			[65535,382,65535],
			[65535,387,412],
			[65535,386,65535],
			[65535,385,65535],
			[379,355,413],
			[403,65535,65535],
			[1125,1256,65535]
		],
		[
			[1134,1257,65535],
			[1141,65535,65535],
			[1141,65535,65535],
			[1141,65535,65535],
			[1141,65535,65535],
			[1141,65535,65535],
			[1141,65535,65535],
			[1134,65535,65535],
			[598,65535,65535],
			[1126,65535,65535],
			[377,65535,65535],
			[378,65535,65535],
			[378,355,413],
			[378,65535,65535],
			[379,65535,65535],
			[1127,65535,65535],
			[1123,186,65535],
			[1199,1256,65535]
		],
		[
			[1134,1257,65535],
			[1143,65535,65535],
			[1143,65535,65535],
			[1143,65535,65535],
			[1143,65535,65535],
			[1143,65535,65535],
			[1143,65535,65535],
			[1134,65535,65535],
			[598,65535,65535],
			[1131,65535,65535],
			[1123,65535,65535],
			[1123,65535,65535],
			[1123,65535,65535],
			[1123,65535,65535],
			[1123,65535,65535],
			[1199,265,65535],
			[1134,265,65535],
			[1134,1256,65535]
		],
		[
			[1134,1321,65535],
			[1134,1321,65535],
			[1134,1321,65535],
			[1134,1321,65535],
			[1134,1321,65535],
			[1134,1321,65535],
			[1134,1321,65535],
			[1134,1321,65535],
			[599,65535,1086],
			[1134,1321,65535],
			[1134,1321,65535],
			[1134,1321,65535],
			[1134,1321,65535],
			[1134,1321,65535],
			[1134,1321,65535],
			[1134,1321,65535],
			[1134,1321,65535],
			[1134,1321,65535]
		]
	]
}
