{
	"id": 225,
	"type": 2,
	"width": 18,
	"height": 18,
	"flags": 1,
	"tiles": [
		[
			[648,65535,65535],
			[648,65535,65535],
			[648,65535,65535],
			[648,65535,65535],
			[648,65535,65535],
			[648,65535,65535],
			[648,65535,65535],
			[648,65535,65535],
			[648,65535,65535],
			[648,65535,65535],
			[648,65535,65535],
			[648,65535,65535],
			[648,65535,65535],
			[648,65535,65535],
			[648,65535,65535],
			[648,65535,65535],
			[648,65535,65535],
			[648,65535,65535]
		],
		[
			[648,65535,65535],
			[648,65535,65535],
			[648,65535,65535],
			[648,65535,65535],
			[648,65535,65535],
			[648,65535,65535],
			[648,65535,65535],
			[648,65535,65535],
			[648,65535,65535],
			[648,65535,65535],
			[648,65535,65535],
			[1000,65535,65535],
			[648,65535,65535],
			[648,65535,65535],
			[648,65535,65535],
			[648,65535,65535],
			[1000,65535,65535],
			[648,65535,65535]
		],
		[
			[648,65535,65535],
			[648,65535,65535],
			[1317,65535,65535],
			[648,658,65535],
			[648,659,65535],
			[648,65535,65535],
			[1000,65535,65535],
			[648,65535,65535],
			[648,65535,65535],
			[648,65535,65535],
			[648,65535,65535],
			[1319,65535,65535],
			[648,658,65535],
			[648,659,65535],
			[648,65535,65535],
			[648,65535,65535],
			[648,65535,65535],
			[648,65535,65535]
		],
		[
			[648,65535,65535],
			[648,65535,65535],
			[648,658,65535],
			[648,662,65535],
			[648,667,65535],
			[648,65535,65535],
			[648,65535,65535],
			[648,65535,65535],
			[648,65535,65535],
			[1318,65535,65535],
			[648,658,65535],
			[648,670,65535],
			[648,662,65535],
			[648,663,65535],
			[648,659,65535],
			[997,65535,65535],
			[648,65535,65535],
			[648,65535,65535]
		],
		[
			[648,65535,65535],
			[1000,65535,65535],
			[648,664,65535],
			[648,65535,65535],
			[648,667,65535],
			[648,65535,65535],
			[648,65535,65535],
			[648,65535,65535],
			[648,65535,65535],
			[648,65535,65535],
			[648,664,65535],
			[648,65535,65535],
			[648,65535,65535],
			[648,65535,65535],
			[648,663,65535],
			[648,659,65535],
			[1318,65535,65535],
			[648,65535,65535]
		],
		[
			[648,65535,65535],
			[648,658,65535],
			[648,662,65535],
			[648,661,65535],
			[648,657,65535],
			[648,65535,65535],
			[648,65535,65535],
			[1022,65535,65535],
			[648,65535,65535],
			[648,65535,65535],
			[648,656,65535],
			[648,660,65535],
			[648,65535,65535],
			[648,65535,65535],
			[648,65535,65535],
			[648,667,65535],
			[648,65535,65535],
			[648,65535,65535]
		],
		[
			[648,65535,65535],
			[648,664,65535],
			[648,661,65535],
			[648,657,65535],
			[1318,65535,65535],
			[648,65535,65535],
			[648,65535,65535],
			[648,65535,65535],
			[648,65535,65535],
			[648,65535,65535],
			[998,65535,65535],
			[648,656,65535],
			[648,660,65535],
			[648,65535,65535],
			[648,661,65535],
			[648,657,65535],
			[648,65535,65535],
			[648,65535,65535]
		],
		[
			[648,65535,65535],
			[648,656,65535],
			[648,657,65535],
			[648,65535,65535],
			[648,65535,65535],
			[648,65535,65535],
			[648,65535,65535],
			[648,65535,65535],
			[648,65535,65535],
			[648,65535,65535],
			[648,65535,65535],
			[648,65535,65535],
			[648,656,65535],
			[648,650,65535],
			[648,657,65535],
			[648,65535,65535],
			[648,65535,65535],
			[648,65535,65535]
		],
		[
			[648,65535,65535],
			[648,65535,65535],
			[648,65535,65535],
			[648,65535,65535],
			[648,65535,65535],
			[648,658,65535],
			[648,670,65535],
			[648,659,65535],
			[648,65535,65535],
			[1319,65535,65535],
			[648,65535,65535],
			[648,65535,65535],
			[648,65535,65535],
			[1317,65535,65535],
			[648,65535,65535],
			[648,65535,65535],
			[648,65535,65535],
			[648,65535,65535]
		],
		[
			[648,65535,65535],
			[648,65535,65535],
			[997,65535,65535],
			[648,658,65535],
			[648,670,65535],
			[648,662,65535],
			[648,65535,65535],
			[648,663,65535],
			[648,670,65535],
			[648,659,65535],
			[648,65535,65535],
			[1013,65535,65535],
			[1009,65535,65535],
			[1014,65535,65535],
			[648,65535,65535],
			[999,65535,65535],
			[648,65535,65535],
			[648,65535,65535]
		],
		[
			[648,65535,65535],
			[648,65535,65535],
			[648,65535,65535],
			[648,664,65535],
			[648,65535,65535],
			[648,65535,65535],
			[648,65535,65535],
			[648,65535,65535],
			[648,661,65535],
			[648,657,65535],
			[648,65535,65535],
			[1010,65535,65535],
			[1008,65535,65535],
			[1018,65535,65535],
			[1014,65535,65535],
			[997,65535,65535],
			[648,65535,65535],
			[648,65535,65535]
		],
		[
			[648,65535,65535],
			[648,65535,65535],
			[648,65535,65535],
			[648,656,65535],
			[648,660,65535],
			[648,65535,65535],
			[648,65535,65535],
			[648,661,65535],
			[648,657,65535],
			[648,65535,65535],
			[648,65535,65535],
			[1010,65535,65535],
			[1008,65535,65535],
			[1008,65535,65535],
			[1011,65535,65535],
			[648,65535,65535],
			[648,65535,65535],
			[648,65535,65535]
		],
		[
			[1013,65535,65535],
			[1009,65535,65535],
			[1014,65535,65535],
			[1317,65535,65535],
			[648,656,65535],
			[648,650,65535],
			[648,650,65535],
			[648,657,65535],
			[648,65535,65535],
			[1000,65535,65535],
			[1013,65535,65535],
			[1017,65535,65535],
			[1020,65535,65535],
			[1019,65535,65535],
			[1018,65535,65535],
			[1014,65535,65535],
			[648,65535,65535],
			[648,65535,65535]
		],
		[
			[1010,65535,65535],
			[1008,65535,65535],
			[1018,65535,65535],
			[1014,65535,65535],
			[648,65535,65535],
			[648,65535,65535],
			[1319,65535,65535],
			[648,65535,65535],
			[648,65535,65535],
			[648,65535,65535],
			[1010,65535,65535],
			[1008,65535,65535],
			[1018,65535,65535],
			[1017,65535,65535],
			[1008,65535,65535],
			[1018,65535,65535],
			[1014,65535,65535],
			[648,65535,65535]
		],
		[
			[1010,65535,65535],
			[1008,65535,65535],
			[1008,65535,65535],
			[1018,65535,65535],
			[1009,65535,65535],
			[1009,65535,65535],
			[1014,65535,65535],
			[648,65535,65535],
			[648,65535,65535],
			[648,65535,65535],
			[1010,65535,65535],
			[1008,65535,65535],
			[1008,65535,65535],
			[1008,65535,65535],
			[1008,1021,65535],
			[1008,65535,65535],
			[1011,65535,65535],
			[648,65535,65535]
		],
		[
			[1010,65535,65535],
			[1008,65535,65535],
			[1008,65535,65535],
			[1008,65535,65535],
			[1008,65535,65535],
			[1008,65535,65535],
			[1018,65535,65535],
			[1009,65535,65535],
			[1014,65535,65535],
			[648,65535,65535],
			[1010,65535,65535],
			[1020,65535,65535],
			[1012,65535,65535],
			[1012,65535,65535],
			[1019,65535,65535],
			[1008,65535,65535],
			[1011,65535,65535],
			[648,65535,65535]
		],
		[
			[1010,65535,65535],
			[1008,65535,65535],
			[1008,65535,65535],
			[1020,65535,65535],
			[1012,65535,65535],
			[1012,65535,65535],
			[1012,65535,65535],
			[1012,65535,65535],
			[1016,65535,65535],
			[648,65535,65535],
			[1015,65535,65535],
			[1016,65535,65535],
			[648,65535,65535],
			[648,65535,65535],
			[1015,65535,65535],
			[1012,65535,65535],
			[1016,65535,65535],
			[648,65535,65535]
		],
		[
			[1015,65535,65535],
			[1012,65535,65535],
			[1012,65535,65535],
			[1016,65535,65535],
			[648,65535,65535],
			[1000,65535,65535],
			[648,65535,65535],
			[648,65535,65535],
			[648,65535,65535],
			[648,65535,65535],
			[648,65535,65535],
			[648,65535,65535],
			[648,65535,65535],
			[648,65535,65535],
			[648,65535,65535],
			[997,65535,65535],
			[648,65535,65535],
			[648,65535,65535]
		]
	]
}
