{
	"id": 231,
	"type": 2,
	"width": 18,
	"height": 18,
	"flags": 8,
	"tiles": [
		[
			[678,542,65535],
			[0,559,1087],
			[0,559,1296],
			[0,559,65535],
			[763,543,65535],
			[763,762,65535],
			[763,65535,65535],
			[763,65535,65535],
			[763,764,65535],
			[763,542,1328],
			[763,559,65535],
			[763,630,65535],
			[763,542,65535],
			[763,1336,65535],
			[763,577,65535],
			[763,540,65535],
			[763,1335,65535],
			[763,543,65535]
		],
		[
			[598,545,65535],
			[1088,1089,65535],
			[598,65535,65535],
			[598,65535,65535],
			[598,544,65535],
			[678,767,65535],
			[678,65535,65535],
			[678,266,65535],
			[598,766,65535],
			[598,545,1327],
			[598,65535,65535],
			[598,65535,65535],
			[598,545,613],
			[598,65535,65535],
			[598,65535,65535],
			[598,545,613],
			[598,65535,65535],
			[598,544,65535]
		],
		[
			[598,545,65535],
			[598,65535,65535],
			[598,65535,65535],
			[598,65535,65535],
			[598,544,65535],
			[678,767,65535],
			[678,266,65535],
			[678,265,65535],
			[598,766,65535],
			[598,542,1328],
			[599,588,589],
			[598,630,361],
			[598,630,65535],
			[599,588,589],
			[598,630,361],
			[598,630,361],
			[599,588,589],
			[598,543,65535]
		],
		[
			[598,681,1086],
			[598,765,1086],
			[598,765,1086],
			[598,65535,710],
			[598,765,1086],
			[678,681,65535],
			[678,771,65535],
			[678,65535,65535],
			[598,766,65535],
			[598,545,1327],
			[598,65535,65535],
			[598,65535,65535],
			[598,65535,65535],
			[598,65535,65535],
			[598,65535,65535],
			[598,65535,65535],
			[598,65535,65535],
			[598,544,614]
		],
		[
			[678,762,65535],
			[763,65535,65535],
			[969,355,65535],
			[970,65535,65535],
			[969,355,65535],
			[763,65535,65535],
			[678,776,65535],
			[678,65535,65535],
			[598,766,65535],
			[598,545,1327],
			[598,65535,65535],
			[598,65535,65535],
			[598,65535,65535],
			[598,65535,65535],
			[598,548,65535],
			[598,65535,65535],
			[598,65535,65535],
			[598,544,65535]
		],
		[
			[678,767,65535],
			[1007,65535,65535],
			[1001,65535,65535],
			[1005,65535,65535],
			[1001,65535,65535],
			[1006,65535,65535],
			[678,773,65535],
			[678,65535,65535],
			[769,766,65535],
			[678,765,1086],
			[678,765,1086],
			[678,765,1086],
			[598,549,65535],
			[598,65535,65535],
			[598,544,65535],
			[598,629,624],
			[599,582,583],
			[598,541,65535]
		],
		[
			[678,767,65535],
			[1002,65535,65535],
			[678,770,65535],
			[678,765,65535],
			[678,771,65535],
			[1002,65535,65535],
			[678,773,65535],
			[678,65535,65535],
			[769,65535,65535],
			[763,65535,65535],
			[763,65535,65535],
			[763,764,65535],
			[598,545,632],
			[598,65535,65535],
			[598,544,65535],
			[602,65535,65535],
			[598,65535,65535],
			[598,544,614]
		],
		[
			[678,767,65535],
			[1002,65535,65535],
			[769,65535,65535],
			[969,65535,65535],
			[768,65535,65535],
			[1002,65535,65535],
			[774,773,65535],
			[678,65535,65535],
			[678,775,65535],
			[678,65535,65535],
			[678,65535,65535],
			[678,766,65535],
			[598,542,65535],
			[599,65535,1090],
			[598,543,65535],
			[598,65535,65535],
			[598,65535,65535],
			[598,544,65535]
		],
		[
			[678,767,65535],
			[1002,65535,65535],
			[678,65535,65535],
			[678,65535,65535],
			[678,65535,65535],
			[1002,65535,65535],
			[774,773,65535],
			[678,65535,65535],
			[678,766,65535],
			[678,771,65535],
			[678,65535,65535],
			[678,766,65535],
			[598,545,65535],
			[598,65535,65535],
			[598,544,65535],
			[598,65535,65535],
			[598,65535,65535],
			[598,544,65535]
		],
		[
			[678,767,65535],
			[1002,65535,65535],
			[678,65535,65535],
			[678,65535,65535],
			[678,65535,65535],
			[678,65535,65535],
			[774,65535,65535],
			[678,65535,65535],
			[678,777,65535],
			[768,65535,65535],
			[678,65535,65535],
			[678,766,65535],
			[598,545,65535],
			[598,65535,65535],
			[598,544,65535],
			[598,186,65535],
			[598,186,65535],
			[598,544,65535]
		],
		[
			[678,767,65535],
			[1002,65535,65535],
			[678,770,65535],
			[678,765,65535],
			[678,765,65535],
			[678,765,65535],
			[678,771,65535],
			[678,65535,65535],
			[678,773,65535],
			[678,65535,65535],
			[678,65535,65535],
			[678,766,65535],
			[598,681,1086],
			[598,65535,710],
			[598,681,1086],
			[598,681,1086],
			[598,681,1086],
			[598,681,1086]
		],
		[
			[678,767,65535],
			[1002,65535,65535],
			[769,65535,65535],
			[969,65535,65535],
			[763,65535,65535],
			[969,65535,65535],
			[768,65535,65535],
			[678,65535,65535],
			[774,65535,65535],
			[678,65535,65535],
			[678,65535,65535],
			[769,65535,65535],
			[678,764,65535],
			[598,65535,1248],
			[598,681,65535],
			[598,681,65535],
			[598,681,65535],
			[598,681,65535]
		],
		[
			[678,767,65535],
			[1003,65535,65535],
			[1001,65535,65535],
			[1001,65535,65535],
			[1001,65535,65535],
			[1001,65535,65535],
			[1001,65535,65535],
			[1001,65535,65535],
			[1001,65535,65535],
			[1001,65535,65535],
			[1001,65535,65535],
			[1006,65535,65535],
			[678,766,65535],
			[678,65535,1248],
			[678,681,65535],
			[678,762,65535],
			[763,65535,65535],
			[678,764,65535]
		],
		[
			[678,767,65535],
			[678,65535,65535],
			[678,65535,65535],
			[678,65535,65535],
			[678,770,65535],
			[678,765,65535],
			[678,765,65535],
			[678,765,65535],
			[678,765,65535],
			[678,765,65535],
			[678,771,65535],
			[1002,65535,65535],
			[769,65535,65535],
			[970,65535,65535],
			[763,355,974],
			[768,65535,65535],
			[678,65535,65535],
			[678,766,65535]
		],
		[
			[678,767,65535],
			[678,65535,65535],
			[678,65535,65535],
			[678,65535,65535],
			[769,777,65535],
			[763,65535,65535],
			[763,65535,65535],
			[763,65535,65535],
			[763,65535,65535],
			[763,65535,65535],
			[768,65535,65535],
			[1003,65535,65535],
			[1001,65535,65535],
			[1004,65535,65535],
			[678,65535,65535],
			[678,65535,65535],
			[678,65535,65535],
			[678,766,65535]
		],
		[
			[678,767,65535],
			[678,65535,65535],
			[678,770,65535],
			[678,765,65535],
			[678,681,65535],
			[678,765,65535],
			[678,765,65535],
			[678,765,65535],
			[678,765,65535],
			[678,765,65535],
			[678,765,65535],
			[678,765,65535],
			[678,765,65535],
			[678,765,65535],
			[678,765,65535],
			[678,771,65535],
			[678,622,65535],
			[678,766,65535]
		],
		[
			[678,767,65535],
			[678,65535,65535],
			[769,65535,65535],
			[969,65535,65535],
			[763,65535,65535],
			[763,65535,65535],
			[969,65535,65535],
			[763,65535,65535],
			[763,65535,65535],
			[969,65535,65535],
			[763,65535,65535],
			[763,65535,65535],
			[969,65535,65535],
			[763,65535,65535],
			[763,65535,65535],
			[768,776,65535],
			[678,622,65535],
			[678,766,65535]
		],
		[
			[678,681,65535],
			[678,765,65535],
			[678,765,65535],
			[678,765,65535],
			[678,765,65535],
			[678,765,65535],
			[678,765,65535],
			[678,765,65535],
			[678,765,65535],
			[679,765,65535],
			[678,765,65535],
			[678,765,65535],
			[678,765,65535],
			[678,771,65535],
			[679,355,65535],
			[679,766,65535],
			[678,765,65535],
			[678,681,65535]
		]
	]
}
