{
	"id": 235,
	"type": 2,
	"width": 9,
	"height": 9,
	"flags": 8,
	"tiles": [
		[
			[678,682,65535],
			[683,65535,65535],
			[678,684,65535],
			[678,681,65535],
			[678,682,65535],
			[683,65535,65535],
			[678,684,65535],
			[678,681,65535],
			[678,681,65535]
		],
		[
			[678,681,65535],
			[680,65535,1249],
			[678,682,65535],
			[683,65535,65535],
			[689,65535,65535],
			[678,65535,65535],
			[690,65535,65535],
			[683,65535,65535],
			[678,684,65535]
		],
		[
			[678,682,65535],
			[1102,65535,65535],
			[683,684,65535],
			[678,686,65535],
			[678,692,65535],
			[678,65535,65535],
			[678,696,65535],
			[678,65535,65535],
			[678,687,65535]
		],
		[
			[678,688,65535],
			[678,65535,65535],
			[678,687,65535],
			[678,682,65535],
			[689,65535,65535],
			[678,65535,65535],
			[678,687,65535],
			[680,65535,1249],
			[678,681,65535]
		],
		[
			[678,688,65535],
			[678,65535,65535],
			[690,65535,65535],
			[678,697,65535],
			[678,65535,65535],
			[678,65535,65535],
			[678,698,65535],
			[1102,65535,65535],
			[678,684,65535]
		],
		[
			[678,681,65535],
			[678,692,65535],
			[678,65535,65535],
			[695,65535,65535],
			[678,691,65535],
			[683,686,65535],
			[689,688,65535],
			[678,65535,65535],
			[678,687,65535]
		],
		[
			[678,681,65535],
			[678,688,65535],
			[678,65535,65535],
			[678,65535,65535],
			[678,698,65535],
			[683,65535,65535],
			[689,65535,65535],
			[678,65535,65535],
			[678,687,65535]
		],
		[
			[678,681,65535],
			[678,688,65535],
			[678,65535,65535],
			[680,65535,65535],
			[690,687,65535],
			[678,686,65535],
			[678,692,65535],
			[678,65535,65535],
			[678,687,65535]
		],
		[
			[678,681,65535],
			[678,681,65535],
			[678,686,65535],
			[678,692,65535],
			[690,65535,65535],
			[678,684,65535],
			[678,681,65535],
			[680,65535,1249],
			[678,681,65535]
		]
	]
}
