{
	"id": 239,
	"type": 2,
	"width": 9,
	"height": 9,
	"flags": 8,
	"tiles": [
		[
			[0,681,65535],
			[683,682,65535],
			[683,355,65535],
			[683,355,65535],
			[683,684,65535],
			[683,681,65535],
			[683,682,65535],
			[683,355,65535],
			[1008,684,65535]
		],
		[
			[0,681,65535],
			[678,688,65535],
			[678,65535,65535],
			[678,65535,65535],
			[678,687,65535],
			[678,681,65535],
			[678,688,65535],
			[678,65535,65535],
			[1008,687,65535]
		],
		[
			[1008,682,65535],
			[689,65535,65535],
			[678,65535,65535],
			[678,65535,65535],
			[690,355,65535],
			[683,355,65535],
			[689,355,65535],
			[678,65535,65535],
			[1008,687,65535]
		],
		[
			[1008,688,65535],
			[678,65535,65535],
			[678,65535,65535],
			[678,65535,65535],
			[1201,355,65535],
			[678,65535,65535],
			[678,65535,65535],
			[678,65535,65535],
			[1008,687,65535]
		],
		[
			[1008,688,65535],
			[678,65535,65535],
			[678,65535,65535],
			[678,65535,65535],
			[678,65535,65535],
			[678,65535,65535],
			[678,65535,65535],
			[678,65535,65535],
			[1008,687,65535]
		],
		[
			[1008,688,65535],
			[678,65535,65535],
			[678,691,65535],
			[678,692,65535],
			[678,65535,65535],
			[678,691,65535],
			[678,692,65535],
			[678,65535,65535],
			[1008,687,65535]
		],
		[
			[1008,681,65535],
			[678,686,65535],
			[678,681,65535],
			[678,688,65535],
			[1265,65535,65535],
			[678,687,65535],
			[678,688,65535],
			[678,65535,65535],
			[1008,687,65535]
		],
		[
			[1008,681,65535],
			[678,681,65535],
			[678,681,65535],
			[678,681,65535],
			[678,686,65535],
			[678,681,65535],
			[678,688,65535],
			[678,65535,65535],
			[1008,687,65535]
		],
		[
			[1008,681,65535],
			[1008,681,65535],
			[1008,681,65535],
			[1008,681,65535],
			[1008,681,65535],
			[1008,681,65535],
			[1008,681,65535],
			[1008,686,65535],
			[1008,681,65535]
		]
	]
}
