{
	"id": 250,
	"type": 2,
	"width": 18,
	"height": 18,
	"flags": 16,
	"tiles": [
		[
			[648,65535,65535],
			[648,65535,65535],
			[648,65535,65535],
			[648,65535,65535],
			[648,65535,65535],
			[648,65535,65535],
			[648,65535,65535],
			[648,65535,65535],
			[648,65535,65535],
			[648,65535,65535],
			[648,65535,65535],
			[648,65535,65535],
			[648,65535,65535],
			[648,65535,65535],
			[1000,65535,65535],
			[648,65535,65535],
			[648,65535,65535],
			[648,65535,65535]
		],
		[
			[648,65535,65535],
			[648,742,65535],
			[648,732,995],
			[648,732,65535],
			[648,732,65535],
			[648,732,65535],
			[648,732,65535],
			[648,732,65535],
			[648,732,65535],
			[648,732,65535],
			[648,732,65535],
			[648,732,65535],
			[648,732,65535],
			[648,732,65535],
			[648,732,65535],
			[648,741,65535],
			[648,65535,65535],
			[1000,65535,65535]
		],
		[
			[997,65535,65535],
			[648,724,65535],
			[648,994,65535],
			[648,965,65535],
			[648,966,1330],
			[648,1424,1329],
			[1013,65535,1329],
			[1009,1152,1329],
			[1009,1155,1329],
			[1009,1155,1329],
			[1014,1331,640],
			[648,616,641],
			[648,65535,617],
			[648,965,618],
			[648,966,65535],
			[648,745,65535],
			[648,65535,65535],
			[997,65535,65535]
		],
		[
			[648,65535,65535],
			[648,724,65535],
			[999,65535,65535],
			[648,967,65535],
			[648,968,65535],
			[1013,65535,1425],
			[1017,1152,65535],
			[648,1148,65535],
			[648,1608,65535],
			[648,1609,65535],
			[1149,638,65535],
			[1014,639,1424],
			[1000,65535,65535],
			[648,967,65535],
			[648,968,65535],
			[648,745,65535],
			[648,65535,65535],
			[648,65535,65535]
		],
		[
			[648,65535,65535],
			[648,724,65535],
			[648,65535,991],
			[648,65535,992],
			[648,65535,993],
			[1010,1157,1425],
			[648,1150,65535],
			[648,1612,65535],
			[648,1147,65535],
			[648,1611,65535],
			[648,1150,65535],
			[1018,1153,1425],
			[1014,65535,65535],
			[648,65535,65535],
			[648,65535,65535],
			[648,745,65535],
			[648,65535,65535],
			[648,65535,65535]
		],
		[
			[648,65535,65535],
			[648,724,65535],
			[648,988,65535],
			[648,989,992],
			[648,990,65535],
			[1015,1426,981],
			[1019,1156,65535],
			[1008,1154,65535],
			[648,1612,65535],
			[648,1614,65535],
			[1008,1151,65535],
			[648,1150,1425],
			[1011,1158,65535],
			[997,65535,65535],
			[1000,65535,65535],
			[648,737,65535],
			[648,741,65535],
			[648,65535,65535]
		],
		[
			[648,65535,65535],
			[648,724,65535],
			[648,985,65535],
			[648,1049,65535],
			[648,987,65535],
			[648,65535,65535],
			[1015,65535,65535],
			[1012,65535,65535],
			[1019,1157,65535],
			[1161,1154,65535],
			[1162,1158,65535],
			[1008,1156,1425],
			[1011,65535,65535],
			[648,65535,65535],
			[648,1271,65535],
			[648,1322,65535],
			[648,747,65535],
			[648,65535,65535]
		],
		[
			[648,65535,65535],
			[648,724,65535],
			[648,65535,65535],
			[648,65535,65535],
			[648,65535,65535],
			[997,65535,65535],
			[648,65535,65535],
			[648,65535,65535],
			[1015,65535,65535],
			[1012,65535,65535],
			[1012,65535,65535],
			[1012,65535,1425],
			[1016,65535,65535],
			[648,65535,65535],
			[648,1270,65535],
			[648,1167,65535],
			[648,65535,65535],
			[648,65535,65535]
		],
		[
			[648,65535,65535],
			[648,724,65535],
			[648,1167,65535],
			[648,1325,65535],
			[648,65535,65535],
			[648,1271,65535],
			[648,1269,65535],
			[648,1269,65535],
			[648,1269,65535],
			[648,1269,65535],
			[648,1269,65535],
			[648,1269,1424],
			[648,1275,65535],
			[648,1269,65535],
			[648,1278,65535],
			[648,65535,65535],
			[648,1325,65535],
			[648,65535,65535]
		],
		[
			[648,65535,65535],
			[648,724,65535],
			[648,65535,65535],
			[648,1270,65535],
			[648,65535,65535],
			[648,1270,65535],
			[648,965,65535],
			[648,966,616],
			[648,965,618],
			[648,966,616],
			[648,965,618],
			[648,966,1426],
			[648,1270,65535],
			[997,65535,65535],
			[648,1270,65535],
			[648,65535,65535],
			[648,1270,65535],
			[1000,65535,65535]
		],
		[
			[648,65535,65535],
			[648,724,65535],
			[648,65535,65535],
			[648,1270,65535],
			[648,65535,65535],
			[648,1270,65535],
			[648,967,65535],
			[648,968,65535],
			[648,967,65535],
			[648,968,65535],
			[648,967,65535],
			[648,968,65535],
			[648,1270,65535],
			[648,65535,65535],
			[648,1270,65535],
			[648,65535,65535],
			[648,1270,65535],
			[648,65535,65535]
		],
		[
			[648,65535,65535],
			[749,749,65535],
			[648,65535,65535],
			[648,1270,65535],
			[648,65535,65535],
			[648,1270,65535],
			[648,1403,65535],
			[648,65535,65535],
			[648,65535,65535],
			[648,65535,65535],
			[648,65535,65535],
			[648,65535,65535],
			[648,1270,65535],
			[648,65535,65535],
			[648,1270,65535],
			[648,65535,65535],
			[648,1270,65535],
			[648,65535,65535]
		],
		[
			[998,65535,65535],
			[648,1325,65535],
			[648,65535,65535],
			[648,1270,65535],
			[1000,65535,65535],
			[648,1273,65535],
			[648,1269,65535],
			[648,1269,65535],
			[648,1269,65535],
			[648,1269,65535],
			[648,1269,65535],
			[1320,65535,65535],
			[648,1274,65535],
			[648,65535,65535],
			[648,1270,65535],
			[648,65535,65535],
			[648,1270,65535],
			[648,65535,65535]
		],
		[
			[648,65535,65535],
			[648,1270,65535],
			[648,65535,65535],
			[648,1270,65535],
			[648,65535,65535],
			[648,65535,65535],
			[648,65535,65535],
			[648,65535,65535],
			[997,65535,65535],
			[648,65535,65535],
			[648,65535,65535],
			[648,65535,65535],
			[648,65535,65535],
			[648,65535,65535],
			[648,1270,65535],
			[1000,65535,65535],
			[648,1270,65535],
			[648,65535,65535]
		],
		[
			[648,65535,65535],
			[648,1270,65535],
			[648,65535,65535],
			[648,1273,65535],
			[648,1269,65535],
			[648,1269,65535],
			[648,1269,65535],
			[648,1269,65535],
			[648,1269,65535],
			[648,1269,65535],
			[648,1269,65535],
			[648,1269,65535],
			[648,1269,65535],
			[648,1269,65535],
			[648,1274,65535],
			[648,65535,65535],
			[648,1270,65535],
			[997,65535,65535]
		],
		[
			[648,65535,65535],
			[648,1270,65535],
			[648,65535,65535],
			[648,65535,65535],
			[648,65535,65535],
			[648,65535,65535],
			[648,65535,65535],
			[648,65535,65535],
			[648,65535,65535],
			[1000,65535,65535],
			[648,65535,65535],
			[648,65535,65535],
			[648,65535,65535],
			[648,65535,65535],
			[648,65535,65535],
			[648,65535,65535],
			[648,1270,65535],
			[648,65535,65535]
		],
		[
			[648,65535,65535],
			[648,1273,65535],
			[648,1269,65535],
			[648,1269,65535],
			[648,1269,65535],
			[648,1269,65535],
			[648,1269,65535],
			[648,1269,65535],
			[648,1269,65535],
			[648,1269,65535],
			[648,1269,65535],
			[648,1269,65535],
			[648,1269,65535],
			[648,1269,65535],
			[648,1269,65535],
			[648,1269,65535],
			[648,1274,65535],
			[648,65535,65535]
		],
		[
			[648,65535,65535],
			[648,65535,65535],
			[648,65535,65535],
			[997,65535,65535],
			[648,65535,65535],
			[648,65535,65535],
			[648,65535,65535],
			[648,65535,65535],
			[648,65535,65535],
			[648,65535,65535],
			[648,65535,65535],
			[648,65535,65535],
			[1000,65535,65535],
			[648,65535,65535],
			[648,65535,65535],
			[648,65535,65535],
			[648,65535,65535],
			[648,65535,65535]
		]
	]
}
