{
	"id": 251,
	"type": 2,
	"width": 18,
	"height": 18,
	"flags": 3,
	"tiles": [
		[
			[648,65535,65535],
			[648,65535,65535],
			[648,65535,65535],
			[648,65535,65535],
			[648,65535,65535],
			[648,65535,65535],
			[648,65535,65535],
			[648,65535,65535],
			[648,65535,65535],
			[648,65535,65535],
			[648,65535,65535],
			[648,65535,65535],
			[648,65535,65535],
			[648,65535,65535],
			[648,65535,65535],
			[648,65535,65535],
			[648,65535,65535],
			[648,65535,65535]
		],
		[
			[648,65535,65535],
			[648,65535,65535],
			[648,65535,65535],
			[1000,65535,65535],
			[648,65535,65535],
			[648,65535,65535],
			[648,65535,65535],
			[648,65535,65535],
			[648,65535,995],
			[648,65535,65535],
			[648,65535,65535],
			[648,65535,65535],
			[997,65535,65535],
			[648,65535,65535],
			[1318,65535,65535],
			[648,658,65535],
			[648,670,65535],
			[648,670,65535]
		],
		[
			[648,65535,65535],
			[648,65535,65535],
			[648,65535,65535],
			[648,65535,65535],
			[648,65535,65535],
			[648,65535,65535],
			[648,996,65535],
			[648,65535,65535],
			[1000,994,65535],
			[648,65535,65535],
			[648,65535,65535],
			[648,658,65535],
			[648,670,65535],
			[648,670,65535],
			[648,670,65535],
			[648,662,65535],
			[648,65535,65535],
			[648,65535,65535]
		],
		[
			[648,65535,65535],
			[648,65535,65535],
			[997,65535,65535],
			[648,65535,65535],
			[648,65535,65535],
			[648,658,65535],
			[648,670,65535],
			[673,1604,65535],
			[648,670,65535],
			[648,659,65535],
			[649,65535,65535],
			[648,656,65535],
			[648,660,65535],
			[648,65535,65535],
			[648,65535,65535],
			[648,65535,65535],
			[648,65535,65535],
			[648,65535,65535]
		],
		[
			[648,65535,65535],
			[648,65535,65535],
			[1319,65535,65535],
			[648,658,65535],
			[648,670,65535],
			[648,662,65535],
			[648,65535,65535],
			[648,65535,65535],
			[648,65535,65535],
			[648,663,65535],
			[648,659,65535],
			[648,65535,65535],
			[648,656,65535],
			[648,650,65535],
			[648,650,65535],
			[648,660,65535],
			[648,65535,65535],
			[648,65535,65535]
		],
		[
			[648,65535,65535],
			[648,658,65535],
			[648,670,65535],
			[648,662,65535],
			[648,65535,65535],
			[648,65535,65535],
			[648,658,65535],
			[648,670,65535],
			[648,659,65535],
			[648,65535,65535],
			[648,663,65535],
			[648,659,65535],
			[648,65535,65535],
			[648,65535,65535],
			[648,65535,65535],
			[648,656,65535],
			[648,660,65535],
			[648,65535,65535]
		],
		[
			[648,670,65535],
			[648,662,65535],
			[648,65535,65535],
			[648,65535,65535],
			[648,658,65535],
			[648,670,65535],
			[648,662,65535],
			[648,65535,65535],
			[648,663,65535],
			[648,659,65535],
			[648,65535,65535],
			[648,663,65535],
			[648,670,65535],
			[648,670,65535],
			[648,659,65535],
			[648,65535,65535],
			[648,656,65535],
			[648,650,65535]
		],
		[
			[1317,65535,65535],
			[1318,65535,65535],
			[648,65535,65535],
			[648,658,65535],
			[648,662,65535],
			[648,658,65535],
			[648,670,65535],
			[648,670,65535],
			[648,659,65535],
			[648,667,65535],
			[648,65535,65535],
			[648,65535,65535],
			[648,65535,65535],
			[648,661,65535],
			[648,657,65535],
			[648,65535,65535],
			[648,65535,65535],
			[1317,65535,65535]
		],
		[
			[648,65535,65535],
			[648,65535,65535],
			[648,658,65535],
			[648,662,65535],
			[648,65535,65535],
			[648,656,65535],
			[648,660,65535],
			[999,65535,65535],
			[648,667,65535],
			[648,663,65535],
			[648,670,65535],
			[648,659,65535],
			[648,65535,65535],
			[648,667,65535],
			[1318,65535,65535],
			[648,65535,65535],
			[1000,65535,65535],
			[648,65535,65535]
		],
		[
			[648,659,65535],
			[648,65535,65535],
			[648,656,65535],
			[648,651,65535],
			[648,650,65535],
			[648,660,65535],
			[648,656,65535],
			[648,660,65535],
			[648,663,65535],
			[648,670,65535],
			[648,659,65535],
			[648,667,65535],
			[648,65535,65535],
			[648,663,65535],
			[648,670,65535],
			[648,670,65535],
			[648,659,65535],
			[648,65535,65535]
		],
		[
			[648,663,65535],
			[648,659,65535],
			[648,65535,65535],
			[1317,65535,65535],
			[648,1165,65535],
			[648,656,65535],
			[648,660,65535],
			[648,664,65535],
			[648,658,65535],
			[648,659,65535],
			[648,667,65535],
			[648,667,65535],
			[1318,65535,65535],
			[648,65535,65535],
			[648,65535,65535],
			[648,65535,65535],
			[648,663,65535],
			[648,670,65535]
		],
		[
			[648,650,65535],
			[648,657,65535],
			[648,65535,65535],
			[648,65535,65535],
			[648,65535,65535],
			[1319,65535,65535],
			[648,664,65535],
			[648,664,65535],
			[648,656,65535],
			[648,657,65535],
			[648,667,65535],
			[648,663,65535],
			[648,670,65535],
			[648,670,65535],
			[648,659,65535],
			[648,65535,65535],
			[648,65535,65535],
			[674,65535,65535]
		],
		[
			[648,661,65535],
			[648,650,65535],
			[648,660,65535],
			[648,675,65535],
			[648,65535,65535],
			[648,65535,65535],
			[648,664,65535],
			[648,656,65535],
			[648,660,65535],
			[648,65535,65535],
			[648,667,65535],
			[648,661,65535],
			[648,650,65535],
			[648,651,65535],
			[648,657,65535],
			[648,65535,65535],
			[648,661,65535],
			[648,650,65535]
		],
		[
			[648,667,65535],
			[1317,65535,65535],
			[648,656,65535],
			[648,650,65535],
			[648,660,65535],
			[648,65535,65535],
			[648,656,65535],
			[648,660,65535],
			[648,656,65535],
			[648,650,65535],
			[648,657,65535],
			[648,667,65535],
			[648,996,65535],
			[1000,996,65535],
			[648,65535,65535],
			[648,661,65535],
			[648,657,65535],
			[648,65535,65535]
		],
		[
			[648,663,65535],
			[648,659,65535],
			[648,65535,65535],
			[648,65535,65535],
			[648,656,65535],
			[648,660,65535],
			[648,65535,65535],
			[648,656,65535],
			[648,650,65535],
			[653,652,65535],
			[648,650,65535],
			[648,657,65535],
			[648,65535,65535],
			[648,65535,65535],
			[648,65535,65535],
			[648,667,65535],
			[648,65535,65535],
			[648,65535,65535]
		],
		[
			[648,65535,65535],
			[648,663,65535],
			[648,659,65535],
			[648,65535,65535],
			[648,65535,65535],
			[648,656,65535],
			[648,660,65535],
			[648,65535,65535],
			[648,65535,65535],
			[648,65535,65535],
			[648,65535,65535],
			[648,65535,65535],
			[648,65535,65535],
			[648,661,65535],
			[648,650,65535],
			[648,657,65535],
			[648,65535,65535],
			[648,65535,65535]
		],
		[
			[648,650,65535],
			[648,650,65535],
			[648,657,65535],
			[998,65535,65535],
			[997,65535,65535],
			[648,65535,65535],
			[648,656,65535],
			[648,650,65535],
			[648,651,65535],
			[653,650,65535],
			[648,650,65535],
			[648,652,65535],
			[653,65535,65535],
			[648,657,65535],
			[648,65535,65535],
			[648,65535,65535],
			[1000,65535,65535],
			[648,65535,65535]
		],
		[
			[648,65535,65535],
			[648,65535,65535],
			[648,65535,65535],
			[648,65535,65535],
			[648,65535,65535],
			[648,65535,65535],
			[648,65535,65535],
			[648,65535,65535],
			[648,65535,65535],
			[648,65535,65535],
			[648,65535,65535],
			[648,65535,65535],
			[648,65535,65535],
			[648,65535,65535],
			[648,65535,65535],
			[648,65535,65535],
			[648,65535,65535],
			[648,65535,65535]
		]
	]
}
