{
	"id": 263,
	"type": 2,
	"width": 9,
	"height": 9,
	"flags": 8,
	"tiles": [
		[
			[0,1254,65535],
			[0,1253,65535],
			[0,1253,65535],
			[0,1253,65535],
			[0,1253,65535],
			[0,1253,65535],
			[0,1253,65535],
			[0,1253,65535],
			[0,1255,65535]
		],
		[
			[1134,1257,65535],
			[1134,1141,65535],
			[1134,1141,65535],
			[1134,1141,65535],
			[1134,1141,65535],
			[1134,1145,65535],
			[1134,1145,1139],
			[1134,1145,65535],
			[1134,1256,65535]
		],
		[
			[1134,1257,65535],
			[1134,1142,65535],
			[1134,1142,65535],
			[1142,65535,65535],
			[1134,1143,65535],
			[1133,65535,65535],
			[1124,1140,65535],
			[1124,65535,1137],
			[1124,1256,65535]
		],
		[
			[1134,1257,65535],
			[1134,1142,65535],
			[1134,1142,65535],
			[1134,1143,65535],
			[1134,65535,65535],
			[1126,65535,65535],
			[403,65535,1137],
			[403,1138,65535],
			[403,1256,65535]
		],
		[
			[1134,1257,65535],
			[1134,1143,65535],
			[1134,1143,65535],
			[1134,1144,65535],
			[1134,65535,65535],
			[1126,65535,65535],
			[403,1138,65535],
			[403,65535,1137],
			[403,1256,65535]
		],
		[
			[1134,1257,65535],
			[1134,65535,65535],
			[1134,65535,65535],
			[1134,65535,65535],
			[1134,65535,65535],
			[1126,65535,65535],
			[403,65535,65535],
			[403,1138,65535],
			[403,1256,65535]
		],
		[
			[1134,1257,65535],
			[1134,65535,1135],
			[1133,65535,65535],
			[1124,65535,1135],
			[1124,65535,65535],
			[1130,65535,65535],
			[403,65535,65535],
			[403,65535,65535],
			[403,1256,65535]
		],
		[
			[1134,1257,65535],
			[1134,1136,65535],
			[1126,65535,65535],
			[403,1136,65535],
			[403,65535,65535],
			[403,65535,65535],
			[403,65535,65535],
			[403,65535,65535],
			[403,1256,65535]
		],
		[
			[0,1321,65535],
			[0,1321,65535],
			[0,1321,65535],
			[0,1321,65535],
			[860,65535,1086],
			[0,1321,65535],
			[0,1321,65535],
			[0,1321,65535],
			[0,1321,65535]
		]
	]
}
