{
	"id": 267,
	"type": 5,
	"width": 9,
	"height": 9,
	"flags": 8,
	"tiles": [
		[
			[0,195,65535],
			[0,195,65535],
			[0,195,65535],
			[0,195,65535],
			[0,195,65535],
			[0,195,65535],
			[0,195,65535],
			[0,195,65535],
			[0,195,65535]
		],
		[
			[192,196,65535],
			[197,355,65535],
			[192,198,65535],
			[192,195,65535],
			[192,195,65535],
			[192,195,65535],
			[192,195,65535],
			[192,195,65535],
			[192,195,65535]
		],
		[
			[192,202,65535],
			[192,1216,65535],
			[192,201,65535],
			[192,195,65535],
			[192,195,65535],
			[192,195,65535],
			[192,195,65535],
			[192,195,65535],
			[192,195,65535]
		],
		[
			[192,202,65535],
			[192,65535,65535],
			[204,355,65535],
			[197,355,65535],
			[197,355,65535],
			[197,355,65535],
			[197,355,65535],
			[197,355,65535],
			[192,198,65535]
		],
		[
			[192,202,65535],
			[192,65535,65535],
			[192,65535,65535],
			[192,65535,65535],
			[192,65535,65535],
			[192,65535,65535],
			[192,65535,65535],
			[192,65535,65535],
			[192,201,65535]
		],
		[
			[192,195,65535],
			[192,218,65535],
			[192,218,65535],
			[192,218,65535],
			[192,218,65535],
			[192,218,65535],
			[192,206,65535],
			[192,65535,65535],
			[192,201,65535]
		],
		[
			[192,195,65535],
			[192,195,65535],
			[192,195,65535],
			[192,196,65535],
			[197,65535,65535],
			[197,65535,65535],
			[203,65535,65535],
			[192,65535,65535],
			[192,201,65535]
		],
		[
			[192,195,65535],
			[192,195,65535],
			[192,195,65535],
			[192,202,65535],
			[192,65535,65535],
			[192,65535,65535],
			[192,65535,65535],
			[192,65535,65535],
			[192,201,65535]
		],
		[
			[192,195,65535],
			[192,195,65535],
			[192,195,65535],
			[192,202,65535],
			[194,355,65535],
			[192,205,65535],
			[192,218,65535],
			[192,218,65535],
			[192,195,65535]
		]
	]
}
