{
	"id": 270,
	"type": 1,
	"width": 9,
	"height": 9,
	"flags": 8,
	"tiles": [
		[
			[0,235,65535],
			[0,1335,65535],
			[0,1336,65535],
			[0,629,812],
			[0,563,65535],
			[0,629,812],
			[0,550,65535],
			[0,236,621],
			[0,238,65535]
		],
		[
			[2041,239,632],
			[2040,65535,65535],
			[2041,1768,65535],
			[2041,813,65535],
			[2041,65535,65535],
			[2041,813,65535],
			[2041,65535,65535],
			[2040,65535,65535],
			[2041,240,270]
		],
		[
			[2041,239,65535],
			[2040,65535,65535],
			[2041,65535,65535],
			[2041,65535,65535],
			[2041,65535,65535],
			[2041,65535,65535],
			[2041,65535,65535],
			[2040,65535,65535],
			[2042,355,2045]
		],
		[
			[2041,239,632],
			[2041,65535,65535],
			[2041,65535,65535],
			[2041,65535,65535],
			[2041,65535,65535],
			[2041,65535,65535],
			[2041,65535,65535],
			[2041,65535,65535],
			[2041,240,65535]
		],
		[
			[2041,235,65535],
			[2041,575,65535],
			[2041,1765,65535],
			[2041,65535,65535],
			[2041,65535,65535],
			[2041,65535,65535],
			[2041,784,65535],
			[2041,575,65535],
			[2041,238,65535]
		],
		[
			[2041,239,632],
			[2041,784,65535],
			[2041,65535,65535],
			[2041,65535,65535],
			[2041,65535,65535],
			[2041,65535,65535],
			[2041,65535,65535],
			[2041,65535,65535],
			[2041,240,270]
		],
		[
			[2041,239,65535],
			[2041,1333,65535],
			[2041,65535,65535],
			[2041,65535,65535],
			[2041,65535,65535],
			[2041,65535,65535],
			[2041,65535,65535],
			[2040,65535,65535],
			[2041,240,65535]
		],
		[
			[2041,239,632],
			[2040,65535,65535],
			[2040,65535,65535],
			[2041,65535,65535],
			[2041,65535,65535],
			[2041,65535,65535],
			[2040,65535,65535],
			[2040,65535,65535],
			[2041,240,270]
		],
		[
			[594,241,65535],
			[594,242,65535],
			[1337,355,65535],
			[594,241,65535],
			[594,236,65535],
			[594,629,616],
			[1337,629,618],
			[594,236,65535],
			[2041,242,65535]
		]
	]
}
