{
	"id": 273,
	"type": 3,
	"width": 9,
	"height": 9,
	"flags": 8,
	"tiles": [
		[
			[0,195,65535],
			[0,195,65535],
			[0,195,65535],
			[0,195,65535],
			[0,195,65535],
			[0,195,65535],
			[0,195,65535],
			[0,195,65535],
			[0,195,65535]
		],
		[
			[678,195,65535],
			[678,195,65535],
			[678,195,65535],
			[678,196,65535],
			[197,65535,65535],
			[678,198,65535],
			[678,195,65535],
			[678,195,65535],
			[678,195,65535]
		],
		[
			[678,195,65535],
			[678,195,65535],
			[678,196,65535],
			[203,355,65535],
			[192,355,65535],
			[204,355,65535],
			[678,198,65535],
			[678,195,65535],
			[678,195,65535]
		],
		[
			[678,195,65535],
			[678,195,65535],
			[678,202,65535],
			[192,65535,65535],
			[192,65535,65535],
			[192,65535,65535],
			[683,201,65535],
			[678,195,65535],
			[678,195,65535]
		],
		[
			[678,195,65535],
			[678,195,65535],
			[678,202,65535],
			[192,65535,65535],
			[192,65535,65535],
			[192,65535,65535],
			[678,201,65535],
			[678,195,65535],
			[678,195,65535]
		],
		[
			[678,195,65535],
			[678,195,65535],
			[678,195,65535],
			[678,206,65535],
			[192,65535,65535],
			[678,205,65535],
			[678,195,65535],
			[678,195,65535],
			[678,195,65535]
		],
		[
			[678,195,65535],
			[678,195,65535],
			[678,195,65535],
			[678,195,65535],
			[192,65535,225],
			[678,195,65535],
			[678,195,65535],
			[678,195,65535],
			[678,195,65535]
		],
		[
			[678,195,65535],
			[678,195,65535],
			[678,195,65535],
			[678,196,65535],
			[222,65535,65535],
			[678,198,65535],
			[678,195,65535],
			[678,195,65535],
			[678,195,65535]
		],
		[
			[678,195,65535],
			[678,195,65535],
			[678,195,65535],
			[678,202,65535],
			[194,65535,65535],
			[678,201,65535],
			[678,195,65535],
			[678,195,65535],
			[678,195,65535]
		]
	]
}
