{
	"id": 278,
	"type": 1,
	"width": 9,
	"height": 9,
	"flags": 8,
	"tiles": [
		[
			[306,235,65535],
			[281,350,234],
			[598,237,65535],
			[598,236,361],
			[598,237,65535],
			[598,236,361],
			[598,245,65535],
			[603,350,234],
			[306,238,65535]
		],
		[
			[306,239,65535],
			[306,65535,65535],
			[598,239,65535],
			[598,65535,65535],
			[598,243,65535],
			[598,257,1172],
			[598,240,65535],
			[306,65535,65535],
			[306,240,65535]
		],
		[
			[306,239,65535],
			[306,65535,65535],
			[598,239,65535],
			[598,65535,65535],
			[598,65535,65535],
			[598,65535,65535],
			[598,240,65535],
			[306,65535,65535],
			[306,240,65535]
		],
		[
			[306,239,65535],
			[306,65535,65535],
			[598,241,65535],
			[598,236,65535],
			[599,65535,234],
			[598,236,65535],
			[598,242,65535],
			[306,65535,65535],
			[306,240,65535]
		],
		[
			[306,239,65535],
			[306,65535,65535],
			[306,65535,65535],
			[306,65535,65535],
			[306,65535,65535],
			[306,65535,65535],
			[306,65535,65535],
			[306,65535,65535],
			[306,240,65535]
		],
		[
			[306,239,65535],
			[306,65535,65535],
			[306,65535,65535],
			[306,65535,65535],
			[306,65535,65535],
			[306,65535,65535],
			[306,65535,65535],
			[306,65535,65535],
			[306,240,65535]
		],
		[
			[306,239,65535],
			[306,622,65535],
			[306,65535,65535],
			[306,65535,65535],
			[306,266,65535],
			[306,65535,65535],
			[306,65535,65535],
			[306,622,65535],
			[306,240,65535]
		],
		[
			[306,239,65535],
			[306,622,65535],
			[306,257,1173],
			[306,65535,65535],
			[306,65535,65535],
			[306,65535,65535],
			[306,257,262],
			[306,622,65535],
			[306,240,65535]
		],
		[
			[306,241,65535],
			[306,236,65535],
			[306,236,65535],
			[306,236,65535],
			[308,65535,234],
			[306,236,65535],
			[306,236,65535],
			[306,236,65535],
			[306,242,65535]
		]
	]
}
