{
	"id": 282,
	"type": 1,
	"width": 9,
	"height": 9,
	"flags": 8,
	"tiles": [
		[
			[0,235,65535],
			[0,236,616],
			[0,236,619],
			[0,237,65535],
			[0,236,255],
			[0,245,65535],
			[0,236,616],
			[0,236,619],
			[0,238,65535]
		],
		[
			[306,239,269],
			[306,65535,267],
			[306,185,65535],
			[596,243,65535],
			[596,797,65535],
			[596,244,65535],
			[306,185,65535],
			[306,266,65535],
			[306,240,270]
		],
		[
			[306,239,269],
			[306,268,65535],
			[306,65535,65535],
			[596,173,65535],
			[596,65535,65535],
			[596,173,65535],
			[306,65535,65535],
			[306,266,65535],
			[306,240,270]
		],
		[
			[306,239,65535],
			[306,65535,65535],
			[306,65535,65535],
			[306,65535,65535],
			[602,65535,65535],
			[306,65535,65535],
			[306,65535,65535],
			[306,65535,65535],
			[306,240,65535]
		],
		[
			[306,239,65535],
			[306,257,65535],
			[306,65535,65535],
			[306,167,65535],
			[602,65535,65535],
			[306,167,65535],
			[306,65535,65535],
			[306,257,1172],
			[306,240,65535]
		],
		[
			[306,239,65535],
			[306,65535,65535],
			[306,65535,65535],
			[306,65535,65535],
			[602,65535,65535],
			[306,65535,65535],
			[306,65535,65535],
			[306,65535,65535],
			[306,240,65535]
		],
		[
			[306,239,65535],
			[306,257,1173],
			[306,65535,65535],
			[306,167,65535],
			[602,65535,65535],
			[306,167,65535],
			[306,65535,65535],
			[306,257,65535],
			[306,240,65535]
		],
		[
			[306,239,65535],
			[306,65535,65535],
			[306,65535,65535],
			[306,65535,65535],
			[602,65535,65535],
			[306,65535,65535],
			[306,65535,65535],
			[306,65535,65535],
			[306,240,65535]
		],
		[
			[306,241,65535],
			[306,236,65535],
			[306,236,65535],
			[306,236,65535],
			[603,65535,234],
			[306,236,65535],
			[306,236,65535],
			[306,236,65535],
			[306,242,65535]
		]
	]
}
