{
	"id": 284,
	"type": 1,
	"width": 9,
	"height": 9,
	"flags": 8,
	"tiles": [
		[
			[306,235,65535],
			[306,236,256],
			[306,236,255],
			[306,236,65535],
			[306,236,65535],
			[306,236,178],
			[306,236,65535],
			[306,236,256],
			[306,238,65535]
		],
		[
			[306,239,65535],
			[306,273,65535],
			[306,65535,65535],
			[306,65535,65535],
			[306,65535,65535],
			[306,179,65535],
			[306,266,65535],
			[306,635,65535],
			[306,240,65535]
		],
		[
			[306,239,65535],
			[306,257,1173],
			[306,65535,65535],
			[306,65535,65535],
			[306,65535,65535],
			[306,65535,65535],
			[306,65535,65535],
			[306,266,65535],
			[306,240,65535]
		],
		[
			[306,235,65535],
			[306,242,65535],
			[306,65535,65535],
			[306,65535,65535],
			[306,65535,65535],
			[306,65535,65535],
			[306,65535,65535],
			[306,266,65535],
			[306,240,65535]
		],
		[
			[306,239,65535],
			[306,65535,65535],
			[306,65535,65535],
			[306,65535,65535],
			[306,65535,65535],
			[306,65535,65535],
			[306,65535,65535],
			[306,65535,65535],
			[306,240,65535]
		],
		[
			[306,239,65535],
			[306,65535,65535],
			[306,65535,65535],
			[306,65535,65535],
			[306,65535,65535],
			[306,65535,65535],
			[306,65535,65535],
			[306,65535,65535],
			[306,240,65535]
		],
		[
			[306,239,65535],
			[306,65535,65535],
			[306,65535,65535],
			[306,65535,65535],
			[306,65535,65535],
			[306,65535,65535],
			[306,65535,65535],
			[306,65535,65535],
			[306,240,65535]
		],
		[
			[306,239,65535],
			[306,65535,65535],
			[306,65535,65535],
			[306,65535,65535],
			[306,65535,65535],
			[306,65535,65535],
			[306,65535,65535],
			[306,65535,65535],
			[306,240,65535]
		],
		[
			[306,241,65535],
			[306,236,65535],
			[306,236,65535],
			[306,236,65535],
			[308,65535,234],
			[306,236,65535],
			[306,236,65535],
			[306,236,65535],
			[306,242,65535]
		]
	]
}
