{
	"id": 298,
	"type": 2,
	"width": 9,
	"height": 9,
	"flags": 8,
	"tiles": [
		[
			[602,540,65535],
			[602,578,812],
			[602,629,617],
			[602,540,65535],
			[602,578,812],
			[602,541,618],
			[602,629,65535],
			[602,578,812],
			[602,541,618]
		],
		[
			[602,545,613],
			[602,813,65535],
			[602,65535,65535],
			[602,545,65535],
			[602,813,65535],
			[602,544,614],
			[602,65535,65535],
			[602,813,65535],
			[602,544,614]
		],
		[
			[602,545,65535],
			[602,65535,65535],
			[602,65535,65535],
			[602,545,65535],
			[602,65535,65535],
			[602,544,65535],
			[602,65535,65535],
			[602,65535,65535],
			[602,544,65535]
		],
		[
			[598,540,1328],
			[603,588,589],
			[598,629,623],
			[602,629,65535],
			[603,65535,589],
			[599,629,624],
			[603,629,623],
			[603,588,589],
			[598,541,1394]
		],
		[
			[600,545,1327],
			[600,65535,65535],
			[600,65535,1450],
			[600,65535,1450],
			[600,65535,65535],
			[600,65535,1450],
			[600,65535,1450],
			[600,1313,65535],
			[600,544,1393]
		],
		[
			[600,1447,1330],
			[600,65535,1329],
			[600,355,1444],
			[600,355,1446],
			[600,65535,1329],
			[600,355,1444],
			[600,355,1446],
			[600,65535,1329],
			[600,1449,1331]
		],
		[
			[601,538,1328],
			[601,65535,65535],
			[600,565,65535],
			[600,565,65535],
			[601,1313,65535],
			[600,565,65535],
			[600,565,65535],
			[601,65535,65535],
			[601,539,1394]
		],
		[
			[600,545,1327],
			[600,65535,65535],
			[600,1313,65535],
			[600,65535,65535],
			[600,65535,65535],
			[600,65535,65535],
			[600,65535,65535],
			[600,65535,65535],
			[600,544,1393]
		],
		[
			[600,802,1086],
			[600,802,1086],
			[600,802,1086],
			[600,802,1086],
			[601,65535,1086],
			[600,802,1086],
			[600,802,1086],
			[600,802,1086],
			[600,802,1086]
		]
	]
}
