{
	"id": 303,
	"type": 2,
	"width": 18,
	"height": 18,
	"flags": 8,
	"tiles": [
		[
			[192,195,65535],
			[192,195,65535],
			[192,195,65535],
			[192,195,65535],
			[192,195,65535],
			[192,195,65535],
			[192,195,65535],
			[192,195,65535],
			[192,195,65535],
			[192,195,65535],
			[192,195,65535],
			[192,195,65535],
			[192,195,65535],
			[192,195,65535],
			[192,195,65535],
			[192,195,65535],
			[192,195,65535],
			[192,195,65535]
		],
		[
			[192,196,65535],
			[188,65535,65535],
			[197,65535,65535],
			[192,198,65535],
			[192,196,65535],
			[197,65535,65535],
			[188,65535,65535],
			[188,65535,65535],
			[197,65535,65535],
			[192,198,65535],
			[192,196,65535],
			[189,65535,65535],
			[197,65535,65535],
			[197,273,65535],
			[197,355,178],
			[189,65535,65535],
			[197,355,285],
			[192,198,65535]
		],
		[
			[192,202,65535],
			[192,65535,65535],
			[192,65535,65535],
			[204,65535,65535],
			[203,65535,65535],
			[192,65535,65535],
			[192,65535,65535],
			[192,65535,65535],
			[192,65535,65535],
			[204,65535,65535],
			[203,65535,65535],
			[192,65535,65535],
			[192,65535,65535],
			[192,65535,65535],
			[192,179,65535],
			[192,190,65535],
			[192,286,65535],
			[192,201,65535]
		],
		[
			[192,195,65535],
			[192,65535,225],
			[192,218,65535],
			[192,218,65535],
			[192,218,65535],
			[192,218,65535],
			[192,218,65535],
			[192,218,65535],
			[192,218,65535],
			[204,218,65535],
			[203,206,65535],
			[192,273,65535],
			[192,65535,65535],
			[192,65535,65535],
			[192,65535,65535],
			[192,65535,65535],
			[192,258,267],
			[192,201,65535]
		],
		[
			[192,196,65535],
			[219,65535,65535],
			[192,207,65535],
			[197,65535,65535],
			[188,65535,65535],
			[197,65535,65535],
			[197,65535,65535],
			[188,65535,65535],
			[197,65535,65535],
			[192,198,65535],
			[192,202,65535],
			[192,260,262],
			[192,65535,65535],
			[192,65535,65535],
			[192,261,65535],
			[192,65535,65535],
			[192,268,65535],
			[192,201,65535]
		],
		[
			[192,202,65535],
			[192,65535,65535],
			[192,208,65535],
			[192,65535,65535],
			[192,205,65535],
			[192,218,65535],
			[192,218,65535],
			[192,218,65535],
			[192,218,65535],
			[192,195,65535],
			[192,195,65535],
			[192,218,65535],
			[192,218,65535],
			[192,218,65535],
			[192,218,65535],
			[192,218,65535],
			[192,218,65535],
			[192,195,65535]
		],
		[
			[192,202,65535],
			[192,65535,65535],
			[204,208,65535],
			[192,65535,65535],
			[197,201,65535],
			[197,196,65535],
			[197,65535,65535],
			[197,65535,65535],
			[188,65535,65535],
			[197,65535,65535],
			[197,65535,65535],
			[188,65535,65535],
			[197,65535,65535],
			[197,65535,65535],
			[188,65535,65535],
			[197,65535,65535],
			[204,198,65535],
			[204,195,65535]
		],
		[
			[192,202,65535],
			[192,65535,65535],
			[192,208,65535],
			[192,65535,65535],
			[204,65535,65535],
			[203,187,65535],
			[192,65535,65535],
			[192,65535,65535],
			[192,65535,65535],
			[192,65535,65535],
			[192,65535,65535],
			[192,65535,65535],
			[192,65535,65535],
			[192,65535,65535],
			[192,187,65535],
			[192,65535,65535],
			[204,65535,65535],
			[197,65535,65535]
		],
		[
			[192,202,65535],
			[192,65535,65535],
			[192,201,65535],
			[192,218,65535],
			[192,218,65535],
			[192,218,65535],
			[192,218,65535],
			[192,218,65535],
			[192,218,65535],
			[192,218,65535],
			[192,218,65535],
			[192,218,65535],
			[192,218,65535],
			[192,218,65535],
			[192,218,65535],
			[192,206,65535],
			[192,65535,65535],
			[192,205,65535]
		],
		[
			[192,202,65535],
			[192,65535,65535],
			[197,201,65535],
			[197,196,65535],
			[197,65535,65535],
			[188,65535,65535],
			[192,207,65535],
			[197,65535,65535],
			[197,187,65535],
			[188,65535,65535],
			[197,65535,65535],
			[192,198,65535],
			[192,196,65535],
			[197,65535,65535],
			[188,65535,65535],
			[203,65535,65535],
			[192,65535,65535],
			[192,201,65535]
		],
		[
			[192,202,65535],
			[192,65535,65535],
			[204,200,65535],
			[203,65535,65535],
			[192,65535,65535],
			[192,65535,65535],
			[192,208,65535],
			[192,65535,65535],
			[192,205,65535],
			[192,206,65535],
			[192,65535,65535],
			[192,200,65535],
			[203,65535,65535],
			[192,65535,65535],
			[192,210,65535],
			[192,65535,65535],
			[192,65535,65535],
			[192,201,65535]
		],
		[
			[192,202,65535],
			[192,65535,65535],
			[192,201,65535],
			[192,218,65535],
			[192,206,65535],
			[192,65535,65535],
			[192,208,65535],
			[192,65535,65535],
			[192,201,65535],
			[192,202,65535],
			[192,65535,65535],
			[209,65535,65535],
			[192,65535,65535],
			[192,187,65535],
			[192,201,65535],
			[192,206,65535],
			[192,65535,65535],
			[192,201,65535]
		],
		[
			[192,202,65535],
			[192,65535,65535],
			[192,201,65535],
			[192,195,65535],
			[192,202,65535],
			[192,65535,65535],
			[192,208,65535],
			[192,65535,65535],
			[192,201,65535],
			[192,195,65535],
			[192,218,65535],
			[192,206,65535],
			[192,65535,65535],
			[192,65535,65535],
			[192,201,65535],
			[192,202,65535],
			[192,65535,65535],
			[192,201,65535]
		],
		[
			[192,202,65535],
			[192,65535,65535],
			[192,200,65535],
			[188,65535,65535],
			[192,198,65535],
			[192,206,65535],
			[209,65535,65535],
			[192,65535,65535],
			[192,201,65535],
			[192,195,65535],
			[192,195,65535],
			[192,202,65535],
			[192,65535,65535],
			[192,65535,65535],
			[192,200,65535],
			[203,65535,65535],
			[192,65535,65535],
			[192,201,65535]
		],
		[
			[192,202,65535],
			[192,65535,65535],
			[192,208,65535],
			[192,65535,65535],
			[204,65535,65535],
			[203,65535,65535],
			[192,65535,65535],
			[192,65535,65535],
			[192,201,65535],
			[192,196,65535],
			[188,65535,65535],
			[203,65535,65535],
			[192,65535,65535],
			[192,65535,65535],
			[209,65535,65535],
			[192,65535,65535],
			[192,65535,65535],
			[192,201,65535]
		],
		[
			[192,202,65535],
			[192,65535,65535],
			[192,201,65535],
			[204,218,65535],
			[197,218,65535],
			[197,218,65535],
			[197,218,65535],
			[197,218,65535],
			[197,195,65535],
			[197,195,65535],
			[197,218,65535],
			[197,218,65535],
			[197,218,65535],
			[197,218,65535],
			[197,218,65535],
			[197,206,65535],
			[192,65535,65535],
			[192,201,65535]
		],
		[
			[192,202,65535],
			[192,65535,65535],
			[204,65535,65535],
			[197,65535,65535],
			[197,65535,65535],
			[188,65535,65535],
			[197,65535,65535],
			[197,65535,65535],
			[197,65535,65535],
			[188,65535,65535],
			[197,65535,65535],
			[197,65535,65535],
			[197,187,65535],
			[188,65535,65535],
			[197,65535,65535],
			[203,65535,65535],
			[192,65535,65535],
			[192,201,65535]
		],
		[
			[192,195,65535],
			[192,218,65535],
			[192,218,65535],
			[192,218,65535],
			[192,218,65535],
			[192,218,65535],
			[192,218,65535],
			[192,218,65535],
			[192,218,65535],
			[192,218,65535],
			[192,218,65535],
			[192,218,65535],
			[192,218,65535],
			[192,218,65535],
			[192,218,65535],
			[192,218,65535],
			[192,218,65535],
			[192,195,65535]
		]
	]
}
