{
	"id": 305,
	"type": 2,
	"width": 18,
	"height": 18,
	"flags": 16,
	"tiles": [
		[
			[648,65535,65535],
			[648,65535,65535],
			[648,65535,65535],
			[648,65535,65535],
			[648,65535,65535],
			[648,65535,65535],
			[648,65535,65535],
			[648,65535,65535],
			[648,65535,65535],
			[648,65535,65535],
			[648,65535,65535],
			[648,65535,65535],
			[648,65535,65535],
			[648,65535,65535],
			[648,65535,65535],
			[648,65535,65535],
			[648,65535,65535],
			[648,65535,65535]
		],
		[
			[648,65535,65535],
			[1000,65535,65535],
			[648,65535,65535],
			[648,65535,65535],
			[648,65535,65535],
			[997,65535,65535],
			[648,65535,65535],
			[648,65535,65535],
			[648,65535,65535],
			[648,65535,65535],
			[648,65535,65535],
			[648,65535,65535],
			[648,65535,65535],
			[648,65535,65535],
			[648,65535,65535],
			[648,65535,65535],
			[1000,65535,65535],
			[648,65535,65535]
		],
		[
			[648,65535,65535],
			[648,65535,65535],
			[648,65535,65535],
			[648,65535,65535],
			[648,65535,65535],
			[648,65535,65535],
			[648,65535,65535],
			[648,65535,65535],
			[648,739,65535],
			[648,750,65535],
			[648,740,65535],
			[998,65535,65535],
			[997,65535,65535],
			[648,65535,65535],
			[648,65535,65535],
			[648,65535,65535],
			[648,65535,65535],
			[648,65535,65535]
		],
		[
			[648,65535,65535],
			[648,65535,65535],
			[648,65535,65535],
			[648,65535,65535],
			[648,65535,65535],
			[648,65535,65535],
			[648,65535,65535],
			[648,65535,65535],
			[648,745,65535],
			[648,65535,65535],
			[648,724,65535],
			[648,65535,65535],
			[648,65535,65535],
			[648,65535,65535],
			[648,65535,65535],
			[648,65535,65535],
			[648,65535,65535],
			[648,65535,65535]
		],
		[
			[648,65535,65535],
			[648,65535,65535],
			[648,65535,65535],
			[1000,65535,65535],
			[648,65535,65535],
			[648,739,65535],
			[648,750,65535],
			[648,750,65535],
			[648,743,65535],
			[648,65535,65535],
			[648,724,65535],
			[648,65535,65535],
			[648,65535,65535],
			[648,65535,65535],
			[648,739,65535],
			[648,740,65535],
			[648,65535,65535],
			[648,65535,65535]
		],
		[
			[648,65535,65535],
			[648,65535,65535],
			[648,65535,65535],
			[648,65535,65535],
			[648,739,65535],
			[648,743,65535],
			[648,739,65535],
			[648,740,65535],
			[648,65535,65535],
			[648,65535,65535],
			[648,744,65535],
			[648,750,65535],
			[648,740,65535],
			[648,65535,65535],
			[648,737,65535],
			[648,738,65535],
			[648,65535,65535],
			[648,65535,65535]
		],
		[
			[648,65535,65535],
			[648,65535,65535],
			[648,65535,65535],
			[648,65535,65535],
			[648,745,65535],
			[648,739,65535],
			[648,743,65535],
			[648,724,65535],
			[648,65535,65535],
			[648,65535,65535],
			[648,65535,65535],
			[648,65535,65535],
			[648,724,65535],
			[648,65535,65535],
			[648,65535,65535],
			[1000,65535,65535],
			[648,65535,65535],
			[648,65535,65535]
		],
		[
			[648,65535,65535],
			[997,65535,65535],
			[648,65535,65535],
			[648,65535,65535],
			[648,745,65535],
			[648,737,65535],
			[648,731,65535],
			[648,738,65535],
			[648,739,65535],
			[648,750,65535],
			[648,740,65535],
			[648,65535,65535],
			[648,744,65535],
			[648,750,65535],
			[648,740,65535],
			[648,65535,65535],
			[648,65535,65535],
			[648,65535,65535]
		],
		[
			[648,65535,65535],
			[648,65535,65535],
			[648,65535,65535],
			[648,739,65535],
			[648,743,65535],
			[648,739,65535],
			[648,750,65535],
			[648,750,65535],
			[648,743,65535],
			[999,65535,65535],
			[648,744,65535],
			[648,740,65535],
			[648,65535,65535],
			[648,65535,65535],
			[648,724,65535],
			[648,65535,65535],
			[648,65535,65535],
			[648,65535,65535]
		],
		[
			[648,65535,65535],
			[648,65535,65535],
			[648,65535,65535],
			[648,745,65535],
			[648,65535,65535],
			[648,745,65535],
			[648,65535,65535],
			[648,65535,65535],
			[648,65535,65535],
			[648,65535,65535],
			[808,65535,65535],
			[648,724,65535],
			[648,65535,65535],
			[648,742,65535],
			[648,738,65535],
			[648,65535,65535],
			[648,65535,65535],
			[648,65535,65535]
		],
		[
			[648,65535,65535],
			[648,65535,65535],
			[648,65535,65535],
			[648,737,65535],
			[648,741,65535],
			[648,745,65535],
			[648,65535,807],
			[648,742,65535],
			[648,731,65535],
			[648,731,65535],
			[648,731,65535],
			[648,738,65535],
			[648,65535,65535],
			[648,724,65535],
			[648,65535,65535],
			[648,65535,65535],
			[648,65535,65535],
			[648,65535,65535]
		],
		[
			[648,65535,65535],
			[648,65535,65535],
			[648,65535,65535],
			[648,65535,65535],
			[648,745,65535],
			[648,737,65535],
			[648,731,65535],
			[648,738,65535],
			[648,739,65535],
			[648,750,65535],
			[648,740,65535],
			[648,65535,65535],
			[648,742,65535],
			[648,738,65535],
			[648,65535,65535],
			[648,65535,65535],
			[648,65535,65535],
			[648,65535,65535]
		],
		[
			[648,65535,65535],
			[648,739,65535],
			[648,740,65535],
			[998,65535,65535],
			[648,737,65535],
			[648,731,65535],
			[648,731,65535],
			[648,741,65535],
			[648,737,65535],
			[648,731,65535],
			[648,738,65535],
			[648,742,65535],
			[648,738,65535],
			[1904,65535,65535],
			[648,65535,65535],
			[648,65535,65535],
			[648,65535,65535],
			[648,65535,65535]
		],
		[
			[648,65535,65535],
			[648,745,65535],
			[648,744,65535],
			[648,740,65535],
			[648,65535,65535],
			[648,65535,65535],
			[1904,65535,65535],
			[648,737,65535],
			[648,731,65535],
			[733,355,65535],
			[648,731,65535],
			[648,738,65535],
			[648,65535,65535],
			[648,65535,65535],
			[648,65535,65535],
			[1903,65535,65535],
			[648,65535,65535],
			[648,65535,65535]
		],
		[
			[648,65535,65535],
			[648,737,65535],
			[648,741,65535],
			[648,744,65535],
			[648,740,65535],
			[648,65535,65535],
			[648,65535,65535],
			[648,65535,65535],
			[1903,65535,65535],
			[648,1313,65535],
			[648,1174,65535],
			[648,1175,65535],
			[648,65535,65535],
			[1903,65535,65535],
			[648,65535,65535],
			[648,65535,65535],
			[648,65535,65535],
			[648,65535,65535]
		],
		[
			[648,65535,65535],
			[648,65535,65535],
			[648,745,65535],
			[648,65535,65535],
			[648,724,65535],
			[648,65535,65535],
			[648,65535,65535],
			[1903,65535,65535],
			[648,65535,65535],
			[648,65535,65535],
			[648,65535,65535],
			[1903,65535,65535],
			[648,65535,65535],
			[648,65535,65535],
			[1903,65535,65535],
			[648,65535,65535],
			[999,65535,65535],
			[648,65535,65535]
		],
		[
			[648,65535,65535],
			[1000,65535,65535],
			[648,737,65535],
			[648,731,65535],
			[648,738,65535],
			[648,65535,65535],
			[648,65535,65535],
			[648,65535,65535],
			[648,65535,65535],
			[648,65535,65535],
			[1903,65535,65535],
			[648,65535,65535],
			[1904,65535,65535],
			[648,65535,65535],
			[648,65535,65535],
			[648,65535,65535],
			[648,65535,65535],
			[648,65535,65535]
		],
		[
			[648,65535,65535],
			[648,65535,65535],
			[648,65535,65535],
			[648,65535,65535],
			[648,65535,65535],
			[648,65535,65535],
			[648,65535,65535],
			[648,65535,65535],
			[648,65535,65535],
			[648,65535,65535],
			[648,65535,65535],
			[648,65535,65535],
			[648,65535,65535],
			[648,65535,65535],
			[648,65535,65535],
			[648,65535,65535],
			[648,65535,65535],
			[648,65535,65535]
		]
	]
}
