{
	"id": 307,
	"type": 2,
	"width": 9,
	"height": 9,
	"flags": 8,
	"tiles": [
		[
			[683,681,65535],
			[1008,681,65535],
			[1008,681,65535],
			[1008,681,65535],
			[1008,681,65535],
			[1008,681,65535],
			[1008,681,65535],
			[1008,681,65535],
			[683,681,65535]
		],
		[
			[678,762,65535],
			[975,65535,65535],
			[976,981,65535],
			[978,65535,65535],
			[977,65535,65535],
			[975,572,65535],
			[978,555,65535],
			[977,554,65535],
			[678,764,65535]
		],
		[
			[678,767,65535],
			[1020,65535,65535],
			[1012,65535,65535],
			[1012,65535,65535],
			[1012,65535,65535],
			[1019,1768,65535],
			[1007,65535,65535],
			[1006,65535,65535],
			[678,766,65535]
		],
		[
			[678,767,65535],
			[1011,65535,65535],
			[1013,65535,65535],
			[1009,65535,65535],
			[1014,65535,65535],
			[1015,65535,65535],
			[1012,65535,65535],
			[1019,65535,65535],
			[678,766,65535]
		],
		[
			[678,688,65535],
			[1011,65535,65535],
			[1015,65535,65535],
			[1019,65535,65535],
			[1018,65535,65535],
			[1014,65535,65535],
			[998,65535,65535],
			[1010,65535,65535],
			[678,766,65535]
		],
		[
			[678,688,65535],
			[1018,65535,65535],
			[1014,65535,65535],
			[1015,65535,65535],
			[1012,65535,65535],
			[1016,65535,65535],
			[1013,65535,65535],
			[1017,65535,65535],
			[678,766,65535]
		],
		[
			[678,688,65535],
			[1008,65535,65535],
			[1018,65535,65535],
			[1009,65535,65535],
			[1014,65535,65535],
			[1022,65535,65535],
			[1010,65535,65535],
			[1008,622,65535],
			[678,687,65535]
		],
		[
			[678,688,65535],
			[1008,622,65535],
			[1008,622,65535],
			[1008,65535,65535],
			[1018,65535,65535],
			[1009,65535,65535],
			[1017,65535,65535],
			[1008,622,65535],
			[678,687,65535]
		],
		[
			[678,681,65535],
			[678,686,65535],
			[678,686,65535],
			[678,692,65535],
			[1002,65535,65535],
			[678,691,65535],
			[678,686,65535],
			[678,686,65535],
			[678,681,65535]
		]
	]
}
