{
	"id": 310,
	"type": 2,
	"width": 9,
	"height": 9,
	"flags": 8,
	"tiles": [
		[
			[1134,1254,65535],
			[1134,1253,65535],
			[1134,1253,65535],
			[1134,1253,65535],
			[1134,1253,65535],
			[1134,1253,65535],
			[1134,1253,65535],
			[1134,1253,65535],
			[1134,1255,65535]
		],
		[
			[1134,1257,65535],
			[1133,65535,65535],
			[1124,65535,65535],
			[1124,65535,65535],
			[1124,65535,65535],
			[1124,65535,65535],
			[1124,65535,65535],
			[1132,65535,65535],
			[1134,1256,65535]
		],
		[
			[1134,1257,65535],
			[1126,65535,65535],
			[1127,65535,65535],
			[1123,65535,65535],
			[1123,65535,65535],
			[1123,65535,65535],
			[1128,65535,65535],
			[1125,65535,65535],
			[1134,1256,65535]
		],
		[
			[1134,1257,65535],
			[1126,65535,65535],
			[1125,65535,65535],
			[1145,65535,65535],
			[1145,65535,65535],
			[1145,65535,65535],
			[1126,65535,65535],
			[1125,65535,65535],
			[1134,1256,65535]
		],
		[
			[1134,1257,65535],
			[1126,65535,65535],
			[1125,65535,65535],
			[1146,1146,65535],
			[1146,65535,65535],
			[1146,65535,65535],
			[1126,65535,65535],
			[1125,65535,65535],
			[1134,1256,65535]
		],
		[
			[1134,1257,65535],
			[1126,65535,65535],
			[1125,65535,65535],
			[403,1144,65535],
			[403,1144,65535],
			[403,1144,65535],
			[1126,65535,65535],
			[1125,65535,65535],
			[1134,1256,65535]
		],
		[
			[1134,1257,65535],
			[1126,65535,65535],
			[1129,65535,65535],
			[1124,65535,65535],
			[1124,65535,65535],
			[1124,65535,65535],
			[1130,65535,65535],
			[1125,65535,65535],
			[1134,1256,65535]
		],
		[
			[1134,1257,65535],
			[1131,65535,65535],
			[1123,65535,65535],
			[1123,65535,65535],
			[1123,65535,65535],
			[1123,65535,65535],
			[1123,65535,65535],
			[1199,65535,65535],
			[1134,1256,65535]
		],
		[
			[403,1253,65535],
			[1134,1253,65535],
			[1134,1253,65535],
			[1134,1253,65535],
			[1134,65535,1086],
			[1134,1253,65535],
			[1134,1253,65535],
			[1134,1253,65535],
			[1134,1253,65535]
		]
	]
}
