{
	"id": 314,
	"type": 2,
	"width": 18,
	"height": 18,
	"flags": 8,
	"tiles": [
		[
			[683,682,65535],
			[683,65535,65535],
			[683,65535,65535],
			[683,65535,65535],
			[683,65535,65535],
			[683,693,65535],
			[683,65535,65535],
			[683,65535,65535],
			[683,65535,65535],
			[683,65535,65535],
			[683,693,65535],
			[683,65535,65535],
			[683,65535,65535],
			[683,693,65535],
			[683,65535,65535],
			[683,684,65535],
			[683,681,65535],
			[683,681,65535]
		],
		[
			[678,688,65535],
			[678,65535,65535],
			[678,65535,65535],
			[678,65535,65535],
			[678,65535,65535],
			[678,694,65535],
			[678,65535,65535],
			[678,691,65535],
			[678,692,65535],
			[678,65535,65535],
			[678,694,65535],
			[678,65535,65535],
			[678,65535,65535],
			[695,65535,65535],
			[678,65535,65535],
			[678,687,65535],
			[678,681,65535],
			[678,681,65535]
		],
		[
			[678,681,65535],
			[678,686,65535],
			[678,686,65535],
			[678,692,65535],
			[678,65535,65535],
			[678,694,65535],
			[678,65535,65535],
			[678,687,65535],
			[678,688,65535],
			[678,65535,65535],
			[695,65535,65535],
			[678,65535,65535],
			[678,65535,65535],
			[678,696,65535],
			[678,65535,65535],
			[690,65535,65535],
			[683,65535,65535],
			[678,684,65535]
		],
		[
			[678,682,65535],
			[683,65535,65535],
			[678,693,65535],
			[689,65535,65535],
			[678,65535,65535],
			[678,694,65535],
			[678,65535,65535],
			[678,687,65535],
			[678,681,65535],
			[678,686,65535],
			[678,692,65535],
			[678,65535,65535],
			[678,344,65535],
			[678,687,65535],
			[678,692,65535],
			[1002,65535,65535],
			[678,691,65535],
			[678,681,65535]
		],
		[
			[678,688,65535],
			[678,65535,65535],
			[695,65535,65535],
			[678,65535,65535],
			[678,65535,65535],
			[695,65535,65535],
			[678,65535,65535],
			[690,65535,65535],
			[678,693,65535],
			[683,265,65535],
			[678,684,65535],
			[678,686,65535],
			[678,686,65535],
			[690,681,65535],
			[683,688,65535],
			[1002,65535,65535],
			[690,266,65535],
			[678,684,65535]
		],
		[
			[678,688,65535],
			[678,65535,65535],
			[678,691,65535],
			[678,65535,1247],
			[678,686,65535],
			[678,686,65535],
			[678,692,65535],
			[678,65535,65535],
			[678,694,65535],
			[678,65535,65535],
			[690,65535,65535],
			[683,65535,65535],
			[683,65535,65535],
			[678,684,65535],
			[678,688,65535],
			[1002,65535,65535],
			[678,186,65535],
			[678,687,65535]
		],
		[
			[678,688,65535],
			[678,65535,65535],
			[690,687,65535],
			[678,65535,1248],
			[678,682,65535],
			[683,65535,65535],
			[689,65535,65535],
			[678,65535,65535],
			[689,694,65535],
			[678,65535,65535],
			[678,65535,65535],
			[678,696,65535],
			[678,65535,65535],
			[678,687,65535],
			[678,688,65535],
			[1002,65535,65535],
			[678,691,65535],
			[678,681,65535]
		],
		[
			[678,688,65535],
			[679,65535,65535],
			[678,687,65535],
			[678,65535,1248],
			[678,688,65535],
			[678,65535,65535],
			[678,65535,65535],
			[678,65535,65535],
			[678,687,65535],
			[678,692,65535],
			[678,65535,65535],
			[678,694,65535],
			[678,65535,65535],
			[678,687,65535],
			[678,688,65535],
			[1002,65535,65535],
			[678,687,65535],
			[678,681,65535]
		],
		[
			[678,681,65535],
			[681,65535,1247],
			[689,681,65535],
			[678,65535,1248],
			[678,681,65535],
			[678,686,65535],
			[678,686,65535],
			[678,686,65535],
			[678,681,65535],
			[678,688,65535],
			[678,65535,65535],
			[678,687,65535],
			[678,692,65535],
			[690,65535,65535],
			[689,697,65535],
			[1002,65535,65535],
			[690,65535,65535],
			[678,684,65535]
		],
		[
			[678,681,65535],
			[689,681,65535],
			[678,681,65535],
			[678,65535,1248],
			[678,682,65535],
			[683,65535,65535],
			[683,65535,65535],
			[683,65535,65535],
			[683,65535,65535],
			[689,65535,65535],
			[678,65535,65535],
			[678,687,65535],
			[678,688,65535],
			[678,65535,65535],
			[695,65535,65535],
			[1002,65535,65535],
			[678,186,65535],
			[678,687,65535]
		],
		[
			[678,681,65535],
			[678,681,65535],
			[678,681,65535],
			[678,65535,1248],
			[695,688,65535],
			[678,344,65535],
			[678,65535,65535],
			[678,65535,65535],
			[678,691,65535],
			[678,692,65535],
			[678,65535,65535],
			[678,687,65535],
			[678,688,65535],
			[678,266,65535],
			[1007,65535,65535],
			[1004,65535,65535],
			[678,186,65535],
			[678,687,65535]
		],
		[
			[678,681,65535],
			[678,681,65535],
			[678,681,65535],
			[678,65535,1248],
			[678,681,65535],
			[678,686,65535],
			[678,686,65535],
			[678,686,65535],
			[678,681,65535],
			[678,681,65535],
			[678,686,65535],
			[678,681,65535],
			[678,681,65535],
			[678,692,65535],
			[1002,65535,65535],
			[678,691,65535],
			[678,686,65535],
			[678,681,65535]
		],
		[
			[678,681,65535],
			[678,1254,65535],
			[678,1321,267],
			[678,1321,1444],
			[678,1321,65535],
			[678,1321,65535],
			[678,1321,812],
			[678,542,65535],
			[678,556,65535],
			[678,630,65535],
			[678,556,65535],
			[678,630,65535],
			[678,556,65535],
			[678,1336,65535],
			[1002,65535,1086],
			[678,1335,616],
			[678,543,618],
			[678,681,65535]
		],
		[
			[598,681,65535],
			[596,1257,613],
			[596,268,65535],
			[596,355,1444],
			[596,273,65535],
			[596,65535,65535],
			[597,813,65535],
			[596,545,613],
			[597,615,65535],
			[596,265,65535],
			[597,615,65535],
			[596,186,65535],
			[597,615,65535],
			[596,65535,65535],
			[596,65535,65535],
			[596,65535,65535],
			[596,544,65535],
			[598,681,65535]
		],
		[
			[598,681,65535],
			[596,1257,65535],
			[596,65535,65535],
			[596,554,65535],
			[596,65535,65535],
			[596,65535,65535],
			[596,65535,65535],
			[596,545,613],
			[596,266,65535],
			[596,65535,65535],
			[596,65535,65535],
			[596,65535,65535],
			[596,65535,65535],
			[596,65535,65535],
			[596,65535,65535],
			[596,65535,65535],
			[596,544,65535],
			[598,681,65535]
		],
		[
			[598,681,65535],
			[596,1257,65535],
			[596,65535,65535],
			[596,65535,65535],
			[596,65535,65535],
			[596,65535,65535],
			[596,65535,65535],
			[596,629,65535],
			[596,629,65535],
			[596,629,65535],
			[596,629,65535],
			[596,629,65535],
			[596,629,65535],
			[596,541,65535],
			[596,65535,65535],
			[596,65535,65535],
			[596,544,65535],
			[598,681,65535]
		],
		[
			[598,681,65535],
			[596,1257,65535],
			[596,186,65535],
			[596,186,65535],
			[596,65535,65535],
			[596,65535,65535],
			[596,65535,65535],
			[596,65535,65535],
			[596,65535,65535],
			[596,65535,65535],
			[596,65535,65535],
			[596,65535,65535],
			[596,65535,65535],
			[596,65535,591],
			[596,65535,65535],
			[596,65535,65535],
			[596,544,65535],
			[598,681,65535]
		],
		[
			[598,681,65535],
			[596,681,1086],
			[596,681,1086],
			[596,681,1086],
			[596,681,1086],
			[596,681,1086],
			[596,681,1086],
			[596,681,1086],
			[596,681,1086],
			[596,681,1086],
			[596,681,1086],
			[596,681,1086],
			[596,681,1086],
			[596,681,1086],
			[596,681,1086],
			[596,681,1086],
			[596,681,1086],
			[598,681,65535]
		]
	]
}
