{
	"id": 318,
	"type": 2,
	"width": 18,
	"height": 18,
	"flags": 15,
	"tiles": [
		[
			[648,65535,65535],
			[648,65535,65535],
			[648,65535,65535],
			[648,65535,65535],
			[648,65535,65535],
			[648,65535,65535],
			[648,65535,65535],
			[648,65535,65535],
			[648,65535,65535],
			[1000,65535,65535],
			[648,65535,65535],
			[648,65535,65535],
			[648,65535,65535],
			[648,65535,65535],
			[648,65535,65535],
			[648,65535,65535],
			[648,65535,65535],
			[648,65535,65535]
		],
		[
			[648,65535,65535],
			[648,65535,65535],
			[648,65535,65535],
			[648,65535,65535],
			[648,65535,65535],
			[999,65535,65535],
			[648,65535,65535],
			[648,65535,65535],
			[648,658,65535],
			[648,670,65535],
			[648,670,65535],
			[648,670,65535],
			[648,670,65535],
			[648,659,65535],
			[648,65535,65535],
			[997,65535,65535],
			[648,65535,65535],
			[648,65535,65535]
		],
		[
			[648,65535,65535],
			[648,65535,65535],
			[1318,65535,65535],
			[648,65535,65535],
			[648,65535,65535],
			[648,65535,65535],
			[648,65535,65535],
			[648,658,65535],
			[648,662,65535],
			[648,65535,65535],
			[648,65535,65535],
			[648,65535,65535],
			[648,65535,65535],
			[648,669,65535],
			[648,65535,65535],
			[648,65535,65535],
			[648,65535,65535],
			[648,65535,65535]
		],
		[
			[648,65535,65535],
			[648,65535,65535],
			[648,65535,65535],
			[648,658,65535],
			[648,659,65535],
			[648,65535,65535],
			[1317,65535,65535],
			[648,664,65535],
			[648,65535,65535],
			[648,65535,65535],
			[648,658,65535],
			[648,659,65535],
			[648,65535,65535],
			[648,65535,65535],
			[674,65535,65535],
			[648,672,65535],
			[648,659,65535],
			[648,65535,65535]
		],
		[
			[997,65535,65535],
			[1000,65535,65535],
			[648,65535,65535],
			[648,664,65535],
			[648,667,65535],
			[648,65535,65535],
			[648,658,65535],
			[648,662,65535],
			[648,65535,65535],
			[648,65535,65535],
			[648,664,65535],
			[648,667,65535],
			[1317,65535,65535],
			[648,65535,65535],
			[648,65535,65535],
			[648,65535,65535],
			[648,669,65535],
			[648,65535,65535]
		],
		[
			[648,65535,65535],
			[648,965,65535],
			[648,966,616],
			[648,664,617],
			[663,617,1113],
			[648,670,1114],
			[648,662,1121],
			[648,658,1122],
			[648,671,65535],
			[674,65535,65535],
			[648,664,65535],
			[648,663,65535],
			[648,670,65535],
			[648,670,65535],
			[648,659,65535],
			[648,65535,65535],
			[1319,65535,65535],
			[648,65535,65535]
		],
		[
			[648,65535,65535],
			[1000,967,65535],
			[648,968,1424],
			[648,664,65535],
			[648,1115,65535],
			[648,1117,65535],
			[648,672,65535],
			[648,662,65535],
			[648,65535,65535],
			[648,65535,65535],
			[648,664,65535],
			[648,672,65535],
			[648,670,65535],
			[648,671,65535],
			[648,667,65535],
			[648,65535,65535],
			[648,668,65535],
			[648,65535,65535]
		],
		[
			[648,65535,65535],
			[648,65535,65535],
			[648,658,1426],
			[648,662,65535],
			[648,1118,65535],
			[1119,1120,65535],
			[1319,65535,65535],
			[648,65535,65535],
			[648,658,65535],
			[648,670,65535],
			[648,662,65535],
			[648,996,65535],
			[648,661,65535],
			[648,650,65535],
			[648,657,65535],
			[648,65535,65535],
			[648,667,65535],
			[648,65535,65535]
		],
		[
			[648,65535,65535],
			[648,65535,65535],
			[648,664,65535],
			[648,65535,65535],
			[648,65535,65535],
			[648,65535,65535],
			[648,658,65535],
			[648,670,995],
			[648,662,65535],
			[648,672,65535],
			[648,670,65535],
			[648,659,65535],
			[648,667,65535],
			[1000,65535,65535],
			[648,65535,65535],
			[648,65535,65535],
			[648,667,65535],
			[648,65535,65535]
		],
		[
			[648,65535,65535],
			[648,65535,65535],
			[648,664,65535],
			[648,65535,65535],
			[648,658,65535],
			[648,670,65535],
			[648,662,65535],
			[648,994,65535],
			[648,658,65535],
			[648,670,65535],
			[648,659,65535],
			[648,669,65535],
			[648,667,65535],
			[648,65535,65535],
			[648,65535,65535],
			[648,654,65535],
			[648,657,65535],
			[648,65535,65535]
		],
		[
			[648,65535,65535],
			[648,65535,65535],
			[648,664,65535],
			[648,65535,65535],
			[648,656,65535],
			[648,650,65535],
			[648,650,65535],
			[648,660,65535],
			[648,664,65535],
			[648,675,65535],
			[648,667,65535],
			[648,661,65535],
			[648,657,65535],
			[648,65535,65535],
			[1318,65535,65535],
			[648,65535,65535],
			[648,65535,65535],
			[648,65535,65535]
		],
		[
			[1319,65535,65535],
			[648,675,65535],
			[648,656,65535],
			[648,660,65535],
			[648,65535,65535],
			[648,65535,65535],
			[648,65535,65535],
			[648,664,65535],
			[648,656,65535],
			[648,650,65535],
			[648,657,65535],
			[648,667,65535],
			[1317,65535,65535],
			[648,65535,65535],
			[648,668,65535],
			[648,65535,65535],
			[648,65535,65535],
			[648,65535,65535]
		],
		[
			[648,65535,65535],
			[648,65535,65535],
			[1317,65535,65535],
			[648,664,65535],
			[648,65535,65535],
			[648,65535,65535],
			[648,65535,65535],
			[648,656,65535],
			[648,660,65535],
			[648,661,65535],
			[648,650,65535],
			[648,657,65535],
			[648,65535,65535],
			[648,65535,65535],
			[648,667,65535],
			[648,65535,65535],
			[648,65535,65535],
			[648,65535,65535]
		],
		[
			[648,65535,65535],
			[648,65535,65535],
			[1318,65535,65535],
			[648,656,65535],
			[648,650,65535],
			[648,660,65535],
			[648,65535,65535],
			[648,65535,65535],
			[648,656,65535],
			[648,657,65535],
			[648,65535,65535],
			[648,65535,65535],
			[648,65535,65535],
			[648,65535,65535],
			[648,667,65535],
			[997,65535,65535],
			[648,65535,65535],
			[648,65535,65535]
		],
		[
			[648,65535,65535],
			[648,65535,65535],
			[648,65535,65535],
			[648,65535,65535],
			[648,65535,65535],
			[648,666,65535],
			[648,65535,65535],
			[648,65535,65535],
			[648,65535,65535],
			[648,65535,65535],
			[674,65535,65535],
			[648,654,65535],
			[648,650,65535],
			[648,650,65535],
			[648,657,65535],
			[648,65535,65535],
			[648,65535,65535],
			[648,65535,65535]
		],
		[
			[648,65535,65535],
			[648,65535,65535],
			[648,996,65535],
			[648,65535,65535],
			[997,65535,65535],
			[1319,65535,65535],
			[648,65535,65535],
			[648,65535,65535],
			[648,65535,65535],
			[648,65535,65535],
			[648,65535,65535],
			[648,65535,65535],
			[648,65535,65535],
			[648,65535,65535],
			[648,65535,65535],
			[648,65535,65535],
			[648,65535,65535],
			[648,65535,65535]
		],
		[
			[648,65535,65535],
			[648,65535,65535],
			[648,65535,65535],
			[648,65535,65535],
			[648,65535,65535],
			[648,65535,65535],
			[648,65535,65535],
			[648,65535,65535],
			[648,65535,65535],
			[648,65535,65535],
			[648,65535,65535],
			[648,65535,65535],
			[648,65535,65535],
			[648,65535,65535],
			[648,65535,65535],
			[648,65535,65535],
			[648,65535,65535],
			[648,65535,65535]
		],
		[
			[648,65535,65535],
			[998,65535,65535],
			[648,65535,65535],
			[648,65535,65535],
			[648,65535,65535],
			[648,65535,65535],
			[648,65535,65535],
			[648,65535,65535],
			[648,65535,65535],
			[648,65535,65535],
			[648,65535,65535],
			[648,65535,65535],
			[1000,65535,65535],
			[648,65535,65535],
			[648,65535,65535],
			[648,65535,65535],
			[648,65535,65535],
			[648,65535,65535]
		]
	]
}
