{
	"id": 325,
	"type": 1,
	"width": 9,
	"height": 9,
	"flags": 8,
	"tiles": [
		[
			[306,235,65535],
			[306,214,65535],
			[306,215,65535],
			[424,236,255],
			[306,237,65535],
			[306,236,65535],
			[306,236,65535],
			[306,236,65535],
			[306,238,65535]
		],
		[
			[306,239,811],
			[213,65535,65535],
			[212,65535,65535],
			[306,65535,65535],
			[309,65535,416],
			[306,186,65535],
			[306,186,65535],
			[306,258,65535],
			[306,240,270]
		],
		[
			[306,239,65535],
			[306,65535,65535],
			[306,65535,65535],
			[306,65535,65535],
			[306,235,65535],
			[306,236,65535],
			[306,236,65535],
			[306,236,65535],
			[306,238,65535]
		],
		[
			[306,243,65535],
			[306,65535,65535],
			[306,65535,65535],
			[306,65535,65535],
			[306,239,811],
			[306,419,65535],
			[306,260,262],
			[306,273,65535],
			[306,240,65535]
		],
		[
			[306,65535,65535],
			[306,65535,65535],
			[306,956,65535],
			[306,957,65535],
			[306,239,65535],
			[306,65535,65535],
			[306,65535,65535],
			[306,65535,65535],
			[306,240,65535]
		],
		[
			[306,235,65535],
			[306,236,65535],
			[307,65535,234],
			[306,236,65535],
			[306,246,65535],
			[306,65535,65535],
			[306,65535,65535],
			[306,65535,65535],
			[306,240,65535]
		],
		[
			[306,239,269],
			[306,65535,65535],
			[306,65535,65535],
			[306,65535,65535],
			[306,65535,65535],
			[306,65535,65535],
			[306,65535,65535],
			[306,65535,65535],
			[306,240,270]
		],
		[
			[306,239,65535],
			[306,65535,65535],
			[306,65535,65535],
			[306,65535,65535],
			[306,65535,65535],
			[306,65535,65535],
			[306,1375,65535],
			[306,1375,65535],
			[306,240,65535]
		],
		[
			[306,241,65535],
			[306,236,65535],
			[306,236,65535],
			[306,236,65535],
			[308,231,230],
			[306,236,65535],
			[306,236,65535],
			[306,236,65535],
			[306,242,65535]
		]
	]
}
