{
	"id": 333,
	"type": 1,
	"width": 9,
	"height": 9,
	"flags": 8,
	"tiles": [
		[
			[0,235,65535],
			[0,236,65535],
			[0,558,65535],
			[0,236,65535],
			[0,236,65535],
			[0,555,65535],
			[1339,355,65535],
			[0,555,65535],
			[0,238,65535]
		],
		[
			[2042,355,2044],
			[2041,65535,65535],
			[2041,65535,65535],
			[2041,65535,65535],
			[2040,65535,65535],
			[2041,65535,65535],
			[2040,65535,65535],
			[2040,65535,65535],
			[2041,240,65535]
		],
		[
			[2041,235,65535],
			[594,575,65535],
			[594,550,1086],
			[594,575,65535],
			[2041,238,65535],
			[2041,65535,65535],
			[2041,65535,65535],
			[2041,65535,65535],
			[2041,240,65535]
		],
		[
			[2042,355,2044],
			[2040,65535,65535],
			[2041,65535,65535],
			[2041,65535,65535],
			[2041,240,65535],
			[2041,65535,65535],
			[2041,65535,65535],
			[2041,65535,65535],
			[2041,240,270]
		],
		[
			[2041,239,65535],
			[2041,65535,65535],
			[2041,65535,65535],
			[2041,65535,65535],
			[2041,240,65535],
			[2041,65535,65535],
			[2041,65535,65535],
			[2041,570,65535],
			[2041,238,65535]
		],
		[
			[2041,239,65535],
			[2041,65535,65535],
			[2041,65535,65535],
			[2041,784,65535],
			[2041,240,65535],
			[2041,65535,65535],
			[2041,65535,65535],
			[2041,65535,65535],
			[2041,240,65535]
		],
		[
			[2042,355,2044],
			[2040,65535,65535],
			[2041,65535,65535],
			[2041,65535,65535],
			[2041,240,65535],
			[2041,65535,65535],
			[2041,784,65535],
			[2041,65535,65535],
			[2041,240,270]
		],
		[
			[2041,239,65535],
			[2040,65535,65535],
			[2041,65535,65535],
			[2041,65535,65535],
			[2041,240,65535],
			[2041,65535,65535],
			[2041,65535,65535],
			[2041,65535,65535],
			[2041,240,270]
		],
		[
			[2041,241,65535],
			[2041,629,616],
			[2041,629,618],
			[2041,236,65535],
			[2041,236,65535],
			[2041,236,65535],
			[2041,629,616],
			[2041,629,618],
			[2041,242,65535]
		]
	]
}
