{
	"id": 342,
	"type": 2,
	"width": 9,
	"height": 9,
	"flags": 8,
	"tiles": [
		[
			[0,1254,65535],
			[0,1321,65535],
			[0,1321,65535],
			[0,1321,65535],
			[0,1321,65535],
			[0,1321,65535],
			[0,1321,65535],
			[0,1321,65535],
			[0,1255,65535]
		],
		[
			[403,1257,65535],
			[1127,65535,65535],
			[1123,65535,1137],
			[1123,65535,65535],
			[1123,65535,65535],
			[1123,65535,65535],
			[1123,65535,1139],
			[1128,65535,65535],
			[403,1256,65535]
		],
		[
			[403,1257,65535],
			[1125,65535,65535],
			[1134,1138,65535],
			[1134,1144,65535],
			[1134,1146,65535],
			[1134,1145,65535],
			[1134,1140,65535],
			[1126,65535,65535],
			[403,1256,65535]
		],
		[
			[403,1257,65535],
			[1125,65535,65535],
			[1134,1145,65535],
			[1134,1145,65535],
			[1134,355,1135],
			[1134,1146,65535],
			[1134,1144,65535],
			[1126,65535,65535],
			[403,1256,65535]
		],
		[
			[403,1257,65535],
			[1125,65535,65535],
			[1134,1144,65535],
			[1134,1146,65535],
			[1134,1136,65535],
			[1134,1145,65535],
			[1134,1146,65535],
			[1126,65535,65535],
			[403,1256,65535]
		],
		[
			[403,1257,65535],
			[1125,65535,65535],
			[1134,355,1139],
			[1134,1146,65535],
			[1134,1145,65535],
			[1134,1146,65535],
			[1134,355,1137],
			[1126,65535,65535],
			[403,1256,65535]
		],
		[
			[403,1257,65535],
			[1125,65535,65535],
			[1134,1140,65535],
			[1134,1146,65535],
			[1134,1145,65535],
			[1134,1144,65535],
			[1134,1138,65535],
			[1126,65535,65535],
			[403,1256,65535]
		],
		[
			[403,1257,65535],
			[1129,65535,65535],
			[1124,65535,65535],
			[1124,65535,65535],
			[1124,65535,65535],
			[1124,65535,65535],
			[1124,65535,65535],
			[1130,65535,65535],
			[403,1256,65535]
		],
		[
			[65535,1321,65535],
			[65535,1321,65535],
			[65535,1321,65535],
			[65535,1252,65535],
			[1123,65535,1090],
			[65535,1252,65535],
			[65535,1321,65535],
			[65535,1321,65535],
			[65535,1321,65535]
		]
	]
}
