{
	"id": 352,
	"type": 1,
	"width": 18,
	"height": 18,
	"flags": 16,
	"tiles": [
		[
			[0,65535,65535],
			[0,65535,65535],
			[0,65535,65535],
			[0,65535,65535],
			[0,65535,65535],
			[0,65535,65535],
			[0,65535,65535],
			[0,65535,65535],
			[0,65535,65535],
			[0,65535,65535],
			[0,65535,65535],
			[3,65535,65535],
			[0,65535,65535],
			[0,65535,65535],
			[0,65535,65535],
			[0,65535,65535],
			[0,65535,65535],
			[0,65535,65535]
		],
		[
			[0,65535,65535],
			[0,65535,65535],
			[0,65535,65535],
			[2,65535,65535],
			[0,65535,65535],
			[0,65535,65535],
			[0,65535,65535],
			[0,65535,65535],
			[0,65535,65535],
			[0,65535,65535],
			[0,65535,65535],
			[0,65535,65535],
			[0,65535,65535],
			[0,65535,65535],
			[0,65535,65535],
			[0,65535,65535],
			[0,65535,65535],
			[0,65535,65535]
		],
		[
			[0,65535,65535],
			[0,65535,65535],
			[0,65535,124],
			[0,65535,125],
			[0,65535,126],
			[0,65535,125],
			[0,65535,125],
			[0,65535,127],
			[3,65535,65535],
			[0,65535,65535],
			[0,287,275],
			[0,288,65535],
			[0,288,65535],
			[0,288,65535],
			[0,288,166],
			[0,289,275],
			[0,65535,65535],
			[0,65535,65535]
		],
		[
			[0,65535,65535],
			[0,65535,170],
			[0,128,65535],
			[0,129,65535],
			[0,130,65535],
			[0,129,65535],
			[0,129,65535],
			[0,131,65535],
			[0,65535,65535],
			[0,65535,65535],
			[0,275,275],
			[0,65535,65535],
			[0,65535,65535],
			[0,65535,65535],
			[0,165,65535],
			[0,275,275],
			[0,65535,65535],
			[0,65535,65535]
		],
		[
			[0,65535,65535],
			[0,171,65535],
			[0,128,65535],
			[0,129,65535],
			[0,130,65535],
			[0,129,65535],
			[0,129,65535],
			[0,131,65535],
			[0,962,65535],
			[0,65535,65535],
			[0,275,275],
			[0,65535,118],
			[0,65535,119],
			[0,65535,120],
			[358,65535,65535],
			[0,275,275],
			[0,65535,65535],
			[0,65535,65535]
		],
		[
			[0,65535,65535],
			[0,65535,65535],
			[0,156,65535],
			[0,133,65535],
			[0,142,65535],
			[0,133,65535],
			[0,133,65535],
			[0,135,65535],
			[0,963,65535],
			[0,65535,65535],
			[0,275,275],
			[0,121,65535],
			[0,122,65535],
			[0,123,65535],
			[402,65535,65535],
			[401,275,275],
			[0,65535,65535],
			[0,65535,65535]
		],
		[
			[0,65535,65535],
			[0,65535,65535],
			[0,136,65535],
			[0,146,65535],
			[147,65535,65535],
			[0,148,65535],
			[0,138,113],
			[0,139,65535],
			[0,65535,65535],
			[406,65535,65535],
			[356,275,275],
			[407,136,412],
			[65535,138,114],
			[403,139,65535],
			[398,65535,65535],
			[397,275,275],
			[357,65535,65535],
			[0,65535,65535]
		],
		[
			[0,65535,65535],
			[0,65535,65535],
			[281,65535,65535],
			[282,65535,65535],
			[281,65535,65535],
			[281,65535,65535],
			[281,65535,65535],
			[0,65535,65535],
			[0,359,65535],
			[0,65535,65535],
			[402,275,275],
			[395,355,413],
			[395,65535,65535],
			[395,65535,412],
			[396,65535,65535],
			[397,275,275],
			[0,65535,65535],
			[358,65535,65535]
		],
		[
			[0,65535,65535],
			[281,65535,65535],
			[0,65535,65535],
			[281,65535,65535],
			[0,65535,65535],
			[281,65535,65535],
			[0,65535,65535],
			[281,65535,65535],
			[0,65535,65535],
			[0,65535,65535],
			[398,275,275],
			[403,390,65535],
			[403,374,412],
			[403,376,413],
			[403,65535,65535],
			[397,275,275],
			[356,65535,65535],
			[0,65535,65535]
		],
		[
			[0,65535,65535],
			[0,65535,65535],
			[282,65535,65535],
			[0,65535,124],
			[0,65535,125],
			[0,65535,125],
			[0,65535,125],
			[0,65535,127],
			[282,65535,65535],
			[357,65535,65535],
			[398,275,275],
			[403,65535,65535],
			[403,380,413],
			[403,381,65535],
			[391,65535,65535],
			[399,275,275],
			[0,65535,65535],
			[0,65535,65535]
		],
		[
			[0,65535,65535],
			[281,65535,65535],
			[0,65535,65535],
			[0,128,65535],
			[0,129,65535],
			[0,129,65535],
			[0,129,65535],
			[0,131,65535],
			[0,65535,65535],
			[282,65535,65535],
			[400,275,275],
			[393,65535,65535],
			[377,65535,65535],
			[379,65535,65535],
			[397,65535,65535],
			[404,275,275],
			[0,65535,65535],
			[0,65535,65535]
		],
		[
			[0,65535,65535],
			[0,65535,65535],
			[281,65535,65535],
			[0,156,65535],
			[0,133,65535],
			[0,133,65535],
			[0,133,65535],
			[0,135,65535],
			[282,65535,65535],
			[0,65535,65535],
			[0,287,65535],
			[400,288,65535],
			[392,288,65535],
			[392,288,65535],
			[399,288,65535],
			[0,289,65535],
			[0,65535,65535],
			[2,65535,65535]
		],
		[
			[0,65535,65535],
			[0,65535,65535],
			[0,65535,65535],
			[0,136,65535],
			[0,138,65535],
			[0,141,65535],
			[0,140,65535],
			[0,139,65535],
			[0,65535,65535],
			[0,65535,65535],
			[0,65535,65535],
			[0,354,65535],
			[357,65535,65535],
			[406,65535,65535],
			[0,65535,65535],
			[0,65535,65535],
			[0,65535,65535],
			[0,65535,65535]
		],
		[
			[0,65535,65535],
			[0,65535,65535],
			[0,359,65535],
			[0,65535,65535],
			[0,65535,65535],
			[0,128,158],
			[0,131,65535],
			[353,65535,65535],
			[0,65535,65535],
			[0,65535,65535],
			[0,65535,65535],
			[0,65535,65535],
			[0,65535,65535],
			[356,65535,65535],
			[0,65535,164],
			[0,65535,65535],
			[0,65535,65535],
			[0,65535,65535]
		],
		[
			[0,65535,65535],
			[0,65535,65535],
			[0,65535,65535],
			[0,65535,65535],
			[0,65535,65535],
			[0,156,156],
			[0,135,65535],
			[0,65535,65535],
			[0,65535,65535],
			[0,65535,65535],
			[0,65535,65535],
			[0,65535,65535],
			[0,65535,65535],
			[0,65535,65535],
			[0,165,65535],
			[0,65535,65535],
			[0,65535,65535],
			[0,65535,65535]
		],
		[
			[0,65535,65535],
			[0,65535,65535],
			[0,65535,65535],
			[3,65535,65535],
			[0,65535,65535],
			[0,136,65535],
			[0,139,65535],
			[0,65535,65535],
			[0,65535,166],
			[0,65535,65535],
			[0,65535,65535],
			[0,65535,65535],
			[0,65535,65535],
			[0,65535,65535],
			[0,65535,65535],
			[0,65535,65535],
			[0,65535,65535],
			[0,65535,65535]
		],
		[
			[0,65535,65535],
			[0,65535,65535],
			[0,65535,65535],
			[0,65535,65535],
			[0,65535,65535],
			[0,65535,65535],
			[0,65535,65535],
			[0,65535,65535],
			[0,165,65535],
			[0,65535,65535],
			[2,65535,65535],
			[0,65535,65535],
			[0,65535,65535],
			[0,65535,65535],
			[0,65535,65535],
			[0,65535,65535],
			[4,65535,65535],
			[0,65535,65535]
		],
		[
			[0,65535,65535],
			[0,65535,65535],
			[0,65535,65535],
			[0,65535,65535],
			[0,65535,65535],
			[0,65535,65535],
			[0,65535,65535],
			[0,65535,65535],
			[0,65535,65535],
			[0,65535,65535],
			[0,65535,65535],
			[0,65535,65535],
			[0,65535,65535],
			[0,65535,65535],
			[0,65535,65535],
			[0,65535,65535],
			[0,65535,65535],
			[0,65535,65535]
		]
	]
}
