{
	"id": 364,
	"type": 1,
	"width": 18,
	"height": 18,
	"flags": 8,
	"tiles": [
		[
			[197,196,65535],
			[197,65535,65535],
			[189,65535,65535],
			[197,633,65535],
			[197,198,65535],
			[197,202,65535],
			[197,65535,65535],
			[197,65535,65535],
			[197,65535,65535],
			[197,65535,65535],
			[197,635,65535],
			[188,65535,65535],
			[197,198,65535],
			[197,195,65535],
			[197,195,65535],
			[197,65535,191],
			[197,195,65535],
			[197,195,65535]
		],
		[
			[192,202,65535],
			[192,65535,65535],
			[192,65535,65535],
			[192,65535,65535],
			[192,201,65535],
			[192,202,65535],
			[192,65535,65535],
			[192,190,65535],
			[192,65535,65535],
			[192,65535,65535],
			[192,65535,65535],
			[192,65535,65535],
			[192,201,65535],
			[192,195,65535],
			[192,195,65535],
			[192,195,65535],
			[192,65535,191],
			[192,195,65535]
		],
		[
			[192,202,65535],
			[192,65535,65535],
			[192,205,65535],
			[192,218,65535],
			[192,195,65535],
			[192,202,65535],
			[192,65535,65535],
			[192,65535,65535],
			[192,65535,65535],
			[192,205,65535],
			[192,206,65535],
			[192,65535,65535],
			[192,200,65535],
			[197,636,65535],
			[197,65535,65535],
			[192,198,65535],
			[192,65535,191],
			[192,195,65535]
		],
		[
			[192,202,65535],
			[192,65535,65535],
			[204,65535,65535],
			[188,65535,65535],
			[192,198,65535],
			[192,202,65535],
			[192,65535,65535],
			[192,65535,65535],
			[192,205,65535],
			[192,195,65535],
			[192,195,65535],
			[192,218,65535],
			[192,202,65535],
			[192,190,65535],
			[192,65535,65535],
			[192,201,65535],
			[193,65535,191],
			[192,195,65535]
		],
		[
			[192,195,65535],
			[192,218,65535],
			[192,206,65535],
			[192,65535,65535],
			[197,201,65535],
			[203,202,65535],
			[192,65535,65535],
			[192,65535,65535],
			[204,65535,65535],
			[197,65535,65535],
			[197,65535,65535],
			[189,65535,65535],
			[192,199,65535],
			[192,65535,65535],
			[192,65535,65535],
			[204,65535,65535],
			[192,198,65535],
			[192,195,65535]
		],
		[
			[192,195,65535],
			[192,195,65535],
			[192,202,65535],
			[192,65535,65535],
			[204,201,65535],
			[203,195,65535],
			[192,218,65535],
			[192,218,65535],
			[192,218,65535],
			[192,218,65535],
			[192,206,65535],
			[192,65535,65535],
			[192,201,65535],
			[192,218,65535],
			[192,206,65535],
			[192,65535,65535],
			[192,201,65535],
			[192,195,65535]
		],
		[
			[192,196,65535],
			[188,65535,65535],
			[203,65535,65535],
			[192,65535,65535],
			[204,201,65535],
			[203,195,65535],
			[192,195,65535],
			[192,196,65535],
			[197,65535,65535],
			[189,65535,65535],
			[203,65535,65535],
			[192,65535,65535],
			[204,65535,65535],
			[197,65535,65535],
			[203,65535,65535],
			[192,65535,65535],
			[204,65535,65535],
			[192,198,65535]
		],
		[
			[192,202,65535],
			[192,65535,65535],
			[192,65535,65535],
			[192,65535,65535],
			[204,65535,65535],
			[197,65535,65535],
			[197,65535,65535],
			[203,65535,65535],
			[192,65535,65535],
			[192,65535,65535],
			[192,205,65535],
			[192,218,65535],
			[192,218,65535],
			[192,218,65535],
			[192,218,65535],
			[192,218,65535],
			[192,218,65535],
			[192,195,65535]
		],
		[
			[192,195,65535],
			[192,218,65535],
			[193,65535,225],
			[192,218,65535],
			[192,218,65535],
			[192,218,65535],
			[192,218,65535],
			[192,218,65535],
			[192,206,65535],
			[192,65535,65535],
			[192,201,65535],
			[192,195,65535],
			[192,196,65535],
			[188,65535,65535],
			[197,65535,65535],
			[197,65535,65535],
			[188,65535,65535],
			[192,198,65535]
		],
		[
			[192,65535,191],
			[192,195,65535],
			[192,65535,191],
			[192,196,65535],
			[197,65535,65535],
			[188,65535,65535],
			[197,65535,65535],
			[197,65535,65535],
			[203,65535,65535],
			[192,65535,65535],
			[204,65535,65535],
			[197,65535,65535],
			[203,65535,65535],
			[192,65535,65535],
			[192,65535,65535],
			[192,65535,65535],
			[192,65535,65535],
			[192,201,65535]
		],
		[
			[192,65535,191],
			[192,195,65535],
			[192,65535,191],
			[192,202,65535],
			[192,65535,65535],
			[192,65535,65535],
			[192,205,65535],
			[192,218,65535],
			[192,218,65535],
			[192,218,65535],
			[192,218,65535],
			[192,218,65535],
			[192,218,65535],
			[192,218,65535],
			[192,218,65535],
			[192,218,65535],
			[192,218,65535],
			[192,195,65535]
		],
		[
			[192,65535,191],
			[192,65535,191],
			[192,65535,191],
			[192,202,65535],
			[192,65535,65535],
			[192,65535,65535],
			[204,65535,65535],
			[188,65535,65535],
			[197,65535,65535],
			[197,198,65535],
			[197,195,65535],
			[197,196,65535],
			[188,65535,65535],
			[197,65535,65535],
			[188,65535,65535],
			[197,207,65535],
			[189,65535,65535],
			[192,198,65535]
		],
		[
			[192,195,65535],
			[192,195,65535],
			[192,195,65535],
			[192,195,65535],
			[192,218,65535],
			[192,218,65535],
			[192,218,65535],
			[192,206,65535],
			[192,65535,65535],
			[192,201,65535],
			[192,195,65535],
			[192,202,65535],
			[192,65535,65535],
			[192,210,65535],
			[192,65535,65535],
			[192,208,65535],
			[192,633,65535],
			[192,201,65535]
		],
		[
			[192,196,65535],
			[197,65535,65535],
			[188,65535,65535],
			[197,65535,65535],
			[197,198,65535],
			[197,195,65535],
			[197,196,65535],
			[203,65535,65535],
			[192,65535,65535],
			[192,200,65535],
			[197,65535,65535],
			[203,65535,65535],
			[192,65535,65535],
			[192,208,65535],
			[192,65535,65535],
			[192,208,65535],
			[192,65535,65535],
			[192,201,65535]
		],
		[
			[192,195,65535],
			[192,218,65535],
			[192,218,65535],
			[192,206,65535],
			[204,65535,65535],
			[197,65535,65535],
			[203,65535,65535],
			[192,65535,65535],
			[192,65535,65535],
			[209,65535,65535],
			[192,205,65535],
			[192,206,65535],
			[192,65535,65535],
			[192,208,65535],
			[192,65535,65535],
			[192,208,65535],
			[192,65535,65535],
			[192,201,65535]
		],
		[
			[192,195,65535],
			[192,195,65535],
			[192,195,65535],
			[192,195,65535],
			[192,218,65535],
			[192,218,65535],
			[192,218,65535],
			[192,218,65535],
			[192,218,65535],
			[192,218,65535],
			[209,195,65535],
			[203,202,65535],
			[192,65535,65535],
			[192,208,65535],
			[192,65535,65535],
			[192,208,65535],
			[192,65535,65535],
			[192,201,65535]
		],
		[
			[192,196,65535],
			[197,65535,65535],
			[197,65535,65535],
			[197,65535,65535],
			[197,65535,65535],
			[197,65535,65535],
			[197,65535,65535],
			[197,65535,65535],
			[197,65535,65535],
			[197,65535,65535],
			[197,65535,65535],
			[203,65535,65535],
			[192,65535,65535],
			[192,208,65535],
			[192,65535,65535],
			[209,65535,65535],
			[192,65535,65535],
			[192,201,65535]
		],
		[
			[192,202,65535],
			[194,65535,65535],
			[192,205,65535],
			[192,218,65535],
			[192,218,65535],
			[192,218,65535],
			[192,218,65535],
			[192,218,65535],
			[192,218,65535],
			[194,218,65535],
			[192,218,65535],
			[192,218,65535],
			[192,218,65535],
			[192,195,65535],
			[192,218,65535],
			[192,218,65535],
			[192,218,65535],
			[192,195,65535]
		]
	]
}
