{
	"id": 381,
	"type": 2,
	"width": 18,
	"height": 18,
	"flags": 17,
	"tiles": [
		[
			[648,65535,65535],
			[648,65535,65535],
			[648,65535,65535],
			[648,65535,65535],
			[648,65535,65535],
			[648,65535,65535],
			[648,65535,65535],
			[648,65535,65535],
			[648,65535,65535],
			[648,65535,65535],
			[648,65535,65535],
			[648,65535,65535],
			[648,65535,65535],
			[648,65535,65535],
			[648,65535,65535],
			[648,65535,65535],
			[648,65535,65535],
			[648,65535,65535]
		],
		[
			[648,65535,65535],
			[648,65535,65535],
			[648,739,65535],
			[648,740,65535],
			[1000,65535,65535],
			[648,65535,65535],
			[648,65535,65535],
			[648,65535,65535],
			[648,65535,65535],
			[648,65535,65535],
			[648,65535,65535],
			[648,65535,65535],
			[648,65535,65535],
			[648,65535,65535],
			[648,65535,65535],
			[648,65535,65535],
			[998,65535,65535],
			[648,65535,65535]
		],
		[
			[648,65535,65535],
			[648,739,65535],
			[648,743,65535],
			[648,724,65535],
			[648,65535,65535],
			[648,65535,65535],
			[648,65535,65535],
			[997,65535,65535],
			[648,65535,65535],
			[648,65535,65535],
			[648,65535,65535],
			[648,65535,65535],
			[648,739,65535],
			[648,750,65535],
			[648,740,65535],
			[648,65535,65535],
			[648,65535,65535],
			[648,65535,65535]
		],
		[
			[648,65535,65535],
			[648,745,65535],
			[648,742,65535],
			[648,738,65535],
			[648,65535,65535],
			[648,65535,65535],
			[648,739,65535],
			[648,750,65535],
			[753,751,65535],
			[649,65535,65535],
			[649,65535,65535],
			[753,752,65535],
			[648,743,65535],
			[648,65535,65535],
			[648,744,65535],
			[648,740,65535],
			[648,65535,65535],
			[648,65535,65535]
		],
		[
			[648,65535,65535],
			[648,737,65535],
			[648,738,65535],
			[648,65535,65535],
			[648,739,65535],
			[648,750,65535],
			[648,743,65535],
			[648,65535,65535],
			[648,65535,65535],
			[648,65535,65535],
			[648,65535,65535],
			[648,65535,65535],
			[648,65535,65535],
			[648,65535,65535],
			[648,65535,65535],
			[648,749,65535],
			[648,65535,65535],
			[648,65535,65535]
		],
		[
			[648,65535,65535],
			[648,65535,65535],
			[648,65535,65535],
			[997,65535,65535],
			[648,745,65535],
			[648,65535,65535],
			[648,65535,65535],
			[648,65535,65535],
			[648,65535,65535],
			[648,65535,65535],
			[648,65535,65535],
			[648,65535,65535],
			[648,65535,65535],
			[648,65535,65535],
			[648,65535,65535],
			[649,65535,65535],
			[648,65535,65535],
			[648,65535,65535]
		],
		[
			[1000,65535,65535],
			[648,65535,65535],
			[648,739,65535],
			[648,750,65535],
			[648,743,65535],
			[648,65535,65535],
			[648,65535,65535],
			[648,658,65535],
			[648,671,65535],
			[649,65535,65535],
			[648,672,65535],
			[648,659,65535],
			[648,65535,65535],
			[648,65535,65535],
			[648,65535,65535],
			[648,748,65535],
			[648,65535,65535],
			[648,65535,65535]
		],
		[
			[648,65535,65535],
			[648,739,65535],
			[648,743,65535],
			[648,65535,65535],
			[648,65535,65535],
			[648,658,65535],
			[648,670,65535],
			[648,662,65535],
			[648,65535,65535],
			[648,65535,65535],
			[648,65535,65535],
			[648,667,65535],
			[648,65535,65535],
			[648,65535,65535],
			[648,65535,65535],
			[648,724,65535],
			[648,65535,65535],
			[648,65535,65535]
		],
		[
			[648,65535,65535],
			[648,747,65535],
			[648,65535,65535],
			[648,65535,65535],
			[648,65535,65535],
			[648,666,65535],
			[648,65535,65535],
			[648,65535,65535],
			[648,355,1894],
			[648,355,1895],
			[648,65535,65535],
			[648,663,65535],
			[648,659,65535],
			[648,65535,65535],
			[648,742,65535],
			[648,738,65535],
			[648,65535,65535],
			[648,65535,65535]
		],
		[
			[648,65535,65535],
			[649,65535,65535],
			[648,65535,65535],
			[648,65535,65535],
			[648,65535,65535],
			[649,65535,65535],
			[648,65535,65535],
			[648,65535,65535],
			[648,1896,65535],
			[1897,65535,65535],
			[648,65535,65535],
			[648,65535,65535],
			[648,669,65535],
			[648,65535,65535],
			[648,724,65535],
			[997,65535,65535],
			[648,65535,65535],
			[648,65535,65535]
		],
		[
			[648,65535,65535],
			[649,65535,65535],
			[648,65535,65535],
			[648,65535,65535],
			[648,65535,65535],
			[648,665,65535],
			[648,65535,65535],
			[648,65535,65535],
			[648,65535,65535],
			[648,65535,65535],
			[648,65535,65535],
			[648,65535,65535],
			[649,65535,65535],
			[648,65535,65535],
			[648,749,65535],
			[648,65535,65535],
			[648,65535,65535],
			[648,65535,65535]
		],
		[
			[648,65535,65535],
			[648,746,65535],
			[648,65535,65535],
			[648,65535,65535],
			[648,65535,65535],
			[648,656,65535],
			[648,655,65535],
			[649,65535,65535],
			[648,654,65535],
			[648,660,65535],
			[648,65535,65535],
			[648,65535,65535],
			[648,668,65535],
			[648,65535,65535],
			[649,65535,65535],
			[648,65535,65535],
			[648,65535,65535],
			[648,65535,65535]
		],
		[
			[648,65535,65535],
			[648,745,65535],
			[648,65535,65535],
			[648,65535,65535],
			[648,65535,65535],
			[648,65535,65535],
			[648,65535,65535],
			[648,65535,65535],
			[648,65535,65535],
			[653,656,65535],
			[653,65535,65535],
			[648,650,65535],
			[648,657,65535],
			[648,65535,65535],
			[648,748,65535],
			[648,65535,65535],
			[648,65535,65535],
			[648,65535,65535]
		],
		[
			[648,65535,65535],
			[648,737,65535],
			[648,741,65535],
			[648,65535,65535],
			[648,742,65535],
			[648,731,65535],
			[648,741,65535],
			[648,65535,65535],
			[648,65535,65535],
			[648,65535,65535],
			[648,65535,65535],
			[648,65535,65535],
			[648,65535,65535],
			[648,742,65535],
			[648,738,65535],
			[648,65535,65535],
			[648,65535,65535],
			[648,65535,65535]
		],
		[
			[648,65535,65535],
			[648,65535,65535],
			[648,747,65535],
			[648,65535,65535],
			[648,724,65535],
			[648,65535,65535],
			[648,737,65535],
			[648,741,65535],
			[648,65535,65535],
			[648,65535,65535],
			[648,65535,65535],
			[648,742,65535],
			[648,731,65535],
			[648,738,65535],
			[648,65535,65535],
			[648,65535,65535],
			[1000,65535,65535],
			[648,65535,65535]
		],
		[
			[648,65535,65535],
			[648,65535,65535],
			[649,65535,65535],
			[648,65535,65535],
			[648,724,65535],
			[648,65535,65535],
			[648,65535,65535],
			[648,737,65535],
			[734,736,65535],
			[649,65535,65535],
			[734,735,65535],
			[648,738,65535],
			[648,65535,65535],
			[648,65535,65535],
			[648,739,65535],
			[648,740,65535],
			[648,65535,65535],
			[648,65535,65535]
		],
		[
			[648,65535,65535],
			[648,65535,65535],
			[649,65535,65535],
			[734,735,65535],
			[648,738,65535],
			[648,65535,65535],
			[648,65535,65535],
			[648,65535,65535],
			[1000,65535,65535],
			[648,65535,65535],
			[648,65535,65535],
			[648,65535,65535],
			[998,65535,65535],
			[648,65535,65535],
			[648,737,65535],
			[648,738,65535],
			[648,65535,65535],
			[648,65535,65535]
		],
		[
			[648,65535,65535],
			[648,65535,65535],
			[648,65535,65535],
			[648,65535,65535],
			[648,65535,65535],
			[1000,65535,65535],
			[648,65535,65535],
			[648,65535,65535],
			[648,65535,65535],
			[648,65535,65535],
			[648,65535,65535],
			[648,65535,65535],
			[648,65535,65535],
			[648,65535,65535],
			[648,65535,65535],
			[648,65535,65535],
			[648,65535,65535],
			[648,65535,65535]
		]
	]
}
