{
	"id": 384,
	"type": 2,
	"width": 18,
	"height": 18,
	"flags": 6,
	"tiles": [
		[
			[648,65535,65535],
			[1013,65535,65535],
			[1009,65535,65535],
			[1014,65535,65535],
			[1013,65535,65535],
			[1009,65535,65535],
			[1014,65535,65535],
			[1000,65535,65535],
			[648,65535,65535],
			[648,65535,65535],
			[648,65535,65535],
			[648,65535,65535],
			[648,65535,65535],
			[648,65535,65535],
			[648,65535,65535],
			[648,65535,65535],
			[648,65535,65535],
			[648,65535,65535]
		],
		[
			[648,65535,65535],
			[1010,65535,65535],
			[1161,65535,65535],
			[1018,1155,65535],
			[1017,65535,65535],
			[1160,65535,65535],
			[1011,65535,65535],
			[648,65535,65535],
			[1319,65535,65535],
			[648,65535,65535],
			[648,65535,65535],
			[997,65535,65535],
			[1000,658,65535],
			[648,659,65535],
			[648,65535,65535],
			[1317,65535,65535],
			[648,65535,65535],
			[997,65535,65535]
		],
		[
			[648,65535,65535],
			[1010,65535,65535],
			[1008,1157,65535],
			[1008,1150,65535],
			[1162,1158,65535],
			[1020,65535,65535],
			[1016,65535,65535],
			[648,658,65535],
			[648,670,65535],
			[648,670,65535],
			[648,670,65535],
			[648,670,65535],
			[648,662,65535],
			[648,667,65535],
			[1318,65535,65535],
			[648,65535,65535],
			[648,65535,65535],
			[648,65535,65535]
		],
		[
			[648,65535,65535],
			[1015,65535,65535],
			[1019,65535,65535],
			[1008,1156,65535],
			[1020,65535,65535],
			[1016,65535,65535],
			[648,658,65535],
			[648,662,65535],
			[648,658,65535],
			[648,670,65535],
			[648,670,65535],
			[648,670,65535],
			[648,659,65535],
			[648,663,65535],
			[648,670,65535],
			[648,659,65535],
			[648,65535,65535],
			[648,65535,65535]
		],
		[
			[997,65535,65535],
			[648,65535,65535],
			[1010,65535,65535],
			[1020,65535,65535],
			[1016,65535,65535],
			[1318,65535,65535],
			[648,664,65535],
			[648,658,65535],
			[648,662,65535],
			[648,658,65535],
			[648,670,65535],
			[648,659,65535],
			[648,663,65535],
			[648,659,65535],
			[648,65535,65535],
			[648,663,65535],
			[648,659,65535],
			[648,65535,65535]
		],
		[
			[648,65535,65535],
			[648,65535,65535],
			[1015,65535,65535],
			[1016,65535,65535],
			[648,658,65535],
			[648,659,65535],
			[648,664,65535],
			[648,664,65535],
			[648,658,65535],
			[648,662,65535],
			[1317,65535,65535],
			[648,663,65535],
			[648,659,65535],
			[648,667,65535],
			[1319,65535,65535],
			[648,65535,65535],
			[648,669,65535],
			[648,65535,65535]
		],
		[
			[1013,65535,65535],
			[1009,65535,65535],
			[1014,65535,65535],
			[648,65535,65535],
			[648,656,65535],
			[648,657,65535],
			[648,664,65535],
			[648,664,65535],
			[648,664,65535],
			[648,65535,65535],
			[1337,1338,65535],
			[648,65535,65535],
			[648,667,65535],
			[648,667,65535],
			[648,65535,65535],
			[648,65535,65535],
			[674,65535,65535],
			[1317,65535,65535]
		],
		[
			[1015,65535,65535],
			[1019,65535,65535],
			[1018,65535,65535],
			[1014,65535,65535],
			[648,65535,65535],
			[648,658,65535],
			[648,662,65535],
			[648,664,65535],
			[648,656,65535],
			[648,660,65535],
			[648,187,65535],
			[648,661,65535],
			[648,657,65535],
			[648,667,65535],
			[648,65535,65535],
			[1317,65535,65535],
			[648,668,65535],
			[648,65535,65535]
		],
		[
			[648,65535,65535],
			[1015,65535,65535],
			[1012,65535,65535],
			[1016,65535,65535],
			[1319,65535,65535],
			[648,656,65535],
			[648,660,65535],
			[648,656,65535],
			[648,660,65535],
			[648,656,65535],
			[653,650,65535],
			[648,657,65535],
			[648,661,65535],
			[648,657,65535],
			[648,65535,65535],
			[648,661,65535],
			[648,657,65535],
			[648,65535,65535]
		],
		[
			[648,65535,65535],
			[648,658,65535],
			[1012,670,65535],
			[648,670,65535],
			[648,671,65535],
			[674,65535,65535],
			[648,656,65535],
			[648,660,65535],
			[648,656,65535],
			[648,650,65535],
			[653,650,65535],
			[648,650,65535],
			[648,657,65535],
			[648,661,65535],
			[648,650,65535],
			[648,657,65535],
			[1013,65535,65535],
			[1014,65535,65535]
		],
		[
			[648,65535,65535],
			[648,656,65535],
			[648,660,65535],
			[648,661,65535],
			[648,660,65535],
			[648,65535,65535],
			[648,65535,65535],
			[648,656,65535],
			[648,650,65535],
			[648,650,65535],
			[653,651,65535],
			[648,650,65535],
			[648,650,65535],
			[648,657,65535],
			[648,668,65535],
			[1013,65535,65535],
			[1017,65535,65535],
			[1011,65535,65535]
		],
		[
			[648,65535,65535],
			[1319,65535,65535],
			[648,664,65535],
			[648,667,65535],
			[648,664,65535],
			[648,65535,65535],
			[648,65535,65535],
			[648,65535,65535],
			[648,65535,65535],
			[648,65535,65535],
			[648,65535,65535],
			[1319,65535,65535],
			[648,661,65535],
			[648,650,65535],
			[648,657,65535],
			[1010,65535,65535],
			[1020,65535,65535],
			[1016,65535,65535]
		],
		[
			[648,65535,65535],
			[648,658,65535],
			[648,662,65535],
			[648,663,65535],
			[648,662,65535],
			[648,661,65535],
			[648,650,65535],
			[997,650,65535],
			[648,660,65535],
			[648,65535,65535],
			[648,65535,65535],
			[648,661,65535],
			[648,657,65535],
			[1013,65535,65535],
			[1009,65535,65535],
			[1017,1157,65535],
			[1011,65535,65535],
			[648,65535,65535]
		],
		[
			[648,65535,65535],
			[648,664,65535],
			[648,65535,65535],
			[648,65535,65535],
			[648,661,65535],
			[648,657,65535],
			[1013,65535,65535],
			[1014,65535,65535],
			[648,656,65535],
			[648,650,65535],
			[648,650,65535],
			[648,657,65535],
			[1013,65535,65535],
			[1017,1157,65535],
			[1008,1148,65535],
			[1008,1608,65535],
			[1011,1158,65535],
			[648,65535,65535]
		],
		[
			[648,65535,65535],
			[648,664,65535],
			[648,661,65535],
			[648,650,65535],
			[648,657,65535],
			[1013,65535,65535],
			[1017,65535,65535],
			[1018,65535,65535],
			[1009,65535,65535],
			[1009,65535,65535],
			[1009,65535,65535],
			[1009,65535,65535],
			[1017,65535,65535],
			[1008,1148,65535],
			[1008,1147,65535],
			[1008,1614,65535],
			[1018,1153,65535],
			[1014,65535,65535]
		],
		[
			[1318,65535,65535],
			[648,656,65535],
			[648,657,65535],
			[1013,65535,65535],
			[1009,65535,65535],
			[1017,65535,65535],
			[1008,65535,65535],
			[1161,65535,65535],
			[1162,65535,65535],
			[1008,65535,65535],
			[1008,65535,65535],
			[1161,65535,65535],
			[1008,1149,65535],
			[1008,1612,65535],
			[1008,1614,65535],
			[1008,1151,65535],
			[1020,65535,65535],
			[1016,65535,65535]
		],
		[
			[648,65535,65535],
			[997,65535,65535],
			[1013,65535,65535],
			[1017,65535,65535],
			[1008,65535,65535],
			[1020,65535,65535],
			[1012,65535,65535],
			[1012,65535,65535],
			[1012,65535,65535],
			[1012,65535,65535],
			[1019,65535,65535],
			[1008,65535,65535],
			[1161,65535,65535],
			[1020,1151,65535],
			[1019,1156,65535],
			[1162,65535,65535],
			[1011,65535,65535],
			[1000,65535,65535]
		],
		[
			[648,65535,65535],
			[648,65535,65535],
			[1015,65535,65535],
			[1012,65535,65535],
			[1012,65535,65535],
			[1016,65535,65535],
			[648,65535,65535],
			[648,65535,65535],
			[997,65535,65535],
			[1000,65535,65535],
			[1015,65535,65535],
			[1012,65535,65535],
			[1012,65535,65535],
			[1016,65535,65535],
			[1015,65535,65535],
			[1012,65535,65535],
			[1016,65535,65535],
			[648,65535,65535]
		]
	]
}
