{
	"id": 398,
	"type": 3,
	"width": 9,
	"height": 9,
	"flags": 8,
	"tiles": [
		[
			[0,1526,65535],
			[1524,1520,275],
			[1524,1520,616],
			[1524,1520,617],
			[1524,1520,617],
			[1524,1520,617],
			[1524,1520,619],
			[1524,1520,65535],
			[0,1528,65535]
		],
		[
			[1524,1522,613],
			[1524,294,275],
			[1524,65535,65535],
			[1524,65535,65535],
			[1524,65535,65535],
			[1524,65535,65535],
			[1524,65535,65535],
			[1524,420,65535],
			[1524,1523,614]
		],
		[
			[1524,1522,65535],
			[1524,287,65535],
			[1524,554,65535],
			[1524,581,65535],
			[1524,554,65535],
			[1524,65535,65535],
			[1524,65535,65535],
			[1524,257,274],
			[1524,1523,614]
		],
		[
			[1524,1522,65535],
			[1524,65535,65535],
			[602,65535,65535],
			[602,65535,65535],
			[602,1607,65535],
			[1524,65535,65535],
			[1524,65535,65535],
			[1524,65535,65535],
			[1524,1523,65535]
		],
		[
			[1524,1522,65535],
			[1524,65535,65535],
			[1524,65535,65535],
			[1524,65535,65535],
			[1524,65535,65535],
			[1524,65535,65535],
			[1524,65535,65535],
			[1524,65535,65535],
			[1524,1523,65535]
		],
		[
			[1524,1522,65535],
			[1524,65535,65535],
			[1524,65535,65535],
			[1524,65535,65535],
			[1524,65535,65535],
			[1524,65535,65535],
			[1524,65535,65535],
			[1524,65535,65535],
			[1524,1523,65535]
		],
		[
			[1524,1522,613],
			[1524,65535,65535],
			[1524,65535,65535],
			[1524,65535,65535],
			[1524,65535,65535],
			[1524,65535,65535],
			[1524,65535,65535],
			[1524,65535,65535],
			[1524,1523,614]
		],
		[
			[1524,1531,65535],
			[1524,65535,65535],
			[1524,65535,65535],
			[1524,65535,65535],
			[1524,65535,65535],
			[1524,65535,65535],
			[1524,266,65535],
			[1524,266,65535],
			[1524,1533,65535]
		],
		[
			[1524,1530,65535],
			[1524,1520,65535],
			[1524,1520,65535],
			[1524,1520,65535],
			[1525,355,1914],
			[1524,1520,65535],
			[1524,1520,65535],
			[1524,1520,65535],
			[1524,1532,65535]
		]
	]
}
