{
	"id": 399,
	"type": 3,
	"width": 9,
	"height": 9,
	"flags": 8,
	"tiles": [
		[
			[0,1526,65535],
			[0,1520,65535],
			[1524,1520,65535],
			[1524,1520,65535],
			[1524,1520,65535],
			[1524,1520,65535],
			[1524,1520,65535],
			[1524,1520,65535],
			[0,1528,65535]
		],
		[
			[1524,1527,65535],
			[1524,258,65535],
			[1524,258,65535],
			[1524,65535,65535],
			[1524,65535,65535],
			[1524,65535,65535],
			[1524,420,65535],
			[1524,420,65535],
			[1524,1529,65535]
		],
		[
			[1524,1522,65535],
			[1524,65535,65535],
			[1524,65535,65535],
			[1524,65535,65535],
			[1524,65535,65535],
			[1524,65535,65535],
			[1524,1171,262],
			[1524,65535,65535],
			[1524,1523,65535]
		],
		[
			[1524,1522,65535],
			[1524,65535,65535],
			[1524,65535,65535],
			[1524,1213,65535],
			[1524,65535,65535],
			[1524,65535,65535],
			[1524,65535,65535],
			[1524,65535,65535],
			[1524,1523,65535]
		],
		[
			[1524,1522,65535],
			[1524,65535,65535],
			[1524,65535,65535],
			[1524,65535,65535],
			[1524,65535,65535],
			[1524,65535,65535],
			[1524,65535,65535],
			[1524,65535,65535],
			[1524,1523,65535]
		],
		[
			[1524,1522,65535],
			[1524,65535,65535],
			[1524,65535,65535],
			[1524,65535,65535],
			[1524,258,65535],
			[1524,65535,65535],
			[1524,65535,65535],
			[1524,65535,65535],
			[1524,1523,65535]
		],
		[
			[1524,1522,65535],
			[1524,65535,65535],
			[1524,65535,65535],
			[1524,1520,65535],
			[1524,1520,65535],
			[1524,1520,65535],
			[1524,65535,65535],
			[1524,65535,65535],
			[1524,1523,65535]
		],
		[
			[1524,1531,65535],
			[1524,265,65535],
			[1524,65535,65535],
			[1524,65535,65535],
			[1524,65535,65535],
			[1524,65535,65535],
			[1524,65535,65535],
			[1524,186,65535],
			[1524,1533,65535]
		],
		[
			[1524,1530,65535],
			[1524,1520,65535],
			[1524,1520,65535],
			[1524,1520,65535],
			[1525,355,1914],
			[1524,1520,65535],
			[1524,1520,65535],
			[1524,1520,65535],
			[1524,1532,65535]
		]
	]
}
