{
	"id": 400,
	"type": 3,
	"width": 18,
	"height": 18,
	"flags": 15,
	"tiles": [
		[
			[1578,65535,65535],
			[403,65535,65535],
			[859,65535,871],
			[860,65535,872],
			[860,65535,872],
			[861,65535,873],
			[403,65535,65535],
			[403,65535,65535],
			[403,65535,1139],
			[403,65535,65535],
			[403,65535,65535],
			[403,65535,1137],
			[403,65535,65535],
			[403,65535,933],
			[403,65535,65535],
			[403,65535,65535],
			[403,65535,65535],
			[403,65535,65535]
		],
		[
			[403,65535,65535],
			[859,65535,871],
			[867,65535,877],
			[858,892,888],
			[858,894,886],
			[403,893,885],
			[403,65535,65535],
			[403,65535,65535],
			[403,1140,65535],
			[403,65535,65535],
			[403,65535,933],
			[403,1138,65535],
			[1579,65535,65535],
			[403,898,65535],
			[403,65535,65535],
			[403,65535,1137],
			[403,65535,65535],
			[403,65535,65535]
		],
		[
			[403,65535,65535],
			[1125,65535,874],
			[858,892,888],
			[858,892,885],
			[403,894,65535],
			[861,893,65535],
			[403,65535,65535],
			[403,65535,65535],
			[403,65535,65535],
			[403,65535,65535],
			[403,898,65535],
			[403,374,65535],
			[403,375,65535],
			[403,375,65535],
			[403,376,65535],
			[403,1138,65535],
			[1578,65535,65535],
			[403,65535,65535]
		],
		[
			[403,65535,65535],
			[862,891,883],
			[0,892,885],
			[897,893,65535],
			[882,65535,65535],
			[881,65535,65535],
			[1577,65535,65535],
			[386,390,65535],
			[387,374,65535],
			[386,375,65535],
			[387,375,65535],
			[386,382,65535],
			[387,65535,1625],
			[386,65535,1626],
			[387,383,65535],
			[403,376,65535],
			[403,65535,65535],
			[403,65535,65535]
		],
		[
			[403,65535,65535],
			[879,891,65535],
			[897,893,65535],
			[881,65535,65535],
			[386,374,65535],
			[387,375,65535],
			[386,375,65535],
			[387,375,65535],
			[386,382,65535],
			[387,65535,1625],
			[386,65535,1626],
			[387,65535,1625],
			[386,65535,1626],
			[387,65535,1625],
			[386,355,1626],
			[403,381,65535],
			[403,65535,65535],
			[403,65535,65535]
		],
		[
			[403,65535,65535],
			[879,65535,65535],
			[881,65535,65535],
			[386,374,65535],
			[387,382,65535],
			[386,65535,1626],
			[387,65535,1625],
			[386,65535,1626],
			[387,65535,1625],
			[386,1619,65535],
			[387,1620,65535],
			[386,1621,65535],
			[387,65535,1625],
			[386,65535,1626],
			[387,385,65535],
			[379,65535,65535],
			[403,65535,65535],
			[403,65535,65535]
		],
		[
			[403,65535,65535],
			[403,65535,65535],
			[403,374,65535],
			[387,382,65535],
			[386,65535,1626],
			[387,65535,1625],
			[386,65535,1626],
			[387,65535,1625],
			[386,65535,1626],
			[387,1622,65535],
			[386,355,1623],
			[387,1624,65535],
			[386,65535,1626],
			[387,355,1625],
			[386,381,944],
			[403,65535,945],
			[403,65535,946],
			[403,65535,65535]
		],
		[
			[403,65535,65535],
			[403,65535,933],
			[403,380,65535],
			[386,65535,1626],
			[387,65535,1625],
			[386,355,1626],
			[387,355,1625],
			[386,355,1626],
			[387,355,1625],
			[386,355,1626],
			[387,355,1625],
			[386,355,1626],
			[387,355,1625],
			[386,385,65535],
			[379,65535,941],
			[403,65535,900],
			[403,65535,943],
			[1578,65535,65535]
		],
		[
			[403,65535,65535],
			[403,898,65535],
			[403,380,65535],
			[387,65535,1625],
			[386,65535,1626],
			[387,355,1625],
			[386,65535,1626],
			[387,355,1625],
			[386,355,1626],
			[387,355,1625],
			[386,355,1626],
			[387,65535,1625],
			[386,385,65535],
			[379,65535,65535],
			[1579,65535,65535],
			[403,901,65535],
			[403,65535,65535],
			[403,65535,65535]
		],
		[
			[403,65535,65535],
			[403,65535,65535],
			[403,380,65535],
			[386,355,65535],
			[387,65535,1625],
			[386,65535,1626],
			[387,355,1625],
			[386,385,65535],
			[378,65535,65535],
			[378,384,65535],
			[387,355,1625],
			[386,65535,1626],
			[387,381,65535],
			[403,388,65535],
			[859,65535,871],
			[860,65535,872],
			[861,65535,873],
			[403,65535,65535]
		],
		[
			[1577,65535,65535],
			[403,65535,65535],
			[377,65535,65535],
			[387,384,65535],
			[386,65535,1626],
			[387,65535,1625],
			[386,385,65535],
			[379,65535,65535],
			[386,374,65535],
			[387,382,65535],
			[386,65535,1626],
			[387,65535,1625],
			[386,383,65535],
			[387,376,65535],
			[403,65535,874],
			[858,65535,888],
			[403,65535,885],
			[403,65535,65535]
		],
		[
			[403,65535,65535],
			[403,65535,65535],
			[403,65535,1137],
			[386,380,65535],
			[387,355,1625],
			[386,65535,1626],
			[387,383,65535],
			[386,376,65535],
			[377,65535,65535],
			[386,384,65535],
			[387,355,1625],
			[386,65535,1626],
			[387,355,1625],
			[386,381,65535],
			[403,65535,883],
			[0,892,885],
			[861,893,65535],
			[403,65535,65535]
		],
		[
			[403,65535,65535],
			[403,65535,65535],
			[403,1138,65535],
			[377,65535,65535],
			[386,384,65535],
			[387,355,1625],
			[386,355,1139],
			[387,383,65535],
			[378,376,65535],
			[377,65535,65535],
			[386,384,65535],
			[387,65535,1625],
			[386,385,65535],
			[379,65535,871],
			[879,65535,872],
			[880,893,873],
			[881,65535,65535],
			[403,65535,65535]
		],
		[
			[403,65535,65535],
			[403,374,65535],
			[403,375,65535],
			[403,376,65535],
			[377,65535,65535],
			[378,65535,65535],
			[378,1140,65535],
			[378,65535,65535],
			[379,65535,65535],
			[386,374,65535],
			[387,382,65535],
			[386,355,65535],
			[387,381,65535],
			[403,65535,874],
			[858,891,888],
			[881,65535,885],
			[1577,65535,65535],
			[403,65535,65535]
		],
		[
			[403,65535,65535],
			[377,65535,65535],
			[377,384,65535],
			[403,383,65535],
			[403,375,65535],
			[403,376,65535],
			[403,65535,65535],
			[859,65535,871],
			[861,65535,873],
			[377,65535,65535],
			[378,65535,65535],
			[378,65535,65535],
			[379,65535,65535],
			[403,898,883],
			[858,892,885],
			[861,893,65535],
			[403,65535,65535],
			[403,65535,65535]
		],
		[
			[403,65535,65535],
			[1579,65535,65535],
			[377,65535,65535],
			[378,65535,65535],
			[378,65535,65535],
			[379,65535,65535],
			[403,65535,933],
			[862,891,883],
			[866,893,885],
			[403,65535,65535],
			[403,1580,65535],
			[403,65535,65535],
			[403,65535,65535],
			[403,891,65535],
			[897,893,65535],
			[881,65535,65535],
			[403,65535,65535],
			[403,65535,65535]
		],
		[
			[403,65535,65535],
			[403,65535,65535],
			[403,65535,65535],
			[403,65535,65535],
			[403,65535,65535],
			[403,65535,65535],
			[403,898,65535],
			[879,65535,65535],
			[881,65535,65535],
			[403,65535,65535],
			[403,65535,65535],
			[1579,65535,65535],
			[403,65535,65535],
			[879,65535,65535],
			[881,65535,65535],
			[1578,65535,65535],
			[403,65535,65535],
			[403,65535,65535]
		],
		[
			[403,65535,65535],
			[403,65535,65535],
			[403,65535,65535],
			[403,65535,65535],
			[1577,65535,65535],
			[403,65535,65535],
			[403,65535,65535],
			[403,65535,65535],
			[403,65535,65535],
			[403,65535,65535],
			[403,65535,65535],
			[403,65535,65535],
			[403,65535,65535],
			[403,65535,65535],
			[403,65535,65535],
			[403,65535,65535],
			[403,65535,65535],
			[403,65535,65535]
		]
	]
}
