{
	"id": 403,
	"type": 2,
	"width": 9,
	"height": 9,
	"flags": 8,
	"tiles": [
		[
			[598,538,65535],
			[598,631,65535],
			[598,631,65535],
			[598,631,65535],
			[598,631,65535],
			[598,631,65535],
			[598,631,65535],
			[598,631,65535],
			[598,539,65535]
		],
		[
			[598,545,65535],
			[598,186,65535],
			[598,186,65535],
			[598,65535,65535],
			[598,65535,65535],
			[598,65535,65535],
			[599,1333,1173],
			[599,1333,65535],
			[599,544,1334]
		],
		[
			[599,545,1332],
			[599,1333,1172],
			[598,65535,65535],
			[598,65535,65535],
			[598,65535,65535],
			[598,65535,65535],
			[598,186,65535],
			[598,186,65535],
			[598,544,65535]
		],
		[
			[598,545,65535],
			[598,186,65535],
			[598,65535,65535],
			[598,65535,65535],
			[598,65535,65535],
			[598,65535,65535],
			[598,186,65535],
			[598,186,65535],
			[598,544,65535]
		],
		[
			[598,545,65535],
			[598,186,65535],
			[598,65535,65535],
			[598,65535,65535],
			[598,65535,65535],
			[598,65535,65535],
			[598,65535,65535],
			[598,186,65535],
			[598,544,65535]
		],
		[
			[598,540,1328],
			[598,629,65535],
			[598,65535,65535],
			[598,65535,65535],
			[598,65535,65535],
			[598,65535,65535],
			[598,65535,65535],
			[598,65535,65535],
			[598,544,65535]
		],
		[
			[598,545,1327],
			[598,186,65535],
			[598,65535,65535],
			[598,65535,65535],
			[598,65535,65535],
			[598,65535,65535],
			[598,65535,65535],
			[598,186,65535],
			[598,544,65535]
		],
		[
			[598,545,1327],
			[598,186,65535],
			[598,186,65535],
			[598,65535,65535],
			[598,65535,65535],
			[598,65535,65535],
			[598,65535,65535],
			[598,65535,65535],
			[598,544,65535]
		],
		[
			[598,802,1086],
			[598,802,1086],
			[598,802,1086],
			[598,802,1086],
			[599,65535,1086],
			[598,802,1086],
			[598,802,1086],
			[598,802,1086],
			[598,802,1086]
		]
	]
}
