{
	"id": 411,
	"type": 3,
	"width": 18,
	"height": 18,
	"flags": 8,
	"tiles": [
		[
			[0,1435,65535],
			[0,1436,65535],
			[0,1436,65535],
			[0,1436,65535],
			[0,1436,65535],
			[0,1436,65535],
			[0,1436,65535],
			[607,1436,65535],
			[607,1436,65535],
			[607,1436,65535],
			[607,1436,65535],
			[607,1436,65535],
			[607,1436,65535],
			[607,1437,65535],
			[607,629,1445],
			[607,629,1445],
			[607,629,1445],
			[607,541,1445]
		],
		[
			[604,1438,65535],
			[604,344,1439],
			[604,65535,1439],
			[604,65535,1439],
			[604,65535,1439],
			[604,65535,1439],
			[604,344,1439],
			[604,344,1439],
			[604,65535,1439],
			[604,65535,1439],
			[604,65535,1439],
			[604,344,1439],
			[606,344,1439],
			[604,1440,65535],
			[596,570,65535],
			[596,570,65535],
			[596,554,65535],
			[597,543,65535]
		],
		[
			[604,1438,65535],
			[604,344,1439],
			[604,65535,1439],
			[604,65535,1439],
			[604,65535,1439],
			[604,1440,65535],
			[607,580,65535],
			[607,580,65535],
			[604,1438,65535],
			[604,65535,1439],
			[604,65535,1439],
			[604,344,1439],
			[604,344,1439],
			[604,1440,65535],
			[596,65535,65535],
			[596,65535,65535],
			[596,1841,65535],
			[596,544,65535]
		],
		[
			[605,540,1445],
			[605,65535,1447],
			[605,65535,1448],
			[605,65535,1448],
			[605,65535,1448],
			[605,544,1449],
			[596,65535,65535],
			[596,65535,65535],
			[604,1438,65535],
			[604,65535,1439],
			[604,65535,1439],
			[604,65535,1439],
			[604,65535,1439],
			[604,1440,65535],
			[596,65535,65535],
			[596,65535,65535],
			[596,65535,65535],
			[596,544,65535]
		],
		[
			[604,545,1445],
			[604,545,65535],
			[604,65535,65535],
			[604,65535,65535],
			[604,65535,65535],
			[604,544,65535],
			[596,65535,65535],
			[596,1841,65535],
			[604,1438,65535],
			[604,65535,1439],
			[604,65535,1439],
			[604,65535,1439],
			[604,65535,1439],
			[604,1440,65535],
			[596,65535,65535],
			[596,65535,65535],
			[596,65535,65535],
			[596,544,65535]
		],
		[
			[607,569,1445],
			[607,542,65535],
			[607,567,178],
			[605,65535,587],
			[607,569,65535],
			[607,1336,65535],
			[596,65535,65535],
			[596,65535,65535],
			[607,1335,65535],
			[607,569,65535],
			[607,569,65535],
			[607,573,65535],
			[607,567,178],
			[607,1335,65535],
			[596,1336,65535],
			[597,65535,585],
			[607,1335,65535],
			[607,543,65535]
		],
		[
			[607,65535,1445],
			[596,545,65535],
			[596,179,65535],
			[596,65535,65535],
			[596,65535,65535],
			[596,801,65535],
			[596,65535,1450],
			[596,65535,1450],
			[596,65535,1450],
			[596,65535,1450],
			[596,65535,1450],
			[596,65535,65535],
			[596,179,65535],
			[596,65535,65535],
			[596,65535,65535],
			[596,801,65535],
			[604,65535,65535],
			[604,544,65535]
		],
		[
			[596,540,65535],
			[596,1434,1450],
			[596,65535,1450],
			[596,65535,65535],
			[596,65535,65535],
			[596,65535,65535],
			[596,355,1444],
			[596,2038,1445],
			[596,355,1445],
			[596,2038,1445],
			[596,355,1446],
			[596,65535,65535],
			[596,65535,65535],
			[596,1169,65535],
			[596,65535,65535],
			[596,65535,65535],
			[604,1837,65535],
			[604,590,65535]
		],
		[
			[596,545,1330],
			[596,2038,1444],
			[596,554,1446],
			[596,618,267],
			[596,65535,65535],
			[596,65535,65535],
			[596,355,1444],
			[596,2038,65535],
			[596,355,1445],
			[596,2038,65535],
			[596,355,1446],
			[596,65535,65535],
			[596,65535,65535],
			[596,65535,65535],
			[596,65535,65535],
			[596,65535,65535],
			[604,65535,65535],
			[604,544,65535]
		],
		[
			[597,545,65535],
			[1398,570,1450],
			[604,554,1450],
			[604,268,65535],
			[1396,65535,65535],
			[1396,65535,65535],
			[594,570,65535],
			[594,554,65535],
			[594,580,65535],
			[594,554,65535],
			[594,570,65535],
			[1396,65535,65535],
			[1396,65535,65535],
			[1396,65535,65535],
			[1396,65535,65535],
			[1396,65535,65535],
			[604,65535,65535],
			[604,544,65535]
		],
		[
			[597,545,1330],
			[596,554,1444],
			[596,554,1446],
			[596,618,267],
			[596,65535,65535],
			[596,65535,65535],
			[604,65535,65535],
			[604,65535,65535],
			[604,65535,65535],
			[604,65535,65535],
			[604,65535,65535],
			[596,801,65535],
			[596,65535,65535],
			[596,65535,65535],
			[596,65535,65535],
			[607,542,65535],
			[607,570,65535],
			[607,543,65535]
		],
		[
			[597,545,65535],
			[596,554,65535],
			[596,570,65535],
			[604,268,65535],
			[596,65535,65535],
			[596,65535,65535],
			[596,1169,65535],
			[596,65535,65535],
			[596,65535,65535],
			[596,65535,65535],
			[596,65535,65535],
			[596,65535,65535],
			[596,65535,65535],
			[596,65535,65535],
			[596,65535,65535],
			[604,545,65535],
			[606,344,65535],
			[604,544,65535]
		],
		[
			[607,629,1445],
			[596,549,65535],
			[596,65535,65535],
			[596,65535,65535],
			[596,65535,65535],
			[596,65535,65535],
			[596,549,65535],
			[596,65535,65535],
			[596,548,65535],
			[596,65535,1329],
			[596,801,1329],
			[596,548,1331],
			[604,1335,65535],
			[597,65535,585],
			[604,570,65535],
			[604,1434,65535],
			[604,65535,65535],
			[604,544,65535]
		],
		[
			[607,629,1445],
			[596,545,65535],
			[596,65535,65535],
			[596,65535,65535],
			[596,65535,65535],
			[596,65535,65535],
			[1396,545,1444],
			[1396,65535,1445],
			[607,544,1446],
			[597,65535,65535],
			[597,65535,65535],
			[597,544,65535],
			[604,65535,65535],
			[604,65535,65535],
			[604,65535,65535],
			[604,65535,65535],
			[604,65535,65535],
			[604,544,65535]
		],
		[
			[607,629,1445],
			[597,545,613],
			[596,65535,65535],
			[596,65535,65535],
			[596,65535,65535],
			[596,801,65535],
			[597,545,1447],
			[597,65535,1448],
			[597,544,1449],
			[596,65535,65535],
			[596,65535,65535],
			[596,544,65535],
			[604,65535,65535],
			[604,65535,65535],
			[604,65535,65535],
			[604,65535,65535],
			[604,65535,65535],
			[604,544,65535]
		],
		[
			[607,629,1444],
			[607,629,1445],
			[607,2038,65535],
			[607,542,65535],
			[0,1765,65535],
			[596,1336,65535],
			[596,1434,65535],
			[596,65535,65535],
			[596,1433,65535],
			[596,1335,65535],
			[0,1765,65535],
			[607,543,65535],
			[604,545,1436],
			[604,65535,1436],
			[604,65535,1436],
			[604,548,1437],
			[604,548,1445],
			[604,548,1445]
		],
		[
			[607,629,1444],
			[607,629,1445],
			[607,629,1445],
			[596,545,65535],
			[596,65535,65535],
			[596,65535,65535],
			[596,65535,65535],
			[596,65535,65535],
			[596,65535,65535],
			[596,65535,65535],
			[596,65535,65535],
			[596,544,65535],
			[604,65535,1439],
			[604,344,1439],
			[604,344,1439],
			[604,544,1440],
			[604,65535,1445],
			[604,544,1445]
		],
		[
			[607,629,1445],
			[607,629,1445],
			[607,629,1445],
			[607,538,65535],
			[607,552,65535],
			[607,552,65535],
			[607,571,1091],
			[597,65535,587],
			[607,571,1091],
			[607,552,65535],
			[607,552,65535],
			[607,539,65535],
			[607,629,1445],
			[608,629,1445],
			[608,629,1445],
			[607,629,1445],
			[607,629,1445],
			[607,629,1445]
		]
	]
}
