{
	"id": 415,
	"type": 2,
	"width": 9,
	"height": 9,
	"flags": 8,
	"tiles": [
		[
			[0,538,65535],
			[0,572,65535],
			[0,569,65535],
			[0,572,65535],
			[0,571,65535],
			[0,572,65535],
			[0,569,65535],
			[0,572,65535],
			[0,543,1394]
		],
		[
			[604,545,613],
			[604,266,65535],
			[604,65535,65535],
			[604,65535,65535],
			[604,65535,65535],
			[604,65535,65535],
			[604,65535,65535],
			[604,266,65535],
			[604,544,1393]
		],
		[
			[604,1335,65535],
			[604,1336,65535],
			[604,555,65535],
			[604,569,65535],
			[604,560,65535],
			[604,543,65535],
			[604,65535,65535],
			[604,65535,65535],
			[604,544,1393]
		],
		[
			[594,65535,65535],
			[594,1555,1551],
			[594,1556,1552],
			[594,65535,65535],
			[604,1214,65535],
			[604,544,614],
			[604,65535,1329],
			[605,548,1331],
			[604,539,1446]
		],
		[
			[594,65535,65535],
			[594,1557,1553],
			[594,1558,1554],
			[594,65535,65535],
			[604,65535,65535],
			[604,544,614],
			[605,65535,65535],
			[605,1433,65535],
			[604,541,1394]
		],
		[
			[604,542,65535],
			[604,1336,65535],
			[604,555,65535],
			[604,569,65535],
			[604,65535,65535],
			[604,1433,65535],
			[604,65535,65535],
			[604,265,65535],
			[604,544,1393]
		],
		[
			[604,545,65535],
			[604,266,65535],
			[604,65535,65535],
			[604,65535,65535],
			[604,65535,65535],
			[604,65535,65535],
			[604,65535,65535],
			[604,265,65535],
			[604,544,1393]
		],
		[
			[604,545,65535],
			[604,265,65535],
			[604,65535,65535],
			[604,65535,65535],
			[604,65535,65535],
			[604,65535,65535],
			[604,65535,65535],
			[604,266,65535],
			[604,544,1393]
		],
		[
			[604,802,1086],
			[604,802,1086],
			[604,802,1086],
			[604,802,1086],
			[605,65535,1086],
			[604,802,1086],
			[604,802,1086],
			[604,802,1086],
			[604,802,1086]
		]
	]
}
