{
	"id": 426,
	"type": 3,
	"width": 18,
	"height": 18,
	"flags": 16,
	"tiles": [
		[
			[403,65535,65535],
			[403,65535,65535],
			[403,65535,65535],
			[403,65535,65535],
			[403,65535,65535],
			[859,65535,871],
			[860,65535,872],
			[861,65535,873],
			[403,65535,65535],
			[403,65535,65535],
			[403,65535,65535],
			[403,65535,65535],
			[403,65535,65535],
			[403,65535,65535],
			[403,65535,65535],
			[403,65535,65535],
			[403,65535,65535],
			[403,65535,65535]
		],
		[
			[403,65535,65535],
			[403,65535,65535],
			[403,65535,65535],
			[403,1580,65535],
			[403,65535,65535],
			[403,65535,883],
			[858,355,887],
			[868,355,878],
			[861,65535,873],
			[403,65535,65535],
			[403,65535,944],
			[403,65535,945],
			[403,65535,946],
			[403,65535,65535],
			[403,65535,65535],
			[403,65535,65535],
			[403,65535,65535],
			[403,65535,65535]
		],
		[
			[403,65535,65535],
			[403,65535,65535],
			[403,65535,65535],
			[403,65535,65535],
			[403,65535,65535],
			[403,891,65535],
			[858,892,883],
			[858,355,884],
			[864,65535,885],
			[403,65535,65535],
			[403,65535,941],
			[403,65535,900],
			[859,65535,871],
			[860,65535,872],
			[861,65535,873],
			[403,65535,65535],
			[403,65535,65535],
			[403,65535,65535]
		],
		[
			[403,65535,65535],
			[403,1580,65535],
			[403,65535,65535],
			[403,65535,65535],
			[403,65535,65535],
			[879,65535,65535],
			[880,891,65535],
			[403,892,65535],
			[861,893,871],
			[860,65535,872],
			[861,65535,873],
			[403,65535,1023],
			[403,65535,883],
			[858,355,887],
			[868,355,878],
			[861,65535,873],
			[403,65535,65535],
			[403,65535,65535]
		],
		[
			[403,65535,65535],
			[403,65535,65535],
			[403,65535,65535],
			[403,65535,944],
			[403,65535,945],
			[403,65535,946],
			[879,65535,65535],
			[880,65535,65535],
			[881,65535,883],
			[858,355,887],
			[1630,65535,876],
			[403,901,65535],
			[1630,891,65535],
			[403,892,883],
			[858,355,884],
			[1630,65535,885],
			[1630,65535,65535],
			[1630,65535,65535]
		],
		[
			[403,65535,65535],
			[403,65535,65535],
			[1578,65535,65535],
			[403,65535,941],
			[403,65535,900],
			[403,65535,943],
			[403,65535,65535],
			[403,65535,65535],
			[403,891,65535],
			[858,892,883],
			[864,65535,885],
			[403,65535,65535],
			[879,65535,65535],
			[880,891,65535],
			[403,892,65535],
			[861,893,65535],
			[859,65535,871],
			[861,65535,873]
		],
		[
			[403,65535,65535],
			[403,65535,944],
			[403,65535,945],
			[403,65535,946],
			[859,1023,871],
			[860,65535,872],
			[860,65535,872],
			[861,65535,873],
			[879,65535,65535],
			[880,891,65535],
			[861,893,65535],
			[1630,65535,65535],
			[403,65535,65535],
			[879,65535,65535],
			[880,65535,65535],
			[881,1567,65535],
			[865,1568,874],
			[866,65535,876]
		],
		[
			[403,65535,65535],
			[403,65535,941],
			[403,65535,900],
			[403,65535,943],
			[403,901,883],
			[858,355,884],
			[858,355,887],
			[868,355,878],
			[861,65535,873],
			[879,65535,944],
			[881,65535,945],
			[1630,65535,946],
			[403,65535,65535],
			[403,65535,65535],
			[403,1603,65535],
			[403,1569,65535],
			[403,1570,883],
			[864,65535,885]
		],
		[
			[403,65535,65535],
			[403,65535,65535],
			[403,65535,1023],
			[403,65535,944],
			[403,891,945],
			[403,892,946],
			[858,892,883],
			[858,355,884],
			[864,65535,885],
			[403,65535,941],
			[1630,65535,900],
			[1630,65535,943],
			[403,65535,65535],
			[403,65535,65535],
			[859,65535,871],
			[861,65535,873],
			[403,891,871],
			[861,893,873]
		],
		[
			[403,65535,65535],
			[403,65535,65535],
			[403,901,65535],
			[403,65535,941],
			[879,65535,900],
			[880,65535,943],
			[880,891,65535],
			[403,892,65535],
			[861,893,65535],
			[1630,65535,65535],
			[1630,65535,1023],
			[859,65535,871],
			[861,65535,873],
			[403,65535,65535],
			[865,65535,874],
			[868,355,878],
			[867,355,877],
			[866,65535,876]
		],
		[
			[403,65535,65535],
			[403,65535,65535],
			[1576,65535,65535],
			[403,65535,65535],
			[403,65535,1023],
			[403,65535,65535],
			[879,65535,65535],
			[880,65535,65535],
			[881,65535,65535],
			[1630,65535,65535],
			[859,901,871],
			[867,355,877],
			[866,65535,876],
			[403,65535,65535],
			[403,65535,883],
			[858,355,884],
			[858,355,884],
			[864,65535,885]
		],
		[
			[403,65535,65535],
			[403,65535,65535],
			[403,65535,65535],
			[403,65535,933],
			[403,901,65535],
			[859,65535,871],
			[860,65535,872],
			[861,65535,873],
			[403,65535,65535],
			[1575,65535,65535],
			[403,65535,883],
			[858,355,884],
			[1630,65535,885],
			[1630,65535,944],
			[403,891,945],
			[403,892,946],
			[403,892,65535],
			[861,893,65535]
		],
		[
			[403,65535,65535],
			[403,65535,65535],
			[403,65535,65535],
			[859,898,871],
			[860,65535,872],
			[867,355,877],
			[858,355,875],
			[868,355,878],
			[861,65535,873],
			[403,65535,65535],
			[403,891,65535],
			[403,892,65535],
			[861,893,65535],
			[1630,65535,941],
			[879,65535,900],
			[880,65535,943],
			[880,65535,65535],
			[881,65535,65535]
		],
		[
			[403,65535,65535],
			[403,65535,65535],
			[1578,65535,65535],
			[865,65535,874],
			[858,355,875],
			[858,355,875],
			[858,355,888],
			[858,355,884],
			[864,65535,885],
			[403,65535,944],
			[879,65535,945],
			[880,65535,946],
			[881,65535,65535],
			[403,65535,65535],
			[403,65535,1023],
			[403,65535,65535],
			[403,1580,65535],
			[403,65535,65535]
		],
		[
			[403,65535,65535],
			[403,1580,65535],
			[403,65535,65535],
			[403,65535,883],
			[858,355,884],
			[858,355,884],
			[858,891,885],
			[403,892,65535],
			[861,893,65535],
			[403,65535,941],
			[403,65535,900],
			[403,65535,943],
			[403,65535,65535],
			[403,65535,65535],
			[403,901,65535],
			[403,65535,65535],
			[403,65535,65535],
			[403,65535,65535]
		],
		[
			[403,65535,65535],
			[403,65535,65535],
			[1577,65535,65535],
			[403,891,65535],
			[403,892,65535],
			[403,892,65535],
			[897,893,65535],
			[880,65535,65535],
			[881,65535,65535],
			[403,65535,65535],
			[403,65535,1023],
			[403,65535,65535],
			[403,1580,65535],
			[403,65535,65535],
			[403,65535,65535],
			[403,65535,65535],
			[403,65535,65535],
			[403,65535,65535]
		],
		[
			[1578,65535,65535],
			[1579,65535,65535],
			[403,65535,65535],
			[879,65535,65535],
			[880,65535,65535],
			[880,65535,65535],
			[881,65535,65535],
			[403,65535,65535],
			[403,65535,65535],
			[403,65535,65535],
			[403,901,65535],
			[403,65535,65535],
			[403,65535,65535],
			[403,65535,65535],
			[403,65535,65535],
			[403,65535,65535],
			[403,65535,65535],
			[403,65535,65535]
		],
		[
			[403,65535,65535],
			[1577,65535,65535],
			[403,65535,65535],
			[403,65535,65535],
			[1578,65535,65535],
			[403,65535,65535],
			[403,65535,65535],
			[403,65535,65535],
			[403,65535,65535],
			[403,65535,65535],
			[403,65535,65535],
			[403,65535,65535],
			[403,65535,65535],
			[403,65535,65535],
			[403,65535,65535],
			[403,65535,65535],
			[403,65535,65535],
			[403,65535,65535]
		]
	]
}
