{
	"id": 430,
	"type": 3,
	"width": 18,
	"height": 18,
	"flags": 16,
	"tiles": [
		[
			[403,65535,65535],
			[403,65535,65535],
			[403,65535,65535],
			[403,65535,65535],
			[403,65535,65535],
			[403,65535,65535],
			[403,65535,65535],
			[403,65535,65535],
			[403,65535,65535],
			[403,65535,65535],
			[403,65535,65535],
			[403,65535,65535],
			[403,65535,65535],
			[403,65535,65535],
			[403,65535,65535],
			[403,65535,65535],
			[403,65535,65535],
			[403,65535,65535]
		],
		[
			[403,65535,65535],
			[1575,65535,65535],
			[403,374,65535],
			[403,375,65535],
			[403,375,65535],
			[403,375,65535],
			[403,375,65535],
			[403,375,65535],
			[403,375,1139],
			[403,375,65535],
			[403,376,65535],
			[403,374,65535],
			[403,375,65535],
			[403,375,65535],
			[403,376,65535],
			[403,390,65535],
			[403,65535,65535],
			[403,65535,65535]
		],
		[
			[403,65535,65535],
			[403,374,65535],
			[403,382,65535],
			[403,386,65535],
			[403,385,65535],
			[378,65535,65535],
			[378,65535,65535],
			[378,65535,65535],
			[378,1140,65535],
			[403,384,65535],
			[403,383,180],
			[403,382,65535],
			[378,385,65535],
			[403,384,65535],
			[403,383,65535],
			[403,376,65535],
			[403,65535,65535],
			[403,65535,65535]
		],
		[
			[403,65535,65535],
			[403,380,65535],
			[403,387,65535],
			[403,387,65535],
			[403,383,65535],
			[378,375,65535],
			[403,376,1947],
			[1577,65535,1948],
			[403,65535,65535],
			[377,534,65535],
			[378,181,65535],
			[378,65535,1463],
			[379,1464,65535],
			[377,65535,1465],
			[403,384,65535],
			[403,383,65535],
			[403,376,65535],
			[403,65535,65535]
		],
		[
			[403,65535,65535],
			[403,380,65535],
			[403,386,65535],
			[403,387,65535],
			[403,387,65535],
			[403,387,65535],
			[403,381,1945],
			[403,1946,65535],
			[403,65535,65535],
			[403,65535,65535],
			[403,65535,65535],
			[403,1466,65535],
			[403,1467,65535],
			[403,1468,65535],
			[403,380,65535],
			[403,387,65535],
			[403,381,65535],
			[403,65535,65535]
		],
		[
			[403,65535,65535],
			[377,65535,65535],
			[378,384,65535],
			[403,387,65535],
			[403,387,65535],
			[403,385,65535],
			[379,65535,65535],
			[374,65535,65535],
			[403,376,65535],
			[403,65535,65535],
			[403,65535,65535],
			[403,1469,65535],
			[1470,65535,65535],
			[403,1471,65535],
			[403,380,65535],
			[403,385,65535],
			[379,65535,65535],
			[403,65535,65535]
		],
		[
			[403,65535,65535],
			[403,65535,65535],
			[377,65535,65535],
			[378,65535,65535],
			[403,384,65535],
			[403,383,65535],
			[1758,65535,65535],
			[403,382,65535],
			[403,381,65535],
			[1479,65535,65535],
			[1481,65535,65535],
			[403,65535,65535],
			[1576,65535,65535],
			[403,374,65535],
			[403,382,65535],
			[403,383,65535],
			[403,376,65535],
			[403,65535,65535]
		],
		[
			[403,65535,65535],
			[403,65535,65535],
			[1578,65535,65535],
			[403,65535,65535],
			[822,380,65535],
			[822,385,65535],
			[1760,65535,65535],
			[822,384,65535],
			[822,383,65535],
			[822,376,1139],
			[1474,65535,65535],
			[1756,65535,944],
			[403,65535,945],
			[377,65535,946],
			[403,384,65535],
			[403,386,65535],
			[403,381,65535],
			[403,65535,65535]
		],
		[
			[403,65535,65535],
			[1576,65535,65535],
			[403,65535,65535],
			[822,374,65535],
			[822,382,65535],
			[822,381,65535],
			[403,65535,65535],
			[822,380,65535],
			[822,385,65535],
			[379,1140,65535],
			[1476,65535,65535],
			[378,842,941],
			[378,849,900],
			[378,849,943],
			[403,853,65535],
			[403,387,65535],
			[403,381,65535],
			[403,65535,65535]
		],
		[
			[859,65535,871],
			[860,65535,872],
			[861,65535,873],
			[822,380,65535],
			[822,386,65535],
			[822,381,65535],
			[403,65535,65535],
			[822,380,65535],
			[822,851,65535],
			[403,848,65535],
			[427,848,65535],
			[403,841,65535],
			[403,65535,1023],
			[403,65535,65535],
			[377,65535,65535],
			[378,65535,65535],
			[379,65535,65535],
			[403,65535,65535]
		],
		[
			[403,65535,883],
			[858,65535,887],
			[868,65535,878],
			[377,65535,872],
			[822,384,873],
			[822,383,65535],
			[822,375,65535],
			[822,382,65535],
			[822,381,65535],
			[822,390,65535],
			[1475,65535,65535],
			[403,65535,65535],
			[403,901,65535],
			[403,65535,65535],
			[403,65535,65535],
			[859,65535,871],
			[861,65535,873],
			[403,65535,65535]
		],
		[
			[403,891,65535],
			[403,892,883],
			[858,65535,887],
			[858,65535,888],
			[377,65535,885],
			[822,384,65535],
			[822,387,65535],
			[822,386,65535],
			[822,383,65535],
			[822,376,65535],
			[1482,65535,65535],
			[1481,65535,65535],
			[403,65535,65535],
			[1576,65535,65535],
			[403,65535,871],
			[867,65535,877],
			[866,65535,876],
			[403,65535,65535]
		],
		[
			[879,65535,65535],
			[880,891,65535],
			[403,892,883],
			[403,892,885],
			[861,893,65535],
			[822,380,65535],
			[822,387,65535],
			[822,386,65535],
			[822,387,65535],
			[822,383,65535],
			[403,376,65535],
			[1474,65535,65535],
			[859,65535,871],
			[860,65535,872],
			[867,65535,877],
			[858,65535,875],
			[866,65535,876],
			[403,65535,65535]
		],
		[
			[403,65535,65535],
			[879,65535,65535],
			[880,891,65535],
			[897,893,65535],
			[881,65535,65535],
			[377,65535,65535],
			[378,65535,65535],
			[378,65535,65535],
			[822,384,65535],
			[822,385,65535],
			[379,65535,65535],
			[1474,65535,65535],
			[403,65535,883],
			[858,65535,887],
			[858,65535,875],
			[858,65535,888],
			[403,65535,885],
			[403,65535,65535]
		],
		[
			[403,65535,65535],
			[403,65535,65535],
			[879,65535,65535],
			[881,65535,65535],
			[403,65535,65535],
			[403,65535,65535],
			[403,65535,65535],
			[403,374,65535],
			[822,382,65535],
			[822,381,65535],
			[403,65535,65535],
			[1476,65535,65535],
			[403,891,65535],
			[403,892,883],
			[858,65535,884],
			[403,892,885],
			[861,893,65535],
			[403,65535,65535]
		],
		[
			[403,65535,65535],
			[1575,65535,65535],
			[403,65535,65535],
			[403,65535,65535],
			[403,374,65535],
			[403,375,65535],
			[1575,375,65535],
			[403,382,65535],
			[377,385,65535],
			[379,65535,65535],
			[403,65535,65535],
			[403,65535,65535],
			[879,65535,65535],
			[880,891,65535],
			[403,892,65535],
			[897,893,65535],
			[881,65535,65535],
			[403,65535,65535]
		],
		[
			[403,65535,65535],
			[403,374,65535],
			[403,375,65535],
			[403,375,65535],
			[403,382,65535],
			[403,385,65535],
			[378,65535,65535],
			[378,65535,65535],
			[379,65535,65535],
			[403,65535,65535],
			[403,65535,65535],
			[403,65535,65535],
			[403,65535,65535],
			[879,65535,65535],
			[880,65535,65535],
			[881,65535,65535],
			[403,1580,65535],
			[403,65535,65535]
		],
		[
			[403,65535,65535],
			[377,65535,65535],
			[378,65535,65535],
			[378,65535,65535],
			[378,65535,65535],
			[379,65535,65535],
			[403,65535,65535],
			[403,65535,65535],
			[1579,65535,65535],
			[403,65535,65535],
			[403,65535,65535],
			[403,65535,65535],
			[403,65535,65535],
			[403,65535,65535],
			[403,65535,65535],
			[403,65535,65535],
			[403,65535,65535],
			[403,65535,65535]
		]
	]
}
