{
	"id": 434,
	"type": 3,
	"width": 18,
	"height": 18,
	"flags": 5,
	"tiles": [
		[
			[403,65535,65535],
			[403,65535,65535],
			[403,65535,65535],
			[865,355,874],
			[880,892,876],
			[880,892,883],
			[880,892,887],
			[858,355,875],
			[866,65535,876],
			[403,65535,65535],
			[865,65535,874],
			[858,355,875],
			[858,355,875],
			[866,65535,876],
			[403,65535,65535],
			[403,65535,65535],
			[403,65535,65535],
			[403,65535,65535]
		],
		[
			[1577,65535,65535],
			[403,65535,65535],
			[859,65535,871],
			[867,355,877],
			[880,355,878],
			[880,891,873],
			[880,892,874],
			[858,355,875],
			[866,65535,876],
			[403,65535,65535],
			[865,65535,883],
			[403,355,884],
			[859,355,887],
			[868,355,878],
			[861,65535,873],
			[403,65535,65535],
			[403,65535,65535],
			[403,65535,65535]
		],
		[
			[1579,65535,65535],
			[1578,65535,65535],
			[865,65535,874],
			[858,355,875],
			[858,355,875],
			[880,355,878],
			[880,65535,877],
			[858,355,875],
			[866,65535,876],
			[403,65535,65535],
			[403,891,65535],
			[403,892,65535],
			[865,892,874],
			[858,355,875],
			[868,355,878],
			[861,65535,873],
			[403,65535,65535],
			[403,65535,65535]
		],
		[
			[403,65535,65535],
			[403,65535,65535],
			[865,65535,883],
			[858,355,887],
			[858,355,875],
			[858,355,875],
			[858,355,875],
			[858,355,875],
			[868,355,878],
			[860,65535,872],
			[879,65535,873],
			[880,65535,65535],
			[880,65535,883],
			[858,355,887],
			[858,355,888],
			[403,65535,885],
			[403,65535,65535],
			[403,65535,65535]
		],
		[
			[403,65535,944],
			[403,65535,945],
			[403,891,946],
			[403,892,874],
			[858,355,875],
			[858,355,875],
			[858,355,875],
			[858,355,875],
			[858,355,875],
			[858,355,888],
			[403,65535,885],
			[403,65535,65535],
			[403,891,65535],
			[858,892,883],
			[858,892,885],
			[861,893,65535],
			[403,65535,65535],
			[1579,65535,65535]
		],
		[
			[403,65535,65535],
			[403,65535,900],
			[879,65535,65535],
			[880,65535,883],
			[403,355,887],
			[858,355,875],
			[858,355,875],
			[858,355,875],
			[858,355,888],
			[858,892,885],
			[861,893,944],
			[403,65535,945],
			[879,65535,946],
			[880,891,65535],
			[897,893,65535],
			[881,65535,65535],
			[403,65535,65535],
			[403,65535,65535]
		],
		[
			[403,65535,65535],
			[403,65535,1023],
			[403,65535,65535],
			[403,891,871],
			[858,892,877],
			[858,355,875],
			[858,355,875],
			[403,355,888],
			[858,892,885],
			[897,893,65535],
			[881,65535,65535],
			[403,65535,900],
			[403,65535,65535],
			[879,65535,65535],
			[881,65535,871],
			[861,65535,873],
			[403,65535,65535],
			[403,65535,65535]
		],
		[
			[403,65535,65535],
			[403,901,65535],
			[403,65535,65535],
			[865,65535,883],
			[881,355,887],
			[858,355,875],
			[858,355,875],
			[858,892,876],
			[897,893,65535],
			[881,65535,65535],
			[403,65535,65535],
			[403,65535,1023],
			[403,65535,65535],
			[859,65535,871],
			[867,355,877],
			[868,355,878],
			[861,65535,873],
			[403,65535,65535]
		],
		[
			[403,65535,65535],
			[403,65535,65535],
			[403,65535,65535],
			[403,891,871],
			[858,892,877],
			[858,355,875],
			[858,355,875],
			[880,65535,878],
			[881,65535,872],
			[861,65535,873],
			[403,65535,65535],
			[403,901,65535],
			[403,65535,65535],
			[865,65535,883],
			[858,355,887],
			[858,355,888],
			[403,65535,885],
			[403,65535,65535]
		],
		[
			[403,65535,65535],
			[403,65535,65535],
			[1579,65535,65535],
			[879,65535,874],
			[858,355,875],
			[858,355,875],
			[858,355,875],
			[858,355,875],
			[858,355,888],
			[403,65535,885],
			[403,65535,65535],
			[1578,65535,65535],
			[1577,65535,65535],
			[403,891,65535],
			[858,892,883],
			[858,892,885],
			[861,893,65535],
			[403,65535,65535]
		],
		[
			[403,65535,65535],
			[403,65535,65535],
			[403,65535,65535],
			[865,65535,883],
			[403,355,887],
			[858,355,875],
			[858,355,875],
			[858,355,875],
			[858,892,876],
			[861,893,65535],
			[403,65535,65535],
			[403,65535,65535],
			[403,65535,65535],
			[879,65535,65535],
			[880,891,65535],
			[897,893,65535],
			[881,65535,65535],
			[403,65535,65535]
		],
		[
			[403,65535,65535],
			[403,187,1282],
			[403,65535,65535],
			[403,891,65535],
			[403,892,874],
			[858,355,875],
			[858,355,875],
			[858,355,875],
			[897,355,876],
			[881,65535,65535],
			[403,65535,65535],
			[403,65535,944],
			[403,65535,945],
			[403,65535,946],
			[879,65535,65535],
			[881,65535,65535],
			[403,65535,65535],
			[403,65535,65535]
		],
		[
			[403,65535,65535],
			[1577,65535,65535],
			[403,65535,65535],
			[879,65535,65535],
			[880,65535,874],
			[858,355,875],
			[858,355,888],
			[1582,355,1512],
			[866,893,885],
			[403,65535,65535],
			[403,65535,65535],
			[403,65535,65535],
			[403,65535,900],
			[391,65535,65535],
			[392,65535,65535],
			[393,65535,65535],
			[403,65535,65535],
			[403,65535,65535]
		],
		[
			[403,65535,65535],
			[859,65535,871],
			[860,65535,872],
			[861,65535,873],
			[403,65535,883],
			[858,355,884],
			[858,892,885],
			[1510,355,65535],
			[881,893,65535],
			[403,65535,65535],
			[403,65535,65535],
			[403,65535,65535],
			[403,65535,1023],
			[397,65535,65535],
			[404,65535,65535],
			[398,65535,65535],
			[403,65535,65535],
			[403,65535,65535]
		],
		[
			[1579,65535,65535],
			[865,65535,874],
			[1578,892,888],
			[403,65535,885],
			[403,891,65535],
			[403,892,65535],
			[897,893,65535],
			[1511,355,65535],
			[881,65535,65535],
			[391,65535,65535],
			[392,65535,65535],
			[393,65535,65535],
			[403,901,65535],
			[397,65535,65535],
			[358,65535,65535],
			[400,65535,65535],
			[393,65535,65535],
			[403,65535,65535]
		],
		[
			[403,65535,65535],
			[865,65535,874],
			[859,892,876],
			[861,187,893],
			[879,355,187],
			[880,65535,65535],
			[881,65535,65535],
			[403,65535,65535],
			[403,65535,65535],
			[397,65535,65535],
			[406,65535,65535],
			[400,65535,65535],
			[392,65535,65535],
			[399,65535,65535],
			[0,65535,65535],
			[407,65535,65535],
			[398,65535,65535],
			[403,65535,65535]
		],
		[
			[403,65535,65535],
			[865,65535,874],
			[880,892,878],
			[881,65535,872],
			[860,65535,872],
			[861,65535,873],
			[403,65535,65535],
			[403,65535,65535],
			[391,65535,65535],
			[399,65535,65535],
			[357,65535,65535],
			[407,65535,65535],
			[406,65535,65535],
			[0,65535,65535],
			[0,65535,65535],
			[402,65535,65535],
			[396,65535,65535],
			[403,65535,65535]
		],
		[
			[1578,65535,65535],
			[865,65535,874],
			[403,892,875],
			[858,892,875],
			[858,892,875],
			[868,355,878],
			[861,65535,873],
			[403,65535,65535],
			[397,65535,65535],
			[356,65535,65535],
			[0,65535,65535],
			[0,65535,65535],
			[0,65535,65535],
			[407,65535,65535],
			[0,65535,65535],
			[398,65535,65535],
			[403,65535,65535],
			[403,65535,65535]
		]
	]
}
