{
	"id": 438,
	"type": 3,
	"width": 18,
	"height": 18,
	"flags": 17,
	"tiles": [
		[
			[403,65535,65535],
			[403,65535,65535],
			[403,65535,65535],
			[403,65535,944],
			[403,65535,945],
			[403,65535,946],
			[403,65535,65535],
			[403,65535,65535],
			[403,65535,65535],
			[859,65535,871],
			[860,65535,872],
			[860,65535,872],
			[860,65535,872],
			[861,65535,873],
			[403,65535,65535],
			[403,65535,65535],
			[403,65535,899],
			[403,65535,65535]
		],
		[
			[403,65535,65535],
			[403,65535,65535],
			[403,65535,65535],
			[403,65535,941],
			[403,65535,900],
			[403,65535,943],
			[403,65535,65535],
			[1576,65535,65535],
			[859,65535,871],
			[867,355,877],
			[858,355,888],
			[858,355,886],
			[858,355,887],
			[868,355,878],
			[861,65535,873],
			[1579,65535,65535],
			[403,65535,1815],
			[403,65535,65535]
		],
		[
			[403,65535,944],
			[403,65535,945],
			[1578,65535,946],
			[403,65535,65535],
			[403,65535,1023],
			[403,65535,65535],
			[403,65535,65535],
			[859,65535,871],
			[867,355,877],
			[858,355,875],
			[868,892,876],
			[860,894,65535],
			[860,892,883],
			[860,355,887],
			[868,355,878],
			[861,65535,873],
			[403,898,65535],
			[1575,65535,65535]
		],
		[
			[403,65535,941],
			[403,65535,900],
			[403,65535,943],
			[859,65535,871],
			[860,901,872],
			[860,65535,872],
			[861,65535,873],
			[403,65535,883],
			[858,355,887],
			[858,355,875],
			[880,65535,876],
			[882,65535,1291],
			[880,891,65535],
			[858,892,874],
			[858,355,875],
			[868,355,878],
			[860,65535,872],
			[861,65535,873]
		],
		[
			[403,65535,65535],
			[403,65535,1023],
			[859,65535,871],
			[867,355,877],
			[858,355,875],
			[858,355,875],
			[868,355,878],
			[403,891,873],
			[403,892,874],
			[858,355,888],
			[864,65535,885],
			[403,1288,1282],
			[879,1289,1282],
			[880,65535,874],
			[858,355,888],
			[858,355,887],
			[858,355,888],
			[864,65535,885]
		],
		[
			[403,65535,65535],
			[1575,901,65535],
			[865,65535,874],
			[858,355,888],
			[858,355,884],
			[858,355,887],
			[858,355,875],
			[897,355,878],
			[880,355,877],
			[403,892,876],
			[861,65535,893],
			[859,65535,871],
			[860,65535,872],
			[867,355,877],
			[403,892,878],
			[403,892,877],
			[403,894,876],
			[861,65535,893]
		],
		[
			[403,65535,65535],
			[403,65535,65535],
			[865,65535,874],
			[858,891,878],
			[403,892,873],
			[858,892,883],
			[858,355,884],
			[858,355,887],
			[858,355,875],
			[880,355,878],
			[881,65535,872],
			[403,65535,877],
			[403,65535,888],
			[858,65535,884],
			[858,65535,887],
			[858,355,888],
			[897,65535,885],
			[881,65535,65535]
		],
		[
			[403,65535,65535],
			[403,65535,65535],
			[862,65535,883],
			[403,65535,887],
			[880,65535,878],
			[880,891,872],
			[403,892,873],
			[858,892,883],
			[858,355,884],
			[403,355,887],
			[858,355,888],
			[403,355,884],
			[403,892,885],
			[403,892,871],
			[880,65535,877],
			[403,892,878],
			[403,893,873],
			[403,65535,65535]
		],
		[
			[403,1580,65535],
			[403,65535,65535],
			[403,891,899],
			[858,892,874],
			[858,355,875],
			[858,65535,875],
			[897,65535,878],
			[880,891,872],
			[403,892,873],
			[403,892,883],
			[403,892,885],
			[403,892,871],
			[880,893,872],
			[897,65535,877],
			[858,65535,888],
			[858,355,884],
			[864,65535,885],
			[403,65535,65535]
		],
		[
			[403,65535,65535],
			[403,65535,65535],
			[879,65535,1815],
			[880,65535,883],
			[858,355,887],
			[858,355,875],
			[858,65535,888],
			[858,65535,887],
			[897,65535,878],
			[897,891,872],
			[880,893,872],
			[880,65535,877],
			[858,65535,888],
			[858,355,887],
			[858,891,876],
			[403,892,899],
			[861,893,65535],
			[403,65535,65535]
		],
		[
			[403,65535,65535],
			[403,65535,65535],
			[403,898,65535],
			[403,891,65535],
			[858,892,883],
			[858,355,886],
			[858,892,885],
			[858,892,883],
			[858,65535,884],
			[858,65535,887],
			[858,65535,875],
			[858,65535,888],
			[858,892,885],
			[858,892,883],
			[879,65535,885],
			[880,65535,1815],
			[881,65535,65535],
			[403,65535,65535]
		],
		[
			[403,65535,65535],
			[1579,65535,65535],
			[403,65535,65535],
			[879,65535,65535],
			[880,891,65535],
			[403,894,65535],
			[897,893,65535],
			[880,891,65535],
			[403,892,65535],
			[858,892,883],
			[858,355,884],
			[858,892,885],
			[897,893,65535],
			[880,891,65535],
			[861,893,65535],
			[403,898,65535],
			[403,65535,65535],
			[403,65535,65535]
		],
		[
			[403,65535,65535],
			[403,65535,65535],
			[859,65535,871],
			[861,65535,873],
			[879,65535,65535],
			[882,65535,65535],
			[881,65535,65535],
			[879,65535,899],
			[880,65535,65535],
			[880,891,65535],
			[403,892,65535],
			[897,893,65535],
			[881,65535,65535],
			[879,65535,65535],
			[881,65535,65535],
			[403,65535,65535],
			[403,65535,65535],
			[403,65535,65535]
		],
		[
			[403,65535,65535],
			[859,65535,871],
			[867,355,877],
			[868,355,878],
			[860,65535,872],
			[861,65535,873],
			[403,65535,65535],
			[403,65535,1815],
			[403,65535,944],
			[879,65535,945],
			[880,65535,946],
			[881,65535,65535],
			[403,65535,65535],
			[403,65535,65535],
			[403,374,65535],
			[403,375,65535],
			[1575,376,65535],
			[403,65535,65535]
		],
		[
			[403,65535,65535],
			[862,65535,883],
			[858,355,886],
			[858,355,887],
			[858,355,888],
			[864,65535,885],
			[403,65535,65535],
			[403,898,65535],
			[403,65535,941],
			[403,65535,900],
			[403,65535,943],
			[403,65535,65535],
			[403,65535,65535],
			[403,374,65535],
			[403,382,65535],
			[403,387,899],
			[403,381,65535],
			[403,65535,65535]
		],
		[
			[403,65535,65535],
			[403,891,65535],
			[403,894,65535],
			[858,892,883],
			[858,892,885],
			[861,893,65535],
			[403,65535,65535],
			[403,65535,65535],
			[403,65535,65535],
			[403,65535,1023],
			[403,390,65535],
			[403,374,65535],
			[403,375,65535],
			[403,382,65535],
			[403,385,65535],
			[378,65535,1815],
			[379,65535,65535],
			[403,65535,65535]
		],
		[
			[403,65535,65535],
			[879,65535,65535],
			[882,65535,65535],
			[880,891,65535],
			[897,893,65535],
			[881,65535,65535],
			[403,65535,65535],
			[403,65535,65535],
			[403,65535,65535],
			[403,901,65535],
			[1576,65535,65535],
			[403,380,65535],
			[403,387,65535],
			[403,385,65535],
			[379,65535,65535],
			[403,898,65535],
			[403,65535,65535],
			[403,65535,65535]
		],
		[
			[403,65535,65535],
			[403,65535,65535],
			[403,65535,65535],
			[879,65535,65535],
			[881,65535,65535],
			[403,65535,65535],
			[403,65535,65535],
			[403,65535,65535],
			[403,65535,65535],
			[403,65535,65535],
			[403,65535,65535],
			[377,65535,65535],
			[378,65535,65535],
			[379,65535,65535],
			[403,65535,65535],
			[403,65535,65535],
			[403,65535,65535],
			[403,65535,65535]
		]
	]
}
