{
	"id": 453,
	"type": 3,
	"width": 9,
	"height": 9,
	"flags": 8,
	"tiles": [
		[
			[0,540,65535],
			[0,570,65535],
			[0,581,65535],
			[0,572,1086],
			[0,1335,65535],
			[0,630,65535],
			[0,1336,65535],
			[0,580,65535],
			[0,541,65535]
		],
		[
			[604,545,65535],
			[604,65535,65535],
			[604,65535,65535],
			[604,65535,65535],
			[604,65535,65535],
			[604,65535,65535],
			[604,65535,65535],
			[604,65535,65535],
			[604,544,65535]
		],
		[
			[604,545,65535],
			[604,65535,65535],
			[604,625,65535],
			[604,1341,65535],
			[604,625,974],
			[604,1341,65535],
			[604,625,65535],
			[604,65535,65535],
			[604,544,65535]
		],
		[
			[604,545,65535],
			[604,65535,65535],
			[1084,355,65535],
			[602,65535,65535],
			[602,65535,65535],
			[602,65535,65535],
			[1084,355,65535],
			[604,65535,65535],
			[604,544,65535]
		],
		[
			[604,545,65535],
			[604,65535,65535],
			[1084,355,65535],
			[602,65535,65535],
			[602,65535,65535],
			[602,65535,65535],
			[1084,355,65535],
			[604,65535,65535],
			[604,544,65535]
		],
		[
			[604,545,65535],
			[604,65535,65535],
			[1084,355,65535],
			[602,65535,65535],
			[602,65535,65535],
			[602,65535,65535],
			[1084,355,65535],
			[604,65535,65535],
			[604,544,65535]
		],
		[
			[604,545,65535],
			[604,65535,65535],
			[1084,355,65535],
			[604,1341,65535],
			[627,626,65535],
			[604,1341,65535],
			[1084,355,65535],
			[604,65535,65535],
			[604,544,65535]
		],
		[
			[604,545,65535],
			[604,65535,65535],
			[604,65535,65535],
			[604,65535,65535],
			[604,65535,65535],
			[604,65535,65535],
			[604,65535,65535],
			[604,65535,65535],
			[604,544,65535]
		],
		[
			[0,1335,65535],
			[604,630,65535],
			[604,1336,65535],
			[604,1434,65535],
			[1340,65535,65535],
			[604,1433,65535],
			[604,1335,65535],
			[604,630,65535],
			[0,1336,65535]
		]
	]
}
