{
	"id": 455,
	"type": 3,
	"width": 18,
	"height": 18,
	"flags": 17,
	"tiles": [
		[
			[403,65535,65535],
			[403,65535,65535],
			[403,65535,65535],
			[859,65535,871],
			[860,65535,872],
			[860,65535,872],
			[861,65535,873],
			[403,65535,65535],
			[859,65535,871],
			[860,65535,872],
			[861,65535,873],
			[403,65535,65535],
			[1578,65535,65535],
			[403,65535,65535],
			[403,65535,65535],
			[403,65535,65535],
			[403,65535,65535],
			[403,65535,65535]
		],
		[
			[1578,65535,65535],
			[403,65535,65535],
			[403,65535,65535],
			[403,65535,874],
			[858,65535,875],
			[858,65535,875],
			[868,65535,878],
			[860,65535,872],
			[867,355,877],
			[858,355,875],
			[868,355,878],
			[860,65535,872],
			[860,65535,872],
			[861,65535,873],
			[859,65535,871],
			[860,65535,872],
			[861,65535,873],
			[403,65535,65535]
		],
		[
			[403,65535,65535],
			[403,65535,65535],
			[403,842,871],
			[403,854,877],
			[858,355,888],
			[858,355,884],
			[858,65535,887],
			[858,355,875],
			[858,65535,875],
			[858,355,888],
			[858,355,884],
			[858,355,884],
			[858,65535,887],
			[868,65535,878],
			[867,355,877],
			[858,355,888],
			[864,65535,885],
			[403,65535,65535]
		],
		[
			[403,65535,65535],
			[403,842,65535],
			[403,841,883],
			[403,355,887],
			[403,892,878],
			[403,892,872],
			[403,65535,888],
			[858,65535,884],
			[858,65535,887],
			[403,892,878],
			[403,892,872],
			[403,892,872],
			[403,892,877],
			[858,65535,888],
			[858,65535,884],
			[858,892,885],
			[861,893,65535],
			[403,65535,65535]
		],
		[
			[403,65535,65535],
			[403,847,65535],
			[403,891,65535],
			[403,892,883],
			[858,65535,887],
			[858,65535,875],
			[403,892,878],
			[403,892,872],
			[403,892,877],
			[858,65535,875],
			[858,65535,875],
			[858,65535,875],
			[858,65535,875],
			[403,892,878],
			[403,892,872],
			[880,893,873],
			[881,65535,65535],
			[403,65535,65535]
		],
		[
			[403,65535,65535],
			[403,847,65535],
			[879,65535,65535],
			[880,891,65535],
			[858,892,883],
			[858,355,884],
			[858,355,887],
			[858,355,875],
			[858,355,875],
			[858,65535,875],
			[858,65535,888],
			[858,65535,884],
			[858,65535,886],
			[858,65535,884],
			[403,65535,887],
			[403,65535,876],
			[403,65535,65535],
			[1578,65535,65535]
		],
		[
			[403,65535,65535],
			[403,844,871],
			[403,839,873],
			[879,65535,65535],
			[880,891,65535],
			[403,892,65535],
			[858,892,883],
			[858,355,886],
			[858,355,887],
			[858,65535,875],
			[403,892,878],
			[403,892,873],
			[403,894,65535],
			[403,892,871],
			[403,892,877],
			[868,355,878],
			[861,65535,873],
			[403,65535,65535]
		],
		[
			[403,65535,65535],
			[403,65535,874],
			[403,844,878],
			[403,839,873],
			[879,65535,65535],
			[880,65535,65535],
			[880,891,65535],
			[403,894,65535],
			[403,892,883],
			[403,355,887],
			[858,65535,875],
			[880,65535,878],
			[882,65535,872],
			[880,65535,877],
			[858,65535,875],
			[858,65535,875],
			[866,65535,876],
			[403,65535,65535]
		],
		[
			[403,65535,65535],
			[403,65535,883],
			[858,65535,887],
			[403,844,878],
			[403,839,873],
			[1575,65535,65535],
			[879,65535,65535],
			[882,65535,65535],
			[880,891,65535],
			[403,892,883],
			[403,355,887],
			[858,355,875],
			[858,65535,875],
			[858,355,888],
			[858,355,884],
			[858,355,884],
			[864,65535,885],
			[1579,65535,65535]
		],
		[
			[403,65535,65535],
			[403,891,65535],
			[858,892,883],
			[858,65535,887],
			[403,844,876],
			[403,839,65535],
			[1576,65535,65535],
			[1578,65535,65535],
			[879,65535,65535],
			[880,891,65535],
			[403,892,883],
			[403,355,887],
			[858,65535,875],
			[858,892,878],
			[403,892,873],
			[403,892,65535],
			[861,893,65535],
			[403,65535,65535]
		],
		[
			[403,65535,65535],
			[879,65535,65535],
			[880,891,65535],
			[858,892,883],
			[864,65535,885],
			[403,847,65535],
			[403,374,65535],
			[403,375,65535],
			[403,376,65535],
			[879,65535,65535],
			[880,891,871],
			[403,892,877],
			[858,65535,875],
			[858,65535,875],
			[880,65535,878],
			[880,65535,873],
			[881,65535,65535],
			[403,65535,65535]
		],
		[
			[403,65535,944],
			[403,65535,945],
			[879,65535,946],
			[880,891,65535],
			[861,893,65535],
			[403,844,65535],
			[403,853,65535],
			[403,387,65535],
			[403,381,65535],
			[1577,65535,65535],
			[403,65535,883],
			[403,355,887],
			[858,355,888],
			[858,355,884],
			[858,355,887],
			[868,65535,878],
			[861,65535,873],
			[403,65535,65535]
		],
		[
			[403,65535,941],
			[403,65535,900],
			[403,65535,943],
			[879,65535,65535],
			[881,65535,65535],
			[403,390,65535],
			[377,65535,65535],
			[403,384,65535],
			[403,383,65535],
			[403,376,65535],
			[403,65535,891],
			[403,892,874],
			[858,892,878],
			[403,892,872],
			[403,892,877],
			[858,355,888],
			[864,65535,885],
			[403,65535,65535]
		],
		[
			[403,65535,65535],
			[403,65535,1023],
			[403,65535,65535],
			[403,65535,65535],
			[403,65535,944],
			[403,374,945],
			[403,375,946],
			[403,382,65535],
			[403,385,65535],
			[379,65535,65535],
			[879,65535,65535],
			[880,891,883],
			[403,355,884],
			[858,355,887],
			[858,355,888],
			[858,892,885],
			[861,893,65535],
			[403,65535,65535]
		],
		[
			[403,65535,65535],
			[1579,901,65535],
			[403,65535,65535],
			[403,65535,65535],
			[403,65535,941],
			[403,380,900],
			[403,387,943],
			[403,387,65535],
			[403,383,944],
			[403,375,945],
			[376,65535,946],
			[879,65535,891],
			[880,892,65535],
			[403,892,883],
			[403,892,885],
			[897,893,65535],
			[881,65535,65535],
			[403,65535,65535]
		],
		[
			[403,65535,65535],
			[403,65535,65535],
			[403,65535,65535],
			[403,65535,65535],
			[1578,65535,65535],
			[377,65535,1023],
			[403,384,65535],
			[403,387,65535],
			[403,387,941],
			[403,385,900],
			[379,65535,943],
			[879,65535,65535],
			[880,65535,65535],
			[880,891,65535],
			[897,893,65535],
			[881,65535,65535],
			[1577,65535,65535],
			[403,65535,65535]
		],
		[
			[403,65535,65535],
			[403,65535,65535],
			[403,65535,65535],
			[403,65535,65535],
			[403,65535,65535],
			[403,901,65535],
			[377,65535,65535],
			[378,65535,65535],
			[378,65535,65535],
			[379,65535,1023],
			[403,65535,65535],
			[403,65535,65535],
			[403,65535,65535],
			[879,65535,65535],
			[881,65535,65535],
			[403,65535,65535],
			[403,65535,65535],
			[403,65535,65535]
		],
		[
			[403,65535,65535],
			[403,65535,65535],
			[403,65535,65535],
			[403,65535,65535],
			[403,65535,65535],
			[403,65535,65535],
			[403,65535,65535],
			[403,65535,65535],
			[403,65535,65535],
			[403,901,65535],
			[1579,65535,65535],
			[403,65535,65535],
			[403,65535,65535],
			[403,65535,65535],
			[403,65535,65535],
			[403,65535,65535],
			[403,65535,65535],
			[403,65535,65535]
		]
	]
}
