{
	"id": 456,
	"type": 3,
	"width": 18,
	"height": 18,
	"flags": 1,
	"tiles": [
		[
			[859,65535,871],
			[860,65535,872],
			[860,65535,872],
			[861,65535,873],
			[403,65535,65535],
			[403,65535,65535],
			[1577,65535,65535],
			[403,65535,65535],
			[859,65535,871],
			[861,65535,873],
			[403,65535,65535],
			[403,65535,65535],
			[403,65535,65535],
			[1579,65535,65535],
			[403,65535,65535],
			[859,65535,871],
			[860,65535,872],
			[861,65535,873]
		],
		[
			[865,65535,883],
			[858,355,887],
			[858,355,875],
			[868,355,878],
			[861,65535,873],
			[859,65535,871],
			[860,65535,872],
			[860,65535,872],
			[867,355,877],
			[866,65535,876],
			[403,65535,65535],
			[403,65535,65535],
			[403,65535,65535],
			[859,65535,871],
			[860,65535,872],
			[867,355,877],
			[858,355,888],
			[864,65535,885]
		],
		[
			[403,891,65535],
			[403,892,883],
			[858,355,887],
			[858,355,875],
			[868,355,878],
			[867,355,877],
			[858,355,875],
			[858,355,888],
			[403,355,884],
			[864,65535,885],
			[1578,65535,65535],
			[859,65535,871],
			[860,65535,872],
			[867,355,877],
			[858,355,888],
			[858,355,884],
			[403,892,885],
			[861,893,65535]
		],
		[
			[879,65535,65535],
			[880,891,65535],
			[403,892,883],
			[403,355,887],
			[858,355,875],
			[858,355,875],
			[858,355,888],
			[403,892,885],
			[403,892,65535],
			[861,893,65535],
			[403,65535,65535],
			[865,65535,883],
			[403,355,887],
			[858,355,875],
			[858,892,876],
			[861,892,65535],
			[897,893,65535],
			[881,65535,65535]
		],
		[
			[403,65535,65535],
			[879,65535,65535],
			[880,891,65535],
			[403,892,883],
			[858,355,887],
			[858,355,888],
			[858,892,885],
			[897,893,65535],
			[880,65535,65535],
			[881,65535,65535],
			[403,65535,65535],
			[403,891,65535],
			[403,892,883],
			[858,355,887],
			[880,355,878],
			[897,65535,872],
			[881,65535,873],
			[403,65535,65535]
		],
		[
			[403,65535,65535],
			[403,65535,65535],
			[879,65535,65535],
			[880,891,65535],
			[858,892,883],
			[858,892,885],
			[897,893,65535],
			[881,65535,65535],
			[859,65535,871],
			[860,65535,872],
			[860,65535,872],
			[879,65535,873],
			[880,891,65535],
			[403,892,883],
			[858,355,884],
			[858,355,884],
			[864,65535,885],
			[403,65535,65535]
		],
		[
			[403,65535,65535],
			[859,65535,871],
			[861,65535,873],
			[879,65535,65535],
			[880,891,65535],
			[897,893,65535],
			[881,65535,65535],
			[403,65535,65535],
			[865,65535,874],
			[858,355,875],
			[858,355,875],
			[868,355,878],
			[879,65535,873],
			[880,891,65535],
			[403,892,65535],
			[858,892,65535],
			[861,893,65535],
			[403,65535,65535]
		],
		[
			[403,65535,65535],
			[865,65535,874],
			[868,355,878],
			[861,65535,873],
			[879,65535,65535],
			[881,65535,65535],
			[1577,65535,65535],
			[859,65535,871],
			[867,355,877],
			[858,355,875],
			[858,355,875],
			[403,355,888],
			[864,65535,885],
			[879,65535,65535],
			[880,65535,65535],
			[880,65535,65535],
			[881,65535,65535],
			[403,65535,65535]
		],
		[
			[403,65535,65535],
			[865,65535,883],
			[858,355,887],
			[866,65535,876],
			[859,65535,871],
			[861,65535,873],
			[403,65535,65535],
			[865,65535,883],
			[403,355,887],
			[858,355,875],
			[858,355,888],
			[403,892,885],
			[861,893,65535],
			[859,65535,871],
			[860,65535,872],
			[860,65535,872],
			[861,65535,873],
			[403,65535,65535]
		],
		[
			[403,65535,65535],
			[403,891,65535],
			[403,892,874],
			[868,355,878],
			[867,355,877],
			[868,355,878],
			[861,65535,873],
			[403,891,65535],
			[403,892,883],
			[403,355,887],
			[858,892,876],
			[897,893,65535],
			[881,65535,65535],
			[865,65535,883],
			[403,355,887],
			[858,355,888],
			[864,65535,885],
			[403,65535,65535]
		],
		[
			[403,65535,65535],
			[879,65535,65535],
			[880,891,883],
			[858,355,884],
			[858,355,887],
			[858,355,888],
			[864,65535,885],
			[879,65535,65535],
			[880,891,899],
			[403,892,883],
			[880,65535,885],
			[881,65535,65535],
			[403,65535,65535],
			[403,891,65535],
			[403,892,874],
			[858,892,878],
			[861,893,873],
			[403,65535,65535]
		],
		[
			[403,65535,65535],
			[403,65535,65535],
			[879,891,899],
			[881,892,65535],
			[858,892,874],
			[858,892,876],
			[861,893,65535],
			[403,65535,65535],
			[879,65535,1815],
			[880,891,65535],
			[861,893,65535],
			[859,65535,871],
			[861,65535,873],
			[879,65535,871],
			[880,891,877],
			[858,355,888],
			[864,65535,885],
			[403,65535,65535]
		],
		[
			[403,65535,65535],
			[1575,65535,65535],
			[879,65535,1815],
			[880,65535,871],
			[880,65535,877],
			[897,65535,876],
			[881,65535,65535],
			[1579,65535,65535],
			[403,898,65535],
			[879,65535,65535],
			[881,65535,65535],
			[865,65535,874],
			[868,355,878],
			[861,355,877],
			[858,355,875],
			[858,892,876],
			[861,893,65535],
			[403,65535,65535]
		],
		[
			[403,65535,65535],
			[859,65535,871],
			[860,898,872],
			[403,65535,877],
			[858,355,888],
			[864,65535,885],
			[403,65535,65535],
			[403,65535,899],
			[403,65535,65535],
			[403,65535,65535],
			[859,65535,871],
			[867,355,877],
			[858,355,875],
			[866,355,875],
			[858,355,875],
			[880,65535,878],
			[881,65535,873],
			[403,65535,65535]
		],
		[
			[859,65535,871],
			[867,355,877],
			[858,355,875],
			[858,355,888],
			[403,892,885],
			[861,893,65535],
			[403,65535,65535],
			[403,65535,1815],
			[403,65535,65535],
			[1577,65535,65535],
			[865,65535,883],
			[858,355,887],
			[858,355,888],
			[858,355,884],
			[858,65535,884],
			[858,355,887],
			[868,355,878],
			[861,65535,873]
		],
		[
			[865,65535,883],
			[858,355,884],
			[858,355,884],
			[403,892,885],
			[897,893,65535],
			[881,65535,65535],
			[403,65535,65535],
			[403,898,65535],
			[403,65535,65535],
			[403,65535,65535],
			[403,891,65535],
			[858,892,883],
			[858,892,885],
			[861,892,65535],
			[403,892,65535],
			[403,892,883],
			[858,355,884],
			[864,65535,885]
		],
		[
			[403,891,65535],
			[403,892,65535],
			[403,892,65535],
			[897,893,65535],
			[881,65535,65535],
			[403,65535,65535],
			[403,65535,65535],
			[403,65535,65535],
			[403,65535,65535],
			[403,65535,65535],
			[879,65535,65535],
			[880,891,65535],
			[897,893,65535],
			[880,65535,65535],
			[880,65535,65535],
			[880,891,65535],
			[403,892,65535],
			[861,893,65535]
		],
		[
			[879,65535,65535],
			[880,65535,65535],
			[880,65535,65535],
			[881,65535,65535],
			[1578,65535,65535],
			[1579,65535,65535],
			[403,65535,65535],
			[403,65535,65535],
			[403,65535,65535],
			[403,65535,65535],
			[403,65535,65535],
			[879,65535,65535],
			[881,65535,65535],
			[403,65535,65535],
			[403,65535,65535],
			[879,65535,65535],
			[880,65535,65535],
			[881,65535,65535]
		]
	]
}
