{
	"id": 458,
	"type": 3,
	"width": 18,
	"height": 18,
	"flags": 16,
	"tiles": [
		[
			[403,65535,65535],
			[403,65535,65535],
			[403,65535,65535],
			[403,65535,65535],
			[403,65535,899],
			[403,65535,65535],
			[403,65535,65535],
			[403,65535,65535],
			[1577,65535,65535],
			[403,65535,65535],
			[403,65535,65535],
			[403,65535,65535],
			[403,65535,65535],
			[403,65535,65535],
			[403,65535,65535],
			[403,65535,65535],
			[403,65535,65535],
			[403,65535,65535]
		],
		[
			[403,65535,65535],
			[1578,65535,65535],
			[403,65535,65535],
			[403,65535,65535],
			[1579,65535,1815],
			[403,65535,65535],
			[403,65535,65535],
			[1578,65535,65535],
			[403,65535,899],
			[403,65535,65535],
			[403,65535,65535],
			[403,65535,65535],
			[403,65535,65535],
			[403,65535,65535],
			[403,65535,65535],
			[403,65535,65535],
			[403,65535,65535],
			[403,65535,65535]
		],
		[
			[403,65535,65535],
			[403,65535,65535],
			[403,374,65535],
			[403,376,65535],
			[403,898,65535],
			[403,374,65535],
			[403,375,65535],
			[403,376,65535],
			[403,65535,1815],
			[403,65535,65535],
			[403,374,65535],
			[403,376,65535],
			[403,65535,65535],
			[403,65535,65535],
			[403,65535,65535],
			[403,65535,899],
			[403,65535,65535],
			[403,65535,65535]
		],
		[
			[403,65535,65535],
			[403,65535,899],
			[403,380,65535],
			[403,381,65535],
			[403,65535,65535],
			[403,380,65535],
			[403,387,65535],
			[403,381,65535],
			[403,898,65535],
			[403,388,65535],
			[403,380,65535],
			[403,381,65535],
			[1579,65535,65535],
			[403,374,65535],
			[403,376,65535],
			[403,65535,1815],
			[403,65535,65535],
			[403,65535,65535]
		],
		[
			[403,65535,65535],
			[1577,65535,1815],
			[403,380,65535],
			[403,383,65535],
			[403,375,65535],
			[403,382,65535],
			[403,386,65535],
			[403,381,65535],
			[403,374,65535],
			[403,375,65535],
			[403,382,65535],
			[403,383,65535],
			[403,375,65535],
			[403,382,65535],
			[403,381,65535],
			[403,898,65535],
			[403,65535,65535],
			[403,65535,65535]
		],
		[
			[403,65535,65535],
			[403,898,65535],
			[403,380,65535],
			[403,386,65535],
			[403,387,65535],
			[403,386,65535],
			[403,387,65535],
			[403,381,65535],
			[403,380,65535],
			[403,386,65535],
			[403,387,65535],
			[403,386,65535],
			[403,1619,65535],
			[403,386,65535],
			[403,383,65535],
			[403,376,65535],
			[403,65535,65535],
			[403,65535,65535]
		],
		[
			[403,65535,65535],
			[403,65535,65535],
			[377,380,65535],
			[403,387,944],
			[403,386,945],
			[403,387,946],
			[403,386,65535],
			[403,383,65535],
			[403,382,65535],
			[403,386,65535],
			[403,385,65535],
			[378,65535,65535],
			[378,1306,1306],
			[378,1307,65535],
			[403,384,65535],
			[403,381,65535],
			[1630,65535,65535],
			[1630,65535,65535]
		],
		[
			[403,65535,65535],
			[403,374,65535],
			[403,382,65535],
			[377,387,941],
			[403,387,900],
			[403,386,943],
			[403,387,65535],
			[403,385,65535],
			[403,384,944],
			[403,387,945],
			[403,381,946],
			[403,390,65535],
			[1671,65535,65535],
			[1672,1823,65535],
			[377,65535,65535],
			[379,65535,65535],
			[403,65535,65535],
			[403,65535,65535]
		],
		[
			[403,65535,65535],
			[403,380,65535],
			[403,385,65535],
			[378,65535,65535],
			[378,65535,1023],
			[403,384,65535],
			[403,386,65535],
			[403,381,65535],
			[403,380,941],
			[403,386,900],
			[403,383,943],
			[403,376,65535],
			[403,65535,65535],
			[403,65535,65535],
			[403,65535,65535],
			[403,65535,65535],
			[403,65535,65535],
			[403,65535,65535]
		],
		[
			[403,65535,65535],
			[403,380,65535],
			[403,383,65535],
			[403,376,65535],
			[403,901,65535],
			[403,380,65535],
			[403,387,65535],
			[403,381,65535],
			[377,65535,65535],
			[378,65535,1023],
			[403,384,65535],
			[377,383,65535],
			[403,376,65535],
			[403,65535,65535],
			[403,374,65535],
			[403,376,65535],
			[403,65535,65535],
			[403,65535,65535]
		],
		[
			[403,65535,65535],
			[377,65535,65535],
			[378,65535,871],
			[379,65535,872],
			[861,65535,873],
			[403,380,65535],
			[403,386,899],
			[403,383,65535],
			[403,376,65535],
			[403,901,65535],
			[403,380,65535],
			[403,387,65535],
			[403,381,65535],
			[403,65535,65535],
			[403,380,65535],
			[403,381,65535],
			[403,65535,65535],
			[403,65535,65535]
		],
		[
			[403,65535,65535],
			[859,65535,871],
			[867,355,877],
			[858,355,888],
			[403,65535,885],
			[377,65535,65535],
			[378,65535,1815],
			[378,65535,65535],
			[379,65535,65535],
			[403,65535,65535],
			[377,65535,65535],
			[403,384,65535],
			[403,381,65535],
			[403,65535,65535],
			[377,65535,65535],
			[379,65535,65535],
			[403,65535,65535],
			[1578,65535,65535]
		],
		[
			[403,65535,65535],
			[865,65535,874],
			[858,892,875],
			[403,892,878],
			[403,893,872],
			[861,65535,873],
			[1575,898,65535],
			[1576,65535,65535],
			[1672,374,65535],
			[403,375,65535],
			[403,375,65535],
			[403,382,871],
			[403,381,872],
			[860,65535,872],
			[861,65535,873],
			[1578,65535,65535],
			[403,65535,65535],
			[403,65535,65535]
		],
		[
			[403,65535,65535],
			[403,65535,883],
			[403,355,884],
			[403,355,884],
			[403,355,887],
			[868,355,878],
			[860,65535,872],
			[861,65535,873],
			[377,65535,65535],
			[378,65535,871],
			[378,65535,872],
			[378,65535,877],
			[858,65535,888],
			[858,355,884],
			[1630,65535,885],
			[1630,65535,65535],
			[1630,65535,65535],
			[1630,65535,65535]
		],
		[
			[403,65535,65535],
			[403,891,65535],
			[403,892,65535],
			[403,892,871],
			[403,892,877],
			[858,355,875],
			[858,355,888],
			[403,65535,885],
			[403,65535,65535],
			[865,65535,874],
			[858,355,875],
			[858,355,888],
			[858,892,885],
			[403,892,65535],
			[861,893,65535],
			[1577,65535,65535],
			[1579,65535,65535],
			[1577,65535,65535]
		],
		[
			[403,65535,65535],
			[879,65535,65535],
			[880,65535,65535],
			[880,65535,883],
			[858,355,884],
			[858,355,884],
			[403,892,885],
			[861,893,65535],
			[1575,65535,65535],
			[403,65535,883],
			[858,355,884],
			[858,892,885],
			[897,893,65535],
			[880,65535,65535],
			[881,65535,65535],
			[403,65535,65535],
			[403,65535,65535],
			[403,65535,65535]
		],
		[
			[403,65535,65535],
			[403,65535,65535],
			[403,65535,65535],
			[403,891,65535],
			[403,892,65535],
			[403,892,65535],
			[897,893,65535],
			[881,65535,65535],
			[403,65535,65535],
			[403,891,65535],
			[403,892,65535],
			[897,893,65535],
			[881,65535,65535],
			[403,65535,65535],
			[1578,65535,65535],
			[1577,65535,65535],
			[403,65535,65535],
			[1578,65535,65535]
		],
		[
			[403,65535,65535],
			[403,65535,65535],
			[403,65535,65535],
			[879,65535,65535],
			[880,65535,65535],
			[880,65535,65535],
			[881,65535,65535],
			[403,65535,65535],
			[403,65535,65535],
			[879,65535,65535],
			[880,65535,65535],
			[881,65535,65535],
			[403,65535,65535],
			[403,65535,65535],
			[403,65535,65535],
			[1579,65535,65535],
			[403,65535,65535],
			[403,65535,65535]
		]
	]
}
