{
	"id": 465,
	"type": 2,
	"width": 18,
	"height": 18,
	"flags": 6,
	"tiles": [
		[
			[648,65535,65535],
			[648,65535,65535],
			[648,65535,65535],
			[648,65535,65535],
			[648,65535,65535],
			[648,65535,65535],
			[648,65535,65535],
			[648,65535,65535],
			[648,65535,65535],
			[648,65535,65535],
			[648,65535,65535],
			[648,65535,65535],
			[648,65535,65535],
			[648,65535,65535],
			[648,65535,65535],
			[648,65535,65535],
			[648,65535,65535],
			[648,65535,65535]
		],
		[
			[648,65535,65535],
			[648,65535,65535],
			[648,65535,65535],
			[997,65535,65535],
			[648,65535,65535],
			[648,1313,65535],
			[648,1174,65535],
			[648,1175,65535],
			[648,739,65535],
			[648,750,995],
			[648,740,65535],
			[648,65535,65535],
			[648,65535,65535],
			[648,65535,65535],
			[648,65535,65535],
			[648,65535,65535],
			[648,65535,65535],
			[648,65535,65535]
		],
		[
			[648,65535,65535],
			[648,65535,65535],
			[648,65535,65535],
			[648,65535,65535],
			[648,65535,65535],
			[648,65535,65535],
			[1000,1174,65535],
			[648,1175,65535],
			[648,745,65535],
			[648,994,65535],
			[648,744,65535],
			[753,65535,65535],
			[648,740,65535],
			[648,65535,65535],
			[648,65535,65535],
			[997,65535,65535],
			[648,65535,65535],
			[648,65535,65535]
		],
		[
			[648,65535,65535],
			[648,65535,65535],
			[648,65535,65535],
			[648,65535,65535],
			[648,739,65535],
			[648,750,65535],
			[648,750,65535],
			[648,750,65535],
			[648,743,65535],
			[648,65535,65535],
			[648,65535,65535],
			[648,65535,65535],
			[648,744,65535],
			[648,740,65535],
			[648,65535,65535],
			[648,65535,65535],
			[648,65535,65535],
			[648,65535,65535]
		],
		[
			[648,65535,65535],
			[648,65535,65535],
			[648,65535,65535],
			[648,739,65535],
			[648,743,65535],
			[648,65535,65535],
			[648,355,807],
			[648,65535,65535],
			[648,65535,65535],
			[648,65535,65535],
			[648,65535,65535],
			[0,648,996],
			[648,742,65535],
			[648,738,65535],
			[648,65535,65535],
			[648,65535,65535],
			[1000,65535,65535],
			[648,65535,65535]
		],
		[
			[648,65535,65535],
			[648,65535,65535],
			[648,739,65535],
			[648,743,65535],
			[648,65535,65535],
			[648,65535,65535],
			[648,65535,65535],
			[648,65535,65535],
			[648,65535,65535],
			[648,65535,65535],
			[648,65535,65535],
			[648,742,65535],
			[648,738,65535],
			[998,65535,65535],
			[648,65535,65535],
			[648,65535,65535],
			[648,65535,65535],
			[648,65535,65535]
		],
		[
			[648,65535,65535],
			[648,65535,65535],
			[648,737,65535],
			[648,736,65535],
			[648,798,65535],
			[0,802,65535],
			[805,806,65535],
			[648,802,65535],
			[648,804,65535],
			[648,735,1654],
			[648,732,1655],
			[648,738,1656],
			[648,65535,65535],
			[648,65535,65535],
			[648,65535,65535],
			[648,65535,65535],
			[648,65535,65535],
			[648,65535,65535]
		],
		[
			[649,65535,65535],
			[649,65535,65535],
			[649,65535,65535],
			[649,65535,65535],
			[649,65535,65535],
			[648,65535,65535],
			[649,65535,65535],
			[648,65535,65535],
			[649,65535,65535],
			[649,65535,1657],
			[648,1658,65535],
			[1000,1659,65535],
			[997,65535,65535],
			[1000,65535,65535],
			[1000,65535,65535],
			[1000,65535,65535],
			[1000,65535,65535],
			[1000,65535,65535]
		],
		[
			[648,65535,65535],
			[648,65535,65535],
			[648,65535,65535],
			[648,65535,65535],
			[648,65535,65535],
			[648,65535,65535],
			[648,65535,65535],
			[648,65535,65535],
			[648,65535,65535],
			[648,65535,65535],
			[648,65535,65535],
			[648,65535,65535],
			[648,65535,65535],
			[648,65535,65535],
			[648,65535,65535],
			[648,739,65535],
			[648,740,65535],
			[648,65535,65535]
		],
		[
			[648,65535,65535],
			[648,65535,65535],
			[648,65535,65535],
			[648,65535,65535],
			[648,65535,65535],
			[648,739,65535],
			[648,750,995],
			[648,740,65535],
			[648,65535,65535],
			[648,65535,65535],
			[648,65535,65535],
			[648,65535,65535],
			[648,65535,65535],
			[648,739,65535],
			[648,750,65535],
			[648,743,65535],
			[648,724,65535],
			[648,65535,65535]
		],
		[
			[648,65535,65535],
			[648,65535,65535],
			[648,65535,65535],
			[648,65535,65535],
			[648,739,65535],
			[648,743,65535],
			[648,994,65535],
			[648,744,65535],
			[648,740,65535],
			[648,65535,65535],
			[648,65535,65535],
			[1000,65535,65535],
			[648,65535,65535],
			[648,737,65535],
			[648,741,65535],
			[648,65535,65535],
			[648,724,65535],
			[648,65535,65535]
		],
		[
			[648,65535,65535],
			[648,65535,65535],
			[648,65535,65535],
			[648,65535,65535],
			[648,737,65535],
			[648,741,65535],
			[648,65535,65535],
			[648,65535,65535],
			[648,744,65535],
			[648,750,65535],
			[648,740,65535],
			[648,65535,65535],
			[648,65535,65535],
			[648,65535,65535],
			[648,745,65535],
			[648,65535,65535],
			[648,724,65535],
			[648,65535,65535]
		],
		[
			[648,65535,65535],
			[648,65535,65535],
			[648,65535,65535],
			[648,1313,65535],
			[648,65535,65535],
			[648,745,65535],
			[648,65535,65535],
			[648,65535,65535],
			[648,65535,65535],
			[648,65535,65535],
			[648,744,65535],
			[648,740,65535],
			[648,65535,65535],
			[648,65535,65535],
			[648,737,65535],
			[648,741,65535],
			[648,724,65535],
			[648,65535,65535]
		],
		[
			[648,65535,65535],
			[648,65535,65535],
			[648,65535,65535],
			[648,65535,65535],
			[648,65535,1654],
			[648,737,1655],
			[0,732,1656],
			[648,741,65535],
			[648,65535,65535],
			[1319,65535,65535],
			[648,65535,65535],
			[648,744,65535],
			[648,740,65535],
			[648,65535,65535],
			[648,65535,65535],
			[648,737,65535],
			[648,738,65535],
			[648,65535,65535]
		],
		[
			[997,65535,65535],
			[649,65535,65535],
			[649,65535,65535],
			[649,65535,65535],
			[998,65535,1657],
			[648,1658,65535],
			[648,1659,65535],
			[648,737,65535],
			[648,730,65535],
			[653,65535,65535],
			[648,652,65535],
			[648,729,65535],
			[648,738,65535],
			[648,65535,65535],
			[998,65535,65535],
			[648,65535,65535],
			[648,65535,65535],
			[648,65535,65535]
		],
		[
			[648,65535,65535],
			[648,65535,65535],
			[648,65535,65535],
			[648,65535,65535],
			[648,65535,65535],
			[648,65535,65535],
			[648,1313,65535],
			[648,65535,65535],
			[997,65535,65535],
			[1318,65535,65535],
			[674,65535,65535],
			[648,65535,65535],
			[648,65535,65535],
			[648,727,65535],
			[648,704,65535],
			[0,704,65535],
			[648,705,65535],
			[1000,65535,65535]
		],
		[
			[648,65535,65535],
			[648,700,65535],
			[648,704,65535],
			[648,704,65535],
			[648,704,65535],
			[1000,704,65535],
			[648,704,65535],
			[648,705,65535],
			[648,65535,65535],
			[648,65535,65535],
			[1317,65535,65535],
			[0,700,65535],
			[1000,704,65535],
			[648,716,65535],
			[648,1313,65535],
			[648,65535,65535],
			[648,65535,65535],
			[648,65535,65535]
		],
		[
			[648,65535,65535],
			[648,65535,65535],
			[648,65535,65535],
			[648,65535,65535],
			[648,65535,65535],
			[648,65535,65535],
			[648,65535,65535],
			[648,65535,65535],
			[648,65535,65535],
			[648,65535,65535],
			[648,65535,65535],
			[648,65535,65535],
			[1319,65535,65535],
			[648,65535,65535],
			[648,65535,65535],
			[648,65535,65535],
			[648,65535,65535],
			[648,65535,65535]
		]
	]
}
