{
	"id": 475,
	"type": 3,
	"width": 9,
	"height": 9,
	"flags": 8,
	"tiles": [
		[
			[0,195,65535],
			[0,195,65535],
			[192,196,65535],
			[0,629,1091],
			[0,629,1087],
			[0,629,1294],
			[192,198,65535],
			[0,195,65535],
			[0,195,65535]
		],
		[
			[0,195,65535],
			[0,195,65535],
			[192,202,65535],
			[600,65535,65535],
			[1088,1089,65535],
			[600,65535,65535],
			[192,201,65535],
			[0,195,65535],
			[0,195,65535]
		],
		[
			[192,195,65535],
			[192,195,65535],
			[192,202,65535],
			[600,65535,65535],
			[600,65535,65535],
			[600,65535,65535],
			[192,201,65535],
			[192,195,65535],
			[192,195,65535]
		],
		[
			[192,196,65535],
			[188,65535,65535],
			[203,65535,65535],
			[192,184,65535],
			[600,65535,65535],
			[192,184,65535],
			[204,65535,65535],
			[188,65535,65535],
			[192,198,65535]
		],
		[
			[192,202,65535],
			[192,65535,65535],
			[192,65535,65535],
			[192,65535,65535],
			[192,65535,65535],
			[192,65535,65535],
			[192,65535,65535],
			[192,65535,65535],
			[192,201,65535]
		],
		[
			[192,202,65535],
			[192,65535,65535],
			[192,205,65535],
			[192,218,65535],
			[598,218,65535],
			[192,218,65535],
			[192,206,65535],
			[192,65535,65535],
			[192,201,65535]
		],
		[
			[192,202,65535],
			[192,65535,65535],
			[204,65535,65535],
			[189,65535,65535],
			[197,65535,65535],
			[189,65535,65535],
			[203,65535,65535],
			[192,65535,65535],
			[192,201,65535]
		],
		[
			[192,202,65535],
			[192,65535,65535],
			[192,65535,65535],
			[192,65535,65535],
			[192,65535,65535],
			[192,65535,65535],
			[192,65535,65535],
			[192,65535,65535],
			[192,201,65535]
		],
		[
			[0,195,65535],
			[192,218,65535],
			[192,218,65535],
			[192,206,65535],
			[194,65535,65535],
			[192,205,65535],
			[192,218,65535],
			[192,218,65535],
			[0,195,65535]
		]
	]
}
