{
	"id": 481,
	"type": 1,
	"width": 18,
	"height": 18,
	"flags": 1,
	"tiles": [
		[
			[0,65535,65535],
			[0,65535,65535],
			[0,65535,65535],
			[0,65535,65535],
			[0,65535,65535],
			[0,65535,65535],
			[0,65535,65535],
			[0,65535,65535],
			[0,65535,65535],
			[0,65535,65535],
			[0,65535,65535],
			[0,65535,65535],
			[0,65535,65535],
			[2,65535,65535],
			[0,65535,65535],
			[0,65535,65535],
			[0,65535,65535],
			[0,65535,65535]
		],
		[
			[0,65535,65535],
			[0,65535,65535],
			[0,65535,65535],
			[3,65535,65535],
			[0,65535,65535],
			[0,65535,65535],
			[0,65535,65535],
			[0,65535,65535],
			[0,65535,65535],
			[0,65535,65535],
			[0,65535,65535],
			[0,65535,65535],
			[0,65535,65535],
			[0,65535,65535],
			[0,65535,65535],
			[0,65535,65535],
			[0,65535,65535],
			[0,65535,65535]
		],
		[
			[0,65535,65535],
			[0,65535,65535],
			[0,65535,65535],
			[0,65535,65535],
			[0,65535,65535],
			[0,65535,65535],
			[0,65535,65535],
			[0,65535,65535],
			[0,647,65535],
			[0,65535,65535],
			[0,65535,65535],
			[0,65535,65535],
			[0,65535,65535],
			[0,65535,644],
			[0,65535,65535],
			[0,65535,65535],
			[0,65535,65535],
			[0,65535,65535]
		],
		[
			[0,65535,65535],
			[0,65535,65535],
			[0,65535,65535],
			[0,65535,65535],
			[0,65535,65535],
			[0,65535,65535],
			[0,65535,65535],
			[0,65535,65535],
			[0,65535,65535],
			[0,65535,65535],
			[0,65535,65535],
			[3,65535,65535],
			[0,65535,65535],
			[0,642,65535],
			[0,65535,65535],
			[0,65535,65535],
			[4,65535,65535],
			[0,65535,65535]
		],
		[
			[0,65535,65535],
			[0,65535,65535],
			[2,65535,65535],
			[0,65535,65535],
			[0,65535,65535],
			[0,287,275],
			[0,288,65535],
			[0,288,65535],
			[0,288,65535],
			[0,288,65535],
			[0,288,65535],
			[0,288,166],
			[0,289,275],
			[365,65535,65535],
			[0,65535,65535],
			[0,65535,65535],
			[0,65535,65535],
			[0,65535,65535]
		],
		[
			[0,65535,65535],
			[0,65535,65535],
			[0,65535,65535],
			[0,65535,65535],
			[0,65535,65535],
			[0,275,275],
			[0,65535,65535],
			[282,65535,530],
			[1304,355,65535],
			[0,65535,65535],
			[0,65535,65535],
			[0,165,65535],
			[0,294,65535],
			[371,65535,65535],
			[0,65535,65535],
			[0,65535,645],
			[0,65535,65535],
			[0,65535,65535]
		],
		[
			[0,65535,65535],
			[0,65535,65535],
			[0,65535,65535],
			[0,65535,65535],
			[0,65535,645],
			[0,275,275],
			[281,344,65535],
			[282,531,1423],
			[536,65535,65535],
			[282,65535,65535],
			[0,65535,65535],
			[0,65535,65535],
			[0,65535,65535],
			[0,65535,65535],
			[0,65535,65535],
			[0,643,65535],
			[0,65535,65535],
			[0,65535,65535]
		],
		[
			[0,65535,65535],
			[0,65535,65535],
			[0,65535,65535],
			[365,65535,65535],
			[0,642,65535],
			[0,287,65535],
			[0,288,65535],
			[282,288,65535],
			[281,288,65535],
			[282,288,65535],
			[0,288,65535],
			[365,288,65535],
			[365,289,65535],
			[0,65535,65535],
			[0,65535,65535],
			[0,65535,65535],
			[0,65535,65535],
			[0,65535,65535]
		],
		[
			[0,65535,65535],
			[0,65535,65535],
			[367,65535,644],
			[368,65535,65535],
			[369,65535,65535],
			[0,65535,65535],
			[0,65535,65535],
			[0,65535,65535],
			[0,65535,65535],
			[0,646,65535],
			[365,65535,65535],
			[364,65535,65535],
			[368,65535,644],
			[369,65535,65535],
			[365,647,65535],
			[0,65535,65535],
			[0,65535,65535],
			[0,65535,65535]
		],
		[
			[0,65535,65535],
			[0,65535,65535],
			[367,643,65535],
			[372,65535,65535],
			[0,65535,65535],
			[0,647,65535],
			[0,65535,65535],
			[0,65535,645],
			[0,65535,65535],
			[367,65535,65535],
			[368,65535,65535],
			[368,65535,65535],
			[372,643,65535],
			[367,65535,65535],
			[368,65535,65535],
			[366,65535,65535],
			[0,65535,65535],
			[0,65535,65535]
		],
		[
			[0,65535,65535],
			[367,65535,65535],
			[368,65535,65535],
			[369,65535,65535],
			[0,65535,65535],
			[0,65535,644],
			[364,65535,65535],
			[368,643,65535],
			[0,65535,65535],
			[0,65535,644],
			[370,65535,65535],
			[372,65535,645],
			[371,65535,65535],
			[364,65535,645],
			[368,65535,65535],
			[368,65535,65535],
			[369,65535,65535],
			[0,65535,65535]
		],
		[
			[0,65535,65535],
			[0,65535,65535],
			[370,65535,65535],
			[369,65535,65535],
			[0,65535,645],
			[0,642,65535],
			[368,65535,65535],
			[372,65535,65535],
			[0,65535,65535],
			[368,642,65535],
			[0,65535,65535],
			[365,643,65535],
			[367,65535,65535],
			[372,642,65535],
			[372,65535,65535],
			[371,65535,65535],
			[0,65535,65535],
			[0,65535,65535]
		],
		[
			[0,65535,65535],
			[0,646,65535],
			[0,65535,65535],
			[0,65535,65535],
			[0,642,65535],
			[0,65535,65535],
			[371,65535,65535],
			[0,65535,65535],
			[0,65535,645],
			[0,65535,65535],
			[0,65535,65535],
			[365,65535,65535],
			[365,65535,65535],
			[0,65535,65535],
			[0,65535,65535],
			[0,65535,65535],
			[0,65535,65535],
			[0,65535,65535]
		],
		[
			[0,65535,65535],
			[0,65535,65535],
			[0,65535,65535],
			[0,65535,65535],
			[0,65535,65535],
			[0,65535,65535],
			[0,65535,65535],
			[364,646,65535],
			[365,643,65535],
			[365,65535,65535],
			[370,65535,65535],
			[368,65535,65535],
			[368,65535,65535],
			[369,65535,65535],
			[0,65535,65535],
			[0,65535,65535],
			[0,65535,65535],
			[0,65535,65535]
		],
		[
			[0,65535,65535],
			[0,65535,65535],
			[0,65535,65535],
			[0,65535,644],
			[365,65535,65535],
			[0,65535,65535],
			[367,65535,644],
			[368,65535,65535],
			[368,65535,65535],
			[372,65535,65535],
			[0,65535,65535],
			[372,65535,65535],
			[371,646,65535],
			[0,65535,65535],
			[0,65535,65535],
			[0,65535,65535],
			[0,65535,65535],
			[0,65535,65535]
		],
		[
			[0,65535,65535],
			[0,65535,65535],
			[0,65535,65535],
			[0,642,65535],
			[364,65535,65535],
			[366,65535,65535],
			[0,642,65535],
			[370,65535,65535],
			[368,65535,65535],
			[369,65535,644],
			[0,65535,65535],
			[0,65535,65535],
			[0,65535,65535],
			[0,65535,65535],
			[0,65535,65535],
			[0,65535,65535],
			[0,65535,65535],
			[0,65535,65535]
		],
		[
			[0,65535,65535],
			[4,65535,65535],
			[0,65535,65535],
			[0,65535,65535],
			[370,647,65535],
			[368,65535,65535],
			[372,65535,65535],
			[0,65535,65535],
			[371,65535,65535],
			[0,643,65535],
			[0,65535,65535],
			[0,65535,65535],
			[0,65535,65535],
			[0,65535,65535],
			[0,65535,65535],
			[0,65535,65535],
			[0,65535,65535],
			[0,65535,65535]
		],
		[
			[0,65535,65535],
			[0,65535,65535],
			[0,65535,65535],
			[0,65535,65535],
			[0,65535,65535],
			[371,646,65535],
			[0,65535,65535],
			[0,65535,65535],
			[0,65535,65535],
			[0,65535,65535],
			[0,65535,65535],
			[0,65535,65535],
			[0,65535,65535],
			[0,65535,65535],
			[0,65535,65535],
			[2,65535,65535],
			[0,65535,65535],
			[0,65535,65535]
		]
	]
}
