{
	"id": 494,
	"type": 2,
	"width": 18,
	"height": 18,
	"flags": 17,
	"tiles": [
		[
			[648,65535,65535],
			[648,65535,65535],
			[648,65535,65535],
			[648,65535,65535],
			[1000,65535,65535],
			[648,65535,65535],
			[648,65535,65535],
			[648,65535,65535],
			[648,65535,65535],
			[648,65535,65535],
			[648,65535,65535],
			[648,65535,65535],
			[648,65535,65535],
			[648,65535,65535],
			[648,65535,65535],
			[997,65535,65535],
			[648,65535,65535],
			[648,65535,65535]
		],
		[
			[648,65535,65535],
			[648,658,65535],
			[648,670,65535],
			[648,671,65535],
			[674,65535,65535],
			[648,672,65535],
			[648,659,65535],
			[648,65535,65535],
			[648,65535,65535],
			[648,658,65535],
			[648,671,65535],
			[674,65535,65535],
			[648,658,65535],
			[648,659,65535],
			[648,65535,65535],
			[648,65535,65535],
			[648,65535,65535],
			[648,65535,65535]
		],
		[
			[648,65535,65535],
			[648,666,65535],
			[648,658,65535],
			[648,670,65535],
			[648,670,65535],
			[648,659,65535],
			[648,663,65535],
			[677,355,1754],
			[648,659,65535],
			[648,666,65535],
			[648,658,65535],
			[648,659,65535],
			[648,666,65535],
			[648,663,65535],
			[648,659,65535],
			[1000,65535,65535],
			[648,65535,65535],
			[648,65535,65535]
		],
		[
			[1000,65535,65535],
			[648,65535,65535],
			[648,664,65535],
			[1319,65535,65535],
			[648,65535,65535],
			[648,663,65535],
			[648,670,65535],
			[648,659,65535],
			[648,663,65535],
			[648,670,65535],
			[648,662,65535],
			[648,663,65535],
			[648,670,65535],
			[648,659,65535],
			[648,667,65535],
			[648,65535,65535],
			[648,65535,65535],
			[648,65535,65535]
		],
		[
			[648,65535,65535],
			[648,665,65535],
			[648,656,65535],
			[653,651,65535],
			[648,660,65535],
			[1319,65535,65535],
			[648,65535,65535],
			[648,663,65535],
			[648,659,65535],
			[648,675,65535],
			[648,658,65535],
			[648,670,65535],
			[648,659,65535],
			[648,667,65535],
			[648,667,65535],
			[648,658,65535],
			[648,659,65535],
			[648,65535,65535]
		],
		[
			[648,65535,65535],
			[648,664,65535],
			[648,65535,65535],
			[1318,65535,65535],
			[648,656,65535],
			[653,651,65535],
			[648,660,65535],
			[648,65535,65535],
			[648,663,65535],
			[648,670,65535],
			[648,662,65535],
			[648,65535,65535],
			[648,667,65535],
			[648,667,65535],
			[648,663,65535],
			[648,662,65535],
			[648,667,65535],
			[648,65535,65535]
		],
		[
			[648,65535,65535],
			[648,656,65535],
			[653,65535,65535],
			[648,660,65535],
			[648,65535,65535],
			[1318,65535,65535],
			[648,664,65535],
			[648,65535,65535],
			[648,65535,65535],
			[648,65535,65535],
			[1000,65535,65535],
			[648,661,65535],
			[648,657,65535],
			[648,663,65535],
			[648,659,65535],
			[648,661,65535],
			[648,657,65535],
			[648,65535,65535]
		],
		[
			[648,65535,65535],
			[648,65535,65535],
			[648,658,65535],
			[648,662,65535],
			[648,65535,65535],
			[648,658,65535],
			[648,662,65535],
			[648,65535,65535],
			[1319,65535,65535],
			[648,65535,65535],
			[648,65535,65535],
			[648,663,65535],
			[648,659,65535],
			[648,675,65535],
			[648,667,65535],
			[708,355,65535],
			[648,65535,65535],
			[648,65535,65535]
		],
		[
			[648,65535,65535],
			[648,65535,65535],
			[648,664,65535],
			[648,65535,65535],
			[648,658,65535],
			[648,662,65535],
			[648,65535,65535],
			[648,661,65535],
			[653,651,65535],
			[648,660,65535],
			[1319,65535,65535],
			[648,65535,65535],
			[648,663,65535],
			[648,659,65535],
			[648,667,65535],
			[648,669,65535],
			[648,65535,65535],
			[648,65535,65535]
		],
		[
			[997,65535,65535],
			[648,65535,65535],
			[648,656,65535],
			[648,660,65535],
			[648,664,65535],
			[648,65535,65535],
			[648,661,65535],
			[648,657,65535],
			[1318,65535,65535],
			[648,656,65535],
			[653,651,65535],
			[648,660,65535],
			[648,65535,65535],
			[648,667,65535],
			[648,663,65535],
			[648,670,65535],
			[648,659,65535],
			[648,65535,65535]
		],
		[
			[648,65535,65535],
			[648,65535,65535],
			[648,65535,65535],
			[707,355,65535],
			[648,664,65535],
			[1000,65535,65535],
			[648,669,65535],
			[648,668,65535],
			[648,65535,65535],
			[648,65535,65535],
			[1318,65535,65535],
			[648,664,65535],
			[1000,65535,65535],
			[648,663,65535],
			[648,659,65535],
			[648,661,65535],
			[648,657,65535],
			[1000,65535,65535]
		],
		[
			[648,65535,65535],
			[648,65535,65535],
			[648,658,65535],
			[648,662,65535],
			[92,656,65535],
			[673,655,65535],
			[648,65535,65535],
			[648,667,65535],
			[648,65535,65535],
			[648,665,65535],
			[648,65535,65535],
			[648,656,65535],
			[648,660,65535],
			[648,65535,65535],
			[648,667,65535],
			[648,667,65535],
			[648,668,65535],
			[648,65535,65535]
		],
		[
			[648,65535,65535],
			[648,665,65535],
			[648,656,65535],
			[648,660,65535],
			[648,65535,65535],
			[648,65535,65535],
			[1319,65535,65535],
			[648,667,65535],
			[648,65535,65535],
			[648,664,65535],
			[648,65535,65535],
			[648,65535,65535],
			[648,656,65535],
			[653,65535,65535],
			[648,657,65535],
			[648,667,65535],
			[648,667,65535],
			[648,65535,65535]
		],
		[
			[648,65535,65535],
			[648,664,65535],
			[648,65535,65535],
			[648,656,65535],
			[653,651,65535],
			[648,650,65535],
			[653,651,65535],
			[648,657,65535],
			[648,65535,65535],
			[648,656,65535],
			[648,651,65535],
			[648,652,65535],
			[648,650,65535],
			[648,650,65535],
			[653,651,65535],
			[648,657,65535],
			[648,667,65535],
			[648,65535,65535]
		],
		[
			[648,65535,65535],
			[648,656,65535],
			[676,652,65535],
			[648,660,65535],
			[648,65535,65535],
			[648,65535,65535],
			[1318,65535,65535],
			[648,65535,65535],
			[648,65535,65535],
			[648,65535,65535],
			[1000,65535,65535],
			[648,675,65535],
			[648,65535,65535],
			[648,65535,65535],
			[1318,65535,65535],
			[648,65535,65535],
			[648,667,65535],
			[997,65535,65535]
		],
		[
			[648,65535,65535],
			[648,65535,65535],
			[648,65535,65535],
			[648,656,65535],
			[653,65535,65535],
			[676,651,65535],
			[0,650,65535],
			[648,651,65535],
			[653,650,65535],
			[648,652,65535],
			[648,660,65535],
			[648,65535,65535],
			[648,654,65535],
			[648,655,65535],
			[648,661,65535],
			[648,651,65535],
			[648,657,65535],
			[648,65535,65535]
		],
		[
			[648,65535,65535],
			[1000,65535,65535],
			[648,65535,65535],
			[648,65535,65535],
			[648,65535,65535],
			[648,355,1172],
			[648,1822,65535],
			[648,65535,65535],
			[648,65535,65535],
			[648,65535,65535],
			[648,656,65535],
			[648,651,65535],
			[676,650,65535],
			[676,355,1755],
			[648,657,65535],
			[648,65535,65535],
			[648,65535,65535],
			[648,65535,65535]
		],
		[
			[648,65535,65535],
			[648,65535,65535],
			[648,65535,65535],
			[648,65535,65535],
			[648,65535,65535],
			[648,65535,65535],
			[648,65535,65535],
			[648,65535,65535],
			[997,65535,65535],
			[648,65535,65535],
			[648,65535,65535],
			[648,65535,65535],
			[648,65535,65535],
			[648,65535,65535],
			[648,65535,65535],
			[648,65535,65535],
			[648,65535,65535],
			[648,65535,65535]
		]
	]
}
