{
	"id": 498,
	"type": 1,
	"width": 18,
	"height": 18,
	"flags": 8,
	"tiles": [
		[
			[0,196,65535],
			[0,241,65535],
			[306,233,234],
			[0,242,65535],
			[188,355,65535],
			[197,355,65535],
			[188,355,65535],
			[197,355,65535],
			[197,355,65535],
			[197,355,65535],
			[188,355,65535],
			[197,355,65535],
			[188,355,65535],
			[0,241,65535],
			[306,233,234],
			[0,242,65535],
			[0,198,65535],
			[0,195,65535]
		],
		[
			[0,202,65535],
			[192,635,65535],
			[306,65535,65535],
			[192,65535,65535],
			[192,65535,65535],
			[192,65535,65535],
			[192,65535,65535],
			[192,65535,65535],
			[192,65535,65535],
			[192,65535,65535],
			[192,65535,65535],
			[192,65535,65535],
			[192,65535,65535],
			[192,65535,65535],
			[306,65535,65535],
			[192,635,65535],
			[192,201,65535],
			[0,195,65535]
		],
		[
			[0,202,65535],
			[192,65535,65535],
			[192,65535,65535],
			[192,65535,65535],
			[192,205,65535],
			[192,218,65535],
			[192,218,65535],
			[0,235,65535],
			[307,65535,234],
			[0,238,65535],
			[192,218,65535],
			[192,218,65535],
			[192,206,65535],
			[192,65535,65535],
			[192,65535,65535],
			[192,65535,65535],
			[192,201,65535],
			[0,195,65535]
		],
		[
			[0,202,65535],
			[192,65535,65535],
			[192,65535,65535],
			[197,205,65535],
			[197,196,65535],
			[189,355,65535],
			[189,241,65535],
			[306,246,620],
			[306,65535,65535],
			[306,247,65535],
			[189,242,65535],
			[189,355,65535],
			[197,198,65535],
			[197,206,65535],
			[192,65535,65535],
			[192,65535,65535],
			[192,201,65535],
			[0,195,65535]
		],
		[
			[0,202,65535],
			[192,65535,65535],
			[192,635,65535],
			[203,200,65535],
			[203,355,65535],
			[192,65535,65535],
			[192,65535,65535],
			[192,65535,65535],
			[192,65535,65535],
			[192,65535,65535],
			[192,65535,65535],
			[192,65535,65535],
			[204,355,65535],
			[309,199,65535],
			[192,65535,65535],
			[192,65535,65535],
			[192,201,65535],
			[0,195,65535]
		],
		[
			[0,202,65535],
			[192,65535,65535],
			[192,1343,65535],
			[192,242,621],
			[192,65535,65535],
			[192,65535,65535],
			[192,65535,65535],
			[192,65535,65535],
			[192,65535,65535],
			[192,65535,65535],
			[192,65535,65535],
			[192,65535,65535],
			[192,65535,65535],
			[192,241,621],
			[192,1342,65535],
			[192,65535,65535],
			[192,201,65535],
			[0,195,65535]
		],
		[
			[0,202,65535],
			[192,65535,65535],
			[192,240,65535],
			[192,65535,65535],
			[192,65535,65535],
			[192,65535,65535],
			[192,167,65535],
			[192,65535,65535],
			[192,65535,65535],
			[192,65535,65535],
			[192,167,65535],
			[192,65535,65535],
			[192,65535,65535],
			[192,65535,65535],
			[192,239,65535],
			[192,65535,65535],
			[204,355,65535],
			[0,198,65535]
		],
		[
			[0,202,65535],
			[192,65535,65535],
			[192,240,65535],
			[192,65535,65535],
			[192,65535,65535],
			[192,65535,65535],
			[192,65535,65535],
			[192,65535,65535],
			[192,65535,65535],
			[192,65535,65535],
			[192,65535,65535],
			[192,65535,65535],
			[192,65535,65535],
			[192,65535,65535],
			[209,239,65535],
			[192,65535,65535],
			[192,186,65535],
			[0,201,65535]
		],
		[
			[0,202,65535],
			[192,65535,65535],
			[310,65535,417],
			[306,65535,65535],
			[192,65535,65535],
			[192,65535,65535],
			[192,65535,65535],
			[192,205,65535],
			[604,218,610],
			[192,206,65535],
			[192,65535,65535],
			[192,65535,65535],
			[192,65535,65535],
			[306,65535,65535],
			[309,65535,416],
			[192,65535,65535],
			[192,186,65535],
			[0,201,65535]
		],
		[
			[0,202,65535],
			[192,65535,65535],
			[192,240,65535],
			[192,65535,65535],
			[192,65535,65535],
			[192,65535,65535],
			[192,65535,65535],
			[204,65535,65535],
			[197,1059,65535],
			[203,65535,65535],
			[192,65535,65535],
			[192,65535,65535],
			[192,65535,65535],
			[192,65535,65535],
			[192,239,65535],
			[192,65535,65535],
			[192,65535,65535],
			[0,201,65535]
		],
		[
			[0,202,65535],
			[192,65535,65535],
			[192,240,65535],
			[192,65535,65535],
			[192,65535,65535],
			[192,65535,65535],
			[192,167,65535],
			[192,65535,65535],
			[306,65535,65535],
			[192,65535,65535],
			[192,167,65535],
			[192,65535,65535],
			[192,65535,65535],
			[192,65535,65535],
			[192,239,65535],
			[192,65535,65535],
			[192,205,65535],
			[0,195,65535]
		],
		[
			[0,202,65535],
			[192,65535,65535],
			[192,247,65535],
			[192,1342,65535],
			[192,65535,65535],
			[192,65535,65535],
			[192,65535,65535],
			[192,65535,65535],
			[306,65535,65535],
			[192,65535,65535],
			[192,65535,65535],
			[192,65535,65535],
			[192,65535,65535],
			[192,1343,65535],
			[192,246,65535],
			[192,65535,65535],
			[192,201,65535],
			[0,195,65535]
		],
		[
			[0,195,65535],
			[192,65535,225],
			[192,218,65535],
			[192,243,65535],
			[192,65535,65535],
			[192,65535,65535],
			[192,65535,65535],
			[192,65535,65535],
			[306,65535,65535],
			[192,65535,65535],
			[192,65535,65535],
			[192,65535,65535],
			[192,65535,65535],
			[192,244,65535],
			[192,218,65535],
			[192,65535,225],
			[0,195,65535],
			[0,195,65535]
		],
		[
			[0,196,65535],
			[219,65535,65535],
			[192,198,65535],
			[192,218,65535],
			[192,206,65535],
			[192,65535,65535],
			[192,65535,65535],
			[192,65535,65535],
			[306,65535,65535],
			[192,65535,65535],
			[192,65535,65535],
			[192,65535,65535],
			[192,205,65535],
			[192,218,65535],
			[192,202,65535],
			[219,65535,65535],
			[192,198,65535],
			[0,195,65535]
		],
		[
			[0,202,65535],
			[192,65535,65535],
			[204,355,65535],
			[188,355,65535],
			[192,198,65535],
			[192,218,65535],
			[192,218,65535],
			[0,235,65535],
			[307,65535,234],
			[0,238,65535],
			[192,218,65535],
			[192,218,65535],
			[192,196,65535],
			[188,355,65535],
			[203,65535,65535],
			[192,65535,65535],
			[204,355,65535],
			[0,198,65535]
		],
		[
			[0,202,65535],
			[192,65535,65535],
			[192,65535,65535],
			[192,65535,65535],
			[204,65535,65535],
			[189,355,65535],
			[189,241,362],
			[306,246,65535],
			[306,65535,65535],
			[306,247,65535],
			[189,242,362],
			[189,355,65535],
			[203,65535,65535],
			[192,635,65535],
			[192,65535,65535],
			[192,65535,65535],
			[192,622,65535],
			[0,201,65535]
		],
		[
			[0,202,65535],
			[192,622,65535],
			[192,622,65535],
			[192,65535,65535],
			[192,65535,65535],
			[192,65535,65535],
			[192,65535,65535],
			[192,65535,65535],
			[192,65535,65535],
			[192,65535,65535],
			[192,65535,65535],
			[192,65535,65535],
			[192,65535,65535],
			[192,65535,65535],
			[192,65535,65535],
			[192,65535,65535],
			[192,622,65535],
			[0,201,65535]
		],
		[
			[0,195,65535],
			[192,218,65535],
			[192,218,65535],
			[192,218,65535],
			[192,218,65535],
			[192,218,65535],
			[192,218,65535],
			[192,206,65535],
			[194,65535,65535],
			[192,205,65535],
			[192,218,65535],
			[192,218,65535],
			[192,218,65535],
			[192,218,65535],
			[192,218,65535],
			[192,218,65535],
			[192,218,65535],
			[0,195,65535]
		]
	]
}
