{
	"id": 500,
	"type": 1,
	"width": 9,
	"height": 9,
	"flags": 8,
	"tiles": [
		[
			[192,196,65535],
			[197,355,65535],
			[188,355,65535],
			[192,241,65535],
			[605,65535,234],
			[192,242,620],
			[188,355,65535],
			[197,355,65535],
			[192,198,65535]
		],
		[
			[192,202,65535],
			[192,65535,65535],
			[192,65535,65535],
			[192,65535,65535],
			[192,65535,65535],
			[192,65535,65535],
			[192,65535,65535],
			[192,65535,65535],
			[192,201,65535]
		],
		[
			[192,202,65535],
			[193,65535,65535],
			[192,205,65535],
			[192,218,65535],
			[192,218,65535],
			[192,218,65535],
			[192,206,65535],
			[192,65535,65535],
			[192,201,65535]
		],
		[
			[192,202,65535],
			[192,65535,65535],
			[204,355,65535],
			[189,355,65535],
			[197,355,65535],
			[192,198,65535],
			[192,202,65535],
			[192,65535,65535],
			[192,201,65535]
		],
		[
			[192,202,65535],
			[192,65535,65535],
			[192,65535,65535],
			[192,65535,65535],
			[192,65535,65535],
			[192,201,65535],
			[192,202,65535],
			[192,65535,65535],
			[192,201,65535]
		],
		[
			[192,202,65535],
			[192,65535,65535],
			[192,65535,65535],
			[192,65535,65535],
			[192,65535,65535],
			[192,201,65535],
			[192,202,65535],
			[192,65535,65535],
			[192,201,65535]
		],
		[
			[192,202,65535],
			[192,65535,65535],
			[192,355,65535],
			[192,355,65535],
			[192,355,65535],
			[204,355,65535],
			[203,355,65535],
			[192,65535,65535],
			[192,201,65535]
		],
		[
			[192,202,65535],
			[192,65535,65535],
			[192,355,65535],
			[192,65535,65535],
			[192,65535,65535],
			[192,355,65535],
			[193,65535,65535],
			[192,65535,65535],
			[192,201,65535]
		],
		[
			[192,195,65535],
			[192,218,65535],
			[192,218,65535],
			[192,206,65535],
			[194,65535,65535],
			[192,205,65535],
			[192,218,65535],
			[192,218,65535],
			[192,195,65535]
		]
	]
}
