{
	"id": 516,
	"type": 3,
	"width": 18,
	"height": 18,
	"flags": 17,
	"tiles": [
		[
			[403,65535,65535],
			[403,65535,899],
			[403,65535,65535],
			[1576,65535,65535],
			[403,65535,65535],
			[403,65535,65535],
			[403,65535,65535],
			[403,65535,65535],
			[403,65535,65535],
			[403,65535,65535],
			[403,65535,65535],
			[1575,65535,65535],
			[403,65535,899],
			[403,65535,65535],
			[403,65535,65535],
			[403,65535,65535],
			[403,65535,65535],
			[403,65535,65535]
		],
		[
			[403,65535,65535],
			[403,65535,1815],
			[403,65535,65535],
			[403,65535,65535],
			[403,65535,65535],
			[403,65535,65535],
			[403,65535,899],
			[403,65535,65535],
			[403,65535,65535],
			[403,65535,899],
			[403,65535,65535],
			[403,65535,65535],
			[403,65535,1815],
			[403,65535,65535],
			[403,65535,65535],
			[1475,65535,65535],
			[403,65535,65535],
			[403,65535,65535]
		],
		[
			[403,65535,65535],
			[403,898,65535],
			[403,65535,65535],
			[403,1580,65535],
			[1479,65535,65535],
			[1478,65535,65535],
			[403,65535,1815],
			[1479,65535,65535],
			[1477,65535,65535],
			[1477,65535,1815],
			[1478,65535,65535],
			[403,65535,65535],
			[403,898,65535],
			[403,65535,65535],
			[1480,65535,65535],
			[1483,65535,65535],
			[403,65535,899],
			[403,65535,65535]
		],
		[
			[1479,65535,65535],
			[1477,65535,65535],
			[1477,65535,899],
			[1481,65535,65535],
			[403,65535,899],
			[403,65535,65535],
			[403,898,65535],
			[403,65535,65535],
			[403,65535,65535],
			[403,898,65535],
			[403,65535,65535],
			[403,65535,899],
			[403,65535,65535],
			[1480,65535,65535],
			[1483,65535,65535],
			[403,65535,65535],
			[403,65535,1815],
			[403,65535,65535]
		],
		[
			[403,65535,65535],
			[403,1580,65535],
			[403,65535,1815],
			[1476,65535,65535],
			[403,65535,1815],
			[403,65535,65535],
			[1576,65535,65535],
			[403,65535,899],
			[403,65535,65535],
			[403,65535,65535],
			[403,65535,65535],
			[403,65535,1815],
			[403,65535,65535],
			[1476,65535,65535],
			[403,65535,65535],
			[403,65535,65535],
			[403,898,65535],
			[1575,65535,65535]
		],
		[
			[403,65535,65535],
			[403,65535,65535],
			[403,898,65535],
			[1475,65535,65535],
			[403,898,65535],
			[403,65535,899],
			[403,65535,65535],
			[403,65535,1815],
			[403,65535,65535],
			[1479,65535,65535],
			[1481,65535,65535],
			[403,898,65535],
			[403,65535,899],
			[403,65535,65535],
			[1480,65535,65535],
			[1477,65535,899],
			[1477,65535,65535],
			[1478,65535,65535]
		],
		[
			[403,65535,65535],
			[403,65535,65535],
			[1576,65535,65535],
			[1482,65535,65535],
			[1477,65535,65535],
			[1477,65535,1815],
			[1481,65535,65535],
			[403,898,65535],
			[403,65535,65535],
			[403,65535,899],
			[1482,65535,65535],
			[1478,65535,65535],
			[1479,65535,1815],
			[1481,65535,65535],
			[1474,65535,65535],
			[403,65535,1815],
			[403,65535,65535],
			[403,65535,65535]
		],
		[
			[403,65535,65535],
			[403,65535,899],
			[403,65535,65535],
			[403,65535,65535],
			[403,65535,65535],
			[403,898,65535],
			[1474,65535,65535],
			[403,65535,65535],
			[403,65535,65535],
			[403,65535,1815],
			[403,65535,899],
			[403,65535,899],
			[403,898,65535],
			[1482,65535,65535],
			[1483,65535,65535],
			[1576,898,65535],
			[403,65535,65535],
			[403,65535,65535]
		],
		[
			[403,65535,65535],
			[403,65535,1815],
			[403,1580,65535],
			[403,65535,65535],
			[403,65535,65535],
			[1479,65535,65535],
			[1483,65535,65535],
			[403,65535,65535],
			[403,65535,899],
			[403,898,65535],
			[1575,65535,1815],
			[403,65535,1815],
			[403,65535,65535],
			[403,65535,65535],
			[403,65535,65535],
			[403,65535,65535],
			[1475,65535,65535],
			[403,65535,65535]
		],
		[
			[403,65535,65535],
			[1575,898,65535],
			[403,65535,65535],
			[403,65535,899],
			[403,65535,65535],
			[403,65535,65535],
			[403,65535,65535],
			[403,65535,899],
			[403,65535,1815],
			[403,65535,65535],
			[403,898,65535],
			[403,898,65535],
			[1480,65535,65535],
			[1481,65535,65535],
			[403,65535,65535],
			[403,65535,899],
			[1476,65535,65535],
			[403,65535,65535]
		],
		[
			[403,65535,65535],
			[403,65535,65535],
			[403,65535,65535],
			[403,65535,1815],
			[403,65535,65535],
			[1480,65535,65535],
			[1478,65535,65535],
			[403,65535,1815],
			[403,898,65535],
			[403,1930,65535],
			[403,1931,65535],
			[1479,65535,65535],
			[1483,65535,65535],
			[1476,65535,65535],
			[403,65535,65535],
			[403,65535,1815],
			[403,65535,899],
			[403,65535,65535]
		],
		[
			[403,65535,65535],
			[403,65535,65535],
			[403,65535,65535],
			[403,898,65535],
			[1480,65535,899],
			[1483,65535,65535],
			[403,65535,65535],
			[403,898,65535],
			[403,65535,65535],
			[403,1823,65535],
			[403,65535,65535],
			[403,65535,65535],
			[403,65535,899],
			[1475,65535,65535],
			[403,65535,65535],
			[403,898,65535],
			[403,65535,1815],
			[403,65535,65535]
		],
		[
			[403,65535,65535],
			[403,65535,65535],
			[403,65535,65535],
			[1480,65535,65535],
			[1483,65535,1815],
			[403,65535,65535],
			[1479,65535,899],
			[1477,65535,65535],
			[1481,65535,65535],
			[403,65535,65535],
			[403,65535,65535],
			[403,65535,65535],
			[403,65535,1815],
			[1476,65535,65535],
			[403,65535,899],
			[403,65535,65535],
			[403,898,65535],
			[403,65535,65535]
		],
		[
			[403,65535,65535],
			[403,65535,899],
			[403,65535,65535],
			[1474,65535,65535],
			[403,898,65535],
			[403,65535,65535],
			[403,65535,1815],
			[403,65535,65535],
			[1474,65535,899],
			[403,65535,65535],
			[403,65535,65535],
			[403,65535,65535],
			[403,898,65535],
			[1475,65535,65535],
			[403,65535,1815],
			[403,65535,65535],
			[403,65535,65535],
			[403,65535,65535]
		],
		[
			[403,65535,65535],
			[403,65535,1815],
			[403,65535,899],
			[1482,65535,65535],
			[1477,65535,65535],
			[1481,65535,65535],
			[403,898,65535],
			[1480,65535,65535],
			[1483,65535,1815],
			[403,65535,65535],
			[1576,65535,65535],
			[403,65535,899],
			[1479,65535,65535],
			[1483,65535,65535],
			[403,898,65535],
			[403,65535,899],
			[403,65535,65535],
			[403,65535,65535]
		],
		[
			[403,65535,65535],
			[403,898,65535],
			[403,65535,1815],
			[403,65535,65535],
			[403,65535,65535],
			[1482,65535,65535],
			[1477,65535,65535],
			[1483,65535,65535],
			[403,898,65535],
			[403,65535,65535],
			[1480,65535,65535],
			[1478,65535,1815],
			[403,65535,65535],
			[403,65535,65535],
			[403,65535,65535],
			[1575,65535,1815],
			[403,65535,65535],
			[403,65535,65535]
		],
		[
			[403,65535,65535],
			[403,65535,65535],
			[403,898,65535],
			[403,65535,65535],
			[403,65535,65535],
			[403,65535,65535],
			[403,65535,65535],
			[403,65535,65535],
			[403,65535,65535],
			[403,65535,65535],
			[1474,65535,65535],
			[403,898,65535],
			[403,65535,65535],
			[403,65535,65535],
			[403,65535,65535],
			[1576,898,65535],
			[403,65535,65535],
			[403,65535,65535]
		],
		[
			[403,65535,65535],
			[403,65535,65535],
			[403,65535,65535],
			[1575,65535,65535],
			[403,65535,65535],
			[403,65535,65535],
			[403,65535,65535],
			[403,65535,65535],
			[403,65535,65535],
			[403,65535,65535],
			[1476,65535,65535],
			[403,65535,65535],
			[403,65535,65535],
			[403,65535,65535],
			[403,65535,65535],
			[403,65535,65535],
			[403,65535,65535],
			[403,65535,65535]
		]
	]
}
