{
	"id": 520,
	"type": 3,
	"width": 18,
	"height": 18,
	"flags": 16,
	"tiles": [
		[
			[403,65535,65535],
			[1579,65535,65535],
			[859,65535,871],
			[860,65535,872],
			[860,65535,872],
			[860,65535,872],
			[861,65535,873],
			[403,65535,65535],
			[403,65535,65535],
			[403,65535,65535],
			[403,65535,65535],
			[403,65535,65535],
			[403,65535,65535],
			[403,65535,65535],
			[403,65535,65535],
			[403,65535,65535],
			[403,65535,65535],
			[403,65535,65535]
		],
		[
			[403,65535,65535],
			[859,65535,871],
			[867,355,877],
			[857,355,875],
			[857,355,875],
			[857,355,875],
			[866,65535,876],
			[1578,65535,65535],
			[403,65535,65535],
			[403,1580,65535],
			[403,374,65535],
			[403,375,65535],
			[403,375,65535],
			[403,376,65535],
			[403,65535,65535],
			[1579,65535,65535],
			[403,65535,65535],
			[403,65535,65535]
		],
		[
			[859,65535,871],
			[867,355,877],
			[857,355,875],
			[857,355,875],
			[857,355,875],
			[857,355,888],
			[864,65535,885],
			[403,65535,65535],
			[403,374,65535],
			[403,375,65535],
			[403,382,65535],
			[403,387,65535],
			[403,385,65535],
			[379,65535,871],
			[860,65535,872],
			[861,65535,873],
			[403,65535,899],
			[403,65535,65535]
		],
		[
			[865,65535,874],
			[857,355,888],
			[857,355,884],
			[857,355,884],
			[857,355,884],
			[403,892,885],
			[861,893,65535],
			[403,65535,65535],
			[403,380,65535],
			[403,386,65535],
			[403,387,65535],
			[403,386,65535],
			[403,381,65535],
			[403,65535,883],
			[403,355,884],
			[403,65535,885],
			[403,65535,1815],
			[403,65535,65535]
		],
		[
			[865,65535,874],
			[857,891,876],
			[880,892,1463],
			[880,892,1464],
			[880,892,1465],
			[897,893,65535],
			[881,65535,65535],
			[403,374,65535],
			[403,382,65535],
			[403,387,65535],
			[403,386,65535],
			[403,387,65535],
			[403,381,899],
			[403,65535,891],
			[403,892,65535],
			[861,893,65535],
			[403,898,65535],
			[403,65535,65535]
		],
		[
			[865,65535,874],
			[879,65535,878],
			[880,1466,873],
			[403,1467,65535],
			[880,1468,65535],
			[881,1908,65535],
			[403,65535,65535],
			[377,65535,65535],
			[377,384,65535],
			[378,386,65535],
			[378,387,65535],
			[378,385,65535],
			[379,65535,1815],
			[879,65535,65535],
			[880,65535,65535],
			[881,65535,65535],
			[403,65535,65535],
			[403,65535,65535]
		],
		[
			[865,65535,874],
			[857,65535,875],
			[857,1469,878],
			[1470,65535,873],
			[403,1471,65535],
			[403,65535,65535],
			[403,65535,899],
			[403,65535,65535],
			[403,380,65535],
			[403,387,65535],
			[378,385,65535],
			[379,65535,1137],
			[403,898,65535],
			[1127,65535,65535],
			[1123,65535,65535],
			[1123,65535,65535],
			[1123,65535,65535],
			[1128,65535,65535]
		],
		[
			[865,65535,883],
			[857,65535,884],
			[857,65535,884],
			[864,65535,885],
			[403,65535,65535],
			[1577,65535,65535],
			[403,65535,1815],
			[403,65535,65535],
			[377,65535,65535],
			[403,852,65535],
			[379,65535,65535],
			[403,1138,65535],
			[403,65535,65535],
			[1125,65535,65535],
			[1141,65535,65535],
			[1141,65535,65535],
			[1141,65535,65535],
			[1126,65535,65535]
		],
		[
			[403,65535,891],
			[403,892,65535],
			[403,892,65535],
			[861,893,65535],
			[403,65535,65535],
			[403,65535,65535],
			[403,898,65535],
			[403,65535,65535],
			[403,65535,65535],
			[403,846,65535],
			[403,65535,65535],
			[403,65535,65535],
			[1579,65535,65535],
			[1125,65535,1137],
			[1142,65535,65535],
			[1142,65535,65535],
			[1142,65535,65535],
			[1126,65535,65535]
		],
		[
			[879,65535,65535],
			[880,65535,65535],
			[880,65535,65535],
			[881,65535,65535],
			[403,65535,65535],
			[403,65535,65535],
			[403,65535,65535],
			[403,65535,65535],
			[403,1580,65535],
			[403,847,65535],
			[403,65535,65535],
			[403,65535,65535],
			[403,65535,65535],
			[1125,1138,65535],
			[1142,65535,65535],
			[1142,65535,65535],
			[1142,65535,65535],
			[1126,65535,65535]
		],
		[
			[403,65535,65535],
			[1579,65535,65535],
			[403,65535,65535],
			[403,374,65535],
			[403,375,65535],
			[403,376,65535],
			[403,65535,65535],
			[403,65535,65535],
			[403,65535,65535],
			[403,844,65535],
			[403,848,65535],
			[427,65535,65535],
			[403,843,65535],
			[1125,65535,65535],
			[1142,65535,65535],
			[1142,65535,65535],
			[1142,65535,65535],
			[1126,65535,65535]
		],
		[
			[403,65535,65535],
			[403,65535,65535],
			[403,374,65535],
			[403,382,65535],
			[403,386,65535],
			[403,851,65535],
			[403,843,65535],
			[403,65535,65535],
			[403,65535,65535],
			[1577,65535,65535],
			[403,65535,65535],
			[403,65535,65535],
			[403,846,65535],
			[1125,65535,65535],
			[1142,65535,65535],
			[1142,65535,65535],
			[1142,65535,65535],
			[1126,65535,65535]
		],
		[
			[403,65535,65535],
			[403,374,65535],
			[403,382,65535],
			[403,386,65535],
			[403,387,65535],
			[403,381,65535],
			[403,847,65535],
			[403,65535,65535],
			[403,65535,65535],
			[403,842,65535],
			[403,848,65535],
			[427,848,1424],
			[403,845,65535],
			[1125,65535,65535],
			[1142,65535,65535],
			[1142,65535,65535],
			[1142,65535,65535],
			[1126,65535,65535]
		],
		[
			[403,65535,65535],
			[403,380,65535],
			[403,386,65535],
			[403,387,65535],
			[403,386,65535],
			[403,381,65535],
			[403,844,65535],
			[427,65535,65535],
			[403,848,65535],
			[403,845,65535],
			[403,65535,65535],
			[403,1426,1947],
			[403,65535,1948],
			[1125,65535,65535],
			[1142,65535,65535],
			[1142,65535,65535],
			[1142,65535,65535],
			[1126,65535,65535]
		],
		[
			[403,65535,65535],
			[403,380,65535],
			[403,387,65535],
			[403,386,65535],
			[403,387,65535],
			[403,383,65535],
			[403,375,65535],
			[403,376,65535],
			[403,65535,65535],
			[403,65535,65535],
			[403,65535,65535],
			[403,1949,65535],
			[403,1950,1421],
			[1125,1422,1422],
			[1143,1423,1423],
			[1143,65535,65535],
			[1143,65535,65535],
			[1126,65535,65535]
		],
		[
			[403,65535,65535],
			[403,380,65535],
			[403,386,65535],
			[403,387,65535],
			[403,386,65535],
			[403,387,65535],
			[403,385,65535],
			[379,65535,65535],
			[1576,65535,65535],
			[1579,65535,65535],
			[403,65535,65535],
			[403,65535,65535],
			[403,65535,65535],
			[1129,65535,65535],
			[1124,65535,65535],
			[1124,65535,65535],
			[1124,65535,65535],
			[1130,65535,65535]
		],
		[
			[403,65535,65535],
			[377,65535,65535],
			[378,65535,65535],
			[378,65535,65535],
			[378,384,65535],
			[379,385,65535],
			[379,65535,65535],
			[403,65535,65535],
			[403,65535,65535],
			[1576,65535,65535],
			[403,65535,65535],
			[403,65535,65535],
			[403,65535,65535],
			[403,65535,65535],
			[1577,65535,65535],
			[403,65535,65535],
			[403,65535,65535],
			[403,65535,65535]
		],
		[
			[403,65535,65535],
			[403,65535,65535],
			[403,65535,65535],
			[403,65535,65535],
			[377,65535,65535],
			[379,65535,65535],
			[403,65535,65535],
			[403,65535,65535],
			[403,65535,65535],
			[403,65535,65535],
			[403,65535,65535],
			[403,65535,65535],
			[403,65535,65535],
			[403,65535,65535],
			[403,65535,65535],
			[403,65535,65535],
			[403,65535,65535],
			[403,65535,65535]
		]
	]
}
