{
	"id": 528,
	"type": 3,
	"width": 18,
	"height": 18,
	"flags": 1,
	"tiles": [
		[
			[403,65535,65535],
			[403,65535,65535],
			[1578,65535,65535],
			[859,65535,871],
			[861,65535,873],
			[403,65535,65535],
			[403,65535,65535],
			[859,65535,871],
			[860,65535,872],
			[861,65535,873],
			[403,65535,65535],
			[1579,65535,65535],
			[1579,65535,65535],
			[1577,65535,65535],
			[403,65535,65535],
			[403,65535,65535],
			[403,65535,65535],
			[403,65535,65535]
		],
		[
			[403,65535,65535],
			[859,65535,871],
			[860,65535,872],
			[867,355,877],
			[868,355,878],
			[861,65535,873],
			[859,65535,871],
			[867,355,877],
			[858,355,875],
			[868,355,878],
			[861,65535,873],
			[1577,65535,65535],
			[1578,65535,65535],
			[859,65535,871],
			[860,65535,872],
			[861,65535,873],
			[403,65535,65535],
			[403,65535,65535]
		],
		[
			[403,65535,65535],
			[862,65535,883],
			[858,355,887],
			[858,355,875],
			[858,355,888],
			[864,65535,885],
			[862,65535,883],
			[858,355,884],
			[858,355,884],
			[403,355,887],
			[868,355,878],
			[860,65535,872],
			[860,65535,872],
			[867,355,877],
			[858,355,875],
			[866,65535,876],
			[403,65535,65535],
			[403,65535,65535]
		],
		[
			[403,65535,65535],
			[403,891,871],
			[403,892,877],
			[858,355,875],
			[858,892,878],
			[403,893,873],
			[1575,65535,891],
			[403,892,871],
			[403,892,872],
			[403,892,877],
			[858,65535,875],
			[858,355,875],
			[858,355,888],
			[858,355,884],
			[858,355,884],
			[864,65535,885],
			[1579,65535,65535],
			[403,65535,65535]
		],
		[
			[403,65535,65535],
			[862,65535,883],
			[858,355,887],
			[858,355,875],
			[858,355,875],
			[866,65535,876],
			[879,65535,871],
			[880,65535,877],
			[858,65535,888],
			[858,65535,884],
			[858,355,884],
			[403,65535,887],
			[858,892,878],
			[403,892,872],
			[403,892,873],
			[861,893,65535],
			[403,65535,65535],
			[403,65535,65535]
		],
		[
			[403,65535,65535],
			[403,891,65535],
			[403,892,883],
			[858,355,884],
			[858,355,884],
			[864,65535,885],
			[862,65535,883],
			[858,355,884],
			[403,892,885],
			[403,892,65535],
			[403,892,871],
			[403,892,877],
			[858,65535,875],
			[858,65535,888],
			[897,65535,885],
			[881,65535,65535],
			[403,65535,65535],
			[403,65535,65535]
		],
		[
			[403,65535,65535],
			[879,65535,65535],
			[880,891,65535],
			[403,892,65535],
			[403,892,65535],
			[861,893,65535],
			[403,65535,891],
			[403,892,871],
			[880,893,872],
			[880,65535,873],
			[880,65535,874],
			[858,355,875],
			[858,355,888],
			[403,892,885],
			[861,893,65535],
			[403,65535,65535],
			[1575,65535,65535],
			[1575,65535,65535]
		],
		[
			[403,65535,65535],
			[403,65535,65535],
			[879,65535,65535],
			[880,65535,65535],
			[880,65535,65535],
			[881,65535,871],
			[879,65535,872],
			[880,65535,877],
			[858,355,875],
			[866,65535,876],
			[862,65535,883],
			[858,355,884],
			[403,892,885],
			[897,893,65535],
			[881,65535,65535],
			[403,65535,65535],
			[1577,65535,65535],
			[403,65535,65535]
		],
		[
			[1579,65535,65535],
			[403,65535,65535],
			[859,65535,871],
			[860,65535,872],
			[861,65535,873],
			[862,65535,883],
			[858,355,884],
			[858,355,887],
			[858,65535,875],
			[866,65535,876],
			[403,891,65535],
			[403,892,65535],
			[897,893,65535],
			[881,65535,65535],
			[403,65535,65535],
			[403,65535,65535],
			[403,65535,65535],
			[403,65535,65535]
		],
		[
			[403,65535,65535],
			[859,65535,871],
			[867,355,877],
			[858,355,875],
			[866,65535,876],
			[403,891,65535],
			[403,892,65535],
			[403,892,883],
			[858,355,884],
			[864,65535,885],
			[879,65535,65535],
			[880,65535,65535],
			[881,65535,65535],
			[403,65535,65535],
			[403,374,65535],
			[403,375,65535],
			[403,376,65535],
			[1579,65535,65535]
		],
		[
			[403,65535,65535],
			[862,65535,883],
			[858,355,884],
			[858,355,884],
			[864,65535,885],
			[879,65535,65535],
			[880,65535,65535],
			[880,891,65535],
			[403,892,65535],
			[861,893,65535],
			[403,1851,65535],
			[403,65535,65535],
			[403,65535,65535],
			[403,374,65535],
			[403,382,65535],
			[403,387,65535],
			[403,381,65535],
			[403,65535,65535]
		],
		[
			[403,65535,65535],
			[403,891,65535],
			[403,892,65535],
			[403,892,65535],
			[859,893,871],
			[860,65535,872],
			[861,65535,873],
			[879,65535,65535],
			[880,65535,65535],
			[881,65535,65535],
			[403,65535,65535],
			[1579,65535,65535],
			[403,374,65535],
			[403,382,65535],
			[403,387,65535],
			[403,387,65535],
			[403,381,65535],
			[403,65535,65535]
		],
		[
			[403,65535,65535],
			[879,65535,65535],
			[880,65535,871],
			[880,65535,872],
			[881,65535,877],
			[858,65535,875],
			[866,65535,876],
			[1578,65535,65535],
			[403,65535,65535],
			[403,65535,65535],
			[403,65535,65535],
			[403,1169,65535],
			[377,65535,65535],
			[378,1174,65535],
			[378,1175,65535],
			[403,384,65535],
			[403,381,65535],
			[403,65535,65535]
		],
		[
			[403,65535,65535],
			[403,65535,65535],
			[865,65535,874],
			[858,892,888],
			[858,892,884],
			[858,892,884],
			[864,893,885],
			[403,1770,65535],
			[403,374,65535],
			[859,376,1549],
			[403,1547,65535],
			[403,1547,65535],
			[403,65535,1550],
			[403,65535,65535],
			[403,65535,65535],
			[377,65535,65535],
			[379,65535,65535],
			[403,65535,65535]
		],
		[
			[1576,65535,65535],
			[403,65535,65535],
			[862,891,883],
			[403,892,890],
			[403,892,65535],
			[403,892,65535],
			[861,65535,893],
			[403,374,65535],
			[403,382,65535],
			[403,381,1546],
			[403,1547,65535],
			[403,1547,65535],
			[403,1548,65535],
			[403,1851,65535],
			[403,374,65535],
			[403,376,65535],
			[403,65535,65535],
			[1578,65535,65535]
		],
		[
			[403,65535,65535],
			[1575,65535,65535],
			[403,891,65535],
			[897,893,65535],
			[880,65535,65535],
			[880,65535,65535],
			[881,65535,65535],
			[403,380,65535],
			[403,385,65535],
			[379,1546,65535],
			[403,1547,65535],
			[403,1547,65535],
			[403,1548,65535],
			[403,65535,65535],
			[403,380,65535],
			[403,383,65535],
			[403,375,65535],
			[376,65535,65535]
		],
		[
			[403,65535,65535],
			[403,65535,65535],
			[879,65535,65535],
			[881,65535,65535],
			[403,65535,65535],
			[403,65535,65535],
			[403,374,65535],
			[377,382,65535],
			[377,381,65535],
			[403,1541,1282],
			[403,1542,1282],
			[403,1542,1282],
			[403,1545,1282],
			[403,65535,65535],
			[377,65535,65535],
			[378,65535,65535],
			[378,65535,65535],
			[379,65535,65535]
		],
		[
			[403,65535,65535],
			[403,65535,65535],
			[403,65535,65535],
			[403,65535,65535],
			[1577,65535,65535],
			[403,65535,65535],
			[377,65535,65535],
			[378,65535,65535],
			[379,65535,65535],
			[403,65535,65535],
			[403,65535,65535],
			[1578,65535,65535],
			[403,65535,65535],
			[403,65535,65535],
			[403,65535,65535],
			[403,65535,65535],
			[1575,65535,65535],
			[403,65535,65535]
		]
	]
}
