{
	"id": 529,
	"type": 3,
	"width": 18,
	"height": 18,
	"flags": 1,
	"tiles": [
		[
			[403,65535,65535],
			[1577,65535,65535],
			[403,65535,65535],
			[403,65535,65535],
			[403,65535,65535],
			[403,65535,65535],
			[1576,65535,65535],
			[1576,65535,65535],
			[1579,65535,65535],
			[403,65535,65535],
			[403,65535,65535],
			[403,65535,65535],
			[403,65535,65535],
			[403,65535,65535],
			[1578,65535,65535],
			[403,65535,65535],
			[403,65535,65535],
			[403,65535,65535]
		],
		[
			[403,65535,65535],
			[403,65535,65535],
			[403,65535,65535],
			[403,65535,65535],
			[403,65535,65535],
			[403,65535,65535],
			[403,65535,65535],
			[403,65535,65535],
			[403,65535,65535],
			[1575,65535,65535],
			[391,65535,65535],
			[393,65535,65535],
			[403,65535,65535],
			[403,65535,65535],
			[403,65535,65535],
			[403,65535,65535],
			[403,65535,65535],
			[403,65535,65535]
		],
		[
			[403,65535,65535],
			[403,65535,65535],
			[403,65535,65535],
			[391,65535,65535],
			[392,65535,65535],
			[392,65535,408],
			[392,65535,65535],
			[392,65535,65535],
			[393,65535,65535],
			[403,65535,65535],
			[397,65535,65535],
			[400,65535,410],
			[393,65535,65535],
			[403,65535,65535],
			[403,65535,65535],
			[1575,65535,65535],
			[403,65535,65535],
			[403,65535,65535]
		],
		[
			[403,65535,65535],
			[1579,65535,65535],
			[403,65535,65535],
			[394,65535,65535],
			[401,65535,65535],
			[364,409,65535],
			[365,65535,65535],
			[366,65535,65535],
			[398,65535,65535],
			[391,65535,65535],
			[399,65535,65535],
			[406,411,411],
			[398,65535,65535],
			[403,65535,65535],
			[403,65535,65535],
			[403,65535,65535],
			[403,65535,65535],
			[1579,65535,65535]
		],
		[
			[403,65535,65535],
			[403,65535,65535],
			[403,65535,65535],
			[391,65535,410],
			[399,65535,65535],
			[367,65535,65535],
			[368,65535,65535],
			[369,65535,408],
			[398,65535,65535],
			[397,65535,65535],
			[353,65535,65535],
			[402,65535,65535],
			[396,65535,65535],
			[403,65535,65535],
			[403,65535,65535],
			[403,65535,408],
			[403,65535,65535],
			[403,65535,65535]
		],
		[
			[403,65535,65535],
			[403,65535,65535],
			[1576,65535,65535],
			[394,411,411],
			[401,65535,65535],
			[371,65535,65535],
			[370,65535,65535],
			[402,409,65535],
			[396,65535,65535],
			[397,65535,65535],
			[402,65535,65535],
			[396,65535,65535],
			[403,65535,65535],
			[403,65535,65535],
			[391,65535,65535],
			[393,409,65535],
			[403,65535,65535],
			[403,65535,65535]
		],
		[
			[403,65535,65535],
			[1577,65535,65535],
			[391,65535,65535],
			[392,65535,65535],
			[399,65535,65535],
			[402,65535,65535],
			[395,65535,65535],
			[396,65535,65535],
			[391,65535,65535],
			[399,65535,65535],
			[398,65535,65535],
			[1577,65535,65535],
			[391,65535,65535],
			[392,65535,65535],
			[399,65535,65535],
			[398,65535,65535],
			[403,65535,65535],
			[403,65535,65535]
		],
		[
			[403,65535,65535],
			[403,65535,65535],
			[394,65535,65535],
			[395,65535,65535],
			[395,65535,65535],
			[396,65535,65535],
			[391,65535,65535],
			[392,65535,410],
			[399,65535,65535],
			[402,65535,65535],
			[396,65535,65535],
			[403,65535,65535],
			[397,65535,65535],
			[406,65535,65535],
			[402,65535,65535],
			[396,65535,65535],
			[403,65535,65535],
			[403,65535,65535]
		],
		[
			[1575,65535,65535],
			[403,65535,65535],
			[403,65535,65535],
			[403,65535,65535],
			[403,65535,65535],
			[403,65535,65535],
			[397,65535,65535],
			[406,411,411],
			[407,65535,65535],
			[398,65535,65535],
			[403,65535,65535],
			[391,65535,65535],
			[399,65535,65535],
			[356,65535,65535],
			[398,65535,65535],
			[403,65535,65535],
			[403,65535,65535],
			[403,65535,65535]
		],
		[
			[403,65535,65535],
			[403,65535,65535],
			[403,65535,65535],
			[403,65535,410],
			[403,65535,65535],
			[403,65535,65535],
			[394,65535,65535],
			[395,65535,65535],
			[401,65535,65535],
			[398,65535,65535],
			[403,65535,65535],
			[394,65535,65535],
			[395,65535,65535],
			[401,65535,410],
			[398,65535,65535],
			[1577,65535,65535],
			[403,65535,65535],
			[403,65535,65535]
		],
		[
			[403,65535,65535],
			[403,65535,65535],
			[403,65535,65535],
			[391,411,411],
			[392,65535,65535],
			[393,65535,408],
			[403,65535,65535],
			[403,65535,65535],
			[397,65535,65535],
			[400,65535,65535],
			[392,65535,65535],
			[393,65535,408],
			[403,65535,65535],
			[397,411,411],
			[398,65535,65535],
			[403,65535,65535],
			[403,65535,65535],
			[403,65535,65535]
		],
		[
			[403,65535,65535],
			[403,65535,65535],
			[403,65535,65535],
			[394,65535,65535],
			[395,65535,65535],
			[396,409,65535],
			[403,65535,65535],
			[403,65535,65535],
			[394,65535,65535],
			[395,65535,65535],
			[401,65535,65535],
			[398,409,65535],
			[403,65535,65535],
			[394,65535,65535],
			[396,65535,65535],
			[403,65535,65535],
			[403,65535,65535],
			[403,65535,65535]
		],
		[
			[403,65535,65535],
			[403,65535,65535],
			[1579,65535,65535],
			[403,65535,408],
			[403,65535,65535],
			[403,65535,65535],
			[403,65535,65535],
			[1578,65535,65535],
			[403,65535,65535],
			[403,65535,65535],
			[394,65535,65535],
			[396,65535,65535],
			[403,65535,65535],
			[403,65535,65535],
			[403,65535,65535],
			[403,65535,65535],
			[403,65535,65535],
			[403,65535,65535]
		],
		[
			[403,65535,65535],
			[403,65535,65535],
			[403,65535,65535],
			[391,409,65535],
			[392,65535,65535],
			[393,65535,352],
			[403,65535,65535],
			[403,65535,65535],
			[403,65535,65535],
			[403,65535,65535],
			[403,65535,65535],
			[403,65535,65535],
			[403,65535,65535],
			[1578,65535,65535],
			[403,65535,65535],
			[403,65535,65535],
			[1579,65535,65535],
			[403,65535,65535]
		],
		[
			[403,65535,65535],
			[403,65535,65535],
			[403,65535,65535],
			[394,65535,65535],
			[401,65535,65535],
			[400,351,65535],
			[392,65535,410],
			[393,65535,65535],
			[403,65535,65535],
			[403,65535,65535],
			[403,65535,65535],
			[403,65535,65535],
			[403,65535,65535],
			[403,65535,65535],
			[403,65535,65535],
			[403,65535,65535],
			[403,65535,65535],
			[403,65535,65535]
		],
		[
			[1578,65535,65535],
			[391,65535,65535],
			[392,65535,65535],
			[392,65535,65535],
			[399,65535,65535],
			[406,65535,65535],
			[402,411,411],
			[396,65535,65535],
			[403,65535,65535],
			[403,65535,65535],
			[1575,65535,65535],
			[403,65535,65535],
			[403,65535,65535],
			[403,65535,65535],
			[1575,65535,65535],
			[403,65535,65535],
			[403,65535,65535],
			[403,65535,65535]
		],
		[
			[403,65535,65535],
			[397,65535,65535],
			[407,65535,65535],
			[356,65535,65535],
			[402,65535,65535],
			[395,65535,65535],
			[396,65535,65535],
			[403,65535,65535],
			[403,65535,65535],
			[403,65535,65535],
			[403,65535,65535],
			[1576,65535,65535],
			[403,65535,65535],
			[403,65535,65535],
			[403,65535,65535],
			[403,65535,65535],
			[403,65535,65535],
			[403,65535,65535]
		],
		[
			[403,65535,65535],
			[394,65535,65535],
			[395,65535,65535],
			[395,65535,65535],
			[396,65535,65535],
			[403,65535,65535],
			[403,65535,65535],
			[403,65535,65535],
			[403,65535,65535],
			[403,65535,65535],
			[403,65535,65535],
			[1579,65535,65535],
			[403,65535,65535],
			[403,65535,65535],
			[403,65535,65535],
			[403,65535,65535],
			[403,65535,65535],
			[403,65535,65535]
		]
	]
}
