{
	"id": 539,
	"type": 2,
	"width": 9,
	"height": 9,
	"flags": 8,
	"tiles": [
		[
			[0,540,65535],
			[0,569,65535],
			[0,569,65535],
			[0,629,1849],
			[595,586,587],
			[0,629,1847],
			[0,629,178],
			[0,629,178],
			[0,541,1394]
		],
		[
			[602,355,593],
			[594,65535,65535],
			[594,355,65535],
			[594,65535,65535],
			[602,65535,65535],
			[594,65535,65535],
			[594,179,65535],
			[594,179,65535],
			[594,544,1393]
		],
		[
			[598,540,65535],
			[594,553,65535],
			[594,288,65535],
			[594,288,65535],
			[594,373,65535],
			[594,288,65535],
			[594,288,65535],
			[594,553,65535],
			[594,541,65535]
		],
		[
			[594,540,65535],
			[594,555,65535],
			[594,288,65535],
			[594,289,275],
			[594,780,65535],
			[594,287,275],
			[594,288,65535],
			[594,555,65535],
			[594,541,1394]
		],
		[
			[595,545,613],
			[594,65535,65535],
			[594,65535,65535],
			[594,287,65535],
			[594,373,65535],
			[594,289,65535],
			[594,65535,65535],
			[594,65535,65535],
			[594,544,1393]
		],
		[
			[595,545,613],
			[594,65535,65535],
			[594,65535,65535],
			[594,65535,65535],
			[594,65535,65535],
			[594,65535,65535],
			[594,65535,65535],
			[594,65535,65535],
			[594,544,1393]
		],
		[
			[595,545,613],
			[594,65535,65535],
			[594,65535,65535],
			[594,65535,65535],
			[594,65535,65535],
			[594,65535,65535],
			[594,65535,65535],
			[594,65535,65535],
			[594,544,1393]
		],
		[
			[602,355,593],
			[594,65535,65535],
			[594,65535,65535],
			[594,65535,65535],
			[594,65535,65535],
			[594,65535,65535],
			[594,65535,65535],
			[594,65535,65535],
			[594,544,1393]
		],
		[
			[598,629,65535],
			[598,629,65535],
			[598,629,65535],
			[598,629,65535],
			[598,629,65535],
			[598,629,65535],
			[598,629,65535],
			[598,629,65535],
			[598,629,65535]
		]
	]
}
