{
	"id": 540,
	"type": 2,
	"width": 9,
	"height": 9,
	"flags": 8,
	"tiles": [
		[
			[0,542,65535],
			[0,630,65535],
			[0,1336,65535],
			[598,1434,65535],
			[598,635,65535],
			[598,1433,65535],
			[0,1335,65535],
			[0,630,65535],
			[0,543,65535]
		],
		[
			[598,545,65535],
			[598,622,65535],
			[598,65535,65535],
			[598,65535,65535],
			[598,65535,65535],
			[598,65535,65535],
			[598,65535,65535],
			[598,65535,65535],
			[599,544,614]
		],
		[
			[599,545,1293],
			[598,65535,65535],
			[598,1433,65535],
			[602,629,65535],
			[0,629,1087],
			[0,629,1294],
			[598,1434,65535],
			[598,65535,65535],
			[599,544,614]
		],
		[
			[598,545,65535],
			[598,65535,65535],
			[598,65535,65535],
			[1397,65535,65535],
			[1088,1089,65535],
			[1397,65535,65535],
			[598,65535,65535],
			[598,65535,65535],
			[598,544,65535]
		],
		[
			[598,545,65535],
			[598,65535,65535],
			[598,65535,65535],
			[1397,65535,65535],
			[1397,65535,65535],
			[1397,65535,65535],
			[598,65535,65535],
			[598,622,65535],
			[598,544,65535]
		],
		[
			[599,545,1293],
			[598,65535,65535],
			[598,1433,65535],
			[598,629,65535],
			[598,629,1091],
			[598,629,65535],
			[598,1434,65535],
			[598,65535,65535],
			[599,544,614]
		],
		[
			[598,545,65535],
			[598,65535,65535],
			[598,65535,65535],
			[598,65535,65535],
			[598,65535,65535],
			[598,65535,65535],
			[598,65535,65535],
			[598,65535,65535],
			[599,544,614]
		],
		[
			[598,545,65535],
			[598,622,65535],
			[598,65535,65535],
			[598,65535,65535],
			[598,65535,65535],
			[598,65535,65535],
			[598,65535,65535],
			[598,622,65535],
			[598,544,65535]
		],
		[
			[0,567,65535],
			[0,567,65535],
			[0,567,65535],
			[0,567,65535],
			[599,65535,1090],
			[0,567,65535],
			[599,567,65535],
			[0,567,65535],
			[0,567,65535]
		]
	]
}
