{
	"id": 548,
	"type": 3,
	"width": 18,
	"height": 18,
	"flags": 17,
	"tiles": [
		[
			[403,65535,65535],
			[403,65535,65535],
			[403,65535,65535],
			[403,65535,65535],
			[403,65535,65535],
			[403,65535,65535],
			[403,65535,65535],
			[403,65535,65535],
			[403,65535,1135],
			[403,65535,65535],
			[403,65535,65535],
			[403,65535,65535],
			[403,65535,65535],
			[403,65535,65535],
			[403,65535,65535],
			[1127,65535,65535],
			[1128,65535,65535],
			[403,65535,65535]
		],
		[
			[403,65535,65535],
			[403,65535,933],
			[403,65535,65535],
			[403,1580,65535],
			[403,65535,65535],
			[859,65535,65535],
			[860,65535,65535],
			[861,65535,65535],
			[403,1136,65535],
			[403,65535,65535],
			[403,65535,1137],
			[403,65535,65535],
			[403,65535,1463],
			[403,1464,65535],
			[403,65535,1465],
			[1125,65535,65535],
			[1131,65535,65535],
			[1128,65535,65535]
		],
		[
			[403,65535,65535],
			[403,65535,1815],
			[859,65535,65535],
			[861,65535,65535],
			[859,65535,65535],
			[867,65535,65535],
			[858,65535,65535],
			[868,65535,65535],
			[860,65535,65535],
			[861,65535,65535],
			[403,1138,65535],
			[403,65535,65535],
			[403,1466,65535],
			[403,1467,65535],
			[403,1468,65535],
			[1129,65535,65535],
			[1132,65535,65535],
			[1126,65535,65535]
		],
		[
			[403,65535,65535],
			[865,898,65535],
			[865,65535,65535],
			[868,65535,65535],
			[867,65535,65535],
			[858,919,65535],
			[857,923,65535],
			[858,920,65535],
			[870,65535,65535],
			[864,65535,65535],
			[1127,65535,65535],
			[1128,65535,65535],
			[403,1469,65535],
			[1470,1473,65535],
			[403,1471,65535],
			[403,65535,65535],
			[1125,65535,65535],
			[1126,65535,65535]
		],
		[
			[859,65535,65535],
			[860,65535,65535],
			[867,65535,65535],
			[858,65535,408],
			[857,65535,65535],
			[921,925,65535],
			[922,930,65535],
			[922,65535,65535],
			[866,65535,65535],
			[403,65535,65535],
			[1129,65535,65535],
			[1130,65535,65535],
			[403,65535,65535],
			[403,65535,65535],
			[403,65535,65535],
			[403,65535,1135],
			[1129,65535,65535],
			[1130,65535,65535]
		],
		[
			[862,65535,65535],
			[869,65535,65535],
			[870,65535,65535],
			[863,409,65535],
			[869,65535,65535],
			[921,65535,65535],
			[922,65535,65535],
			[870,65535,65535],
			[864,65535,65535],
			[403,65535,65535],
			[403,65535,65535],
			[403,65535,65535],
			[403,65535,65535],
			[859,65535,65535],
			[861,65535,65535],
			[403,1136,65535],
			[403,65535,65535],
			[403,65535,65535]
		],
		[
			[403,65535,65535],
			[862,65535,65535],
			[864,65535,65535],
			[403,65535,65535],
			[862,65535,65535],
			[863,65535,65535],
			[869,65535,408],
			[866,65535,65535],
			[403,65535,65535],
			[403,65535,65535],
			[859,65535,65535],
			[860,65535,65535],
			[860,65535,65535],
			[867,65535,65535],
			[866,65535,65535],
			[1127,65535,65535],
			[1128,65535,65535],
			[403,65535,65535]
		],
		[
			[403,65535,65535],
			[859,65535,65535],
			[860,65535,65535],
			[860,65535,65535],
			[860,65535,65535],
			[861,65535,65535],
			[862,409,65535],
			[864,65535,65535],
			[403,65535,65535],
			[859,65535,65535],
			[867,65535,410],
			[858,65535,65535],
			[858,65535,65535],
			[870,65535,65535],
			[864,65535,65535],
			[1129,65535,65535],
			[1130,65535,65535],
			[403,65535,65535]
		],
		[
			[859,65535,65535],
			[867,65535,65535],
			[860,919,65535],
			[867,923,65535],
			[858,920,65535],
			[868,65535,65535],
			[860,65535,65535],
			[861,65535,65535],
			[403,65535,408],
			[862,65535,65535],
			[863,411,65535],
			[869,65535,65535],
			[857,65535,65535],
			[868,65535,65535],
			[861,65535,65535],
			[403,65535,65535],
			[403,1580,65535],
			[403,65535,65535]
		],
		[
			[865,65535,65535],
			[858,919,65535],
			[921,927,65535],
			[858,930,65535],
			[922,65535,65535],
			[858,65535,65535],
			[857,65535,65535],
			[866,65535,65535],
			[403,409,65535],
			[403,65535,65535],
			[403,65535,65535],
			[865,65535,65535],
			[858,919,65535],
			[858,920,65535],
			[866,65535,65535],
			[403,65535,65535],
			[403,65535,65535],
			[403,65535,65535]
		],
		[
			[865,65535,65535],
			[921,65535,65535],
			[921,929,65535],
			[922,926,65535],
			[858,1803,65535],
			[858,65535,65535],
			[858,65535,65535],
			[868,65535,65535],
			[861,65535,65535],
			[859,65535,65535],
			[860,65535,65535],
			[867,65535,65535],
			[921,65535,65535],
			[922,65535,410],
			[866,65535,65535],
			[403,65535,408],
			[403,65535,65535],
			[403,65535,65535]
		],
		[
			[862,65535,65535],
			[869,65535,65535],
			[921,925,65535],
			[858,928,65535],
			[858,923,65535],
			[858,920,65535],
			[870,65535,65535],
			[863,65535,65535],
			[864,65535,65535],
			[865,65535,65535],
			[867,919,65535],
			[858,920,65535],
			[870,65535,65535],
			[863,411,65535],
			[864,65535,65535],
			[403,409,65535],
			[403,65535,65535],
			[403,65535,65535]
		],
		[
			[403,65535,65535],
			[865,65535,65535],
			[921,65535,65535],
			[924,65535,65535],
			[924,65535,65535],
			[922,65535,65535],
			[866,65535,65535],
			[403,65535,65535],
			[859,65535,65535],
			[867,65535,65535],
			[858,925,65535],
			[858,926,65535],
			[866,65535,65535],
			[859,65535,65535],
			[860,65535,65535],
			[861,65535,65535],
			[403,65535,933],
			[403,65535,65535]
		],
		[
			[403,65535,65535],
			[862,65535,933],
			[863,65535,65535],
			[869,65535,65535],
			[870,65535,65535],
			[863,65535,65535],
			[864,65535,65535],
			[403,65535,65535],
			[862,65535,65535],
			[869,65535,65535],
			[921,65535,65535],
			[922,65535,65535],
			[866,65535,65535],
			[862,65535,65535],
			[863,65535,1135],
			[864,65535,65535],
			[403,65535,1815],
			[403,65535,65535]
		],
		[
			[403,65535,65535],
			[862,65535,1815],
			[859,65535,65535],
			[867,65535,65535],
			[866,65535,65535],
			[1127,65535,65535],
			[1123,65535,65535],
			[1123,65535,65535],
			[1128,65535,65535],
			[862,65535,65535],
			[869,65535,408],
			[858,65535,65535],
			[868,65535,65535],
			[861,65535,65535],
			[403,1136,65535],
			[403,65535,65535],
			[403,898,65535],
			[403,65535,65535]
		],
		[
			[403,65535,65535],
			[403,898,65535],
			[865,65535,65535],
			[870,65535,65535],
			[864,65535,65535],
			[1125,65535,65535],
			[403,1146,65535],
			[1134,1580,65535],
			[1126,65535,65535],
			[403,65535,408],
			[862,409,65535],
			[869,65535,65535],
			[858,65535,65535],
			[866,65535,65535],
			[403,65535,65535],
			[859,65535,65535],
			[861,65535,65535],
			[403,65535,65535]
		],
		[
			[403,65535,65535],
			[403,65535,65535],
			[862,65535,65535],
			[864,65535,65535],
			[403,65535,65535],
			[1129,65535,65535],
			[1124,65535,65535],
			[1124,65535,65535],
			[1130,65535,65535],
			[403,409,65535],
			[403,65535,65535],
			[862,65535,65535],
			[863,65535,65535],
			[864,65535,65535],
			[403,65535,65535],
			[862,65535,65535],
			[864,65535,65535],
			[403,65535,65535]
		],
		[
			[403,65535,65535],
			[403,65535,65535],
			[403,65535,65535],
			[403,65535,65535],
			[403,65535,65535],
			[403,65535,65535],
			[403,65535,65535],
			[403,65535,65535],
			[403,65535,65535],
			[403,65535,65535],
			[403,65535,65535],
			[403,65535,65535],
			[403,65535,65535],
			[403,65535,65535],
			[403,65535,65535],
			[403,65535,65535],
			[403,65535,65535],
			[403,65535,65535]
		]
	]
}
