{
	"id": 550,
	"type": 3,
	"width": 18,
	"height": 18,
	"flags": 17,
	"tiles": [
		[
			[403,65535,65535],
			[403,65535,65535],
			[403,65535,65535],
			[859,65535,871],
			[861,65535,873],
			[403,65535,65535],
			[403,65535,65535],
			[403,65535,65535],
			[403,65535,65535],
			[403,65535,65535],
			[403,65535,65535],
			[403,65535,933],
			[403,65535,65535],
			[403,65535,65535],
			[403,65535,65535],
			[403,65535,65535],
			[403,65535,65535],
			[403,65535,65535]
		],
		[
			[403,65535,65535],
			[403,65535,65535],
			[1576,65535,871],
			[867,65535,877],
			[868,65535,878],
			[860,65535,872],
			[861,65535,873],
			[1576,65535,65535],
			[403,65535,65535],
			[403,65535,65535],
			[403,65535,65535],
			[403,65535,1815],
			[403,65535,65535],
			[403,65535,65535],
			[403,1580,65535],
			[1576,65535,65535],
			[403,65535,65535],
			[403,65535,65535]
		],
		[
			[403,65535,65535],
			[403,65535,65535],
			[403,65535,874],
			[858,355,875],
			[858,355,875],
			[858,355,875],
			[868,355,878],
			[861,65535,873],
			[403,388,65535],
			[1578,65535,65535],
			[403,65535,65535],
			[403,898,65535],
			[403,65535,871],
			[403,65535,872],
			[403,65535,873],
			[403,65535,65535],
			[403,65535,65535],
			[403,65535,65535]
		],
		[
			[403,65535,65535],
			[1576,65535,65535],
			[879,65535,874],
			[858,355,875],
			[858,65535,1957],
			[858,65535,1957],
			[858,355,875],
			[866,65535,876],
			[403,65535,65535],
			[403,65535,65535],
			[1576,65535,65535],
			[403,65535,871],
			[860,65535,877],
			[860,355,1957],
			[860,65535,878],
			[861,65535,873],
			[403,65535,933],
			[403,65535,65535]
		],
		[
			[403,65535,65535],
			[859,65535,871],
			[879,355,877],
			[858,355,875],
			[858,65535,1957],
			[858,65535,1957],
			[881,355,888],
			[861,65535,885],
			[403,65535,65535],
			[403,65535,871],
			[403,65535,872],
			[403,355,877],
			[858,355,875],
			[858,355,875],
			[858,355,875],
			[403,65535,876],
			[403,65535,1815],
			[403,65535,65535]
		],
		[
			[403,65535,65535],
			[403,65535,874],
			[858,355,875],
			[858,65535,1957],
			[858,65535,1957],
			[858,65535,1957],
			[881,894,876],
			[881,893,65535],
			[403,65535,65535],
			[403,65535,874],
			[858,355,875],
			[858,355,875],
			[858,65535,1957],
			[858,65535,1957],
			[858,355,875],
			[403,65535,876],
			[403,898,65535],
			[403,65535,65535]
		],
		[
			[403,65535,65535],
			[862,65535,883],
			[403,355,887],
			[858,65535,1957],
			[403,65535,888],
			[403,355,884],
			[897,355,885],
			[881,65535,65535],
			[403,65535,65535],
			[403,65535,874],
			[858,355,875],
			[858,65535,1957],
			[858,65535,1957],
			[858,65535,1957],
			[858,355,875],
			[868,355,878],
			[861,65535,873],
			[403,65535,65535]
		],
		[
			[403,65535,65535],
			[879,891,65535],
			[862,892,883],
			[403,65535,896],
			[864,892,885],
			[403,892,65535],
			[881,893,65535],
			[403,65535,65535],
			[403,65535,65535],
			[403,65535,874],
			[858,355,875],
			[858,65535,1957],
			[858,65535,1957],
			[858,65535,1957],
			[858,65535,1957],
			[858,355,875],
			[403,65535,876],
			[403,65535,65535]
		],
		[
			[403,65535,65535],
			[879,65535,65535],
			[880,891,65535],
			[1581,65535,1485],
			[897,893,65535],
			[880,65535,65535],
			[881,65535,65535],
			[403,65535,65535],
			[1576,65535,65535],
			[403,65535,883],
			[403,355,886],
			[403,355,887],
			[858,65535,1957],
			[858,65535,1957],
			[858,65535,1957],
			[403,355,888],
			[861,65535,885],
			[403,65535,65535]
		],
		[
			[403,65535,65535],
			[1577,65535,65535],
			[879,65535,65535],
			[895,65535,65535],
			[881,65535,65535],
			[859,65535,871],
			[860,65535,872],
			[861,65535,873],
			[403,65535,65535],
			[403,891,65535],
			[403,894,65535],
			[403,892,883],
			[403,65535,886],
			[403,65535,886],
			[403,65535,896],
			[897,892,885],
			[881,893,65535],
			[403,65535,65535]
		],
		[
			[403,65535,65535],
			[403,65535,65535],
			[403,65535,65535],
			[859,65535,871],
			[860,65535,872],
			[867,355,877],
			[858,355,875],
			[868,355,878],
			[861,65535,873],
			[879,65535,65535],
			[882,65535,65535],
			[897,891,65535],
			[403,894,65535],
			[403,894,65535],
			[1581,65535,1485],
			[897,893,65535],
			[881,65535,65535],
			[403,65535,65535]
		],
		[
			[403,65535,65535],
			[403,65535,65535],
			[859,65535,871],
			[867,355,877],
			[858,355,875],
			[858,355,875],
			[858,65535,1957],
			[858,355,875],
			[868,355,878],
			[860,65535,872],
			[861,65535,873],
			[879,65535,65535],
			[882,65535,65535],
			[882,65535,65535],
			[895,65535,65535],
			[881,65535,65535],
			[403,65535,65535],
			[403,65535,65535]
		],
		[
			[403,65535,65535],
			[403,390,65535],
			[403,65535,874],
			[858,355,875],
			[858,65535,1957],
			[858,65535,1957],
			[858,65535,1957],
			[858,65535,1957],
			[858,355,875],
			[858,355,875],
			[403,65535,876],
			[403,65535,65535],
			[403,65535,65535],
			[403,65535,65535],
			[403,65535,65535],
			[403,65535,65535],
			[403,65535,933],
			[403,65535,65535]
		],
		[
			[403,65535,65535],
			[403,65535,65535],
			[403,65535,883],
			[858,355,887],
			[858,65535,1957],
			[858,65535,1957],
			[858,65535,1957],
			[858,65535,1957],
			[858,65535,1957],
			[858,355,888],
			[861,65535,885],
			[403,65535,65535],
			[1579,65535,65535],
			[403,65535,65535],
			[403,65535,65535],
			[403,65535,65535],
			[403,898,65535],
			[403,65535,65535]
		],
		[
			[403,65535,65535],
			[403,65535,65535],
			[879,891,65535],
			[403,892,883],
			[858,65535,884],
			[858,65535,886],
			[858,65535,896],
			[858,65535,884],
			[403,65535,886],
			[870,892,885],
			[881,893,65535],
			[403,65535,65535],
			[403,374,65535],
			[403,375,65535],
			[403,376,65535],
			[403,65535,65535],
			[403,65535,65535],
			[403,65535,65535]
		],
		[
			[403,65535,65535],
			[403,65535,65535],
			[879,65535,65535],
			[897,891,65535],
			[858,892,65535],
			[858,894,65535],
			[1581,65535,1485],
			[858,892,65535],
			[858,894,65535],
			[897,893,65535],
			[881,65535,65535],
			[403,65535,933],
			[377,65535,65535],
			[378,65535,65535],
			[379,65535,65535],
			[403,65535,933],
			[403,65535,65535],
			[403,65535,65535]
		],
		[
			[403,65535,65535],
			[1578,65535,65535],
			[403,65535,65535],
			[879,65535,65535],
			[880,65535,65535],
			[882,65535,65535],
			[895,65535,65535],
			[897,65535,65535],
			[882,65535,65535],
			[881,65535,65535],
			[403,65535,65535],
			[403,898,65535],
			[403,65535,65535],
			[403,65535,65535],
			[403,65535,65535],
			[403,898,65535],
			[403,65535,65535],
			[403,65535,65535]
		],
		[
			[403,65535,65535],
			[403,65535,65535],
			[403,65535,65535],
			[403,65535,65535],
			[403,65535,65535],
			[403,65535,65535],
			[403,65535,65535],
			[403,65535,65535],
			[403,65535,65535],
			[403,65535,65535],
			[403,65535,65535],
			[403,65535,65535],
			[403,65535,65535],
			[403,65535,65535],
			[403,65535,65535],
			[403,65535,65535],
			[403,65535,65535],
			[403,65535,65535]
		]
	]
}
