{
	"id": 551,
	"type": 3,
	"width": 18,
	"height": 18,
	"flags": 17,
	"tiles": [
		[
			[403,65535,65535],
			[403,65535,65535],
			[403,65535,65535],
			[403,65535,65535],
			[1575,65535,65535],
			[403,65535,65535],
			[403,65535,65535],
			[403,65535,65535],
			[403,65535,65535],
			[403,65535,65535],
			[403,65535,65535],
			[403,65535,65535],
			[403,65535,65535],
			[403,65535,871],
			[859,65535,872],
			[861,65535,873],
			[403,65535,65535],
			[403,65535,65535]
		],
		[
			[1575,65535,65535],
			[403,65535,65535],
			[403,65535,65535],
			[403,65535,65535],
			[403,65535,65535],
			[403,65535,65535],
			[1577,65535,65535],
			[403,65535,65535],
			[403,65535,1137],
			[403,65535,65535],
			[403,65535,65535],
			[403,65535,65535],
			[403,65535,65535],
			[403,65535,883],
			[862,65535,884],
			[864,65535,885],
			[403,65535,65535],
			[1576,65535,65535]
		],
		[
			[403,65535,65535],
			[403,65535,65535],
			[403,65535,65535],
			[403,65535,65535],
			[403,65535,65535],
			[1577,65535,65535],
			[1578,65535,65535],
			[403,65535,65535],
			[403,1138,65535],
			[391,65535,65535],
			[393,65535,65535],
			[403,65535,65535],
			[1575,65535,65535],
			[403,891,65535],
			[859,892,65535],
			[860,893,871],
			[861,65535,873],
			[403,65535,65535]
		],
		[
			[403,65535,65535],
			[403,65535,65535],
			[391,65535,65535],
			[392,65535,65535],
			[393,65535,65535],
			[403,65535,1135],
			[403,65535,65535],
			[403,65535,65535],
			[391,65535,65535],
			[399,65535,65535],
			[398,65535,65535],
			[403,1580,65535],
			[403,65535,65535],
			[879,65535,65535],
			[880,65535,65535],
			[881,65535,883],
			[864,65535,885],
			[403,65535,65535]
		],
		[
			[403,65535,65535],
			[403,65535,65535],
			[397,65535,65535],
			[0,187,65535],
			[398,65535,65535],
			[403,1136,65535],
			[391,65535,65535],
			[392,65535,65535],
			[399,65535,65535],
			[402,65535,65535],
			[396,65535,65535],
			[391,65535,65535],
			[392,65535,65535],
			[393,65535,65535],
			[1577,65535,65535],
			[403,891,65535],
			[861,893,65535],
			[403,65535,65535]
		],
		[
			[403,65535,65535],
			[403,65535,65535],
			[394,65535,65535],
			[401,65535,65535],
			[400,65535,65535],
			[392,65535,65535],
			[399,65535,65535],
			[0,187,65535],
			[0,41,65535],
			[400,65535,65535],
			[392,65535,65535],
			[399,65535,65535],
			[402,65535,65535],
			[396,65535,65535],
			[403,65535,65535],
			[879,65535,65535],
			[881,65535,65535],
			[403,65535,65535]
		],
		[
			[403,65535,65535],
			[1576,65535,65535],
			[403,65535,65535],
			[397,65535,65535],
			[0,43,65535],
			[0,1580,65535],
			[0,65535,65535],
			[99,65535,65535],
			[403,32,65535],
			[0,34,1451],
			[0,65535,1452],
			[0,65535,1453],
			[398,65535,65535],
			[403,65535,1139],
			[403,65535,65535],
			[403,65535,65535],
			[403,65535,65535],
			[403,65535,65535]
		],
		[
			[403,65535,65535],
			[391,65535,65535],
			[392,65535,65535],
			[399,65535,65535],
			[0,60,65535],
			[0,53,65535],
			[0,53,65535],
			[38,51,65535],
			[0,61,65535],
			[0,1454,65535],
			[400,1455,65535],
			[0,1456,65535],
			[398,65535,65535],
			[403,1140,65535],
			[403,65535,65535],
			[403,65535,65535],
			[403,65535,65535],
			[403,65535,65535]
		],
		[
			[403,65535,65535],
			[394,65535,65535],
			[401,65535,65535],
			[402,65535,65535],
			[395,65535,65535],
			[401,65535,65535],
			[0,65535,65535],
			[0,1831,65535],
			[0,962,65535],
			[0,1457,65535],
			[1460,1462,65535],
			[0,1459,65535],
			[400,65535,65535],
			[392,65535,65535],
			[392,65535,65535],
			[393,65535,65535],
			[1576,65535,65535],
			[403,65535,65535]
		],
		[
			[403,65535,65535],
			[403,65535,65535],
			[394,65535,65535],
			[396,65535,65535],
			[391,65535,65535],
			[399,65535,65535],
			[0,65535,65535],
			[0,65535,65535],
			[0,963,65535],
			[402,65535,65535],
			[401,65535,65535],
			[402,65535,65535],
			[395,65535,65535],
			[401,65535,65535],
			[0,187,65535],
			[398,65535,65535],
			[403,65535,65535],
			[403,65535,65535]
		],
		[
			[403,65535,65535],
			[403,65535,65535],
			[403,65535,65535],
			[403,65535,1135],
			[397,65535,65535],
			[0,354,65535],
			[402,65535,65535],
			[395,65535,65535],
			[395,65535,65535],
			[396,65535,65535],
			[397,65535,65535],
			[398,65535,65535],
			[1578,1580,65535],
			[394,65535,65535],
			[395,65535,65535],
			[396,65535,65535],
			[403,65535,65535],
			[403,65535,65535]
		],
		[
			[403,65535,65535],
			[403,65535,65535],
			[403,65535,65535],
			[403,1136,65535],
			[394,65535,65535],
			[395,65535,65535],
			[396,65535,871],
			[403,65535,873],
			[403,65535,65535],
			[391,65535,65535],
			[399,65535,65535],
			[398,65535,65535],
			[1578,65535,65535],
			[403,65535,65535],
			[403,65535,1137],
			[403,65535,65535],
			[1576,65535,65535],
			[403,65535,65535]
		],
		[
			[403,65535,65535],
			[403,1580,65535],
			[403,65535,65535],
			[403,65535,871],
			[403,65535,872],
			[403,65535,873],
			[403,65535,883],
			[403,65535,885],
			[1576,65535,65535],
			[397,65535,65535],
			[402,65535,65535],
			[396,65535,65535],
			[1578,65535,65535],
			[403,65535,65535],
			[403,1138,65535],
			[1576,65535,65535],
			[1575,65535,65535],
			[1576,65535,65535]
		],
		[
			[403,65535,65535],
			[403,65535,65535],
			[403,65535,65535],
			[403,65535,883],
			[403,65535,886],
			[403,65535,885],
			[403,891,65535],
			[861,893,65535],
			[403,65535,65535],
			[394,65535,65535],
			[396,65535,65535],
			[403,65535,65535],
			[403,65535,65535],
			[1577,65535,65535],
			[403,65535,65535],
			[1578,65535,65535],
			[1576,65535,65535],
			[403,65535,65535]
		],
		[
			[403,65535,65535],
			[403,65535,65535],
			[403,65535,65535],
			[403,891,65535],
			[403,894,65535],
			[861,893,65535],
			[879,65535,65535],
			[881,65535,65535],
			[403,65535,65535],
			[403,65535,65535],
			[403,65535,65535],
			[403,65535,65535],
			[403,65535,1135],
			[403,65535,65535],
			[1576,65535,65535],
			[403,65535,65535],
			[403,65535,65535],
			[403,65535,65535]
		],
		[
			[403,65535,65535],
			[403,187,65535],
			[403,65535,65535],
			[879,65535,65535],
			[882,65535,65535],
			[881,65535,65535],
			[403,65535,65535],
			[403,65535,65535],
			[403,65535,65535],
			[403,65535,65535],
			[403,65535,65535],
			[403,65535,65535],
			[403,1136,65535],
			[403,65535,65535],
			[403,65535,65535],
			[1579,65535,65535],
			[403,65535,65535],
			[403,65535,65535]
		],
		[
			[403,65535,65535],
			[403,65535,65535],
			[403,65535,65535],
			[403,65535,65535],
			[403,65535,65535],
			[403,65535,65535],
			[403,1580,65535],
			[403,65535,65535],
			[403,65535,65535],
			[1575,65535,65535],
			[403,65535,65535],
			[403,65535,65535],
			[403,65535,65535],
			[403,65535,65535],
			[1577,65535,65535],
			[1578,65535,65535],
			[403,65535,65535],
			[1577,65535,65535]
		],
		[
			[403,65535,65535],
			[403,65535,65535],
			[403,65535,65535],
			[403,65535,65535],
			[403,65535,65535],
			[403,65535,65535],
			[403,65535,65535],
			[403,65535,65535],
			[1576,65535,65535],
			[403,65535,65535],
			[1576,65535,65535],
			[403,65535,65535],
			[403,65535,65535],
			[403,65535,65535],
			[403,65535,65535],
			[403,65535,65535],
			[403,65535,65535],
			[403,65535,65535]
		]
	]
}
