{
	"id": 556,
	"type": 2,
	"width": 18,
	"height": 18,
	"flags": 10,
	"tiles": [
		[
			[648,65535,65535],
			[648,65535,65535],
			[648,65535,65535],
			[648,65535,65535],
			[648,65535,65535],
			[648,65535,65535],
			[648,65535,65535],
			[648,65535,65535],
			[648,65535,65535],
			[648,65535,65535],
			[648,65535,65535],
			[648,65535,65535],
			[648,65535,65535],
			[648,65535,65535],
			[648,65535,65535],
			[648,65535,65535],
			[648,65535,65535],
			[648,65535,65535]
		],
		[
			[648,65535,65535],
			[648,65535,65535],
			[648,735,65535],
			[648,731,65535],
			[648,741,65535],
			[648,746,65535],
			[648,65535,65535],
			[648,65535,65535],
			[648,748,65535],
			[648,65535,65535],
			[648,742,65535],
			[648,736,65535],
			[648,735,65535],
			[648,731,65535],
			[648,741,65535],
			[648,65535,65535],
			[648,65535,65535],
			[648,65535,65535]
		],
		[
			[648,65535,65535],
			[648,65535,65535],
			[648,65535,65535],
			[648,739,65535],
			[648,743,65535],
			[648,745,65535],
			[648,65535,65535],
			[648,742,65535],
			[648,738,65535],
			[648,65535,65535],
			[648,724,65535],
			[648,742,65535],
			[805,806,65535],
			[648,741,65535],
			[648,745,65535],
			[1050,65535,65535],
			[648,65535,65535],
			[648,65535,65535]
		],
		[
			[648,65535,65535],
			[648,65535,65535],
			[648,65535,65535],
			[648,745,65535],
			[648,1167,65535],
			[648,737,65535],
			[648,731,65535],
			[648,738,65535],
			[648,742,65535],
			[648,731,65535],
			[648,738,65535],
			[648,724,65535],
			[998,65535,65535],
			[648,745,65535],
			[648,745,65535],
			[648,65535,65535],
			[648,65535,65535],
			[648,65535,65535]
		],
		[
			[648,65535,65535],
			[648,65535,65535],
			[648,739,65535],
			[648,743,65535],
			[648,746,65535],
			[648,65535,65535],
			[648,742,65535],
			[648,731,65535],
			[648,738,65535],
			[648,65535,65535],
			[648,742,65535],
			[648,738,65535],
			[648,65535,65535],
			[648,745,65535],
			[648,745,65535],
			[648,748,65535],
			[648,65535,65535],
			[648,65535,65535]
		],
		[
			[648,65535,65535],
			[997,65535,65535],
			[648,745,65535],
			[648,739,65535],
			[648,743,65535],
			[0,648,742],
			[648,738,65535],
			[648,65535,65535],
			[648,742,65535],
			[648,731,65535],
			[648,738,65535],
			[648,65535,65535],
			[648,739,65535],
			[648,743,65535],
			[648,745,65535],
			[648,724,65535],
			[648,65535,65535],
			[648,65535,65535]
		],
		[
			[648,65535,65535],
			[648,739,65535],
			[648,743,65535],
			[648,745,65535],
			[648,742,65535],
			[648,738,65535],
			[648,742,65535],
			[648,731,65535],
			[648,738,65535],
			[997,65535,65535],
			[648,65535,65535],
			[648,739,65535],
			[648,743,65535],
			[648,739,65535],
			[648,743,65535],
			[648,724,65535],
			[648,65535,65535],
			[648,65535,65535]
		],
		[
			[648,65535,65535],
			[648,745,65535],
			[648,739,65535],
			[648,743,65535],
			[648,724,65535],
			[648,742,65535],
			[648,738,65535],
			[648,65535,65535],
			[648,65535,65535],
			[648,739,65535],
			[648,750,65535],
			[648,743,65535],
			[648,739,65535],
			[648,743,65535],
			[648,742,65535],
			[648,738,65535],
			[648,65535,65535],
			[648,65535,65535]
		],
		[
			[648,65535,65535],
			[648,745,65535],
			[648,745,65535],
			[648,742,65535],
			[648,738,65535],
			[648,724,65535],
			[1000,65535,65535],
			[648,65535,65535],
			[648,739,65535],
			[648,743,65535],
			[648,739,65535],
			[648,750,65535],
			[648,743,65535],
			[648,65535,65535],
			[648,724,65535],
			[648,65535,65535],
			[648,65535,65535],
			[648,65535,65535]
		],
		[
			[648,65535,65535],
			[648,745,65535],
			[648,745,65535],
			[648,724,65535],
			[648,742,65535],
			[648,738,65535],
			[648,65535,65535],
			[648,739,65535],
			[648,743,65535],
			[648,739,65535],
			[648,743,65535],
			[648,65535,65535],
			[648,65535,65535],
			[648,742,65535],
			[648,738,65535],
			[648,748,65535],
			[648,65535,65535],
			[648,65535,65535]
		],
		[
			[648,65535,65535],
			[648,745,65535],
			[648,737,65535],
			[648,738,65535],
			[648,724,65535],
			[648,65535,65535],
			[648,65535,65535],
			[648,745,65535],
			[648,65535,65535],
			[648,737,65535],
			[648,731,65535],
			[648,741,65535],
			[648,65535,65535],
			[648,724,65535],
			[648,1167,65535],
			[648,724,65535],
			[1000,65535,65535],
			[648,65535,65535]
		],
		[
			[648,65535,65535],
			[648,745,65535],
			[648,65535,65535],
			[648,742,65535],
			[648,738,65535],
			[648,65535,65535],
			[648,65535,65535],
			[648,737,65535],
			[648,732,65535],
			[648,741,65535],
			[648,65535,65535],
			[648,737,65535],
			[648,741,65535],
			[648,744,65535],
			[648,740,65535],
			[648,744,65535],
			[648,740,65535],
			[648,65535,65535]
		],
		[
			[648,65535,65535],
			[648,737,65535],
			[648,731,65535],
			[648,738,65535],
			[1000,65535,65535],
			[648,739,65535],
			[648,740,65535],
			[1000,65535,65535],
			[648,65535,65535],
			[648,737,65535],
			[648,741,65535],
			[648,65535,65535],
			[648,737,65535],
			[648,741,65535],
			[648,744,65535],
			[648,740,65535],
			[648,724,65535],
			[648,65535,65535]
		],
		[
			[648,65535,65535],
			[648,65535,65535],
			[648,65535,65535],
			[648,65535,65535],
			[648,739,65535],
			[648,743,65535],
			[648,744,65535],
			[648,750,65535],
			[648,740,65535],
			[648,65535,65535],
			[648,737,65535],
			[648,731,65535],
			[648,741,65535],
			[648,737,65535],
			[648,731,65535],
			[648,738,65535],
			[648,724,65535],
			[648,65535,65535]
		],
		[
			[648,65535,65535],
			[648,65535,65535],
			[648,65535,65535],
			[648,65535,65535],
			[648,737,65535],
			[648,731,65535],
			[648,731,65535],
			[648,741,65535],
			[648,744,65535],
			[648,740,65535],
			[648,65535,65535],
			[997,65535,65535],
			[648,745,65535],
			[648,742,65535],
			[648,731,65535],
			[648,731,65535],
			[648,738,65535],
			[648,65535,65535]
		],
		[
			[648,65535,65535],
			[648,65535,65535],
			[648,65535,65535],
			[648,65535,65535],
			[648,65535,65535],
			[997,65535,65535],
			[648,65535,65535],
			[648,737,65535],
			[648,731,65535],
			[648,738,65535],
			[648,65535,65535],
			[648,65535,65535],
			[648,737,65535],
			[648,738,65535],
			[1000,65535,65535],
			[648,65535,65535],
			[648,65535,65535],
			[648,65535,65535]
		],
		[
			[648,65535,65535],
			[648,65535,65535],
			[648,65535,65535],
			[648,65535,65535],
			[648,65535,65535],
			[648,65535,65535],
			[648,65535,65535],
			[648,65535,65535],
			[648,65535,65535],
			[648,65535,65535],
			[648,65535,65535],
			[648,65535,65535],
			[648,65535,65535],
			[648,65535,65535],
			[648,65535,65535],
			[648,65535,65535],
			[648,65535,65535],
			[648,65535,65535]
		],
		[
			[648,65535,65535],
			[648,65535,65535],
			[648,65535,65535],
			[648,65535,65535],
			[648,65535,65535],
			[648,65535,65535],
			[648,65535,65535],
			[648,65535,65535],
			[648,65535,65535],
			[648,65535,65535],
			[648,65535,65535],
			[648,65535,65535],
			[648,65535,65535],
			[648,65535,65535],
			[648,65535,65535],
			[648,65535,65535],
			[648,65535,65535],
			[648,65535,65535]
		]
	]
}
