{
	"id": 557,
	"type": 2,
	"width": 18,
	"height": 18,
	"flags": 8,
	"tiles": [
		[
			[648,65535,65535],
			[648,65535,65535],
			[648,742,65535],
			[648,738,65535],
			[648,355,65535],
			[648,355,65535],
			[648,745,65535],
			[648,747,65535],
			[648,355,65535],
			[648,355,65535],
			[648,745,65535],
			[648,745,65535],
			[648,355,65535],
			[648,745,65535],
			[1008,724,65535],
			[1008,355,65535],
			[1008,355,65535],
			[1008,1612,65535]
		],
		[
			[648,65535,65535],
			[648,65535,65535],
			[648,749,65535],
			[648,65535,65535],
			[648,65535,65535],
			[649,65535,65535],
			[648,745,65535],
			[648,746,65535],
			[648,65535,65535],
			[649,65535,65535],
			[648,745,65535],
			[648,745,65535],
			[649,65535,65535],
			[648,745,65535],
			[648,744,65535],
			[1008,740,65535],
			[680,65535,65535],
			[1008,355,65535]
		],
		[
			[648,65535,65535],
			[648,65535,65535],
			[648,748,65535],
			[648,65535,65535],
			[648,65535,65535],
			[648,739,65535],
			[648,743,65535],
			[648,745,65535],
			[648,65535,65535],
			[648,65535,65535],
			[648,745,65535],
			[648,745,65535],
			[648,65535,65535],
			[648,737,65535],
			[648,741,65535],
			[1008,724,65535],
			[680,65535,65535],
			[1008,355,65535]
		],
		[
			[648,65535,65535],
			[648,65535,65535],
			[648,724,65535],
			[648,65535,65535],
			[648,65535,65535],
			[648,745,65535],
			[648,739,65535],
			[648,743,65535],
			[648,65535,65535],
			[648,65535,65535],
			[648,747,65535],
			[648,745,65535],
			[648,65535,65535],
			[648,65535,65535],
			[648,745,65535],
			[1008,744,65535],
			[1008,740,65535],
			[1008,355,65535]
		],
		[
			[648,65535,65535],
			[648,742,65535],
			[648,738,65535],
			[648,65535,65535],
			[648,65535,65535],
			[648,745,65535],
			[648,737,65535],
			[648,741,65535],
			[648,746,65535],
			[648,65535,65535],
			[648,65535,65535],
			[648,737,65535],
			[648,741,65535],
			[648,65535,65535],
			[648,737,65535],
			[1012,741,65535],
			[1019,744,65535],
			[1008,750,65535]
		],
		[
			[648,65535,65535],
			[648,724,65535],
			[648,65535,65535],
			[648,65535,65535],
			[648,65535,65535],
			[648,737,65535],
			[648,741,65535],
			[648,745,65535],
			[648,745,65535],
			[648,65535,65535],
			[648,65535,65535],
			[648,65535,65535],
			[648,745,65535],
			[648,65535,65535],
			[1000,65535,65535],
			[648,737,65535],
			[1015,731,65535],
			[1012,731,65535]
		],
		[
			[648,65535,65535],
			[648,724,65535],
			[648,65535,65535],
			[648,65535,65535],
			[648,65535,65535],
			[997,65535,65535],
			[648,747,65535],
			[648,745,65535],
			[648,737,65535],
			[648,741,65535],
			[648,65535,65535],
			[648,65535,65535],
			[648,737,65535],
			[648,736,65535],
			[648,65535,65535],
			[648,65535,65535],
			[648,65535,65535],
			[648,355,65535]
		],
		[
			[648,742,65535],
			[648,738,65535],
			[648,65535,65535],
			[1013,65535,65535],
			[1014,65535,65535],
			[648,65535,65535],
			[648,746,65535],
			[648,737,65535],
			[648,741,65535],
			[648,737,65535],
			[648,741,65535],
			[648,65535,65535],
			[648,65535,65535],
			[648,65535,65535],
			[648,65535,65535],
			[648,65535,65535],
			[649,65535,65535],
			[648,355,65535]
		],
		[
			[648,724,65535],
			[1000,65535,65535],
			[648,65535,65535],
			[1010,65535,65535],
			[1011,65535,65535],
			[648,65535,65535],
			[648,745,65535],
			[648,65535,65535],
			[648,745,65535],
			[648,1165,65535],
			[648,737,65535],
			[648,731,65535],
			[648,741,65535],
			[648,735,65535],
			[648,731,65535],
			[648,731,65535],
			[648,741,65535],
			[648,355,65535]
		],
		[
			[648,749,65535],
			[648,65535,65535],
			[1013,65535,65535],
			[1017,65535,65535],
			[1011,65535,65535],
			[648,65535,65535],
			[648,737,65535],
			[648,741,65535],
			[648,737,65535],
			[648,741,65535],
			[648,65535,65535],
			[648,65535,65535],
			[648,737,65535],
			[648,731,65535],
			[648,731,65535],
			[648,741,65535],
			[648,737,65535],
			[648,731,65535]
		],
		[
			[648,748,65535],
			[1013,65535,65535],
			[1017,65535,65535],
			[1020,65535,65535],
			[1016,65535,65535],
			[648,65535,65535],
			[648,65535,65535],
			[648,745,65535],
			[648,65535,65535],
			[648,737,65535],
			[648,741,65535],
			[648,65535,65535],
			[648,65535,65535],
			[648,65535,65535],
			[648,65535,65535],
			[648,737,65535],
			[648,731,65535],
			[648,731,65535]
		],
		[
			[648,749,65535],
			[1010,65535,65535],
			[1008,65535,65535],
			[1018,65535,65535],
			[1014,65535,65535],
			[648,65535,65535],
			[648,65535,65535],
			[648,737,65535],
			[648,741,65535],
			[648,65535,65535],
			[648,737,65535],
			[648,741,65535],
			[648,65535,65535],
			[648,65535,65535],
			[648,65535,65535],
			[648,65535,65535],
			[648,65535,65535],
			[648,355,65535]
		],
		[
			[648,748,65535],
			[1015,65535,65535],
			[1019,65535,65535],
			[1008,65535,65535],
			[1018,65535,65535],
			[1014,65535,65535],
			[648,65535,65535],
			[648,65535,65535],
			[648,737,65535],
			[648,731,65535],
			[648,741,65535],
			[648,737,65535],
			[648,731,65535],
			[648,741,65535],
			[648,65535,65535],
			[648,65535,65535],
			[649,65535,65535],
			[648,355,65535]
		],
		[
			[648,724,65535],
			[648,65535,65535],
			[1015,65535,65535],
			[1019,65535,65535],
			[1008,65535,65535],
			[1018,65535,65535],
			[1009,65535,65535],
			[1014,65535,65535],
			[648,65535,65535],
			[997,65535,65535],
			[648,737,65535],
			[648,731,65535],
			[648,741,65535],
			[648,737,65535],
			[648,731,65535],
			[648,731,65535],
			[648,741,65535],
			[648,355,65535]
		],
		[
			[648,744,65535],
			[648,740,65535],
			[648,65535,65535],
			[1015,65535,65535],
			[1019,65535,65535],
			[1020,65535,65535],
			[1012,65535,65535],
			[1016,65535,65535],
			[648,65535,65535],
			[648,65535,65535],
			[648,65535,65535],
			[648,65535,65535],
			[648,737,65535],
			[648,736,65535],
			[648,735,65535],
			[648,741,65535],
			[648,737,65535],
			[648,731,65535]
		],
		[
			[648,65535,65535],
			[648,744,65535],
			[648,750,65535],
			[648,740,65535],
			[1015,65535,65535],
			[1016,65535,65535],
			[648,65535,65535],
			[648,65535,65535],
			[648,65535,65535],
			[648,65535,65535],
			[648,65535,65535],
			[648,65535,65535],
			[648,65535,65535],
			[648,65535,65535],
			[648,65535,65535],
			[648,737,65535],
			[648,731,65535],
			[648,731,65535]
		],
		[
			[648,65535,65535],
			[648,65535,65535],
			[648,65535,65535],
			[648,744,65535],
			[648,740,65535],
			[648,65535,65535],
			[648,739,65535],
			[648,740,65535],
			[648,65535,65535],
			[648,65535,65535],
			[1013,65535,65535],
			[1009,65535,65535],
			[1014,65535,65535],
			[648,65535,65535],
			[648,65535,65535],
			[648,65535,65535],
			[649,65535,65535],
			[648,355,65535]
		],
		[
			[648,65535,65535],
			[648,65535,65535],
			[648,65535,65535],
			[648,65535,65535],
			[648,724,65535],
			[997,65535,65535],
			[648,745,65535],
			[648,744,65535],
			[648,750,65535],
			[648,751,65535],
			[1015,65535,65535],
			[1012,65535,65535],
			[1016,65535,65535],
			[648,65535,65535],
			[648,752,65535],
			[648,751,65535],
			[648,752,65535],
			[648,751,65535]
		]
	]
}
