{
	"id": 561,
	"type": 3,
	"width": 18,
	"height": 18,
	"flags": 3,
	"tiles": [
		[
			[403,65535,65535],
			[403,65535,65535],
			[403,65535,65535],
			[403,65535,65535],
			[403,65535,65535],
			[859,65535,871],
			[860,65535,872],
			[860,65535,872],
			[860,65535,872],
			[861,65535,873],
			[403,65535,65535],
			[403,65535,65535],
			[403,65535,65535],
			[1576,65535,65535],
			[403,65535,65535],
			[403,65535,65535],
			[403,65535,65535],
			[403,65535,65535]
		],
		[
			[1576,65535,65535],
			[403,65535,65535],
			[1575,65535,65535],
			[859,65535,871],
			[860,65535,872],
			[867,355,877],
			[858,355,875],
			[858,355,875],
			[858,355,875],
			[868,355,878],
			[860,65535,872],
			[860,65535,872],
			[860,65535,872],
			[861,65535,873],
			[403,65535,65535],
			[1575,65535,65535],
			[859,65535,871],
			[860,65535,872]
		],
		[
			[860,65535,872],
			[861,65535,873],
			[403,65535,65535],
			[403,65535,874],
			[858,355,875],
			[858,355,875],
			[858,355,875],
			[858,355,888],
			[1582,65535,1512],
			[858,355,887],
			[858,355,875],
			[858,355,875],
			[858,355,875],
			[868,355,878],
			[861,65535,873],
			[1576,65535,65535],
			[403,65535,874],
			[858,355,875]
		],
		[
			[858,355,875],
			[868,355,878],
			[861,65535,873],
			[403,65535,883],
			[858,355,884],
			[858,355,884],
			[858,355,884],
			[403,892,885],
			[1510,65535,65535],
			[403,892,883],
			[858,355,887],
			[858,355,875],
			[858,355,875],
			[858,355,875],
			[868,65535,878],
			[860,65535,872],
			[867,355,877],
			[858,355,875]
		],
		[
			[858,355,875],
			[858,355,875],
			[868,65535,878],
			[403,891,873],
			[403,892,65535],
			[403,892,65535],
			[403,892,65535],
			[897,893,65535],
			[1511,65535,65535],
			[880,891,65535],
			[880,892,874],
			[858,355,875],
			[858,355,875],
			[858,65535,875],
			[858,355,888],
			[858,355,884],
			[858,355,884],
			[858,355,887]
		],
		[
			[858,355,875],
			[403,355,887],
			[858,355,875],
			[897,65535,878],
			[880,65535,872],
			[880,65535,873],
			[880,65535,65535],
			[881,65535,65535],
			[859,65535,871],
			[879,65535,872],
			[880,65535,877],
			[858,65535,875],
			[858,65535,888],
			[858,355,884],
			[403,892,885],
			[403,892,65535],
			[403,892,65535],
			[403,892,874]
		],
		[
			[858,892,875],
			[403,892,888],
			[858,355,887],
			[858,355,875],
			[858,355,875],
			[868,355,878],
			[403,65535,872],
			[860,65535,872],
			[867,65535,877],
			[858,355,875],
			[858,355,875],
			[858,355,875],
			[858,892,876],
			[880,892,65535],
			[897,893,65535],
			[880,65535,871],
			[880,65535,872],
			[880,355,877]
		],
		[
			[858,355,875],
			[880,891,876],
			[403,892,883],
			[858,355,884],
			[858,355,887],
			[858,355,875],
			[858,355,875],
			[868,355,875],
			[867,355,875],
			[858,355,875],
			[858,355,888],
			[1582,355,1512],
			[879,355,885],
			[880,65535,65535],
			[881,65535,871],
			[867,355,877],
			[858,355,875],
			[858,355,875]
		],
		[
			[858,355,875],
			[880,65535,878],
			[880,891,873],
			[403,892,65535],
			[403,892,883],
			[858,355,884],
			[403,355,887],
			[858,355,875],
			[858,355,875],
			[858,355,888],
			[858,892,885],
			[1510,65535,65535],
			[861,893,65535],
			[859,65535,871],
			[867,355,877],
			[858,355,875],
			[858,355,875],
			[858,355,875]
		],
		[
			[868,355,875],
			[858,65535,875],
			[897,65535,878],
			[880,65535,872],
			[880,891,873],
			[403,892,65535],
			[403,892,883],
			[858,355,884],
			[858,355,884],
			[880,892,885],
			[897,893,65535],
			[1511,65535,899],
			[881,65535,871],
			[867,355,877],
			[858,355,875],
			[858,355,888],
			[858,355,884],
			[858,355,884]
		],
		[
			[867,355,875],
			[858,355,875],
			[858,355,875],
			[858,355,875],
			[897,65535,878],
			[880,65535,873],
			[880,891,65535],
			[403,892,944],
			[880,892,945],
			[897,893,946],
			[881,65535,65535],
			[403,65535,1815],
			[403,65535,883],
			[858,355,884],
			[858,355,884],
			[858,892,885],
			[858,892,65535],
			[403,892,65535]
		],
		[
			[858,355,875],
			[858,355,875],
			[858,355,875],
			[858,355,875],
			[858,355,875],
			[868,355,878],
			[879,65535,873],
			[880,65535,941],
			[880,65535,900],
			[881,65535,943],
			[403,65535,65535],
			[403,898,65535],
			[403,891,65535],
			[403,892,65535],
			[403,892,65535],
			[897,893,65535],
			[880,65535,944],
			[880,65535,945]
		],
		[
			[858,355,875],
			[858,355,875],
			[858,355,875],
			[858,355,875],
			[858,355,875],
			[858,355,875],
			[868,355,878],
			[861,65535,873],
			[403,65535,1023],
			[1579,65535,65535],
			[403,1580,65535],
			[403,65535,65535],
			[879,65535,944],
			[880,65535,945],
			[880,65535,946],
			[881,65535,65535],
			[403,65535,941],
			[403,65535,900]
		],
		[
			[858,355,875],
			[858,355,875],
			[858,355,875],
			[858,355,875],
			[858,355,875],
			[858,355,888],
			[858,355,884],
			[864,65535,885],
			[403,901,65535],
			[403,65535,65535],
			[403,65535,65535],
			[403,65535,65535],
			[403,65535,941],
			[403,65535,900],
			[403,65535,943],
			[1579,65535,65535],
			[403,65535,65535],
			[403,65535,1023]
		],
		[
			[858,355,884],
			[858,355,884],
			[858,355,884],
			[858,355,884],
			[858,355,884],
			[403,892,885],
			[403,892,944],
			[861,893,945],
			[403,65535,946],
			[403,65535,899],
			[1577,65535,65535],
			[403,65535,65535],
			[1578,65535,65535],
			[403,65535,1023],
			[403,65535,65535],
			[403,65535,65535],
			[403,65535,65535],
			[403,901,65535]
		],
		[
			[403,892,65535],
			[403,892,899],
			[403,892,65535],
			[403,892,65535],
			[880,892,65535],
			[897,893,65535],
			[880,65535,941],
			[881,65535,900],
			[403,65535,943],
			[403,65535,1815],
			[403,65535,65535],
			[1579,65535,65535],
			[403,65535,65535],
			[403,901,65535],
			[403,1580,65535],
			[403,65535,65535],
			[403,65535,65535],
			[1578,65535,65535]
		],
		[
			[880,65535,65535],
			[880,65535,1815],
			[880,65535,65535],
			[880,65535,65535],
			[880,65535,65535],
			[881,65535,65535],
			[403,65535,65535],
			[403,65535,1023],
			[403,65535,65535],
			[403,898,65535],
			[403,65535,65535],
			[403,65535,65535],
			[403,65535,65535],
			[1577,65535,65535],
			[403,65535,65535],
			[1579,65535,65535],
			[403,65535,65535],
			[1577,65535,65535]
		],
		[
			[403,65535,65535],
			[403,898,65535],
			[403,65535,65535],
			[1577,65535,65535],
			[403,65535,65535],
			[1579,65535,65535],
			[403,65535,65535],
			[403,901,65535],
			[403,65535,65535],
			[403,65535,65535],
			[1578,65535,65535],
			[403,65535,65535],
			[403,65535,65535],
			[1579,65535,65535],
			[403,65535,65535],
			[403,65535,65535],
			[403,65535,65535],
			[403,65535,65535]
		]
	]
}
