{
	"id": 571,
	"type": 3,
	"width": 18,
	"height": 18,
	"flags": 17,
	"tiles": [
		[
			[403,65535,65535],
			[403,65535,899],
			[403,65535,65535],
			[403,65535,65535],
			[403,65535,65535],
			[859,65535,871],
			[860,65535,872],
			[861,65535,873],
			[403,65535,65535],
			[403,65535,65535],
			[1575,65535,65535],
			[403,65535,871],
			[403,65535,872],
			[403,65535,872],
			[403,65535,872],
			[403,65535,873],
			[403,65535,65535],
			[403,65535,65535]
		],
		[
			[403,65535,65535],
			[403,65535,1815],
			[403,65535,65535],
			[403,65535,65535],
			[403,65535,65535],
			[862,355,883],
			[0,892,884],
			[864,355,885],
			[403,65535,65535],
			[403,65535,65535],
			[403,65535,65535],
			[403,65535,874],
			[403,892,888],
			[0,892,884],
			[0,892,896],
			[403,65535,885],
			[403,65535,65535],
			[403,65535,65535]
		],
		[
			[403,65535,65535],
			[403,898,65535],
			[403,65535,65535],
			[403,65535,65535],
			[403,65535,65535],
			[403,891,65535],
			[0,892,65535],
			[861,893,65535],
			[403,65535,65535],
			[859,65535,871],
			[860,65535,872],
			[861,65535,877],
			[403,892,876],
			[403,892,65535],
			[1581,355,65535],
			[861,893,65535],
			[1576,65535,65535],
			[403,65535,65535]
		],
		[
			[403,65535,65535],
			[403,65535,65535],
			[859,65535,871],
			[861,65535,873],
			[403,65535,65535],
			[879,65535,65535],
			[880,1605,65535],
			[881,65535,65535],
			[403,65535,65535],
			[862,355,883],
			[0,892,886],
			[879,355,884],
			[880,65535,885],
			[880,65535,1139],
			[403,1941,65535],
			[881,65535,65535],
			[403,65535,65535],
			[403,65535,65535]
		],
		[
			[403,65535,65535],
			[403,65535,65535],
			[862,65535,883],
			[864,65535,885],
			[403,65535,65535],
			[1575,65535,65535],
			[403,65535,65535],
			[403,65535,65535],
			[403,65535,65535],
			[403,891,65535],
			[0,894,65535],
			[0,892,65535],
			[861,893,65535],
			[1578,1140,65535],
			[403,847,65535],
			[403,65535,65535],
			[403,65535,899],
			[403,65535,65535]
		],
		[
			[1575,65535,65535],
			[403,65535,65535],
			[403,891,65535],
			[861,893,65535],
			[403,65535,899],
			[403,65535,65535],
			[859,65535,871],
			[861,65535,873],
			[403,65535,65535],
			[879,65535,65535],
			[882,65535,65535],
			[880,65535,65535],
			[881,65535,65535],
			[403,65535,65535],
			[403,847,65535],
			[403,65535,899],
			[403,65535,1815],
			[403,65535,65535]
		],
		[
			[403,65535,65535],
			[403,65535,65535],
			[879,65535,65535],
			[881,65535,65535],
			[403,65535,1815],
			[403,65535,65535],
			[862,65535,883],
			[864,65535,885],
			[403,65535,1139],
			[403,65535,65535],
			[403,65535,65535],
			[403,65535,65535],
			[403,842,65535],
			[403,848,65535],
			[403,845,65535],
			[403,65535,1815],
			[403,898,65535],
			[403,65535,65535]
		],
		[
			[403,65535,65535],
			[403,65535,1139],
			[403,65535,65535],
			[403,65535,65535],
			[403,898,65535],
			[403,65535,65535],
			[403,891,65535],
			[861,893,65535],
			[403,1140,65535],
			[403,65535,65535],
			[403,842,65535],
			[427,65535,65535],
			[403,841,65535],
			[1577,65535,65535],
			[403,65535,65535],
			[403,898,65535],
			[403,65535,65535],
			[403,65535,65535]
		],
		[
			[403,65535,65535],
			[403,1140,65535],
			[403,65535,65535],
			[403,65535,65535],
			[403,65535,65535],
			[403,65535,65535],
			[879,65535,65535],
			[881,65535,65535],
			[403,65535,65535],
			[1578,65535,65535],
			[403,847,65535],
			[403,65535,65535],
			[403,65535,65535],
			[403,65535,65535],
			[403,65535,65535],
			[403,65535,65535],
			[403,65535,65535],
			[1575,65535,65535]
		],
		[
			[403,65535,65535],
			[403,65535,65535],
			[403,65535,899],
			[403,65535,65535],
			[403,65535,65535],
			[403,65535,65535],
			[403,374,65535],
			[403,375,65535],
			[403,376,65535],
			[403,842,65535],
			[403,841,65535],
			[403,65535,65535],
			[403,65535,899],
			[403,65535,65535],
			[403,65535,1139],
			[403,65535,65535],
			[403,65535,65535],
			[403,65535,65535]
		],
		[
			[403,65535,65535],
			[403,65535,65535],
			[403,65535,1815],
			[403,65535,65535],
			[403,65535,65535],
			[403,65535,65535],
			[403,380,65535],
			[403,389,65535],
			[403,851,65535],
			[403,845,65535],
			[1578,65535,65535],
			[403,65535,65535],
			[403,65535,1815],
			[403,65535,65535],
			[403,1140,65535],
			[403,65535,65535],
			[403,65535,65535],
			[403,65535,65535]
		],
		[
			[403,65535,65535],
			[403,65535,65535],
			[403,898,65535],
			[403,65535,65535],
			[403,65535,65535],
			[403,65535,65535],
			[377,65535,65535],
			[403,852,65535],
			[379,65535,65535],
			[403,65535,65535],
			[403,65535,65535],
			[403,65535,65535],
			[403,898,65535],
			[403,65535,65535],
			[403,65535,65535],
			[403,65535,65535],
			[1575,65535,65535],
			[403,65535,65535]
		],
		[
			[403,65535,65535],
			[403,65535,65535],
			[403,65535,65535],
			[403,65535,65535],
			[403,65535,65535],
			[403,65535,65535],
			[1579,65535,65535],
			[403,847,871],
			[861,65535,873],
			[403,65535,65535],
			[403,65535,65535],
			[403,65535,65535],
			[403,65535,65535],
			[403,65535,899],
			[403,65535,65535],
			[859,65535,871],
			[861,65535,873],
			[403,65535,65535]
		],
		[
			[403,65535,65535],
			[859,65535,871],
			[861,65535,872],
			[403,65535,873],
			[403,842,65535],
			[403,848,1139],
			[403,848,65535],
			[403,841,883],
			[864,355,885],
			[403,65535,65535],
			[403,65535,65535],
			[859,65535,871],
			[861,65535,873],
			[403,65535,1815],
			[403,65535,65535],
			[862,65535,883],
			[864,65535,885],
			[403,65535,65535]
		],
		[
			[403,65535,65535],
			[862,891,883],
			[864,892,886],
			[403,848,885],
			[403,845,65535],
			[403,1140,65535],
			[403,65535,65535],
			[403,891,65535],
			[861,893,65535],
			[403,65535,65535],
			[403,65535,65535],
			[862,65535,883],
			[864,65535,885],
			[403,898,65535],
			[403,65535,65535],
			[403,891,65535],
			[861,893,65535],
			[403,65535,65535]
		],
		[
			[403,65535,65535],
			[403,891,65535],
			[403,894,65535],
			[861,893,65535],
			[1577,65535,65535],
			[403,65535,65535],
			[403,65535,65535],
			[879,65535,65535],
			[881,65535,65535],
			[403,65535,65535],
			[403,65535,65535],
			[403,891,65535],
			[861,893,65535],
			[403,65535,65535],
			[403,65535,65535],
			[879,65535,65535],
			[881,65535,65535],
			[403,65535,65535]
		],
		[
			[403,65535,65535],
			[879,65535,65535],
			[882,65535,65535],
			[881,65535,65535],
			[403,65535,65535],
			[403,65535,65535],
			[403,65535,65535],
			[403,65535,65535],
			[403,65535,65535],
			[403,65535,65535],
			[1576,65535,65535],
			[879,65535,65535],
			[881,65535,65535],
			[403,65535,65535],
			[1576,65535,65535],
			[403,65535,65535],
			[403,65535,65535],
			[403,65535,65535]
		],
		[
			[403,65535,65535],
			[403,65535,65535],
			[403,65535,65535],
			[403,65535,65535],
			[403,65535,65535],
			[403,65535,65535],
			[403,65535,65535],
			[403,65535,65535],
			[1576,65535,65535],
			[1575,65535,65535],
			[403,65535,65535],
			[403,65535,65535],
			[403,65535,65535],
			[403,65535,65535],
			[403,65535,65535],
			[403,65535,65535],
			[403,65535,65535],
			[403,65535,65535]
		]
	]
}
