{
	"id": 574,
	"type": 3,
	"width": 18,
	"height": 18,
	"flags": 8,
	"tiles": [
		[
			[903,915,875],
			[903,915,911],
			[903,915,908],
			[903,915,65535],
			[903,915,65535],
			[903,915,65535],
			[903,915,65535],
			[903,915,65535],
			[903,915,906],
			[903,915,910],
			[858,916,878],
			[858,355,872],
			[858,914,873],
			[903,915,65535],
			[903,915,65535],
			[903,915,906],
			[903,915,910],
			[903,915,875]
		],
		[
			[903,355,875],
			[903,915,878],
			[903,916,872],
			[903,65535,873],
			[903,65535,65535],
			[903,65535,871],
			[903,65535,872],
			[903,65535,873],
			[903,914,65535],
			[903,915,906],
			[904,355,907],
			[858,65535,910],
			[902,65535,878],
			[903,65535,872],
			[903,65535,872],
			[903,914,873],
			[903,915,874],
			[903,355,875]
		],
		[
			[903,355,907],
			[858,65535,907],
			[858,65535,907],
			[858,65535,908],
			[856,65535,871],
			[858,65535,877],
			[903,355,911],
			[858,65535,908],
			[902,1744,65535],
			[903,914,65535],
			[903,915,65535],
			[858,915,906],
			[858,65535,907],
			[858,65535,907],
			[858,65535,907],
			[902,65535,908],
			[903,65535,874],
			[903,355,875]
		],
		[
			[903,915,872],
			[903,915,872],
			[903,915,872],
			[858,916,872],
			[858,65535,877],
			[903,355,911],
			[903,915,908],
			[858,916,65535],
			[857,65535,871],
			[902,65535,872],
			[903,65535,872],
			[903,65535,872],
			[903,915,873],
			[903,915,65535],
			[903,915,65535],
			[858,916,871],
			[858,65535,877],
			[903,355,875]
		],
		[
			[903,355,911],
			[903,65535,907],
			[903,65535,910],
			[904,65535,875],
			[858,65535,911],
			[903,915,908],
			[903,916,871],
			[904,65535,872],
			[858,65535,877],
			[858,355,875],
			[902,355,875],
			[902,355,875],
			[903,65535,876],
			[903,65535,65535],
			[903,65535,871],
			[904,65535,877],
			[858,65535,875],
			[903,355,875]
		],
		[
			[903,915,878],
			[903,915,873],
			[903,915,906],
			[903,915,910],
			[858,915,878],
			[903,916,873],
			[904,65535,906],
			[858,65535,910],
			[858,65535,911],
			[858,355,907],
			[783,355,1512],
			[858,355,910],
			[858,65535,876],
			[858,65535,65535],
			[858,65535,906],
			[858,65535,907],
			[858,65535,907],
			[903,355,907]
		],
		[
			[903,915,875],
			[903,65535,878],
			[903,914,873],
			[903,915,906],
			[903,355,910],
			[858,65535,876],
			[858,914,65535],
			[858,915,874],
			[903,913,876],
			[903,915,65535],
			[1352,65535,65535],
			[903,915,874],
			[858,355,878],
			[858,65535,873],
			[858,914,65535],
			[903,915,65535],
			[903,915,65535],
			[903,915,65535]
		],
		[
			[903,915,875],
			[858,65535,911],
			[902,65535,908],
			[903,914,65535],
			[903,915,874],
			[858,916,876],
			[902,65535,65535],
			[903,355,874],
			[903,355,876],
			[903,1605,65535],
			[1417,65535,65535],
			[903,355,906],
			[903,355,910],
			[858,65535,876],
			[902,65535,65535],
			[903,65535,871],
			[903,65535,872],
			[903,355,872]
		],
		[
			[903,915,875],
			[903,915,876],
			[858,916,65535],
			[902,65535,65535],
			[903,906,944],
			[904,355,945],
			[858,65535,946],
			[902,65535,874],
			[858,355,878],
			[858,65535,873],
			[858,65535,65535],
			[858,914,871],
			[903,355,877],
			[858,65535,876],
			[857,1744,65535],
			[857,65535,906],
			[903,915,907],
			[903,915,910]
		],
		[
			[903,915,875],
			[903,916,876],
			[904,65535,65535],
			[856,1744,65535],
			[857,914,941],
			[903,916,942],
			[858,65535,943],
			[858,914,906],
			[903,915,910],
			[858,65535,876],
			[858,65535,65535],
			[902,355,874],
			[903,355,875],
			[858,65535,878],
			[858,65535,873],
			[858,914,65535],
			[903,915,65535],
			[903,915,874]
		],
		[
			[903,915,875],
			[858,916,878],
			[857,65535,873],
			[858,65535,65535],
			[902,65535,65535],
			[904,65535,940],
			[858,65535,65535],
			[902,914,65535],
			[903,915,906],
			[858,65535,908],
			[858,65535,65535],
			[857,65535,874],
			[903,355,875],
			[858,915,875],
			[858,65535,878],
			[902,65535,873],
			[903,65535,65535],
			[903,355,874]
		],
		[
			[903,915,875],
			[903,915,875],
			[858,65535,878],
			[858,65535,872],
			[936,65535,872],
			[858,937,873],
			[938,65535,65535],
			[902,65535,65535],
			[903,914,65535],
			[858,916,65535],
			[857,1744,65535],
			[858,355,874],
			[903,355,875],
			[858,65535,875],
			[858,65535,911],
			[858,65535,908],
			[858,65535,65535],
			[903,355,874]
		],
		[
			[903,915,875],
			[903,355,911],
			[858,65535,907],
			[858,65535,910],
			[858,65535,911],
			[858,65535,908],
			[858,65535,871],
			[858,65535,873],
			[902,65535,65535],
			[904,65535,65535],
			[858,65535,65535],
			[858,355,906],
			[903,355,907],
			[903,355,907],
			[903,915,908],
			[858,916,65535],
			[857,65535,65535],
			[903,355,874]
		],
		[
			[903,915,875],
			[903,915,876],
			[903,915,65535],
			[903,915,906],
			[903,915,908],
			[858,916,65535],
			[858,65535,874],
			[858,916,876],
			[858,65535,65535],
			[858,65535,871],
			[858,65535,872],
			[858,914,873],
			[903,915,65535],
			[903,915,65535],
			[903,916,65535],
			[904,65535,65535],
			[858,65535,871],
			[903,355,877]
		],
		[
			[903,915,875],
			[903,916,878],
			[903,65535,873],
			[903,914,65535],
			[903,916,65535],
			[904,65535,871],
			[858,65535,877],
			[856,916,876],
			[857,65535,65535],
			[858,65535,906],
			[858,65535,910],
			[902,65535,878],
			[903,65535,873],
			[903,65535,65535],
			[904,65535,65535],
			[858,65535,871],
			[858,355,877],
			[903,355,875]
		],
		[
			[903,915,875],
			[858,915,875],
			[858,65535,878],
			[902,65535,872],
			[904,65535,872],
			[857,65535,877],
			[858,915,875],
			[858,916,876],
			[858,65535,65535],
			[858,914,871],
			[903,915,877],
			[903,915,875],
			[858,916,878],
			[858,65535,872],
			[857,65535,872],
			[858,355,877],
			[858,65535,911],
			[903,355,910]
		],
		[
			[903,915,907],
			[858,65535,907],
			[858,65535,907],
			[858,65535,910],
			[858,915,875],
			[858,915,911],
			[903,915,907],
			[858,916,908],
			[858,65535,65535],
			[902,914,874],
			[858,65535,875],
			[858,65535,911],
			[858,65535,907],
			[858,65535,907],
			[858,65535,910],
			[858,355,911],
			[858,915,908],
			[903,915,906]
		],
		[
			[903,915,65535],
			[903,915,65535],
			[903,915,65535],
			[903,915,906],
			[903,915,907],
			[903,915,908],
			[903,915,65535],
			[856,916,65535],
			[856,355,65535],
			[858,914,874],
			[903,915,875],
			[903,915,876],
			[903,915,65535],
			[903,915,65535],
			[903,915,906],
			[903,915,908],
			[903,916,65535],
			[903,914,65535]
		]
	]
}
