{
	"id": 579,
	"type": 2,
	"width": 18,
	"height": 18,
	"flags": 8,
	"tiles": [
		[
			[0,681,65535],
			[0,681,65535],
			[678,682,65535],
			[683,65535,65535],
			[683,65535,65535],
			[683,65535,65535],
			[683,65535,65535],
			[683,65535,65535],
			[683,65535,65535],
			[683,65535,65535],
			[683,65535,65535],
			[683,65535,65535],
			[683,65535,65535],
			[683,65535,65535],
			[683,65535,65535],
			[683,65535,65535],
			[683,65535,65535],
			[678,684,65535]
		],
		[
			[0,681,65535],
			[0,681,65535],
			[678,688,65535],
			[678,1261,65535],
			[678,691,65535],
			[678,686,65535],
			[678,686,65535],
			[678,686,65535],
			[678,692,65535],
			[680,1261,65535],
			[678,691,65535],
			[678,686,65535],
			[678,686,65535],
			[678,686,65535],
			[678,686,65535],
			[678,692,65535],
			[680,65535,65535],
			[678,687,65535]
		],
		[
			[0,681,65535],
			[0,681,65535],
			[678,688,65535],
			[678,65535,65535],
			[690,65535,65535],
			[683,65535,65535],
			[683,65535,65535],
			[683,65535,65535],
			[678,697,65535],
			[678,65535,65535],
			[690,65535,65535],
			[683,65535,65535],
			[683,65535,65535],
			[678,684,65535],
			[0,681,65535],
			[678,688,65535],
			[678,65535,65535],
			[678,687,65535]
		],
		[
			[0,682,65535],
			[982,983,65535],
			[678,684,65535],
			[680,65535,1249],
			[678,686,65535],
			[678,686,65535],
			[678,692,65535],
			[678,65535,65535],
			[678,687,65535],
			[678,692,65535],
			[678,65535,65535],
			[678,65535,65535],
			[678,635,65535],
			[0,698,65535],
			[982,983,65535],
			[678,697,65535],
			[678,65535,65535],
			[678,687,65535]
		],
		[
			[678,688,65535],
			[678,65535,65535],
			[678,698,65535],
			[761,760,65535],
			[0,684,65535],
			[0,681,65535],
			[678,688,65535],
			[678,65535,65535],
			[690,65535,65535],
			[683,684,65535],
			[683,686,65535],
			[678,692,65535],
			[678,65535,65535],
			[695,694,65535],
			[678,65535,65535],
			[678,694,65535],
			[678,65535,65535],
			[678,687,65535]
		],
		[
			[678,688,65535],
			[678,65535,65535],
			[695,694,65535],
			[678,65535,65535],
			[678,687,65535],
			[0,681,65535],
			[678,681,65535],
			[678,692,65535],
			[678,65535,65535],
			[690,65535,65535],
			[683,684,65535],
			[678,688,65535],
			[678,65535,65535],
			[695,65535,65535],
			[678,1098,65535],
			[678,694,65535],
			[678,65535,65535],
			[678,687,65535]
		],
		[
			[678,688,65535],
			[678,65535,65535],
			[695,65535,65535],
			[678,65535,65535],
			[0,698,65535],
			[982,983,65535],
			[0,684,65535],
			[678,688,65535],
			[678,635,65535],
			[678,1098,65535],
			[690,65535,65535],
			[695,684,65535],
			[680,65535,1249],
			[678,692,65535],
			[678,65535,65535],
			[678,694,65535],
			[678,1098,65535],
			[678,687,65535]
		],
		[
			[678,688,65535],
			[678,65535,65535],
			[678,1098,65535],
			[678,691,65535],
			[678,688,65535],
			[678,65535,65535],
			[678,687,65535],
			[0,681,65535],
			[678,686,65535],
			[678,692,65535],
			[680,65535,65535],
			[678,698,65535],
			[761,760,65535],
			[0,684,65535],
			[683,686,65535],
			[689,688,65535],
			[680,65535,65535],
			[678,687,65535]
		],
		[
			[678,688,65535],
			[678,65535,65535],
			[678,635,65535],
			[678,698,65535],
			[689,65535,65535],
			[678,1098,65535],
			[678,687,65535],
			[0,681,65535],
			[0,681,65535],
			[695,688,65535],
			[678,65535,65535],
			[695,65535,65535],
			[678,65535,65535],
			[678,698,65535],
			[683,65535,65535],
			[689,65535,65535],
			[678,65535,65535],
			[0,687,65535]
		],
		[
			[678,688,65535],
			[680,65535,65535],
			[678,691,65535],
			[678,688,65535],
			[678,65535,65535],
			[678,691,65535],
			[678,681,65535],
			[0,682,65535],
			[982,983,65535],
			[678,684,65535],
			[678,686,65535],
			[678,692,65535],
			[678,1261,65535],
			[678,694,65535],
			[678,65535,65535],
			[678,691,65535],
			[0,686,65535],
			[0,681,65535]
		],
		[
			[678,688,65535],
			[678,65535,65535],
			[690,65535,65535],
			[689,65535,65535],
			[678,65535,65535],
			[690,698,65535],
			[683,65535,65535],
			[689,65535,65535],
			[678,65535,65535],
			[690,65535,65535],
			[683,65535,65535],
			[678,697,65535],
			[678,65535,65535],
			[678,694,65535],
			[678,65535,65535],
			[678,687,65535],
			[678,681,65535],
			[678,681,65535]
		],
		[
			[0,681,65535],
			[680,65535,1249],
			[678,686,65535],
			[678,692,65535],
			[678,1261,65535],
			[690,687,65535],
			[680,65535,1249],
			[678,692,65535],
			[678,65535,65535],
			[678,691,65535],
			[680,65535,1249],
			[695,688,65535],
			[678,65535,65535],
			[678,694,65535],
			[678,1098,65535],
			[0,698,65535],
			[982,983,65535],
			[678,684,65535]
		],
		[
			[678,682,65535],
			[761,760,65535],
			[0,684,65535],
			[695,688,65535],
			[680,65535,65535],
			[690,698,65535],
			[761,760,65535],
			[0,697,65535],
			[678,65535,65535],
			[678,698,65535],
			[761,760,65535],
			[0,697,65535],
			[678,65535,65535],
			[678,694,65535],
			[678,65535,65535],
			[678,694,65535],
			[678,65535,65535],
			[678,687,65535]
		],
		[
			[678,688,65535],
			[678,65535,65535],
			[690,65535,65535],
			[678,697,65535],
			[678,65535,65535],
			[695,65535,65535],
			[678,65535,65535],
			[678,687,65535],
			[678,65535,1249],
			[678,688,65535],
			[678,65535,65535],
			[695,65535,65535],
			[678,65535,65535],
			[678,694,65535],
			[678,65535,65535],
			[695,65535,65535],
			[678,65535,65535],
			[678,687,65535]
		],
		[
			[678,688,65535],
			[678,65535,65535],
			[678,186,65535],
			[678,687,65535],
			[680,65535,1249],
			[678,686,65535],
			[678,686,65535],
			[678,682,65535],
			[761,760,65535],
			[678,684,65535],
			[678,686,65535],
			[678,686,65535],
			[680,65535,1249],
			[678,681,65535],
			[680,65535,1249],
			[678,692,65535],
			[678,635,65535],
			[678,687,65535]
		],
		[
			[678,688,65535],
			[678,65535,65535],
			[678,65535,65535],
			[690,698,65535],
			[761,760,65535],
			[0,693,65535],
			[683,65535,65535],
			[689,65535,65535],
			[678,65535,65535],
			[690,65535,65535],
			[683,355,972],
			[683,693,65535],
			[761,760,65535],
			[0,693,65535],
			[761,760,65535],
			[0,684,65535],
			[678,686,65535],
			[678,681,65535]
		],
		[
			[678,688,65535],
			[678,65535,65535],
			[678,65535,65535],
			[695,65535,65535],
			[678,65535,65535],
			[695,65535,65535],
			[678,65535,65535],
			[678,65535,65535],
			[678,65535,65535],
			[678,65535,65535],
			[678,65535,65535],
			[695,65535,65535],
			[678,65535,65535],
			[695,65535,65535],
			[678,65535,65535],
			[0,687,65535],
			[0,681,65535],
			[0,681,65535]
		],
		[
			[0,681,65535],
			[678,686,65535],
			[678,686,65535],
			[678,686,65535],
			[678,686,65535],
			[678,692,65535],
			[1390,65535,65535],
			[0,691,65535],
			[0,686,65535],
			[678,692,65535],
			[679,65535,65535],
			[678,691,65535],
			[678,686,65535],
			[678,686,65535],
			[0,686,65535],
			[0,681,65535],
			[0,681,65535],
			[0,681,65535]
		]
	]
}
