{
	"id": 585,
	"type": 3,
	"width": 18,
	"height": 18,
	"flags": 1,
	"tiles": [
		[
			[403,65535,65535],
			[403,65535,65535],
			[403,65535,65535],
			[403,65535,65535],
			[403,65535,65535],
			[1579,65535,65535],
			[403,65535,65535],
			[403,65535,65535],
			[403,65535,65535],
			[403,65535,65535],
			[403,65535,65535],
			[403,65535,65535],
			[1578,65535,65535],
			[403,65535,65535],
			[403,65535,65535],
			[403,65535,65535],
			[403,65535,65535],
			[403,65535,65535]
		],
		[
			[403,65535,65535],
			[1578,65535,65535],
			[1578,65535,65535],
			[403,374,65535],
			[403,375,65535],
			[403,375,65535],
			[403,375,65535],
			[403,375,65535],
			[403,376,65535],
			[403,390,65535],
			[403,65535,65535],
			[403,65535,65535],
			[403,65535,65535],
			[403,65535,65535],
			[1579,65535,65535],
			[403,65535,65535],
			[403,65535,65535],
			[403,65535,65535]
		],
		[
			[403,65535,65535],
			[403,65535,65535],
			[403,374,65535],
			[403,382,65535],
			[403,385,65535],
			[378,65535,65535],
			[403,384,65535],
			[403,387,65535],
			[403,381,65535],
			[403,65535,65535],
			[403,374,65535],
			[403,375,65535],
			[403,376,65535],
			[403,65535,65535],
			[403,65535,65535],
			[403,65535,65535],
			[1577,65535,65535],
			[1577,65535,65535]
		],
		[
			[403,65535,65535],
			[403,374,65535],
			[403,382,65535],
			[403,385,65535],
			[379,65535,65535],
			[403,374,65535],
			[403,382,65535],
			[403,386,65535],
			[403,381,65535],
			[403,65535,65535],
			[403,380,65535],
			[403,386,65535],
			[403,383,412],
			[403,375,65535],
			[403,375,65535],
			[403,376,65535],
			[403,65535,65535],
			[403,65535,65535]
		],
		[
			[403,65535,65535],
			[403,380,65535],
			[403,387,65535],
			[403,383,65535],
			[403,375,65535],
			[403,382,65535],
			[378,385,1139],
			[378,65535,65535],
			[379,65535,65535],
			[403,374,65535],
			[403,382,65535],
			[403,385,65535],
			[378,65535,413],
			[403,384,412],
			[403,387,412],
			[403,381,65535],
			[403,65535,65535],
			[1578,65535,65535]
		],
		[
			[1577,65535,65535],
			[403,380,412],
			[403,386,65535],
			[403,385,65535],
			[403,384,412],
			[403,385,65535],
			[379,1140,65535],
			[1579,65535,65535],
			[403,65535,65535],
			[403,380,65535],
			[403,387,65535],
			[403,383,65535],
			[403,376,65535],
			[377,65535,413],
			[403,384,413],
			[403,381,65535],
			[403,65535,65535],
			[1578,65535,65535]
		],
		[
			[403,65535,65535],
			[377,355,413],
			[403,384,65535],
			[403,381,65535],
			[403,380,413],
			[403,381,65535],
			[403,65535,65535],
			[1575,65535,412],
			[403,65535,65535],
			[378,380,65535],
			[378,386,65535],
			[378,387,65535],
			[378,383,1137],
			[403,375,412],
			[403,382,65535],
			[403,383,65535],
			[403,376,65535],
			[403,65535,65535]
		],
		[
			[403,65535,65535],
			[1579,65535,65535],
			[403,380,65535],
			[403,383,65535],
			[403,382,65535],
			[403,381,65535],
			[403,65535,65535],
			[403,374,413],
			[403,376,65535],
			[377,65535,65535],
			[378,65535,65535],
			[378,65535,65535],
			[378,1138,65535],
			[403,384,413],
			[403,387,65535],
			[403,386,65535],
			[403,381,65535],
			[403,65535,65535]
		],
		[
			[403,65535,65535],
			[403,374,1139],
			[403,382,412],
			[403,387,65535],
			[378,385,65535],
			[379,65535,65535],
			[403,374,65535],
			[403,382,65535],
			[403,383,65535],
			[403,375,412],
			[403,375,412],
			[403,376,65535],
			[1576,65535,65535],
			[377,65535,65535],
			[378,384,65535],
			[403,387,65535],
			[403,381,65535],
			[403,65535,65535]
		],
		[
			[403,65535,65535],
			[377,1140,65535],
			[403,384,413],
			[403,386,65535],
			[403,381,65535],
			[1576,65535,65535],
			[403,380,1137],
			[403,387,65535],
			[403,385,65535],
			[378,65535,413],
			[403,384,413],
			[403,383,65535],
			[403,376,65535],
			[1575,65535,65535],
			[403,380,65535],
			[403,386,65535],
			[403,381,65535],
			[403,65535,65535]
		],
		[
			[403,65535,65535],
			[403,65535,65535],
			[403,380,65535],
			[403,387,65535],
			[403,381,65535],
			[403,65535,65535],
			[377,1138,65535],
			[403,384,65535],
			[403,383,65535],
			[403,375,412],
			[403,382,65535],
			[403,386,65535],
			[403,381,65535],
			[403,65535,65535],
			[377,65535,65535],
			[378,65535,65535],
			[379,65535,65535],
			[403,65535,65535]
		],
		[
			[1578,65535,65535],
			[403,65535,65535],
			[403,380,65535],
			[403,386,65535],
			[403,381,65535],
			[1575,65535,65535],
			[403,65535,65535],
			[377,65535,65535],
			[378,65535,65535],
			[403,384,413],
			[403,386,412],
			[403,385,65535],
			[379,65535,65535],
			[1575,65535,65535],
			[403,65535,65535],
			[403,388,65535],
			[403,65535,65535],
			[403,65535,65535]
		],
		[
			[403,65535,65535],
			[403,388,65535],
			[377,65535,65535],
			[378,65535,65535],
			[379,65535,65535],
			[403,374,65535],
			[403,375,65535],
			[403,375,65535],
			[403,376,65535],
			[377,65535,65535],
			[378,355,413],
			[379,65535,65535],
			[403,65535,412],
			[403,374,65535],
			[403,375,65535],
			[403,376,65535],
			[403,65535,65535],
			[403,65535,65535]
		],
		[
			[403,65535,65535],
			[403,374,65535],
			[403,375,65535],
			[403,376,65535],
			[403,374,65535],
			[403,382,65535],
			[403,387,65535],
			[403,385,65535],
			[379,65535,65535],
			[403,65535,65535],
			[1576,65535,65535],
			[403,65535,1137],
			[403,390,413],
			[403,380,65535],
			[403,387,65535],
			[403,381,65535],
			[403,65535,65535],
			[403,65535,65535]
		],
		[
			[403,65535,65535],
			[403,380,65535],
			[403,386,65535],
			[403,383,65535],
			[403,382,65535],
			[403,387,65535],
			[403,385,65535],
			[379,65535,65535],
			[403,374,65535],
			[403,375,65535],
			[403,375,65535],
			[376,1138,65535],
			[403,374,65535],
			[403,382,65535],
			[403,385,65535],
			[379,65535,65535],
			[1579,65535,65535],
			[403,65535,65535]
		],
		[
			[403,65535,65535],
			[403,380,65535],
			[403,385,65535],
			[403,384,65535],
			[403,387,65535],
			[403,385,65535],
			[379,65535,65535],
			[403,65535,65535],
			[403,380,65535],
			[403,386,65535],
			[403,387,65535],
			[403,383,65535],
			[403,382,65535],
			[403,386,65535],
			[403,381,65535],
			[403,65535,65535],
			[403,65535,65535],
			[403,65535,65535]
		],
		[
			[1577,65535,65535],
			[403,380,65535],
			[403,383,65535],
			[403,382,65535],
			[403,386,65535],
			[403,381,65535],
			[403,65535,65535],
			[1579,65535,65535],
			[377,65535,65535],
			[378,65535,65535],
			[378,384,65535],
			[403,387,65535],
			[403,386,65535],
			[403,385,65535],
			[379,65535,65535],
			[403,65535,65535],
			[403,65535,65535],
			[403,65535,65535]
		],
		[
			[403,65535,65535],
			[377,65535,65535],
			[378,65535,65535],
			[378,65535,65535],
			[378,65535,65535],
			[379,65535,65535],
			[403,65535,65535],
			[403,65535,65535],
			[403,65535,65535],
			[1578,65535,65535],
			[377,65535,65535],
			[378,65535,65535],
			[378,65535,65535],
			[379,65535,65535],
			[403,65535,65535],
			[403,65535,65535],
			[403,65535,65535],
			[403,65535,65535]
		]
	]
}
