{
	"id": 589,
	"type": 3,
	"width": 18,
	"height": 18,
	"flags": 16,
	"tiles": [
		[
			[403,65535,65535],
			[1127,65535,65535],
			[1123,65535,65535],
			[1123,65535,65535],
			[1128,65535,65535],
			[1127,65535,65535],
			[1123,65535,65535],
			[1123,65535,65535],
			[1128,65535,65535],
			[1127,65535,65535],
			[1123,65535,65535],
			[1123,65535,65535],
			[1123,65535,65535],
			[1128,65535,65535],
			[1127,65535,65535],
			[1123,65535,65535],
			[1123,65535,65535],
			[1128,65535,65535]
		],
		[
			[403,65535,65535],
			[1125,65535,65535],
			[1141,1141,65535],
			[1141,1141,65535],
			[1126,65535,65535],
			[1125,65535,65535],
			[1145,1145,65535],
			[1145,1145,65535],
			[1126,65535,65535],
			[1125,65535,65535],
			[1141,1141,65535],
			[1141,1141,65535],
			[1141,1141,65535],
			[1126,65535,65535],
			[1125,65535,65535],
			[1146,1144,65535],
			[1146,1144,65535],
			[1126,65535,65535]
		],
		[
			[1579,65535,65535],
			[1125,65535,65535],
			[1142,1142,65535],
			[1142,1142,65535],
			[1126,65535,65535],
			[1125,65535,65535],
			[1145,1145,65535],
			[1145,1145,65535],
			[1126,65535,65535],
			[1125,65535,65535],
			[1142,1142,65535],
			[1142,1142,65535],
			[1142,1142,65535],
			[1126,65535,65535],
			[1125,65535,65535],
			[1146,1146,65535],
			[1146,1146,65535],
			[1126,65535,65535]
		],
		[
			[403,65535,65535],
			[1125,65535,65535],
			[1142,1142,65535],
			[1142,1142,65535],
			[1126,65535,65535],
			[1125,65535,65535],
			[1145,1145,65535],
			[1145,1145,65535],
			[1126,65535,65535],
			[1125,65535,65535],
			[1142,1142,65535],
			[1142,1142,65535],
			[1142,1142,65535],
			[1126,65535,65535],
			[1125,65535,65535],
			[1146,1146,65535],
			[1146,1146,65535],
			[1126,65535,65535]
		],
		[
			[403,65535,65535],
			[1125,65535,65535],
			[1142,1142,65535],
			[1142,1142,65535],
			[1126,65535,65535],
			[1125,65535,65535],
			[1145,1145,65535],
			[1145,1145,65535],
			[1126,65535,65535],
			[1125,65535,65535],
			[1142,1142,65535],
			[1142,1142,65535],
			[1142,1142,65535],
			[1126,65535,65535],
			[1125,65535,65535],
			[1146,1146,65535],
			[1146,1146,65535],
			[1126,65535,65535]
		],
		[
			[403,65535,65535],
			[1125,65535,65535],
			[1142,1142,65535],
			[1142,1142,65535],
			[1126,65535,65535],
			[1125,65535,65535],
			[1145,1145,65535],
			[1145,1145,65535],
			[1126,65535,65535],
			[1125,65535,65535],
			[1142,1142,65535],
			[1142,1142,65535],
			[1142,1142,65535],
			[1126,65535,65535],
			[1125,65535,65535],
			[1145,1145,65535],
			[1145,1145,65535],
			[1126,65535,65535]
		],
		[
			[403,65535,65535],
			[1125,65535,65535],
			[1142,1142,65535],
			[1142,1142,65535],
			[1126,65535,65535],
			[1125,65535,65535],
			[1145,1145,65535],
			[1145,1145,65535],
			[1126,65535,65535],
			[1125,65535,65535],
			[1142,1142,65535],
			[1142,1142,65535],
			[1142,1142,65535],
			[1126,65535,65535],
			[1125,65535,65535],
			[1145,1145,65535],
			[1145,1145,65535],
			[1126,65535,65535]
		],
		[
			[1579,65535,65535],
			[1125,65535,65535],
			[1143,1143,1135],
			[1143,1143,65535],
			[1126,65535,1137],
			[1125,65535,65535],
			[1145,1145,1135],
			[1145,1145,65535],
			[1126,65535,1139],
			[1125,65535,65535],
			[1143,1143,1135],
			[1143,1143,65535],
			[1143,1143,1135],
			[1126,65535,65535],
			[1125,65535,1139],
			[1145,1145,65535],
			[1145,1145,1135],
			[1126,65535,65535]
		],
		[
			[403,65535,65535],
			[1129,65535,65535],
			[1124,1136,65535],
			[1124,65535,65535],
			[1130,1138,65535],
			[1129,65535,65535],
			[1124,1136,65535],
			[1124,65535,65535],
			[1130,1140,65535],
			[1129,65535,65535],
			[1124,1136,65535],
			[1124,65535,65535],
			[1124,1136,65535],
			[1130,65535,65535],
			[1129,1140,65535],
			[1124,65535,65535],
			[1124,1138,65535],
			[1130,65535,65535]
		],
		[
			[1479,65535,65535],
			[1477,65535,1139],
			[1477,65535,65535],
			[1477,65535,65535],
			[1477,65535,65535],
			[1477,65535,65535],
			[1477,65535,65535],
			[1477,65535,1137],
			[1478,65535,65535],
			[1479,65535,65535],
			[1477,65535,65535],
			[1477,65535,1139],
			[1477,65535,1451],
			[1477,65535,1452],
			[1477,65535,1452],
			[1477,65535,1452],
			[1477,65535,1453],
			[1478,65535,65535]
		],
		[
			[403,65535,65535],
			[1127,1140,65535],
			[1123,65535,65535],
			[1123,65535,65535],
			[1128,65535,65535],
			[1127,65535,65535],
			[1123,65535,65535],
			[1123,1138,65535],
			[1128,65535,65535],
			[403,65535,1135],
			[403,65535,65535],
			[403,1140,65535],
			[403,1454,65535],
			[403,1455,65535],
			[403,1455,65535],
			[403,1455,65535],
			[858,1456,65535],
			[403,65535,65535]
		],
		[
			[403,65535,65535],
			[1125,65535,65535],
			[1141,1141,65535],
			[1141,1141,65535],
			[1126,65535,65535],
			[1125,65535,65535],
			[1146,1146,65535],
			[1146,1146,65535],
			[1126,65535,65535],
			[403,1136,65535],
			[1577,65535,65535],
			[1578,1580,65535],
			[403,1454,65535],
			[403,1455,65535],
			[403,1455,65535],
			[403,1455,65535],
			[858,1456,65535],
			[403,65535,65535]
		],
		[
			[403,65535,65535],
			[1125,65535,65535],
			[1142,1142,65535],
			[1142,1142,65535],
			[1126,65535,65535],
			[1125,65535,65535],
			[1146,1146,65535],
			[1146,1146,65535],
			[1126,65535,65535],
			[1578,65535,65535],
			[403,65535,1135],
			[403,65535,65535],
			[403,1457,65535],
			[1460,1458,65535],
			[1460,1458,113],
			[403,1458,113],
			[858,1459,65535],
			[403,65535,65535]
		],
		[
			[1578,65535,65535],
			[1125,65535,65535],
			[1143,1143,65535],
			[1143,1143,65535],
			[1126,65535,65535],
			[1125,65535,65535],
			[1146,1146,65535],
			[1146,1146,65535],
			[1126,65535,65535],
			[403,65535,65535],
			[403,1136,65535],
			[1579,65535,65535],
			[1630,65535,65535],
			[1630,65535,65535],
			[1630,65535,65535],
			[403,65535,65535],
			[1579,65535,65535],
			[403,65535,65535]
		],
		[
			[403,65535,65535],
			[1125,65535,65535],
			[1141,1141,65535],
			[1141,1141,65535],
			[1126,65535,65535],
			[1125,65535,65535],
			[1146,1146,65535],
			[1146,1146,65535],
			[1126,65535,1135],
			[403,65535,1451],
			[403,65535,1452],
			[403,65535,1453],
			[1630,65535,65535],
			[1630,65535,65535],
			[1630,65535,65535],
			[403,65535,65535],
			[403,65535,65535],
			[403,65535,65535]
		],
		[
			[403,65535,65535],
			[1125,65535,65535],
			[1142,1142,65535],
			[1142,1142,65535],
			[1126,65535,65535],
			[1125,65535,65535],
			[1146,1146,65535],
			[1146,1146,65535],
			[1126,1136,65535],
			[403,65535,1454],
			[403,1455,65535],
			[858,1456,65535],
			[403,65535,65535],
			[403,65535,65535],
			[403,65535,65535],
			[403,65535,65535],
			[403,65535,65535],
			[403,65535,65535]
		],
		[
			[403,65535,65535],
			[1125,65535,65535],
			[1143,1143,65535],
			[1143,1143,65535],
			[1126,65535,65535],
			[1125,65535,65535],
			[1146,1146,65535],
			[1146,1146,65535],
			[1126,65535,65535],
			[403,1457,65535],
			[403,1458,65535],
			[858,1459,65535],
			[403,65535,65535],
			[403,65535,65535],
			[1579,65535,65535],
			[403,65535,65535],
			[1578,65535,65535],
			[403,65535,65535]
		],
		[
			[403,65535,65535],
			[1129,65535,65535],
			[1124,65535,65535],
			[1124,65535,65535],
			[1130,65535,65535],
			[1129,65535,65535],
			[1124,65535,65535],
			[1124,65535,65535],
			[1130,65535,65535],
			[403,65535,65535],
			[1577,65535,65535],
			[403,65535,65535],
			[403,65535,65535],
			[403,65535,65535],
			[403,65535,65535],
			[403,65535,65535],
			[403,65535,65535],
			[403,65535,65535]
		]
	]
}
