{
	"id": 600,
	"type": 3,
	"width": 18,
	"height": 18,
	"flags": 8,
	"tiles": [
		[
			[386,65535,65535],
			[386,65535,65535],
			[386,65535,65535],
			[386,65535,65535],
			[386,381,874],
			[1493,65535,875],
			[1493,65535,875],
			[1493,65535,875],
			[1493,65535,875],
			[1493,65535,875],
			[1493,65535,888],
			[1493,65535,884],
			[1493,65535,884],
			[1493,65535,884],
			[1493,65535,884],
			[1493,65535,884],
			[1493,65535,887],
			[1493,65535,875]
		],
		[
			[386,65535,65535],
			[386,65535,65535],
			[386,65535,65535],
			[386,385,871],
			[379,65535,877],
			[1493,65535,875],
			[1493,65535,875],
			[1493,65535,875],
			[1493,65535,875],
			[1493,65535,888],
			[1493,1515,885],
			[1493,1515,65535],
			[1493,1515,1451],
			[1493,1515,1452],
			[1493,1515,1452],
			[1493,1515,1453],
			[1493,1515,874],
			[1493,65535,875]
		],
		[
			[386,65535,65535],
			[386,65535,65535],
			[386,385,871],
			[379,65535,877],
			[1493,65535,888],
			[1493,65535,887],
			[1493,65535,875],
			[1493,65535,875],
			[1493,65535,888],
			[1493,1515,885],
			[1493,1516,65535],
			[1486,65535,65535],
			[1487,1454,65535],
			[1487,1455,65535],
			[1487,1455,65535],
			[1488,1456,871],
			[1493,65535,877],
			[1493,65535,875]
		],
		[
			[386,65535,65535],
			[386,65535,65535],
			[379,381,874],
			[1493,65535,875],
			[1493,1515,876],
			[1493,1515,883],
			[1493,1515,887],
			[1493,1515,888],
			[1493,1515,885],
			[1493,1516,65535],
			[1493,355,65535],
			[1486,65535,65535],
			[1487,1457,65535],
			[1487,1458,65535],
			[1487,1458,65535],
			[1488,1459,874],
			[1493,65535,875],
			[1493,65535,875]
		],
		[
			[386,65535,65535],
			[386,65535,65535],
			[386,381,874],
			[1493,65535,875],
			[1493,355,878],
			[1486,65535,65535],
			[1487,65535,65535],
			[1487,65535,65535],
			[1488,65535,65535],
			[1493,355,871],
			[1493,355,873],
			[1486,65535,65535],
			[1487,65535,65535],
			[1487,65535,65535],
			[1487,65535,65535],
			[1488,65535,883],
			[1493,65535,884],
			[1493,65535,887]
		],
		[
			[386,65535,65535],
			[386,385,65535],
			[379,65535,883],
			[1493,65535,884],
			[1493,355,887],
			[1486,65535,65535],
			[1487,65535,65535],
			[1487,65535,65535],
			[1488,65535,65535],
			[1493,355,874],
			[1493,355,878],
			[1496,1489,873],
			[1500,65535,65535],
			[1496,1489,65535],
			[1500,65535,65535],
			[1496,1514,65535],
			[1493,1515,65535],
			[1493,1515,874]
		],
		[
			[386,65535,65535],
			[386,381,65535],
			[403,891,65535],
			[1493,892,65535],
			[1493,892,883],
			[1486,65535,65535],
			[1487,2075,2059],
			[1487,65535,65535],
			[1488,65535,65535],
			[1493,355,877],
			[1493,65535,875],
			[1493,355,876],
			[1497,65535,65535],
			[1493,355,65535],
			[1486,65535,65535],
			[1488,65535,65535],
			[1493,355,871],
			[1493,65535,877]
		],
		[
			[386,65535,65535],
			[386,381,65535],
			[879,65535,871],
			[880,1515,872],
			[880,891,872],
			[1486,65535,65535],
			[1487,2076,2060],
			[1487,65535,65535],
			[1488,65535,65535],
			[1493,355,875],
			[1493,65535,875],
			[1493,355,876],
			[1497,65535,65535],
			[1493,355,871],
			[1486,65535,872],
			[1513,65535,872],
			[1493,355,877],
			[1493,65535,875]
		],
		[
			[386,65535,65535],
			[386,381,65535],
			[865,65535,874],
			[1493,65535,875],
			[1493,355,875],
			[1486,65535,65535],
			[1487,65535,65535],
			[1487,65535,65535],
			[1488,65535,65535],
			[1493,355,875],
			[1493,65535,875],
			[1493,355,876],
			[1497,65535,65535],
			[1493,355,874],
			[1496,1489,875],
			[1496,1489,875],
			[1493,355,875],
			[1493,65535,875]
		],
		[
			[386,65535,65535],
			[386,383,65535],
			[386,376,874],
			[1493,65535,875],
			[1493,355,875],
			[1486,65535,65535],
			[1487,65535,65535],
			[1487,65535,65535],
			[1488,65535,65535],
			[1493,355,875],
			[1493,65535,888],
			[1493,355,885],
			[1497,65535,65535],
			[1493,355,883],
			[1493,355,884],
			[1493,355,884],
			[1493,65535,887],
			[1493,65535,875]
		],
		[
			[386,65535,65535],
			[386,65535,65535],
			[386,381,874],
			[1493,65535,875],
			[1493,355,875],
			[1496,875,1534],
			[1496,876,1534],
			[1500,65535,65535],
			[1496,874,1534],
			[1493,355,875],
			[1493,1515,876],
			[1493,1516,65535],
			[1497,65535,65535],
			[1493,1514,65535],
			[1493,1515,65535],
			[1493,1515,871],
			[1493,1515,877],
			[1493,65535,875]
		],
		[
			[386,65535,65535],
			[386,65535,65535],
			[386,381,874],
			[1493,65535,875],
			[1493,65535,888],
			[0,892,884],
			[1493,355,885],
			[2081,65535,65535],
			[1493,355,883],
			[1493,1515,884],
			[1493,355,885],
			[1486,65535,65535],
			[1487,65535,1451],
			[1487,65535,1452],
			[1488,65535,1453],
			[1493,355,874],
			[1493,65535,875],
			[1493,65535,875]
		],
		[
			[386,65535,65535],
			[386,385,65535],
			[379,65535,874],
			[1493,65535,875],
			[1493,1515,876],
			[1493,1515,65535],
			[1493,1516,65535],
			[2081,2037,65535],
			[1493,1514,65535],
			[1493,1515,65535],
			[1493,1516,65535],
			[1486,65535,65535],
			[1487,1454,65535],
			[1487,1455,65535],
			[1488,1456,65535],
			[1493,355,874],
			[1493,65535,875],
			[1493,65535,875]
		],
		[
			[386,385,65535],
			[379,65535,65535],
			[865,65535,874],
			[1493,65535,875],
			[1493,65535,878],
			[1493,355,873],
			[1486,65535,65535],
			[1487,65535,65535],
			[1488,65535,65535],
			[1493,355,65535],
			[1493,355,65535],
			[1486,65535,65535],
			[1487,1454,65535],
			[0,1455,65535],
			[1488,1456,871],
			[1493,355,877],
			[1493,65535,875],
			[1493,65535,875]
		],
		[
			[379,65535,65535],
			[403,65535,65535],
			[865,65535,874],
			[1493,65535,875],
			[1493,65535,875],
			[1493,355,878],
			[1486,65535,873],
			[1487,65535,65535],
			[1488,65535,65535],
			[1490,65535,65535],
			[1490,65535,65535],
			[1486,65535,65535],
			[1487,1454,65535],
			[1487,1455,65535],
			[1488,1456,874],
			[1493,355,875],
			[1493,65535,875],
			[1493,65535,875]
		],
		[
			[403,65535,65535],
			[859,65535,871],
			[867,65535,877],
			[1493,65535,875],
			[1493,65535,875],
			[1493,355,875],
			[1486,65535,878],
			[1487,65535,873],
			[1488,65535,65535],
			[1496,1489,65535],
			[1496,1489,65535],
			[1486,65535,65535],
			[1487,1457,871],
			[1487,1458,872],
			[1488,1459,877],
			[1493,355,875],
			[1493,65535,875],
			[1493,65535,875]
		],
		[
			[403,65535,65535],
			[865,65535,874],
			[1493,65535,875],
			[1493,65535,875],
			[1493,65535,875],
			[1493,355,875],
			[1496,1489,875],
			[1496,1489,878],
			[1496,1489,872],
			[1493,355,872],
			[1493,355,872],
			[1496,1489,872],
			[1496,1489,877],
			[1496,1489,875],
			[1496,1489,875],
			[1493,355,875],
			[1493,65535,875],
			[1493,65535,875]
		],
		[
			[403,65535,65535],
			[865,65535,874],
			[1493,65535,875],
			[1493,65535,875],
			[1493,65535,875],
			[1493,65535,875],
			[1493,65535,875],
			[1493,65535,875],
			[1493,65535,875],
			[1493,65535,875],
			[1493,65535,875],
			[1493,65535,875],
			[1493,65535,875],
			[1493,65535,875],
			[1493,65535,875],
			[1493,65535,875],
			[1493,65535,875],
			[1493,65535,875]
		]
	]
}
