{
	"id": 613,
	"type": 3,
	"width": 18,
	"height": 18,
	"flags": 15,
	"tiles": [
		[
			[403,65535,65535],
			[403,65535,65535],
			[403,65535,65535],
			[403,65535,65535],
			[403,65535,65535],
			[403,65535,65535],
			[403,65535,65535],
			[403,65535,65535],
			[403,65535,65535],
			[403,65535,65535],
			[403,65535,65535],
			[403,65535,65535],
			[403,65535,65535],
			[403,65535,65535],
			[403,65535,65535],
			[403,65535,65535],
			[403,65535,65535],
			[403,65535,65535]
		],
		[
			[403,65535,65535],
			[859,65535,871],
			[860,65535,872],
			[860,65535,872],
			[861,65535,873],
			[403,65535,65535],
			[403,65535,65535],
			[403,65535,65535],
			[403,65535,640],
			[403,65535,641],
			[403,65535,65535],
			[403,65535,65535],
			[1577,65535,65535],
			[403,65535,65535],
			[403,65535,65535],
			[403,65535,65535],
			[403,65535,65535],
			[403,65535,65535]
		],
		[
			[403,65535,65535],
			[865,65535,883],
			[403,65535,884],
			[403,65535,884],
			[864,65535,885],
			[403,374,65535],
			[403,375,65535],
			[403,376,65535],
			[403,1949,1424],
			[403,1950,65535],
			[403,65535,65535],
			[403,374,65535],
			[375,375,65535],
			[403,376,65535],
			[403,65535,65535],
			[403,65535,65535],
			[403,65535,65535],
			[403,65535,65535]
		],
		[
			[403,65535,65535],
			[403,891,65535],
			[403,892,65535],
			[403,892,65535],
			[861,893,65535],
			[377,65535,65535],
			[403,384,65535],
			[403,383,65535],
			[403,375,1425],
			[403,375,65535],
			[403,375,65535],
			[403,382,65535],
			[387,387,65535],
			[403,383,65535],
			[403,376,65535],
			[403,65535,944],
			[403,65535,945],
			[403,65535,946]
		],
		[
			[1576,65535,65535],
			[879,65535,65535],
			[880,65535,1451],
			[880,65535,1452],
			[881,65535,1452],
			[1575,65535,1453],
			[403,380,65535],
			[403,387,65535],
			[403,386,1425],
			[403,387,65535],
			[403,386,65535],
			[403,387,65535],
			[403,386,65535],
			[403,387,65535],
			[403,381,65535],
			[403,65535,941],
			[403,65535,900],
			[403,65535,943]
		],
		[
			[403,65535,65535],
			[403,65535,65535],
			[403,1454,65535],
			[403,1455,65535],
			[403,1455,65535],
			[1576,1456,65535],
			[377,380,65535],
			[403,386,65535],
			[403,387,1425],
			[403,386,65535],
			[403,389,65535],
			[403,386,65535],
			[403,387,65535],
			[403,386,65535],
			[403,383,65535],
			[403,376,65535],
			[403,65535,1023],
			[403,65535,65535]
		],
		[
			[403,65535,65535],
			[1575,65535,65535],
			[403,1457,65535],
			[403,1461,65535],
			[403,1458,113],
			[1576,1459,65535],
			[403,380,65535],
			[403,387,65535],
			[387,1425,1626],
			[403,387,65535],
			[403,386,65535],
			[403,387,65535],
			[403,386,65535],
			[403,387,65535],
			[403,385,65535],
			[379,65535,65535],
			[403,901,65535],
			[403,65535,65535]
		],
		[
			[1575,65535,65535],
			[1576,65535,65535],
			[403,65535,65535],
			[403,1831,65535],
			[1579,65535,65535],
			[403,65535,65535],
			[377,65535,65535],
			[403,384,65535],
			[386,1426,1626],
			[403,386,65535],
			[403,387,65535],
			[403,386,65535],
			[403,387,65535],
			[403,386,65535],
			[403,381,65535],
			[859,65535,871],
			[861,65535,873],
			[403,65535,65535]
		],
		[
			[403,65535,65535],
			[403,65535,65535],
			[1127,65535,65535],
			[1123,65535,65535],
			[1123,65535,65535],
			[1123,1846,65535],
			[1128,65535,1422],
			[403,380,1422],
			[386,1423,1626],
			[403,387,65535],
			[403,386,65535],
			[403,387,65535],
			[403,386,65535],
			[403,385,65535],
			[379,65535,871],
			[867,355,877],
			[866,65535,876],
			[403,65535,65535]
		],
		[
			[403,65535,65535],
			[1575,65535,65535],
			[1125,65535,65535],
			[1145,65535,65535],
			[1141,65535,65535],
			[403,1144,65535],
			[1126,65535,65535],
			[377,65535,65535],
			[403,384,65535],
			[403,386,65535],
			[403,387,65535],
			[403,386,65535],
			[403,387,65535],
			[379,381,65535],
			[865,65535,883],
			[858,355,884],
			[864,65535,885],
			[403,65535,65535]
		],
		[
			[403,65535,65535],
			[403,1580,65535],
			[1125,65535,65535],
			[1145,65535,65535],
			[1142,65535,65535],
			[403,1144,65535],
			[1131,65535,65535],
			[1128,65535,65535],
			[403,380,65535],
			[403,387,65535],
			[403,386,65535],
			[403,387,65535],
			[403,386,65535],
			[403,381,65535],
			[403,891,65535],
			[403,892,65535],
			[861,893,65535],
			[403,65535,65535]
		],
		[
			[1576,65535,65535],
			[403,65535,65535],
			[1125,65535,65535],
			[1145,65535,65535],
			[1142,65535,65535],
			[1146,65535,65535],
			[403,1144,65535],
			[1126,65535,65535],
			[403,380,65535],
			[403,386,65535],
			[403,385,1135],
			[378,65535,65535],
			[378,65535,65535],
			[379,65535,65535],
			[879,65535,65535],
			[880,65535,65535],
			[881,65535,65535],
			[403,65535,65535]
		],
		[
			[403,65535,944],
			[403,65535,945],
			[1125,65535,946],
			[1145,65535,65535],
			[1142,65535,65535],
			[1146,65535,65535],
			[1146,65535,65535],
			[1126,65535,65535],
			[377,65535,871],
			[378,65535,873],
			[379,1136,65535],
			[859,65535,871],
			[860,65535,872],
			[860,65535,872],
			[861,65535,873],
			[403,65535,944],
			[403,65535,945],
			[403,65535,946]
		],
		[
			[403,65535,941],
			[403,65535,900],
			[1125,65535,943],
			[1145,65535,65535],
			[1142,65535,65535],
			[1146,65535,65535],
			[1146,65535,65535],
			[1126,65535,65535],
			[865,65535,874],
			[868,65535,878],
			[860,65535,872],
			[867,355,877],
			[858,355,875],
			[858,355,875],
			[866,65535,876],
			[403,65535,941],
			[403,65535,900],
			[403,65535,943]
		],
		[
			[403,65535,65535],
			[403,65535,1023],
			[1125,65535,65535],
			[1145,65535,65535],
			[1142,65535,65535],
			[1146,65535,65535],
			[1146,65535,65535],
			[1126,65535,65535],
			[865,65535,883],
			[858,355,884],
			[858,355,887],
			[858,355,875],
			[858,355,888],
			[858,355,884],
			[864,65535,885],
			[403,65535,65535],
			[403,65535,1023],
			[403,65535,65535]
		],
		[
			[403,65535,65535],
			[403,901,65535],
			[1125,65535,65535],
			[1145,65535,65535],
			[1143,65535,65535],
			[1146,65535,65535],
			[1146,65535,65535],
			[1126,65535,65535],
			[403,891,65535],
			[403,892,65535],
			[1575,892,883],
			[858,355,884],
			[403,892,885],
			[403,892,65535],
			[861,893,65535],
			[403,65535,65535],
			[403,901,65535],
			[403,65535,65535]
		],
		[
			[403,65535,65535],
			[403,65535,65535],
			[1129,65535,65535],
			[1124,65535,65535],
			[1124,65535,65535],
			[1124,65535,65535],
			[1124,65535,65535],
			[1130,65535,65535],
			[879,65535,65535],
			[880,65535,65535],
			[880,891,65535],
			[403,892,65535],
			[897,893,65535],
			[880,65535,65535],
			[881,65535,65535],
			[403,65535,65535],
			[403,65535,65535],
			[403,65535,65535]
		],
		[
			[403,65535,65535],
			[403,65535,65535],
			[403,65535,65535],
			[403,65535,65535],
			[403,65535,65535],
			[403,65535,65535],
			[403,65535,65535],
			[403,65535,65535],
			[403,65535,65535],
			[403,65535,65535],
			[879,65535,65535],
			[880,65535,65535],
			[881,65535,65535],
			[403,65535,65535],
			[403,65535,65535],
			[403,65535,65535],
			[403,65535,65535],
			[403,65535,65535]
		]
	]
}
