{
	"id": 614,
	"type": 2,
	"width": 9,
	"height": 9,
	"flags": 8,
	"tiles": [
		[
			[596,540,1328],
			[596,578,812],
			[596,554,65535],
			[596,578,812],
			[596,1765,65535],
			[596,578,812],
			[596,554,65535],
			[596,578,812],
			[596,541,1394]
		],
		[
			[596,545,1327],
			[596,813,65535],
			[596,1851,65535],
			[596,813,65535],
			[596,65535,65535],
			[596,813,65535],
			[596,1851,65535],
			[596,813,65535],
			[596,544,1393]
		],
		[
			[596,545,1327],
			[596,65535,65535],
			[596,65535,65535],
			[596,65535,65535],
			[596,65535,65535],
			[596,65535,65535],
			[596,65535,65535],
			[596,65535,65535],
			[596,544,1393]
		],
		[
			[596,540,616],
			[596,629,617],
			[596,629,617],
			[596,629,617],
			[596,629,617],
			[596,629,617],
			[596,629,619],
			[597,65535,1090],
			[596,541,65535]
		],
		[
			[596,545,1330],
			[596,65535,1329],
			[596,65535,1450],
			[596,65535,1450],
			[596,65535,1329],
			[596,65535,1329],
			[596,65535,1329],
			[596,1169,1329],
			[596,544,1331]
		],
		[
			[596,545,1330],
			[596,65535,1329],
			[596,65535,1444],
			[596,1851,1446],
			[596,65535,1329],
			[596,65535,1329],
			[596,65535,1329],
			[596,65535,1329],
			[596,544,1331]
		],
		[
			[597,545,65535],
			[597,65535,65535],
			[596,560,65535],
			[596,560,65535],
			[597,65535,65535],
			[597,65535,65535],
			[597,65535,65535],
			[597,65535,65535],
			[597,544,65535]
		],
		[
			[596,545,1293],
			[596,65535,65535],
			[596,65535,65535],
			[596,65535,65535],
			[596,65535,65535],
			[596,65535,65535],
			[596,65535,65535],
			[596,1313,65535],
			[596,544,614]
		],
		[
			[596,802,1086],
			[597,802,1086],
			[597,802,1086],
			[597,802,1086],
			[597,355,1086],
			[597,802,1086],
			[597,802,1086],
			[597,802,1086],
			[596,802,1086]
		]
	]
}
