{
	"id": 620,
	"type": 3,
	"width": 9,
	"height": 9,
	"flags": 8,
	"tiles": [
		[
			[1524,1526,65535],
			[1524,1520,65535],
			[1524,1520,285],
			[1524,1520,65535],
			[1524,1519,65535],
			[1524,1520,65535],
			[1524,1520,65535],
			[1524,1520,65535],
			[1524,1528,65535]
		],
		[
			[1524,1527,65535],
			[1524,355,271],
			[1524,286,65535],
			[1524,65535,65535],
			[1524,1522,65535],
			[1524,419,65535],
			[1524,65535,65535],
			[1524,635,65535],
			[1524,1529,65535]
		],
		[
			[1524,1522,65535],
			[1524,65535,65535],
			[1524,65535,65535],
			[1524,1520,65535],
			[1524,1520,65535],
			[1524,65535,65535],
			[1524,65535,65535],
			[1524,65535,65535],
			[1524,1523,65535]
		],
		[
			[1524,1522,65535],
			[1524,65535,65535],
			[1524,65535,65535],
			[1524,65535,65535],
			[1524,65535,65535],
			[1524,65535,65535],
			[1524,257,263],
			[1524,65535,65535],
			[1524,1523,65535]
		],
		[
			[1524,1519,65535],
			[1915,65535,1914],
			[1524,1520,65535],
			[1524,1520,65535],
			[1524,1520,65535],
			[1524,1521,65535],
			[1524,1520,65535],
			[1915,65535,1914],
			[1524,1521,65535]
		],
		[
			[1524,1522,65535],
			[1524,65535,65535],
			[1524,65535,65535],
			[1524,65535,65535],
			[1524,261,263],
			[1524,1523,65535],
			[1524,65535,65535],
			[1524,260,262],
			[1524,1523,65535]
		],
		[
			[1524,1519,65535],
			[1524,1520,65535],
			[1915,65535,1914],
			[1524,1520,65535],
			[1524,1520,254],
			[1524,1520,65535],
			[1524,1520,65535],
			[1524,1520,65535],
			[1524,1521,65535]
		],
		[
			[1524,1531,65535],
			[1524,273,65535],
			[1524,65535,65535],
			[1524,65535,65535],
			[1524,65535,65535],
			[1524,65535,65535],
			[1524,65535,65535],
			[1524,257,264],
			[1524,1533,65535]
		],
		[
			[1524,1530,65535],
			[1524,1520,65535],
			[1524,1520,65535],
			[1524,1520,65535],
			[1525,65535,1914],
			[1524,1520,65535],
			[1524,1520,65535],
			[1524,1520,65535],
			[1524,1532,65535]
		]
	]
}
