{
	"id": 621,
	"type": 3,
	"width": 18,
	"height": 18,
	"flags": 15,
	"tiles": [
		[
			[403,65535,65535],
			[403,65535,871],
			[403,65535,873],
			[403,65535,65535],
			[403,65535,65535],
			[403,65535,65535],
			[403,65535,65535],
			[403,65535,65535],
			[403,65535,65535],
			[403,65535,65535],
			[403,65535,65535],
			[403,65535,65535],
			[403,65535,871],
			[403,65535,873],
			[403,65535,65535],
			[403,65535,65535],
			[403,65535,65535],
			[403,65535,65535]
		],
		[
			[403,65535,65535],
			[1577,65535,883],
			[403,65535,885],
			[403,65535,65535],
			[403,65535,65535],
			[403,65535,65535],
			[403,65535,65535],
			[403,65535,65535],
			[403,65535,65535],
			[403,65535,65535],
			[403,65535,65535],
			[403,65535,65535],
			[403,65535,883],
			[403,65535,885],
			[403,65535,65535],
			[403,65535,65535],
			[403,65535,65535],
			[403,65535,65535]
		],
		[
			[403,65535,65535],
			[403,891,65535],
			[403,893,65535],
			[403,65535,65535],
			[403,65535,65535],
			[403,374,65535],
			[403,375,65535],
			[403,375,65535],
			[375,375,65535],
			[403,376,65535],
			[403,1580,1580],
			[403,65535,65535],
			[403,891,65535],
			[403,893,65535],
			[403,65535,65535],
			[1577,65535,65535],
			[403,65535,65535],
			[403,65535,65535]
		],
		[
			[403,65535,65535],
			[879,65535,65535],
			[881,65535,65535],
			[403,374,65535],
			[403,375,65535],
			[403,382,65535],
			[386,57,65535],
			[386,54,65535],
			[387,59,65535],
			[403,383,65535],
			[403,375,65535],
			[403,376,65535],
			[879,65535,65535],
			[881,65535,65535],
			[403,65535,65535],
			[1579,65535,65535],
			[403,65535,65535],
			[403,65535,65535]
		],
		[
			[403,65535,65535],
			[403,65535,65535],
			[403,65535,65535],
			[403,380,65535],
			[386,386,65535],
			[386,57,65535],
			[386,62,65535],
			[0,16,65535],
			[386,63,65535],
			[386,54,1139],
			[386,59,65535],
			[403,383,65535],
			[403,375,65535],
			[403,376,65535],
			[403,65535,65535],
			[403,65535,65535],
			[403,65535,65535],
			[403,65535,65535]
		],
		[
			[403,65535,65535],
			[403,65535,65535],
			[403,374,65535],
			[395,382,65535],
			[387,57,65535],
			[387,62,65535],
			[0,65535,1137],
			[402,65535,65535],
			[401,65535,65535],
			[0,1140,65535],
			[386,63,65535],
			[386,54,65535],
			[386,59,65535],
			[386,383,65535],
			[403,376,65535],
			[403,65535,65535],
			[403,65535,65535],
			[403,65535,65535]
		],
		[
			[403,65535,65535],
			[403,65535,65535],
			[377,65535,65535],
			[395,384,65535],
			[387,55,65535],
			[0,65535,65535],
			[0,1138,65535],
			[398,65535,65535],
			[394,65535,65535],
			[395,65535,65535],
			[395,65535,65535],
			[401,65535,65535],
			[387,63,1135],
			[386,59,65535],
			[403,381,65535],
			[403,1580,65535],
			[403,65535,65535],
			[403,65535,65535]
		],
		[
			[403,65535,65535],
			[403,65535,65535],
			[1578,65535,65535],
			[395,380,65535],
			[387,55,65535],
			[402,65535,65535],
			[401,65535,65535],
			[400,65535,65535],
			[392,65535,410],
			[392,65535,65535],
			[393,65535,65535],
			[397,65535,65535],
			[0,1136,65535],
			[386,56,65535],
			[403,383,65535],
			[403,376,65535],
			[403,65535,65535],
			[403,65535,65535]
		],
		[
			[1577,65535,65535],
			[403,65535,65535],
			[403,374,65535],
			[395,382,65535],
			[387,55,65535],
			[398,65535,65535],
			[397,65535,65535],
			[0,57,65535],
			[0,54,411],
			[0,59,65535],
			[398,65535,65535],
			[394,65535,65535],
			[401,65535,65535],
			[386,63,65535],
			[386,59,65535],
			[403,381,65535],
			[403,65535,65535],
			[403,65535,65535]
		],
		[
			[403,65535,65535],
			[403,1580,1580],
			[380,380,65535],
			[387,57,65535],
			[387,62,65535],
			[398,65535,65535],
			[397,65535,65535],
			[0,60,65535],
			[77,53,65535],
			[0,61,65535],
			[400,65535,65535],
			[392,65535,65535],
			[399,65535,65535],
			[0,65535,408],
			[386,56,65535],
			[403,381,65535],
			[403,65535,65535],
			[403,65535,65535]
		],
		[
			[403,65535,65535],
			[403,65535,65535],
			[403,380,65535],
			[387,55,65535],
			[0,65535,1139],
			[398,65535,65535],
			[394,65535,65535],
			[395,65535,65535],
			[395,65535,65535],
			[401,65535,65535],
			[0,65535,65535],
			[0,65535,65535],
			[0,65535,65535],
			[0,409,409],
			[386,56,65535],
			[403,381,65535],
			[403,65535,65535],
			[403,65535,65535]
		],
		[
			[403,65535,65535],
			[403,374,871],
			[403,382,873],
			[387,55,65535],
			[0,1140,65535],
			[400,65535,65535],
			[392,65535,65535],
			[393,65535,65535],
			[403,65535,65535],
			[397,65535,65535],
			[0,41,65535],
			[0,65535,65535],
			[395,43,65535],
			[386,65,65535],
			[386,61,65535],
			[403,381,65535],
			[403,65535,65535],
			[403,65535,65535]
		],
		[
			[403,65535,65535],
			[403,891,883],
			[386,893,885],
			[387,60,65535],
			[387,64,65535],
			[0,65535,65535],
			[0,65535,1135],
			[400,65535,65535],
			[392,65535,65535],
			[399,65535,65535],
			[395,56,65535],
			[395,65535,65535],
			[395,55,65535],
			[386,56,65535],
			[386,386,871],
			[403,381,873],
			[403,65535,65535],
			[403,65535,65535]
		],
		[
			[403,65535,65535],
			[377,891,65535],
			[378,893,65535],
			[403,384,65535],
			[386,60,65535],
			[403,64,65535],
			[0,1136,65535],
			[0,65535,65535],
			[0,65535,65535],
			[386,65,65535],
			[375,61,65535],
			[1758,375,65535],
			[375,60,65535],
			[387,61,65535],
			[387,891,883],
			[379,893,885],
			[403,65535,65535],
			[403,65535,65535]
		],
		[
			[403,65535,65535],
			[879,65535,65535],
			[881,65535,65535],
			[403,380,65535],
			[386,386,65535],
			[386,60,65535],
			[387,53,65535],
			[386,53,65535],
			[386,53,65535],
			[386,61,65535],
			[386,387,65535],
			[1759,387,65535],
			[387,387,65535],
			[379,385,65535],
			[379,891,65535],
			[403,893,65535],
			[1579,65535,65535],
			[403,65535,65535]
		],
		[
			[403,65535,65535],
			[403,65535,65535],
			[403,65535,65535],
			[377,65535,65535],
			[403,384,65535],
			[386,386,65535],
			[386,387,65535],
			[386,386,65535],
			[387,387,65535],
			[378,385,65535],
			[378,167,1761],
			[1760,65535,65535],
			[378,167,65535],
			[379,65535,65535],
			[879,65535,65535],
			[881,65535,65535],
			[403,65535,65535],
			[403,65535,65535]
		],
		[
			[403,65535,65535],
			[403,1580,65535],
			[403,65535,65535],
			[403,65535,65535],
			[377,65535,65535],
			[378,65535,65535],
			[378,65535,65535],
			[378,65535,65535],
			[378,65535,65535],
			[379,65535,65535],
			[403,65535,65535],
			[403,65535,65535],
			[403,65535,65535],
			[403,65535,65535],
			[403,65535,65535],
			[403,65535,65535],
			[403,65535,65535],
			[403,65535,65535]
		],
		[
			[403,65535,65535],
			[403,65535,65535],
			[403,65535,65535],
			[403,65535,65535],
			[403,65535,65535],
			[403,65535,65535],
			[403,65535,65535],
			[403,65535,65535],
			[403,65535,65535],
			[403,65535,65535],
			[403,65535,65535],
			[403,65535,65535],
			[403,65535,65535],
			[403,65535,65535],
			[403,65535,65535],
			[403,65535,65535],
			[403,65535,65535],
			[403,65535,65535]
		]
	]
}
