{
	"id": 628,
	"type": 3,
	"width": 18,
	"height": 18,
	"flags": 8,
	"tiles": [
		[
			[1487,65535,65535],
			[1487,65535,65535],
			[1487,65535,65535],
			[1487,65535,65535],
			[1493,355,65535],
			[1493,355,65535],
			[1493,355,65535],
			[1493,355,65535],
			[1493,355,65535],
			[1493,355,65535],
			[1493,355,65535],
			[1493,355,944],
			[1493,65535,945],
			[1493,65535,946],
			[1493,355,65535],
			[1487,65535,65535],
			[1487,65535,65535],
			[1487,65535,65535]
		],
		[
			[1513,355,65535],
			[1487,65535,65535],
			[1487,65535,65535],
			[1487,65535,65535],
			[1490,65535,65535],
			[1490,65535,65535],
			[1490,65535,65535],
			[1490,65535,65535],
			[1490,65535,65535],
			[1490,65535,65535],
			[1492,65535,65535],
			[1493,355,941],
			[1493,355,900],
			[1493,355,943],
			[1493,355,65535],
			[1487,65535,65535],
			[1513,355,65535],
			[1487,65535,65535]
		],
		[
			[1487,65535,65535],
			[1487,65535,65535],
			[1487,65535,65535],
			[1487,65535,65535],
			[1496,1489,65535],
			[1496,355,65535],
			[1496,1489,65535],
			[1496,355,65535],
			[1496,1489,65535],
			[1496,355,65535],
			[1498,65535,65535],
			[1493,355,65535],
			[1493,1534,65535],
			[1491,65535,65535],
			[1490,65535,944],
			[1487,65535,945],
			[1487,65535,946],
			[1487,65535,65535]
		],
		[
			[1496,1489,65535],
			[1496,1489,65535],
			[1496,1489,65535],
			[1496,1489,65535],
			[1493,355,65535],
			[1493,355,65535],
			[1487,65535,65535],
			[1487,65535,65535],
			[1487,65535,65535],
			[1493,355,65535],
			[1497,65535,944],
			[1493,355,945],
			[1493,355,946],
			[1499,65535,65535],
			[1496,1489,941],
			[1496,1489,900],
			[1496,1489,943],
			[1496,1489,65535]
		],
		[
			[1493,355,65535],
			[1493,355,65535],
			[1493,355,65535],
			[1493,355,65535],
			[1493,355,65535],
			[1493,355,65535],
			[1487,65535,65535],
			[1513,355,65535],
			[1487,65535,65535],
			[1493,355,65535],
			[1497,65535,941],
			[1493,355,942],
			[1493,355,943],
			[1497,65535,65535],
			[1493,355,65535],
			[1493,1534,65535],
			[1493,65535,65535],
			[1493,65535,65535]
		],
		[
			[1513,355,65535],
			[1487,65535,65535],
			[1490,65535,65535],
			[1490,65535,65535],
			[1490,65535,65535],
			[1490,65535,65535],
			[1487,65535,65535],
			[1487,65535,65535],
			[1487,65535,944],
			[1493,355,945],
			[1497,65535,946],
			[1493,1534,65535],
			[1493,355,65535],
			[1497,65535,65535],
			[1493,355,65535],
			[1493,355,65535],
			[1493,355,65535],
			[1493,355,65535]
		],
		[
			[1487,65535,65535],
			[1487,65535,65535],
			[1496,355,65535],
			[1496,1489,65535],
			[1496,1489,65535],
			[1496,355,65535],
			[1496,1489,65535],
			[1496,1489,65535],
			[1496,1489,941],
			[1493,355,942],
			[1497,65535,943],
			[1493,355,65535],
			[1487,65535,65535],
			[1487,65535,65535],
			[1493,355,65535],
			[1487,65535,65535],
			[1487,65535,65535],
			[1487,65535,65535]
		],
		[
			[1496,1489,65535],
			[1496,1489,65535],
			[1493,355,65535],
			[1493,355,65535],
			[1493,355,65535],
			[1513,355,65535],
			[1487,65535,65535],
			[1487,65535,65535],
			[1493,355,65535],
			[1493,1534,65535],
			[1497,65535,65535],
			[1493,355,65535],
			[1487,65535,65535],
			[1487,65535,65535],
			[1493,355,65535],
			[1487,65535,65535],
			[1513,355,65535],
			[1487,65535,65535]
		],
		[
			[1493,355,65535],
			[1491,65535,65535],
			[1490,65535,65535],
			[1490,65535,65535],
			[1490,65535,65535],
			[1487,65535,65535],
			[1487,65535,65535],
			[1487,65535,65535],
			[1493,355,65535],
			[1493,355,65535],
			[1497,65535,65535],
			[1493,355,65535],
			[1513,355,65535],
			[1487,65535,65535],
			[1493,355,65535],
			[1487,65535,65535],
			[1487,65535,65535],
			[1487,65535,65535]
		],
		[
			[1493,355,65535],
			[1499,65535,944],
			[1496,355,945],
			[1496,1489,946],
			[1496,355,65535],
			[1496,1489,65535],
			[1496,1489,65535],
			[1496,1489,65535],
			[1493,355,65535],
			[1493,355,65535],
			[1497,65535,65535],
			[1493,355,65535],
			[1496,1489,65535],
			[1496,1489,65535],
			[1493,355,65535],
			[1496,1489,65535],
			[1496,1489,65535],
			[1500,65535,65535]
		],
		[
			[1493,355,65535],
			[1497,65535,941],
			[1493,355,900],
			[1493,355,943],
			[1491,65535,944],
			[1490,65535,945],
			[1490,65535,946],
			[1490,65535,65535],
			[1490,65535,65535],
			[1490,65535,65535],
			[1505,65535,65535],
			[1493,355,65535],
			[1487,65535,65535],
			[1487,65535,65535],
			[1490,65535,65535],
			[1490,65535,944],
			[1490,65535,945],
			[1505,65535,946]
		],
		[
			[1493,355,65535],
			[1497,65535,65535],
			[1493,1534,65535],
			[1493,355,65535],
			[1499,65535,944],
			[1496,355,945],
			[1496,1489,946],
			[1496,355,65535],
			[1496,1489,65535],
			[1496,355,65535],
			[1494,1489,65535],
			[1493,355,65535],
			[1487,65535,65535],
			[1487,65535,65535],
			[1496,355,65535],
			[1496,1489,941],
			[1496,355,942],
			[1498,65535,943]
		],
		[
			[1493,355,65535],
			[1497,65535,65535],
			[1493,355,65535],
			[1493,355,65535],
			[1497,65535,941],
			[1493,355,900],
			[1513,355,943],
			[1487,65535,65535],
			[1493,355,65535],
			[1487,65535,65535],
			[1487,65535,65535],
			[1493,355,65535],
			[1496,1489,65535],
			[1496,1489,65535],
			[1493,355,65535],
			[1493,355,65535],
			[1493,1534,65535],
			[1497,65535,65535]
		],
		[
			[1493,355,945],
			[1497,65535,946],
			[1493,355,65535],
			[1493,355,65535],
			[1497,65535,65535],
			[1493,1534,1023],
			[1487,65535,65535],
			[1487,65535,65535],
			[1493,355,65535],
			[1513,355,65535],
			[1487,65535,65535],
			[1493,355,65535],
			[1487,65535,65535],
			[1487,65535,65535],
			[1487,65535,65535],
			[1487,65535,65535],
			[1493,355,65535],
			[1497,65535,944]
		],
		[
			[1493,355,942],
			[1497,65535,943],
			[1493,355,65535],
			[1487,65535,65535],
			[1487,65535,65535],
			[1493,1534,65535],
			[1496,1489,65535],
			[1500,65535,65535],
			[1493,355,65535],
			[1496,1489,65535],
			[1496,1489,65535],
			[1493,355,65535],
			[1487,65535,65535],
			[1487,65535,65535],
			[1513,355,65535],
			[1487,65535,65535],
			[1493,355,65535],
			[1497,65535,941]
		],
		[
			[1493,1534,65535],
			[1497,65535,65535],
			[1493,355,65535],
			[1513,355,65535],
			[1487,65535,65535],
			[1493,355,65535],
			[1493,355,65535],
			[1501,65535,65535],
			[1490,65535,65535],
			[1490,65535,65535],
			[1490,65535,65535],
			[1490,65535,65535],
			[1487,65535,65535],
			[1487,65535,65535],
			[1487,65535,65535],
			[1487,65535,65535],
			[1493,355,65535],
			[1497,65535,65535]
		],
		[
			[1493,355,65535],
			[1497,65535,65535],
			[1493,355,65535],
			[1496,1489,65535],
			[1496,1489,65535],
			[1493,355,65535],
			[1493,355,65535],
			[1495,1489,65535],
			[1496,355,65535],
			[1496,1489,65535],
			[1496,1489,65535],
			[1496,355,65535],
			[1496,1489,65535],
			[1496,1489,65535],
			[1496,1489,65535],
			[1496,1489,65535],
			[1493,355,65535],
			[1497,65535,65535]
		],
		[
			[1493,355,65535],
			[1501,65535,65535],
			[1490,65535,65535],
			[1490,65535,65535],
			[1490,65535,65535],
			[1490,65535,65535],
			[1490,65535,65535],
			[1490,65535,65535],
			[1490,65535,65535],
			[1490,65535,65535],
			[1490,65535,65535],
			[1490,65535,65535],
			[1490,65535,65535],
			[1490,65535,65535],
			[1490,65535,65535],
			[1490,65535,65535],
			[1490,65535,65535],
			[1505,65535,65535]
		]
	]
}
