{
	"id": 632,
	"type": 1,
	"width": 18,
	"height": 18,
	"flags": 8,
	"tiles": [
		[
			[0,65,65535],
			[0,53,65535],
			[0,53,65535],
			[0,53,65535],
			[0,53,65535],
			[0,53,65535],
			[0,53,65535],
			[0,64,65535],
			[0,65535,65535],
			[365,65535,65535],
			[353,65535,65535],
			[364,65,65535],
			[365,53,65535],
			[0,53,65535],
			[0,40,65535],
			[0,55,65535],
			[0,65535,65535],
			[3,65535,65535]
		],
		[
			[0,56,65535],
			[0,65,65535],
			[0,53,65535],
			[0,53,1947],
			[0,53,1948],
			[0,64,65535],
			[0,65535,65535],
			[0,60,65535],
			[0,40,65535],
			[371,65535,65535],
			[367,65,65535],
			[372,61,65535],
			[371,65535,65535],
			[0,359,65535],
			[0,65535,65535],
			[0,44,65535],
			[0,39,65535],
			[0,64,65535]
		],
		[
			[0,56,65535],
			[0,63,65535],
			[0,59,65535],
			[0,1949,1943],
			[366,1950,1944],
			[365,60,65535],
			[0,53,65535],
			[0,64,65535],
			[0,39,65535],
			[0,53,65535],
			[0,61,65535],
			[0,65535,185],
			[0,65,65535],
			[368,53,65535],
			[368,53,65535],
			[368,64,65535],
			[0,65535,65535],
			[0,55,65535]
		],
		[
			[0,61,65535],
			[0,65535,65535],
			[0,56,65535],
			[0,1945,65535],
			[0,1946,65535],
			[371,65535,65535],
			[0,65535,65535],
			[0,60,65535],
			[0,40,65535],
			[0,65535,65535],
			[0,39,65535],
			[0,53,65535],
			[0,61,65535],
			[370,1174,65535],
			[368,1175,65535],
			[368,60,65535],
			[0,64,65535],
			[0,55,65535]
		],
		[
			[0,54,65535],
			[2,46,65535],
			[0,42,65535],
			[0,65535,65535],
			[0,359,65535],
			[364,65535,65535],
			[366,65535,65535],
			[0,65535,65535],
			[371,65535,65535],
			[0,65535,65535],
			[0,65535,65535],
			[0,65535,65535],
			[0,65535,65535],
			[0,65535,65535],
			[371,65535,65535],
			[372,65535,65535],
			[0,44,65535],
			[0,60,65535]
		],
		[
			[353,355,65535],
			[0,65535,65535],
			[4,65535,65535],
			[367,65535,65535],
			[369,65535,65535],
			[370,65535,65535],
			[368,65535,65535],
			[366,65535,65535],
			[0,65535,65535],
			[0,65,65535],
			[0,53,65535],
			[0,53,65535],
			[0,53,65535],
			[0,64,65535],
			[0,65535,65535],
			[0,65535,65535],
			[0,65535,65535],
			[353,355,65535]
		],
		[
			[0,41,65535],
			[0,65,65535],
			[0,40,65535],
			[0,65535,65535],
			[0,65535,65535],
			[0,65535,65535],
			[371,65535,65535],
			[371,1922,65535],
			[0,1923,65535],
			[0,63,185],
			[0,59,65535],
			[0,1399,65535],
			[0,1400,65535],
			[0,60,65535],
			[0,64,65535],
			[0,65535,65535],
			[0,43,65535],
			[0,359,65535]
		],
		[
			[0,42,65535],
			[0,56,65535],
			[367,65535,65535],
			[366,65535,65535],
			[0,65,65535],
			[0,53,65535],
			[38,65535,65535],
			[0,53,185],
			[0,53,65535],
			[0,53,65535],
			[0,61,65535],
			[1401,1401,65535],
			[0,1402,176],
			[3,65535,65535],
			[0,44,65535],
			[1,796,65535],
			[0,60,65535],
			[0,64,65535]
		],
		[
			[0,65535,65535],
			[0,56,65535],
			[370,65535,65535],
			[369,65535,65535],
			[0,63,65535],
			[0,59,65535],
			[345,801,65535],
			[0,65,65535],
			[0,101,65535],
			[78,74,65535],
			[0,53,1422],
			[0,64,1422],
			[0,1423,1403],
			[0,186,65535],
			[0,186,65535],
			[0,65535,65535],
			[0,359,65535],
			[0,55,65535]
		],
		[
			[0,41,65535],
			[0,63,65535],
			[367,59,65535],
			[369,65535,65535],
			[0,39,65535],
			[0,61,65535],
			[346,65535,65535],
			[0,56,65535],
			[88,65535,65535],
			[347,1169,65535],
			[0,801,65535],
			[0,55,65535],
			[0,186,65535],
			[0,186,65535],
			[0,43,65535],
			[0,65535,65535],
			[0,65535,65535],
			[0,55,65535]
		],
		[
			[0,63,65535],
			[0,59,65535],
			[0,63,65535],
			[0,59,65535],
			[0,65535,65535],
			[0,65535,65535],
			[0,65,65535],
			[0,61,65535],
			[367,801,65535],
			[365,65535,65535],
			[0,57,65535],
			[0,62,65535],
			[0,65535,65535],
			[0,65535,65535],
			[0,55,65535],
			[0,65535,65535],
			[0,65535,65535],
			[0,55,65535]
		],
		[
			[366,65535,65535],
			[0,42,65535],
			[0,359,65535],
			[367,56,65535],
			[369,65535,65535],
			[0,65,65535],
			[0,61,65535],
			[100,266,65535],
			[371,65535,65535],
			[0,45,65535],
			[0,62,185],
			[0,65,65535],
			[0,40,65535],
			[0,65535,65535],
			[0,44,65535],
			[0,43,65535],
			[0,65535,65535],
			[0,55,65535]
		],
		[
			[372,65535,65535],
			[353,65535,65535],
			[0,65,65535],
			[0,61,65535],
			[0,65535,65535],
			[0,56,65535],
			[367,265,65535],
			[366,65535,65535],
			[347,65535,65535],
			[0,39,65535],
			[0,64,65535],
			[0,42,65535],
			[365,801,65535],
			[0,65535,65535],
			[0,65535,65535],
			[0,44,65535],
			[2,65535,65535],
			[0,44,65535]
		],
		[
			[0,65,65535],
			[0,40,65535],
			[0,56,65535],
			[0,65535,65535],
			[0,796,65535],
			[0,42,65535],
			[0,266,65535],
			[371,65535,65535],
			[0,65535,65535],
			[0,65535,65535],
			[0,55,65535],
			[4,1922,65535],
			[371,1923,65535],
			[0,65535,65535],
			[0,65535,65535],
			[0,65535,65535],
			[0,1169,65535],
			[0,43,65535]
		],
		[
			[0,56,65535],
			[3,65535,65535],
			[0,63,65535],
			[0,46,65535],
			[4,65535,65535],
			[0,65535,65535],
			[0,65535,65535],
			[0,41,65535],
			[0,65535,65535],
			[2,65535,65535],
			[0,44,65535],
			[0,65535,65535],
			[0,65535,65535],
			[0,65535,65535],
			[0,57,65535],
			[0,46,65535],
			[0,45,65535],
			[0,62,65535]
		],
		[
			[0,63,65535],
			[364,59,65535],
			[366,65535,65535],
			[0,65535,65535],
			[0,45,65535],
			[0,59,65535],
			[0,65535,65535],
			[0,63,65535],
			[0,54,65535],
			[0,46,65535],
			[0,65535,65535],
			[0,65535,65535],
			[0,65535,65535],
			[0,57,65535],
			[0,62,65535],
			[0,57,65535],
			[364,54,65535],
			[0,54,65535]
		],
		[
			[0,65535,65535],
			[370,63,65535],
			[372,46,65535],
			[367,41,65535],
			[369,65535,65535],
			[0,63,65535],
			[0,46,65535],
			[0,65535,65535],
			[0,65535,65535],
			[0,796,65535],
			[0,65535,65535],
			[0,45,65535],
			[0,54,65535],
			[0,62,65535],
			[364,65535,65535],
			[365,55,65535],
			[372,65535,65535],
			[0,65535,65535]
		],
		[
			[0,65535,65535],
			[0,65535,65535],
			[0,65535,65535],
			[0,63,65535],
			[0,54,65535],
			[0,54,65535],
			[0,54,65535],
			[0,46,65535],
			[0,45,65535],
			[0,54,65535],
			[0,54,65535],
			[0,54,65535],
			[0,46,65535],
			[0,65535,65535],
			[371,65535,65535],
			[371,60,65535],
			[0,64,65535],
			[0,65535,65535]
		]
	]
}
