{
	"id": 636,
	"type": 1,
	"width": 18,
	"height": 18,
	"flags": 8,
	"tiles": [
		[
			[192,196,65535],
			[189,355,65535],
			[192,198,65535],
			[192,196,65535],
			[197,65535,65535],
			[197,65535,65535],
			[189,65535,65535],
			[197,65535,65535],
			[197,65535,65535],
			[197,65535,65535],
			[197,65535,65535],
			[189,65535,65535],
			[197,65535,65535],
			[197,65535,65535],
			[197,65535,65535],
			[192,207,65535],
			[189,355,65535],
			[192,198,65535]
		],
		[
			[192,202,65535],
			[216,355,65535],
			[216,200,65535],
			[203,65535,65535],
			[192,65535,65535],
			[192,205,65535],
			[192,218,65535],
			[192,218,65535],
			[192,218,65535],
			[192,218,65535],
			[192,218,65535],
			[192,218,65535],
			[192,206,65535],
			[192,796,65535],
			[192,205,65535],
			[192,202,65535],
			[216,355,65535],
			[192,201,65535]
		],
		[
			[192,202,65535],
			[192,65535,65535],
			[192,208,65535],
			[192,65535,65535],
			[192,205,65535],
			[197,196,65535],
			[197,65535,65535],
			[197,65535,65535],
			[197,65535,65535],
			[197,65535,65535],
			[192,198,65535],
			[192,195,65535],
			[192,202,65535],
			[192,65535,65535],
			[204,65535,65535],
			[192,199,65535],
			[192,65535,65535],
			[192,201,65535]
		],
		[
			[192,202,65535],
			[192,65535,65535],
			[209,65535,65535],
			[192,65535,65535],
			[192,200,65535],
			[203,65535,65535],
			[192,65535,65535],
			[192,65535,65535],
			[192,65535,65535],
			[192,65535,65535],
			[204,65535,65535],
			[197,65535,65535],
			[197,198,65535],
			[192,206,65535],
			[224,355,65535],
			[192,208,65535],
			[192,65535,65535],
			[192,201,65535]
		],
		[
			[192,202,65535],
			[192,65535,65535],
			[192,205,65535],
			[192,218,65535],
			[192,202,65535],
			[192,65535,65535],
			[192,205,65535],
			[192,218,65535],
			[192,218,65535],
			[192,218,65535],
			[192,218,65535],
			[192,206,65535],
			[204,65535,65535],
			[192,198,65535],
			[192,218,65535],
			[192,202,65535],
			[192,65535,65535],
			[192,201,65535]
		],
		[
			[192,202,65535],
			[192,65535,65535],
			[204,65535,65535],
			[192,207,65535],
			[203,65535,65535],
			[192,65535,65535],
			[192,200,65535],
			[0,578,65535],
			[0,629,1294],
			[0,629,1087],
			[189,578,65535],
			[192,198,65535],
			[192,206,65535],
			[204,65535,65535],
			[192,198,65535],
			[192,202,65535],
			[192,65535,65535],
			[192,201,65535]
		],
		[
			[192,202,65535],
			[192,65535,65535],
			[192,796,65535],
			[192,208,65535],
			[192,65535,65535],
			[192,205,65535],
			[192,202,65535],
			[192,265,65535],
			[192,65535,65535],
			[1088,1089,65535],
			[192,265,65535],
			[192,201,65535],
			[192,202,65535],
			[192,65535,65535],
			[192,200,65535],
			[203,65535,65535],
			[192,65535,65535],
			[192,201,65535]
		],
		[
			[192,202,65535],
			[192,65535,65535],
			[192,65535,65535],
			[192,208,65535],
			[192,65535,65535],
			[192,200,65535],
			[203,633,65535],
			[192,65535,65535],
			[192,65535,65535],
			[192,65535,65535],
			[192,186,65535],
			[204,633,65535],
			[192,199,65535],
			[192,65535,65535],
			[192,208,65535],
			[192,65535,65535],
			[192,205,65535],
			[192,195,65535]
		],
		[
			[192,202,65535],
			[192,65535,65535],
			[192,65535,65535],
			[192,208,65535],
			[192,65535,65535],
			[192,201,65535],
			[192,218,65535],
			[192,218,65535],
			[193,65535,225],
			[192,218,65535],
			[192,218,65535],
			[192,218,65535],
			[192,202,65535],
			[192,65535,65535],
			[192,208,65535],
			[192,796,65535],
			[192,201,65535],
			[192,195,65535]
		],
		[
			[192,202,65535],
			[192,65535,65535],
			[192,205,65535],
			[192,202,65535],
			[192,65535,65535],
			[192,201,65535],
			[197,196,65535],
			[189,355,65535],
			[222,223,65535],
			[189,355,65535],
			[197,198,65535],
			[192,196,65535],
			[203,65535,65535],
			[192,65535,65535],
			[192,208,65535],
			[192,65535,65535],
			[192,201,65535],
			[192,195,65535]
		],
		[
			[192,202,65535],
			[192,65535,65535],
			[192,200,65535],
			[203,65535,65535],
			[192,796,65535],
			[204,65535,65535],
			[192,199,65535],
			[192,186,65535],
			[192,801,65535],
			[192,65535,65535],
			[204,65535,65535],
			[192,199,65535],
			[192,65535,65535],
			[192,205,65535],
			[192,202,65535],
			[192,65535,65535],
			[204,65535,65535],
			[192,198,65535]
		],
		[
			[192,202,65535],
			[192,65535,65535],
			[192,208,65535],
			[192,65535,65535],
			[192,210,65535],
			[192,65535,65535],
			[192,201,65535],
			[192,218,65535],
			[192,218,65535],
			[192,218,65535],
			[192,206,65535],
			[209,65535,65535],
			[192,205,65535],
			[192,196,65535],
			[203,65535,65535],
			[192,65535,65535],
			[224,355,65535],
			[192,201,65535]
		],
		[
			[192,202,65535],
			[192,65535,65535],
			[192,208,65535],
			[192,65535,65535],
			[192,208,65535],
			[192,65535,65535],
			[204,65535,65535],
			[197,65535,65535],
			[197,65535,65535],
			[189,65535,65535],
			[192,199,65535],
			[192,796,65535],
			[192,200,65535],
			[203,65535,65535],
			[192,205,65535],
			[192,218,65535],
			[192,218,65535],
			[192,195,65535]
		],
		[
			[192,202,65535],
			[192,65535,65535],
			[192,208,65535],
			[192,65535,65535],
			[192,201,65535],
			[192,206,65535],
			[192,65535,65535],
			[192,205,65535],
			[192,218,65535],
			[192,218,65535],
			[192,195,65535],
			[192,218,65535],
			[192,202,65535],
			[192,65535,65535],
			[192,200,65535],
			[197,65535,65535],
			[197,65535,65535],
			[192,198,65535]
		],
		[
			[192,202,65535],
			[192,65535,65535],
			[192,208,65535],
			[192,65535,65535],
			[204,65535,65535],
			[192,199,65535],
			[192,65535,65535],
			[192,200,65535],
			[189,65535,65535],
			[197,65535,65535],
			[197,65535,65535],
			[197,65535,65535],
			[203,65535,65535],
			[192,65535,65535],
			[209,65535,65535],
			[192,205,65535],
			[192,218,65535],
			[192,195,65535]
		],
		[
			[192,202,65535],
			[192,65535,65535],
			[192,201,65535],
			[192,206,65535],
			[192,65535,65535],
			[192,208,65535],
			[192,65535,65535],
			[192,201,65535],
			[192,218,65535],
			[192,218,65535],
			[192,218,65535],
			[192,218,65535],
			[192,218,65535],
			[192,218,65535],
			[192,218,65535],
			[192,196,65535],
			[189,355,65535],
			[192,198,65535]
		],
		[
			[192,202,65535],
			[217,355,65535],
			[204,65535,65535],
			[192,199,65535],
			[217,355,65535],
			[192,208,65535],
			[192,796,65535],
			[204,65535,65535],
			[197,65535,65535],
			[197,65535,65535],
			[197,65535,65535],
			[197,65535,65535],
			[197,65535,65535],
			[197,65535,65535],
			[197,65535,65535],
			[203,65535,65535],
			[217,355,65535],
			[197,201,65535]
		],
		[
			[192,195,65535],
			[192,218,65535],
			[192,218,65535],
			[192,195,65535],
			[192,218,65535],
			[192,195,65535],
			[192,218,65535],
			[192,218,65535],
			[192,218,65535],
			[192,218,65535],
			[192,218,65535],
			[192,218,65535],
			[192,218,65535],
			[192,218,65535],
			[192,218,65535],
			[192,218,65535],
			[192,218,65535],
			[192,195,65535]
		]
	]
}
