{
	"id": 643,
	"type": 3,
	"width": 18,
	"height": 18,
	"flags": 8,
	"tiles": [
		[
			[0,386,65535],
			[403,381,65535],
			[865,1770,65535],
			[902,355,65535],
			[903,355,65535],
			[903,355,65535],
			[903,355,65535],
			[903,355,65535],
			[903,355,65535],
			[903,355,874],
			[858,355,875],
			[858,355,875],
			[858,355,875],
			[858,355,875],
			[858,355,875],
			[858,355,875],
			[858,355,875],
			[858,355,875]
		],
		[
			[403,387,65535],
			[403,381,65535],
			[862,65535,65535],
			[863,1169,1804],
			[863,65535,1805],
			[863,65535,65535],
			[863,65535,65535],
			[863,65535,65535],
			[869,1580,65535],
			[858,65535,906],
			[858,355,910],
			[858,355,875],
			[858,355,875],
			[858,355,875],
			[858,355,875],
			[858,355,875],
			[858,355,875],
			[858,355,875]
		],
		[
			[403,386,65535],
			[403,383,65535],
			[403,376,65535],
			[403,1808,1806],
			[403,1809,1807],
			[403,65535,65535],
			[403,1852,65535],
			[1579,65535,65535],
			[865,65535,65535],
			[858,914,65535],
			[858,915,906],
			[858,355,910],
			[858,355,875],
			[858,355,911],
			[858,355,907],
			[858,355,910],
			[858,355,875],
			[858,355,875]
		],
		[
			[403,387,65535],
			[403,386,65535],
			[403,381,65535],
			[403,65535,65535],
			[403,65535,65535],
			[403,65535,65535],
			[403,65535,65535],
			[403,65535,65535],
			[865,65535,65535],
			[902,65535,65535],
			[903,914,65535],
			[858,915,874],
			[858,355,875],
			[858,915,876],
			[858,915,65535],
			[858,915,906],
			[858,355,910],
			[858,355,875]
		],
		[
			[403,386,65535],
			[403,387,65535],
			[403,383,65535],
			[403,376,65535],
			[403,1930,65535],
			[403,1931,65535],
			[403,65535,65535],
			[403,65535,65535],
			[862,65535,65535],
			[869,1770,65535],
			[902,65535,65535],
			[903,65535,906],
			[858,355,910],
			[903,65535,876],
			[903,1197,65535],
			[903,914,65535],
			[903,915,874],
			[858,355,875]
		],
		[
			[403,387,65535],
			[403,386,65535],
			[403,387,65535],
			[403,383,65535],
			[403,376,65535],
			[403,1169,65535],
			[403,65535,65535],
			[403,65535,65535],
			[403,65535,65535],
			[862,65535,65535],
			[869,65535,65535],
			[858,914,65535],
			[858,915,906],
			[858,65535,908],
			[858,65535,65535],
			[902,65535,65535],
			[903,65535,874],
			[858,355,875]
		],
		[
			[403,386,65535],
			[403,387,65535],
			[403,386,65535],
			[403,385,65535],
			[379,65535,65535],
			[403,65535,65535],
			[403,65535,65535],
			[403,65535,65535],
			[403,1580,65535],
			[859,65535,65535],
			[867,65535,871],
			[902,65535,873],
			[903,914,65535],
			[858,916,871],
			[858,65535,873],
			[858,65535,65535],
			[858,65535,906],
			[858,355,910]
		],
		[
			[403,387,65535],
			[403,386,65535],
			[403,385,65535],
			[379,65535,65535],
			[403,65535,65535],
			[403,65535,65535],
			[403,65535,65535],
			[1579,65535,65535],
			[403,65535,65535],
			[865,65535,871],
			[858,355,877],
			[858,65535,876],
			[902,65535,65535],
			[904,65535,874],
			[858,355,878],
			[858,65535,873],
			[858,914,914],
			[915,915,874]
		],
		[
			[403,386,65535],
			[403,385,65535],
			[379,65535,944],
			[858,65535,945],
			[403,65535,946],
			[403,65535,65535],
			[403,65535,65535],
			[403,65535,65535],
			[403,65535,65535],
			[865,65535,874],
			[858,65535,875],
			[858,65535,876],
			[858,65535,65535],
			[858,65535,906],
			[858,65535,907],
			[858,65535,908],
			[902,65535,65535],
			[903,355,874]
		],
		[
			[403,387,65535],
			[403,381,65535],
			[403,65535,941],
			[863,65535,900],
			[1577,1580,943],
			[403,65535,65535],
			[1578,65535,65535],
			[403,65535,65535],
			[403,65535,65535],
			[865,65535,906],
			[403,355,907],
			[858,65535,908],
			[858,65535,65535],
			[858,914,65535],
			[858,915,65535],
			[858,916,871],
			[858,65535,872],
			[858,355,877]
		],
		[
			[403,386,65535],
			[403,381,65535],
			[403,65535,65535],
			[403,65535,1023],
			[1579,65535,65535],
			[403,65535,65535],
			[403,65535,65535],
			[403,65535,65535],
			[859,65535,65535],
			[867,914,65535],
			[403,915,65535],
			[858,916,65535],
			[858,1773,65535],
			[902,65535,65535],
			[903,65535,65535],
			[904,65535,874],
			[858,355,875],
			[858,355,875]
		],
		[
			[403,387,65535],
			[403,383,65535],
			[403,376,65535],
			[403,901,65535],
			[403,65535,65535],
			[403,65535,65535],
			[403,65535,65535],
			[403,1580,65535],
			[865,65535,65535],
			[902,65535,65535],
			[903,65535,65535],
			[904,65535,65535],
			[858,65535,65535],
			[858,65535,871],
			[858,65535,872],
			[858,355,877],
			[858,355,875],
			[858,355,875]
		],
		[
			[403,386,65535],
			[403,387,65535],
			[403,381,65535],
			[403,65535,65535],
			[403,65535,65535],
			[403,65535,65535],
			[403,65535,65535],
			[1577,65535,65535],
			[865,65535,65535],
			[870,65535,65535],
			[863,65535,65535],
			[863,65535,65535],
			[869,65535,871],
			[858,355,877],
			[858,355,875],
			[858,355,875],
			[858,355,875],
			[858,355,875]
		],
		[
			[403,387,65535],
			[403,386,65535],
			[403,381,65535],
			[403,65535,65535],
			[403,65535,65535],
			[403,65535,944],
			[858,65535,945],
			[403,65535,946],
			[862,65535,65535],
			[864,65535,65535],
			[858,842,65535],
			[858,848,65535],
			[858,848,906],
			[858,355,907],
			[858,355,907],
			[858,355,910],
			[858,355,875],
			[858,355,875]
		],
		[
			[403,386,65535],
			[403,387,65535],
			[403,851,65535],
			[1577,848,65535],
			[403,848,65535],
			[403,843,941],
			[863,65535,900],
			[1578,65535,943],
			[403,842,65535],
			[862,848,65535],
			[869,841,65535],
			[859,65535,65535],
			[860,914,65535],
			[858,915,65535],
			[858,915,65535],
			[858,915,874],
			[858,355,875],
			[858,355,875]
		],
		[
			[403,387,65535],
			[403,385,65535],
			[379,65535,65535],
			[403,65535,65535],
			[403,65535,65535],
			[403,840,65535],
			[403,848,1023],
			[403,848,65535],
			[859,841,65535],
			[859,65535,65535],
			[860,65535,65535],
			[867,65535,65535],
			[902,65535,65535],
			[903,65535,65535],
			[903,65535,65535],
			[903,65535,874],
			[858,355,875],
			[858,355,875]
		],
		[
			[403,386,65535],
			[403,381,65535],
			[403,65535,65535],
			[403,65535,65535],
			[403,65535,65535],
			[1579,65535,65535],
			[403,901,65535],
			[403,65535,65535],
			[859,1580,65535],
			[867,65535,65535],
			[858,65535,65535],
			[858,65535,65535],
			[858,65535,871],
			[858,65535,872],
			[858,65535,872],
			[858,355,877],
			[858,355,875],
			[858,355,875]
		],
		[
			[403,387,65535],
			[403,381,65535],
			[403,65535,65535],
			[403,65535,65535],
			[403,65535,65535],
			[403,65535,65535],
			[403,65535,65535],
			[859,65535,65535],
			[867,65535,65535],
			[858,65535,65535],
			[858,65535,65535],
			[858,65535,871],
			[858,355,877],
			[858,355,875],
			[858,355,875],
			[858,355,875],
			[858,355,875],
			[858,355,875]
		]
	]
}
