[
	{
		"name": "Light Saber",
		"images": [
			65535,
			65535,
			65535,
			65535,
			65535,
			65535,
			65535,
			510,
			1746,
			1749,
			1747,
			1044,
			1750,
			1043,
			1039,
			1040,
			1746,
			1751,
			1748,
			1046,
			1752,
			1045,
			1041,
			1042
		]
	},
]
