[
	{
		"name": "ST- Patrol",
		"images": [
			1311,
			1722,
			1311,
			1310,
			1722,
			1311,
			1312,
			1722,
			65535,
			65535,
			65535,
			65535,
			65535,
			65535,
			65535,
			65535,
			65535,
			65535,
			65535,
			65535,
			65535,
			65535,
			65535,
			65535
		]
	},
]
