[
	{
		"name": "DesertBeetle",
		"images": [
			1363,
			1366,
			1363,
			1365,
			1365,
			1364,
			1366,
			1366,
			65535,
			65535,
			65535,
			65535,
			65535,
			65535,
			65535,
			65535,
			65535,
			65535,
			65535,
			65535,
			65535,
			65535,
			65535,
			65535
		]
	},
]
