[
	{
		"name": "LittleRancor",
		"images": [
			1801,
			1595,
			1801,
			1802,
			1595,
			1801,
			1803,
			1595,
			65535,
			65535,
			65535,
			65535,
			65535,
			65535,
			65535,
			65535,
			65535,
			65535,
			65535,
			65535,
			65535,
			65535,
			65535,
			65535
		]
	},
]
