[
	{
		"name": "RancorHead",
		"images": [
			1797,
			1797,
			1797,
			1591,
			1591,
			1797,
			1591,
			1591,
			65535,
			65535,
			65535,
			65535,
			65535,
			65535,
			65535,
			65535,
			65535,
			65535,
			65535,
			65535,
			65535,
			65535,
			65535,
			65535
		]
	},
]
