[
	{
		"name": "RancorBody",
		"images": [
			1799,
			1799,
			1799,
			1593,
			1593,
			1593,
			1593,
			1593,
			65535,
			65535,
			65535,
			65535,
			65535,
			65535,
			65535,
			65535,
			65535,
			65535,
			65535,
			65535,
			65535,
			65535,
			65535,
			65535
		]
	},
]
