[
	{
		"name": "Probot-desert",
		"images": [
			793,
			793,
			793,
			793,
			793,
			793,
			793,
			793,
			65535,
			65535,
			65535,
			65535,
			65535,
			65535,
			65535,
			65535,
			65535,
			65535,
			65535,
			65535,
			65535,
			65535,
			65535,
			65535
		]
	},
]
