[
	{
		"name": "Jigokiller",
		"images": [
			1745,
			1744,
			1744,
			1745,
			1745,
			1744,
			1744,
			1745,
			65535,
			65535,
			65535,
			65535,
			65535,
			65535,
			65535,
			65535,
			65535,
			65535,
			65535,
			65535,
			65535,
			65535,
			65535,
			65535
		]
	},
]
