[
	{
		"name": "SnowWorm",
		"images": [
			1881,
			1880,
			1882,
			1882,
			1880,
			1883,
			1883,
			1880,
			65535,
			65535,
			65535,
			65535,
			65535,
			65535,
			65535,
			65535,
			65535,
			65535,
			65535,
			65535,
			65535,
			65535,
			65535,
			65535
		]
	},
]
