[
	{
		"name": "ImpOff-Grey-M",
		"images": [
			1838,
			1852,
			1838,
			1840,
			1852,
			1838,
			1839,
			1852,
			65535,
			65535,
			65535,
			65535,
			65535,
			65535,
			65535,
			65535,
			65535,
			65535,
			65535,
			65535,
			65535,
			65535,
			65535,
			65535
		]
	},
]
